z	T	P	nabla_ad	S	rho	delta	cp	cv
25050.1	6155.604	11593.116	0.384025583736	152691.442871	0.000295812071727	1.00594723225	16657.3148521	10217.3583984
50100.199	6723.5381	13711.992	0.366573506295	153113.94043	0.000320126247288	1.01075851917	17497.1401282	10992.1264648
75150.297	7445.5601	15962.284	0.324003797228	154031.030273	0.0003359428149	1.02880585194	20072.7579179	13326.6708374
100200.4	8161.0977	18301.619	0.266692185195	155194.165039	0.000350019035977	1.06890952587	25272.4180798	17975.3097534
125250.5	8763.9639	20742.387	0.219459555395	156390.905762	0.000367106508747	1.12800431252	32469.3523205	24317.0166016
150300.59	9253.1494	23311.635	0.187726327206	157532.177734	0.000387743313013	1.1965085268	40486.8902211	31277.2003174
175350.7	9657.0098	26032.324	0.167085199228	158586.657715	0.000411369853737	1.26739120483	48548.3537555	38169.2565918
200400.8	10000.5	28923.258	0.153317799425	159543.518066	0.0004374963396	1.3365136385	56264.7692301	44669.0856934
225450.91	10300.474	31999.869	0.143702103627	160432.299805	0.000465809335992	1.40270233154	63569.0410372	50735.6536865
250501.0	10568.247	35277.121	0.136740794758	161261.303711	0.000496143286455	1.46549427509	70439.7474476	56364.6606445
275551.09	10811.237	38767.641	0.131582631072	162030.59082	0.000528423470314	1.52442443371	76845.4487303	61543.2434082
300601.19	11035.002	42486.152	0.127696720289	162726.257324	0.000562678735605	1.5789167881	82736.7932693	66244.4519043
325651.31	11243.127	46444.254	0.124715322376	163361.218262	0.000598904307481	1.62926363945	88162.2663371	70520.5871582
350701.41	11438.618	50656.238	0.122377892113	163966.821289	0.000637052607999	1.67670631409	93242.3961293	74474.4445801
375751.5	11623.666	55136.105	0.120527611754	164541.723633	0.000677166838159	1.72095394135	97986.7887108	78126.3305664
400801.59	11799.819	59896.273	0.119063615786	165073.864746	0.000719330216725	1.76198959351	102373.356819	81463.3056641
425851.72	11968.568	64952.855	0.117915079633	165545.385742	0.00076368792179	1.79975163937	106367.211592	84460.8459473
450901.81	12130.829	70318.82	0.117004922331	165990.551758	0.000810188168998	1.83477818966	110075.15579	87214.0808105
475951.91	12287.502	76009.008	0.116277336778	166425.561523	0.000858825387695	1.86799347401	113602.774841	89809.1308594
501002.0	12439.425	82041.719	0.115702793041	166842.358398	0.000909710536234	1.89890956879	116889.813474	92201.6113281
526052.13	12587.018	88428.742	0.115268057683	167226.733398	0.000962950366556	1.92720711231	119885.924509	94354.7119141
551102.19	12730.833	95187.688	0.114962946461	167563.85498	0.00101873172298	1.95345818996	122622.973966	96291.9921875
576152.31	12871.404	102338.75	0.114744766387	167887.060547	0.00107699327145	1.97816586494	125191.16165	98088.8183594
601202.38	13008.924	109893.84	0.114596541217	168206.469727	0.00113770352073	2.00112581253	127587.62471	99747.9064941
626252.5	13143.767	117872.25	0.114521208806	168519.116211	0.00120095171496	2.0226931572	129840.75477	101290.509033
651302.63	13276.299	126296.08	0.114514792797	168814.135742	0.00126691497826	2.04297375679	131946.775106	102713.427734
676352.69	13406.634	135179.53	0.11456743031	169069.262695	0.00133582125272	2.06140732765	133825.390502	103957.165527
701402.81	13534.994	144541.72	0.11465919546	169300.366211	0.00140765837386	2.07821202278	135519.709664	105058.654785
726452.88	13661.642	154406.52	0.114785564142	169539.697266	0.00148227945829	2.09438538551	137167.406882	106123.803711
751503.0	13786.704	164793.17	0.114947407562	169781.591797	0.00155978614202	2.10979151726	138748.246143	107137.219238
776553.13	13910.255	175717.83	0.115141181297	170014.477539	0.0016403250811	2.12400984764	140206.482401	108057.592773
801603.19	14032.497	187206.11	0.11536443939	170223.571777	0.00172416002897	2.13675570488	141492.455835	108847.290039
826653.31	14153.619	199285.61	0.115622977985	170399.21875	0.00181152222467	2.14846158028	142633.341636	109524.438477
851703.44	14273.559	211967.25	0.115905568071	170574.609375	0.00190209891571	2.15963339806	143720.664729	110160.72998
876753.5	14392.472	225277.5	0.116206024721	170756.933594	0.00199591636374	2.17013168335	144751.344657	110755.67627
901803.63	14510.509	239245.55	0.116521443059	170939.379883	0.00209316476685	2.17968034744	145691.345151	111284.863281
926853.69	14627.73	253895.23	0.11685753686	171116.967773	0.00219396520151	2.18844413757	146549.529146	111754.174805
951903.81	14744.124	269242.78	0.117216471001	171278.759766	0.00229846796174	2.19653773308	147322.097684	112159.399414
976953.94	14859.81	285318.66	0.11759283329	171409.460449	0.00240708277488	2.20384931564	147979.316802	112477.661133
1002004.0	14974.897	302155.38	0.117978827683	171537.524414	0.00251956544162	2.21052718163	148571.346853	112748.925781
1027054.1	15089.386	319774.0	0.118375221691	171673.925781	0.00263578704107	2.21658587456	149115.134797	112987.487793
1052104.3	15203.284	338195.75	0.118788699114	171817.602539	0.00275576849162	2.22219872475	149626.156644	113204.296875
1077154.3	15316.685	357454.31	0.119216866196	171960.253906	0.00287976808977	2.22727203369	150082.347934	113382.373047
1102204.4	15429.681	377585.66	0.119656418688	172091.210938	0.00300811916532	2.2317173481	150460.883268	113504.125977
1127254.5	15542.259	398610.97	0.120103089891	172197.375488	0.0031411323107	2.23549699783	150744.407004	113556.298828
1152304.6	15654.42	420553.47	0.120560745622	172287.634277	0.00327870202455	2.23886871338	150973.034865	113569.042969
1177354.8	15766.238	443450.03	0.12102993453	172389.562988	0.00342044540957	2.2419219017	151184.594322	113571.826172
1202404.8	15877.783	467339.44	0.121509294469	172499.21875	0.00356656892109	2.24456596375	151363.356346	113553.076172
1227454.9	15989.053	492249.09	0.121996270454	172610.668945	0.00371725946025	2.24671363831	151491.695868	113499.658203
1252505.0	16100.03	518198.69	0.122492474005	172719.421387	0.00387260661228	2.24838972092	151567.409161	113409.594727
1277555.1	16210.775	545227.94	0.123000723288	172819.873047	0.00403285184802	2.24970316887	151597.753349	113287.756348
1302605.3	16321.343	573378.63	0.123516190403	172900.45166	0.00419846219302	2.25071763992	151577.311568	113129.309082
1327655.3	16431.771	602691.75	0.124035350529	172966.845703	0.00436949449067	2.25145983696	151515.687464	112941.833496
1352705.4	16541.988	633176.25	0.124559588742	173041.503906	0.00454534165328	2.25181818008	151425.179223	112736.352539
1377755.5	16652.049	664874.25	0.125094947759	173125.463867	0.00472602687296	2.25180411339	151308.915765	112515.222168
1402805.6	16762.0	697830.25	0.125641702785	173214.953613	0.00491177615913	2.2514398098	151163.53662	112275.427246
1427855.8	16871.881	732090.56	0.126197358845	173303.955078	0.00510292193212	2.25073766708	150982.624094	112011.755371
1452905.8	16981.672	767680.63	0.126758181415	173385.205078	0.00529973249286	2.24971747398	150760.677496	111719.86084
1477955.9	17091.365	804626.44	0.127322433898	173452.038574	0.00550245204067	2.24844741821	150499.492911	111400.952148
1503006.0	17200.998	842974.56	0.12789120193	173501.098633	0.00571132750338	2.24704885483	150210.788553	111063.391113
1528056.1	17310.602	882773.5	0.12846770273	173554.370117	0.00592582864556	2.245418787	149905.067661	110715.893555
1553106.3	17420.223	924075.0	0.129052188073	173615.466309	0.00614599593973	2.24349689484	149578.497289	110355.639648
1578156.4	17529.807	966892.75	0.129642785522	173681.176758	0.00637188350083	2.24126625061	149225.377593	109978.405762
1603206.4	17639.361	1011264.5	0.130243520963	173750.610352	0.00660352498016	2.23870277405	148843.286571	109582.739258
1628256.5	17748.92	1057241.6	0.130854005405	173820.080566	0.00684119731886	2.23586797714	148433.506314	109169.189453
1653306.6	17858.523	1104878.0	0.131470577707	173883.691406	0.00708531888449	2.23285365105	147998.768852	108739.074707
1678356.8	17968.191	1154228.3	0.132088303921	173934.399414	0.00733639808459	2.22977256775	147543.984275	108295.239258
1703406.9	18077.867	1205302.4	0.132703750194	173967.443848	0.0075945908975	2.22670817375	147075.761513	107842.358398
1728456.9	18187.58	1258144.5	0.133327831919	174004.272461	0.00785901465861	2.22343945503	146591.640089	107379.980469
1753507.0	18297.352	1312809.5	0.133962004179	174049.291992	0.00812962662167	2.21991252899	146089.780403	106907.116699
1778557.1	18407.199	1369353.0	0.134604622605	174099.829102	0.00840670327307	2.2161397934	145568.665374	106422.521973
1803607.3	18517.156	1427835.4	0.135253523286	174152.758789	0.0086905729404	2.21214342117	145027.379181	105925.32959
1828657.4	18627.191	1488278.3	0.13591097433	174206.567383	0.0089811928774	2.20789313316	144462.597756	105413.378906
1853707.4	18737.293	1550713.5	0.136576351327	174258.081055	0.00927871224121	2.20343804359	143876.90213	104888.342285
1878757.5	18847.492	1615201.5	0.137245454965	174302.490234	0.00958358941716	2.19889807701	143278.140652	104355.395508
1903807.6	18957.809	1681802.4	0.137913056493	174334.16748	0.00989635009319	2.19441175461	142675.5343	103820.605469
1928857.8	19068.25	1750576.8	0.138577935287	174353.930664	0.0102171743492	2.19000077248	142072.421362	103286.462402
1953907.9	19178.83	1821577.9	0.139253287288	174380.371094	0.0105450217234	2.1853454113	141451.91223	102742.102051
1978957.9	19289.516	1894811.8	0.139938849087	174413.635254	0.0108797448775	2.18045759201	140814.525908	102187.70752
2004008.0	19400.316	1970338.1	0.140632816559	174451.464844	0.0112216275738	2.17538356781	140162.486484	101624.523926
2029058.1	19511.262	2048222.5	0.141333177341	174491.394043	0.0115710008686	2.17017555237	139498.090946	101053.735352
2054108.3	19622.361	2128529.3	0.142042838424	174532.202148	0.0119280211948	2.16478133202	138814.123558	100469.970703
2079158.4	19733.617	2211323.3	0.14276111989	174571.459961	0.0122929732242	2.15923953056	138113.231927	99875.1220703
2104208.5	19845.035	2296639.8	0.143482383187	174605.493164	0.0126661716422	2.15368676186	137407.880735	99278.1188965
2129258.5	19956.598	2384502.5	0.144200024286	174630.102539	0.0130479456857	2.14826488495	136710.881953	98688.0981445
2154308.5	20068.313	2474976.0	0.144909899109	174641.625977	0.013438761016	2.14304018021	136028.173516	98109.4482422
2179358.8	20180.209	2568132.8	0.145628456168	174654.284668	0.0138375862662	2.13760328293	135328.593767	97520.8068848
2204408.8	20292.281	2664037.3	0.146359629165	174673.193359	0.0142441658681	2.13187813759	134607.423425	96918.8598633
2229459.0	20404.543	2762763.3	0.147102205405	174697.192383	0.014658742657	2.12591457367	133868.592369	96306.2927246
2254509.0	20516.986	2864339.5	0.147854419145	174724.902344	0.0150813630171	2.11977601051	133116.483542	95685.8764648
2279559.0	20629.596	2968792.0	0.148614175815	174754.797363	0.0155121088028	2.1135263443	132356.362195	95061.2182617
2304609.3	20742.4	3076196.0	0.149379205927	174784.887695	0.0159513256222	2.10723471642	131593.077097	94435.4736328
2329659.3	20855.398	3186619.0	0.150146584567	174812.841797	0.016399379092	2.10097384453	130832.383175	93812.5427246
2354709.5	20968.594	3300133.8	0.15091272192	174836.047363	0.0168567112269	2.09482121468	130080.387334	93196.6308594
2379759.5	21082.002	3416818.0	0.151673663014	174851.611328	0.0173238076968	2.08885788918	129343.883476	92592.4682617
2404809.5	21195.607	3536720.8	0.152424422917	174856.274414	0.0178011050593	2.08317065239	128630.34573	92005.3344727
2429859.8	21309.416	3659852.3	0.153171642936	174857.568359	0.0182877247425	2.07759261131	127928.174692	91427.3986816
2454909.8	21423.434	3786283.3	0.153933625578	174864.306641	0.0187826954061	2.07171845436	127201.677476	90833.8562012
2479960.0	21537.658	3916085.8	0.154710371749	174875.90332	0.0192861625692	2.06556224823	126451.79701	90225.3112793
2505010.0	21652.109	4049341.8	0.155499804434	174891.40625	0.0197983681574	2.05918169022	125684.025707	89605.6274414
2530060.0	21766.779	4186124.3	0.156299361716	174909.509277	0.0203196050279	2.05264306068	124904.16323	88978.7963867
2555110.3	21881.672	4326515.5	0.157106312961	174928.881836	0.02085019878	2.04601454735	124118.176198	88348.8891602
2580160.3	21996.785	4470526.0	0.157917501503	174948.168945	0.0213901603274	2.03936576843	123332.401933	87720.324707
2605210.5	22112.113	4618198.0	0.158729517183	174965.661621	0.021939715225	2.03276968002	122553.331997	87097.6257324
2630260.5	22227.68	4769615.5	0.159538614599	174979.467773	0.0224992709263	2.02630329132	121787.445538	86485.144043
2655310.5	22343.475	4924851.5	0.160340370978	174987.353516	0.0230693003687	2.02004432678	121041.543958	85887.6586914
2680360.8	22459.506	5083990.5	0.161130093939	174986.901855	0.0236503419728	2.01407623291	120322.627349	85309.942627
2705410.8	22575.771	5247111.5	0.161913145028	174981.738281	0.0242420865106	2.00827765465	119620.679961	84745.0622559
2730461.0	22692.262	5414295.0	0.162709474234	174980.34668	0.0248433934757	2.00224852562	118900.072145	84168.2495117
2755511.0	22808.996	5585546.5	0.163518622033	174982.910156	0.0254539663729	1.9960103035	118162.844617	83580.8776855
2780561.0	22925.967	5760915.5	0.164338446211	174988.696289	0.0260738979705	1.98961293697	117413.628986	82986.1633301
2805611.3	23043.188	5940492.0	0.165166623481	174997.033691	0.026703452022	1.98310804367	116657.310216	82387.5305176
2830661.3	23160.652	6124351.0	0.166000535881	175007.006836	0.0273428813671	1.97655236721	115898.844473	81788.3605957
2855711.5	23278.361	6312577.5	0.166837283943	175017.578125	0.0279924934148	1.97000038624	115143.328721	81192.2485352
2880761.5	23396.316	6505258.0	0.167673836063	175027.612305	0.028652655601	1.96350955963	114396.011256	80602.8808594
2905811.5	23514.502	6702469.0	0.168506633232	175035.778809	0.0293237262667	1.95714044571	113662.287315	80024.005127
2930861.8	23632.941	6904254.0	0.169332320266	175040.917969	0.0300058436551	1.95094883442	112947.402112	79459.3139648
2955911.8	23751.629	7110628.5	0.170146990016	175041.516113	0.0306991569232	1.9449942112	112256.689176	78912.5427246
2980962.0	23870.576	7321686.5	0.17095555763	175036.035156	0.0314039461955	1.93917751312	111579.367954	78376.1108398
3006012.0	23989.777	7537505.5	0.171765712823	175025.756836	0.0321199659084	1.93335139751	110901.495828	77840.2770996
3031062.0	24109.23	7758171.5	0.172584648404	175018.225098	0.0328462119796	1.92739343643	110215.008554	77299.5605469
3056112.3	24228.939	7983779.5	0.173411243941	175013.696289	0.0335827862727	1.92133128643	109522.425105	76755.6274414
3081162.3	24348.885	8214402.0	0.174243348886	175011.694336	0.0343298816006	1.91520571709	108827.403563	76210.9802246
3106212.5	24469.08	8450148.0	0.175078976017	175011.767578	0.0350877817255	1.90905940533	108133.458244	75667.9504395
3131262.5	24589.527	8690980.0	0.175916016047	175013.647461	0.0358561155736	1.90293180943	107444.372572	75129.1564941
3156312.8	24710.244	8936989.0	0.176751995648	175016.73584	0.0366351378034	1.89686536789	106763.835587	74597.1252441
3181362.8	24831.219	9188248.0	0.177584138254	175020.288086	0.0374250812456	1.89090359211	106095.794401	74074.5849609
3206412.8	24952.453	9444851.0	0.178409596703	175023.486328	0.0382263096981	1.88508939743	105444.134713	73564.2944336
3231463.0	25073.945	9706890.0	0.179227691466	175025.268555	0.039039136027	1.87941873074	104808.297901	73065.9118652
3256513.0	25195.686	9974443.0	0.180045749082	175024.389648	0.0398637275794	1.87375307083	104174.200485	72569.708252
3281563.3	25317.678	10247616.0	0.180862651456	175019.897461	0.0407004117733	1.86810994148	103543.102809	72076.5197754
3306613.3	25439.902	10526481.0	0.181676030057	175010.852051	0.0415494796471	1.8625279665	102918.407372	71588.6535645
3331663.3	25562.396	10811044.0	0.182484529966	174996.826172	0.0424106983701	1.85703730583	102302.664204	71107.7819824
3356713.5	25685.15	11101359.0	0.183292968685	174983.520508	0.0432829983765	1.851552248	101690.770426	70630.5480957
3381763.5	25808.172	11397528.0	0.184102460649	174973.010254	0.0441661250079	1.84605884552	101082.271498	70156.6345215
3406813.8	25931.449	11699632.0	0.184911014607	174965.05127	0.0450602456112	1.8405880928	100479.909306	69687.9089355
3431863.8	26054.984	12007767.0	0.185716981635	174959.326172	0.0459655711893	1.83517205715	99886.3286259	69226.1291504
3456913.8	26178.77	12322020.0	0.186518127056	174955.480957	0.0468822981929	1.82984364033	99304.4647183	68773.2971191
3481964.0	26302.803	12642490.0	0.187313080097	174952.978516	0.0478106885566	1.82462024689	98735.6106349	68330.2856445
3507014.0	26427.074	12969265.0	0.18810663806	174950.78125	0.0487510114908	1.81939888	98169.9308518	67890.4602051
3532064.3	26551.592	13302392.0	0.188899427578	174948.449707	0.0497032160638	1.81417000294	97606.1517287	67452.8930664
3557114.3	26676.373	13641884.0	0.18969084623	174945.76416	0.0506670949108	1.80895447731	97045.8572027	67018.560791
3582164.3	26801.412	13987822.0	0.190479754387	174942.285156	0.0516428335686	1.80377697945	96490.8397273	66588.6108398
3607214.5	26926.715	14340318.0	0.191265011893	174937.475586	0.0526307121618	1.79866182804	95942.95792	66164.2456055
3632264.5	27052.264	14699437.0	0.19204523331	174930.737305	0.0536308798473	1.79363489151	95404.2150991	65746.7712402
3657314.8	27178.068	15065303.0	0.192818974586	174921.447754	0.0546437186131	1.78872287273	94876.6326809	65337.5061035
3682364.8	27304.109	15437978.0	0.193584643435	174908.850098	0.0556694285478	1.78395295143	94362.2505266	64937.7624512
3707414.8	27430.396	15817587.0	0.194341414304	174892.944336	0.0567082097405	1.77933979034	93862.4673091	64548.5046387
3732465.0	27556.912	16204205.0	0.195092708834	174878.503418	0.0577590362809	1.77480995655	93373.0502357	64167.0593262
3757515.0	27683.672	16597885.0	0.195841385018	174865.783691	0.0588216935284	1.7702742815	92886.9723466	63788.9526367
3782565.3	27810.686	16998632.0	0.196588070884	174854.711914	0.0598959522904	1.76572370529	92403.1693536	63413.4155273
3807615.3	27937.955	17406548.0	0.197332989069	174845.178223	0.0609818816883	1.76116812229	91922.1479419	63040.6738281
3832665.3	28065.473	17821716.0	0.198075884672	174836.987305	0.0620796345174	1.75662064552	91444.6845627	62671.1791992
3857715.5	28193.24	18244246.0	0.198816610232	174829.980469	0.0631893781247	1.75209462643	90971.675027	62305.46875
3882765.5	28321.246	18674216.0	0.199554750163	174823.925781	0.0643111925456	1.74760532379	90504.1121223	61944.1345215
3907815.8	28449.49	19111738.0	0.200289821383	174818.579102	0.065445274231	1.74317026138	90043.0830926	61587.8051758
3932865.8	28577.963	19556892.0	0.201021136363	174813.659668	0.06659180508	1.73880457878	89589.7432055	61237.2314453
3957915.8	28706.664	20009786.0	0.201748067924	174808.825684	0.0677509669913	1.73452806473	89145.4602465	60893.2617188
3982966.0	28835.586	20470516.0	0.202469192061	174803.540039	0.0689230073476	1.73034393787	88710.5036194	60556.1279297
4008016.0	28964.754	20939044.0	0.203182870707	174796.972656	0.0701077951817	1.72621500492	88282.4334399	60224.5422363
4033066.3	29094.17	21415464.0	0.203889961845	174788.635254	0.0713054905646	1.72214233875	87860.9179281	59898.1689453
4058116.3	29223.826	21899862.0	0.204590873762	174778.137207	0.0725162535673	1.71813213825	87446.0736097	59576.9897461
4083166.3	29353.723	22392338.0	0.205286171381	174765.014648	0.0737402733648	1.71419346333	87038.0841735	59260.9619141
4108216.5	29483.854	22892994.0	0.205976156035	174748.718262	0.0749778264435	1.71033513546	86637.2598469	58950.189209
4133266.5	29614.215	23401918.0	0.206663401549	174731.616211	0.076228279795	1.70652973652	86241.9193699	58643.5241699
4158316.8	29744.803	23919214.0	0.207350266535	174716.418457	0.0774909130996	1.70274591446	85850.2054577	58339.7094727
4183366.8	29875.613	24444974.0	0.208037213444	174703.088379	0.078765762737	1.69899272919	85462.712302	58039.0808105
4208417.0	30006.641	24979302.0	0.208724219152	174691.564941	0.0800529887783	1.69528126717	85079.9522965	57741.8762207
4233467.0	30137.881	25522290.0	0.209407852095	174681.311035	0.081352860434	1.69160604477	84702.2566147	57448.6328125
4258517.0	30269.359	26073908.0	0.210086254342	174671.99707	0.0826650866657	1.68795609474	84329.1737014	57159.2346191
4283567.0	30401.074	26634242.0	0.210760530077	174663.537598	0.0839896820253	1.68433010578	83960.2911695	56873.3276367
4308617.0	30533.023	27203388.0	0.211431559111	174655.786133	0.0853267702041	1.68072795868	83595.3009689	56590.6494141
4333667.5	30665.205	27781456.0	0.212100310411	174648.547363	0.0866764967213	1.67715167999	83234.0168287	56310.9741211
4358717.5	30797.613	28368520.0	0.21276747712	174641.674805	0.0880388906808	1.67360389233	82876.361156	56034.1918945
4383767.5	30930.244	28964688.0	0.21343385811	174634.94873	0.0894141485333	1.67008852959	82522.3077057	55760.1928711
4408817.5	31063.098	29570062.0	0.214100295196	174628.173828	0.0908023357624	1.66661095619	82171.8860271	55488.8793945
4433867.5	31196.168	30184734.0	0.214767278066	174621.09375	0.092203663371	1.66317856312	81825.344201	55220.324707
4458918.0	31329.455	30808824.0	0.215433892681	174613.354492	0.0936182914302	1.65979814529	81483.2061756	54954.888916
4483968.0	31462.949	31442398.0	0.216094526517	174604.150391	0.095046707429	1.65647661686	81146.867434	54693.8537598
4509018.0	31596.66	32085532.0	0.216749524028	174593.237305	0.0964888677117	1.65321362019	80816.0874834	54436.9995117
4534068.0	31730.602	32738210.0	0.217399714674	174580.310059	0.0979445467237	1.65000844002	80490.4689132	54183.972168
4559118.0	31864.777	33400548.0	0.21804579212	174565.063477	0.0994139554678	1.64686179161	80169.846297	53934.5947266
4584168.5	31999.184	34072636.0	0.218689221551	174547.912598	0.100896882941	1.64376354218	79853.4365855	53688.2873535
4609218.5	32133.816	34754568.0	0.219333798604	174531.958008	0.102392295958	1.64067161083	79538.7035078	53443.4082031
4634268.5	32268.67	35446428.0	0.219981009788	174517.456055	0.10390006355	1.63758075237	79225.1175884	53199.5300293
4659318.5	32403.75	36148348.0	0.22063200544	174504.406738	0.105420302134	1.63449084759	78912.3890506	52956.3720703
4684368.5	32539.045	36860388.0	0.22128733254	174492.712402	0.106953026261	1.63140261173	78600.45326	52713.8549805
4709419.0	32674.564	37582708.0	0.221942195286	174481.982422	0.108498672489	1.62832546234	78291.0180728	52473.4375
4734469.0	32810.289	38315332.0	0.222595345791	174471.972656	0.110057269922	1.62526226044	77984.3932207	52235.3942871
4759519.0	32946.23	39058416.0	0.223247646303	174462.609863	0.111629022285	1.62221372128	77680.1443898	51999.3347168
4784569.0	33082.379	39812016.0	0.223899956323	174453.759766	0.113213915029	1.61918056011	77377.9319673	51764.9353027
4809619.0	33218.766	40576120.0	0.224553516744	174445.471191	0.114811467938	1.61616098881	77077.2202716	51531.7321777
4834669.5	33355.391	41350820.0	0.225209235036	174437.561035	0.116421797429	1.61315703392	76777.7116731	51299.4140625
4859719.5	33492.246	42136196.0	0.225867869657	174429.931641	0.118044947158	1.61016857624	76479.0864451	51067.6849365
4884769.5	33629.336	42932356.0	0.226530465869	174422.436523	0.119680946227	1.60719704628	76181.0652731	50836.239624
4909819.5	33766.656	43739396.0	0.227197699457	174414.916992	0.121329954709	1.60424184799	75883.4105419	50604.8553467
4934869.5	33904.207	44557420.0	0.227866448864	174406.933594	0.122992263641	1.60131132603	75587.2165242	50374.395752
4959920.0	34041.988	45386532.0	0.228534564301	174398.193359	0.124668062199	1.5984082222	75293.2293858	50145.5108643
4984970.0	34179.992	46226816.0	0.229202024919	174388.48877	0.126357495901	1.59553408623	75001.5232923	49918.2495117
5010020.0	34318.215	47078360.0	0.229868935975	174377.587891	0.128060681163	1.59268987179	74712.0907019	49692.5964355
5035070.0	34456.664	47941300.0	0.230535405781	174365.283203	0.12977780716	1.58987653255	74425.0113406	49468.6126709
5060120.0	34595.324	48815692.0	0.231201469263	174351.306152	0.131508946652	1.58709669113	74140.3697619	49246.3439941
5085170.5	34734.211	49701680.0	0.231867290861	174335.412598	0.133254332468	1.58435201645	73858.2114194	49025.8270264
5110220.5	34873.344	50599160.0	0.232535359833	174318.994141	0.135012611281	1.58162426949	73577.3501829	48806.2652588
5135270.5	35012.727	51508276.0	0.233208845681	174303.857422	0.136783171911	1.57889056206	73296.1698442	48586.5509033
5160320.5	35152.359	52429104.0	0.233886504902	174289.807129	0.138566087116	1.57615423203	73015.1027585	48367.0196533
5185370.5	35292.238	53361748.0	0.23456669712	174276.660156	0.140361662488	1.57341849804	72734.4814039	48147.946167
5210421.0	35432.367	54306324.0	0.235249854368	174264.343262	0.142169854371	1.5706833601	72454.3100793	47929.3060303
5235471.0	35572.738	55262884.0	0.23593610004	174252.819824	0.14399063366	1.56794810295	72174.4818368	47711.0321045
5260521.0	35713.355	56231564.0	0.236625747032	174242.016602	0.145824116771	1.56521260738	71894.9501576	47493.0877686
5285571.0	35854.211	57212428.0	0.237319034719	174231.848145	0.147670303704	1.56247758865	71615.659849	47275.4058838
5310621.0	35995.313	58205616.0	0.238016396859	174222.216797	0.149529310875	1.55974256992	71336.5206494	47057.913208
5335671.5	36136.648	59211200.0	0.238718141207	174213.085938	0.15140112373	1.55700862408	71057.5042658	46840.5670166
5360721.5	36278.223	60229284.0	0.23942455505	174204.321289	0.153285815031	1.55427658558	70778.5305627	46623.2818604
5385771.5	36420.023	61259948.0	0.240134887169	174195.690918	0.15518363216	1.55154955387	70499.8150452	46406.2133789
5410821.5	36562.074	62303248.0	0.240848478584	174187.036133	0.157094473252	1.54882860184	70221.4953687	46189.4683838
5435871.5	36704.398	63359188.0	0.241565099379	174178.344727	0.159018061822	1.54611456394	69943.7182567	45973.1750488
5460922.0	36846.996	64427880.0	0.242284485836	174169.555664	0.160954339663	1.54340791702	69666.6559256	45757.4615479
5485972.0	36989.867	65509392.0	0.243006311333	174160.534668	0.162903408636	1.54071033001	69390.4882797	45542.46521
5511022.0	37133.008	66603804.0	0.243730269535	174151.135254	0.164865312399	1.53802239895	69115.3767061	45328.338623
5536072.0	37276.426	67711264.0	0.244456189096	174141.235352	0.166840152815	1.53534591198	68841.4430031	45115.1428223
5561122.0	37420.105	68831816.0	0.245183693812	174130.700684	0.168828002643	1.53268182278	68568.8620705	44903.024292
5586172.5	37564.063	69965616.0	0.245912946325	174119.396973	0.170828978298	1.53003156185	68297.6727509	44691.9921875
5611222.5	37708.281	71112696.0	0.246643620038	174106.982422	0.172843327164	1.52739441395	68027.6450562	44481.8603516
5636272.5	37852.766	72273176.0	0.247375293022	174093.237305	0.174871180207	1.52477359772	67759.0371227	44272.8149414
5661322.5	37997.512	73447160.0	0.248106916984	174078.051758	0.176912755705	1.52217435837	67492.2132448	44065.1062012
5686372.5	38142.512	74634712.0	0.248838541003	174061.645508	0.17896774807	1.51959526539	67227.1529557	43858.7188721
5711423.0	38287.777	75835992.0	0.249573364015	174045.812988	0.18103531329	1.51701486111	66962.4154209	43652.6885986
5736473.0	38433.281	77051000.0	0.25031144926	174030.761719	0.183115305845	1.5144327879	66698.0038807	43447.0245361
5761523.0	38579.094	78279776.0	0.251053206793	174016.61377	0.18520699814	1.51184892654	66433.8753837	43241.6717529
5786573.0	38725.207	79522360.0	0.251798254938	174003.344727	0.187310361071	1.50926482677	66170.1728451	43036.7553711
5811623.0	38871.625	80778864.0	0.25254714534	173990.856934	0.189425540157	1.50667953491	65906.6459963	42832.0617676
5836673.5	39018.352	82049400.0	0.253301039087	173978.942871	0.191552739125	1.50408875942	65642.7557666	42627.166748
5861723.5	39165.375	83333992.0	0.254059139518	173967.602539	0.193691812456	1.50149476528	65378.7574925	42422.2808838
5886773.5	39312.703	84632792.0	0.254821110198	173956.762695	0.195842934772	1.49889910221	65114.8911872	42217.5994873
5911823.5	39460.324	85945840.0	0.2555861389	173946.362305	0.198006033315	1.49630320072	64851.4094946	42013.3392334
5936873.5	39608.25	87273288.0	0.256353785122	173936.352539	0.200181122636	1.49370932579	64588.5342397	41809.677124
5961924.0	39756.469	88615216.0	0.257123408329	173926.68457	0.202368333703	1.49111926556	64326.549353	41606.829834
5986974.0	39904.98	89971672.0	0.257894415816	173917.321777	0.204567535548	1.48853468895	64065.6567025	41404.9682617
6012024.0	40053.781	91342776.0	0.258666647261	173908.178711	0.206778844586	1.48595738411	63806.0458422	41204.2327881
6037074.0	40202.867	92728600.0	0.259441543378	173899.023438	0.209002522752	1.48338139057	63546.8843578	41003.9855957
6062124.0	40352.238	94129272.0	0.260219110449	173889.72168	0.211238802876	1.48080766201	63288.2157543	40804.2419434
6087174.5	40501.887	95544856.0	0.260998770022	173880.297852	0.21348753944	1.47823870182	63030.3531257	40605.2368164
6112224.5	40651.848	96975376.0	0.261779798855	173870.703125	0.215748441406	1.47567558289	62773.513638	40407.144165
6137274.5	40802.145	98420840.0	0.262561834339	173860.961914	0.218021043111	1.47312045097	62517.933414	40210.1257324
6162324.5	40952.781	99881344.0	0.263344042342	173851.049805	0.220305344556	1.47057569027	62263.8881031	40014.3829346
6187374.5	41103.758	101356992.0	0.264125801923	173840.869141	0.222601374844	1.46804499626	62011.72305	39820.1721191
6212425.0	41255.066	102847856.0	0.264906159973	173830.371094	0.22490916308	1.46553134918	61761.6975073	39627.6702881
6237475.0	41406.711	104354024.0	0.265686076962	173819.335938	0.227228796575	1.46303117275	61513.3551803	39436.5386963
6262525.0	41558.684	105875568.0	0.266466655392	173807.543945	0.229560595471	1.46054184437	61266.3025238	39246.4904785
6287575.0	41710.988	107412600.0	0.267246844658	173794.970703	0.231904545217	1.45806586742	61020.7583654	39057.6751709
6312625.5	41863.625	108965232.0	0.268025912406	173781.506348	0.234260718571	1.45560824871	60777.0876545	38870.3125
6337675.5	42016.578	110533464.0	0.268802954798	173767.041016	0.236628955463	1.45317137241	60535.5404737	38684.6130371
6362725.5	42169.859	112117456.0	0.269578486034	173752.062988	0.239008964854	1.45075213909	60295.9016308	38500.3936768
6387775.5	42323.449	113717232.0	0.270354375121	173737.695312	0.24139994639	1.44834005833	60057.4782625	38317.1875
6412825.5	42477.359	115332944.0	0.271130238966	173723.974609	0.243801943725	1.44593632221	59820.4590748	38135.144043
6437876.0	42631.582	116964672.0	0.271906461621	173710.81543	0.246215087827	1.44354093075	59584.6057367	37954.0466309
6462926.0	42786.105	118612448.0	0.272684570962	173697.998047	0.248639611527	1.44114935398	59349.3362138	37773.4619141
6487976.0	42940.945	120276376.0	0.273464061935	173685.60791	0.251075427514	1.43876171112	59114.7913759	37593.5211182
6513026.0	43096.148	121956392.0	0.274244740656	173673.706055	0.253521662671	1.43637597561	58881.031443	37414.3035889
6538076.0	43251.73	123652640.0	0.275026282647	173662.365723	0.255978317	1.43399226665	58648.2356546	37235.9832764
6563126.5	43407.68	125365184.0	0.275807848328	173651.538086	0.2584453905	1.43161249161	58416.6354844	37058.7249756
6588176.5	43563.992	127094064.0	0.276588944036	173641.235352	0.260922766756	1.42923653126	58186.4071182	36882.699585
6613226.5	43720.668	128839400.0	0.277368918628	173631.445312	0.263410474872	1.42686641216	57957.8362182	36708.1420898
6638276.5	43877.699	130601232.0	0.278147936921	173622.143555	0.265908485744	1.42450082302	57730.7577049	36534.9121094
6663326.5	44035.094	132379696.0	0.27892737388	173613.037109	0.26841723593	1.42213618755	57504.6370707	36362.6159668
6688377.0	44192.844	134174864.0	0.279706677383	173604.11377	0.270936870947	1.41977548599	57279.6960145	36191.394043
6713427.0	44350.945	135986768.0	0.280485470849	173595.410156	0.273466925137	1.41742086411	57056.0592244	36021.3104248
6738477.0	44509.395	137815520.0	0.281263275466	173586.865234	0.276007514913	1.41507649422	56833.9715077	35852.5054932
6763527.0	44668.184	139661184.0	0.282039336862	173578.466797	0.27855875669	1.41274523735	56613.6516017	35685.1379395
6788577.0	44827.32	141523872.0	0.28281326615	173570.141602	0.281120359432	1.41042995453	56395.2555981	35519.2901611
6813627.5	44986.793	143403664.0	0.283584053319	173561.938477	0.283692526864	1.4081338644	56179.0251106	35355.1239014
6838677.5	45146.598	145300592.0	0.284352267535	173553.686523	0.286275346298	1.40585839748	55964.8347988	35192.5201416
6863727.5	45306.73	147214768.0	0.285118452897	173545.214844	0.28886916698	1.4036012888	55752.3254879	35031.2042236
6888777.5	45467.184	149146240.0	0.285882114142	173536.523438	0.291473930702	1.40136194229	55541.6255622	34871.3043213
6913827.5	45628.016	151095056.0	0.286643216568	173527.661133	0.294089113595	1.39913809299	55332.7029049	34712.8173828
6938878.0	45789.238	153061248.0	0.287401450169	173518.603516	0.296714220895	1.39692866802	55125.6416829	34555.8380127
6963928.0	45950.848	155044864.0	0.288156459953	173509.350586	0.299349136185	1.39473247528	54920.5557559	34400.4882812
6988978.0	46112.844	157045984.0	0.288907725538	173499.890137	0.301993917674	1.39254999161	54717.5810301	34246.862793
7014028.0	46275.219	159064672.0	0.289654697097	173490.148926	0.304648390738	1.39037847519	54516.8043118	34095.1049805
7039078.0	46437.977	161101040.0	0.290398121924	173479.980469	0.307312962832	1.38821709156	54318.0643323	33945.0927734
7064128.5	46601.109	163155152.0	0.291137915515	173469.226074	0.309987924993	1.38606631756	54121.2038497	33796.6827393
7089178.5	46764.613	165227056.0	0.291873871193	173457.836914	0.312673102599	1.38392865658	53926.3383266	33649.9267578
7114228.5	46928.488	167316832.0	0.292605514175	173445.812988	0.31536835013	1.38180649281	53733.5438376	33504.864502
7139278.5	47092.727	169424544.0	0.293333469476	173433.410645	0.31807331834	1.37969994545	53542.7382612	33361.3952637
7164328.5	47257.328	171550320.0	0.294058664728	173421.447754	0.320787454257	1.37760353088	53353.4758119	33219.2016602
7189379.0	47422.285	173694208.0	0.294781239188	173410.058594	0.323510670569	1.37551891804	53165.8544763	33078.3447266
7214429.0	47587.598	175856240.0	0.295500628017	173399.194336	0.326242647134	1.37344956398	52979.9068353	32938.7756348
7239479.0	47753.258	178036528.0	0.296217239611	173388.671875	0.328983936924	1.3713914156	52795.474031	32800.4547119
7264529.0	47919.258	180235104.0	0.296931091989	173378.479004	0.331734714564	1.36934494972	52612.5913236	32663.4002686
7289579.0	48085.602	182452112.0	0.297641972169	173368.62793	0.334494863637	1.36730849743	52431.2499199	32527.633667
7314629.5	48252.281	184687600.0	0.298349557967	173359.155273	0.337264413247	1.36528337002	52251.5403149	32393.2098389
7339679.5	48419.297	186941584.0	0.29905371404	173350.073242	0.340043246979	1.36326789856	52073.4733333	32260.1715088
7364729.5	48586.711	189214080.0	0.299754689224	173341.455078	0.342830404406	1.36126112938	51897.0462628	32128.5217285
7389779.5	48754.52	191505120.0	0.300452157035	173333.325195	0.345626031049	1.3592633009	51722.3065935	31998.3123779
7414829.5	48922.723	193814832.0	0.301145980596	173325.585938	0.348430301528	1.35727453232	51549.2037532	31869.4946289
7439880.0	49091.313	196143280.0	0.301836108539	173318.09082	0.351243594196	1.35529577732	51377.7289824	31742.074585
7464930.0	49260.281	198490464.0	0.302522293354	173310.839844	0.354065647116	1.353328228	51207.9209809	31616.0430908
7489980.0	49429.633	200856512.0	0.303204393817	173303.881836	0.356896198355	1.35137212276	51039.7997476	31491.3879395
7515030.0	49599.355	203241440.0	0.303882223381	173297.216797	0.3597351606	1.34942805767	50873.3956977	31368.1243896
7540080.0	49769.453	205645376.0	0.304555704022	173290.820312	0.362582446542	1.34749591351	50708.7537219	31246.2799072
7565130.5	49939.918	208068400.0	0.305224313422	173284.716797	0.36543776514	1.34557580948	50545.9181367	31125.881958
7590180.5	50110.742	210510496.0	0.305888056878	173278.857422	0.368301232811	1.34366822243	50384.9288175	31006.9519043
7615230.5	50281.926	212971792.0	0.306546358743	173273.095703	0.371173198801	1.341771245	50225.7902778	30889.5721436
7640280.5	50453.461	215452288.0	0.307199445001	173267.39502	0.374053866835	1.33988666534	50068.4529252	30773.6663818
7665330.5	50625.348	217952144.0	0.307847095195	173261.767578	0.376943178708	1.33801448345	49912.9277738	30659.2559814
7690381.0	50797.582	220471424.0	0.308489676642	173256.201172	0.379841250833	1.33615577221	49759.2307168	30546.3409424
7715431.0	50970.152	223010080.0	0.309127108659	173250.634766	0.382747675758	1.33431220055	49607.3347451	30434.8754883
7740481.0	51143.059	225568288.0	0.309759219174	173245.117188	0.385662860936	1.33248531818	49457.3143545	30324.8840332
7765531.0	51316.297	228146032.0	0.310386340084	173239.648438	0.388586369809	1.33067619801	49309.1230965	30216.3024902
7790581.0	51489.863	230743440.0	0.311007703148	173233.984375	0.391518988181	1.32888567448	49162.9448862	30109.2956543
7815631.5	51663.766	233360608.0	0.311623247014	173228.137207	0.394460686948	1.3271125555	49018.6775019	30003.793335
7840681.5	51838.047	235997376.0	0.31223316663	173222.167969	0.39741024375	1.3253569603	48876.2600523	29899.7070312
7865731.5	52012.703	238653936.0	0.312837661552	173216.064453	0.400367978727	1.3236181736	48735.6828459	29797.052002
7890781.5	52187.73	241330304.0	0.313436748505	173209.790039	0.40333342622	1.3218972683	48596.9560479	29695.81604
7915831.5	52363.125	244026544.0	0.314030281286	173203.381348	0.406306411605	1.32019293308	48460.0149324	29595.9747314
7940882.0	52538.887	246742800.0	0.314618419671	173196.765137	0.409287167713	1.31850504875	48324.8361452	29497.5006104
7965932.0	52715.004	249478960.0	0.315201303519	173189.84375	0.412275490817	1.31683647633	48191.5001468	29400.4425049
7990982.0	52891.477	252235216.0	0.315778362845	173182.519531	0.415271904785	1.31518614292	48059.959898	29304.7851562
8016032.0	53068.297	255011600.0	0.316349450147	173174.829102	0.418276409619	1.31355369091	47930.2777104	29210.5712891
8041082.0	53245.465	257808144.0	0.316914393301	173166.638184	0.421288830694	1.31193709373	47802.4101597	29117.8070068
8066132.5	53422.977	260625024.0	0.317472947119	173158.410645	0.424309168011	1.31033277512	47676.3271755	29026.5136719
8091182.5	53600.82	263462144.0	0.318025756703	173150.585938	0.427336723078	1.30873548985	47551.8107435	28936.5722656
8116232.5	53778.992	266319632.0	0.318572146766	173143.200684	0.430371670518	1.30714595318	47428.9281359	28848.0102539
8141282.5	53957.492	269197568.0	0.319112235371	173136.169434	0.433414359577	1.30556309223	47307.6664011	28760.8612061
8166332.5	54136.313	272095968.0	0.31964560776	173129.467773	0.43646467384	1.30398952961	47188.038403	28675.088501
8191383.0	54315.453	275015008.0	0.320172529493	173123.046875	0.439522962552	1.30242586136	47070.1151135	28590.7592773
8216433.0	54494.906	277954592.0	0.320692731729	173116.967773	0.442588556325	1.30087268353	46953.9099474	28507.8613281
8241483.0	54674.668	280914848.0	0.321206165027	173111.206055	0.445661571575	1.29933130741	46839.4510613	28426.4068604
8266533.0	54854.734	283895840.0	0.321712682154	173105.786133	0.448741891887	1.29780232906	46726.7935816	28346.4263916
8291583.0	55035.102	286897600.0	0.322212308847	173100.708008	0.451829168014	1.29628682137	46615.9738791	28267.9321289
8316633.5	55215.766	289920288.0	0.322702565046	173095.88623	0.454924331279	1.29478573799	46507.3084271	28191.2322998
8341683.5	55396.758	292963808.0	0.32318380629	173091.308594	0.458026508568	1.29329824448	46400.7598901	28116.2902832
8366733.5	55578.09	296028192.0	0.323657643492	173087.023926	0.461135583464	1.29182362556	46296.0436088	28042.8527832
8391784.0	55759.754	299113632.0	0.32412543286	173082.995605	0.464251730591	1.290361166	46192.9307176	27970.7122803
8416834.0	55941.742	302220032.0	0.324588597907	173079.272461	0.467374455184	1.28891050816	46091.1991242	27899.6612549
8441884.0	56124.055	305347488.0	0.325048957241	173075.830078	0.47050381545	1.28747153282	45990.6225411	27829.486084
8466934.0	56306.68	308496096.0	0.325507820197	173072.680664	0.473639578559	1.28604364395	45891.0296497	27760.0341797
8491984.0	56489.621	311665888.0	0.325964357907	173069.775391	0.476782384794	1.28462922573	45792.8757628	27691.7205811
8517034.0	56672.867	314856928.0	0.326417148157	173066.992188	0.479932117742	1.283228755	45696.2834584	27624.6459961
8542084.0	56856.418	318069280.0	0.326865695835	173064.355469	0.483089039335	1.28184235096	45601.0575674	27558.6120605
8567134.0	57040.266	321302976.0	0.327309015688	173061.914062	0.486252829432	1.28046882153	45507.0039212	27493.4356689
8592184.0	57224.406	324558112.0	0.32774636864	173059.619141	0.489423575345	1.27910864353	45413.9653742	27428.9428711
8617234.0	57408.836	327834720.0	0.328176828952	173057.470703	0.492601364385	1.27776062489	45321.7236932	27364.9414062
8642285.0	57593.559	331132960.0	0.328599616834	173055.517578	0.495786080137	1.2764248848	45230.15387	27301.2939453
8667335.0	57778.551	334452704.0	0.32901433305	173053.515625	0.498978362884	1.27510237694	45139.2873355	27238.0401611
8692385.0	57963.82	337794080.0	0.329421636752	173051.611328	0.502177863382	1.2737929821	45049.3138419	27175.3692627
8717435.0	58149.363	341157152.0	0.329822402644	173049.731445	0.505384639837	1.2724968195	44960.3763491	27113.4246826
8742485.0	58335.168	344542016.0	0.330217047255	173047.875977	0.508598634042	1.27121400833	44872.6664	27052.3956299
8767535.0	58521.238	347948672.0	0.330606539418	173046.069336	0.511819496751	1.26994383335	44786.3487986	26992.4468994
8792585.0	58707.566	351377216.0	0.330991596785	173044.335938	0.515047053341	1.26868700981	44701.6071631	26933.7432861
8817635.0	58894.148	354827712.0	0.331372682554	173042.602539	0.518281653058	1.26744425297	44618.4949981	26876.3122559
8842685.0	59080.984	358300160.0	0.331749136419	173040.783691	0.521523237694	1.26621639729	44536.8481803	26819.9707031
8867735.0	59268.063	361794688.0	0.332120240034	173038.891602	0.524772447534	1.26500380039	44456.6651746	26764.7216797
8892786.0	59455.422	365311392.0	0.33248555925	173036.92627	0.528028351255	1.26380395889	44377.8802523	26710.5529785
8917836.0	59643.047	368850016.0	0.332844339969	173034.936523	0.531290657818	1.26261663437	44300.5296814	26657.510376
8942886.0	59830.938	372410848.0	0.333195743157	173032.897949	0.534559425432	1.26144087315	44224.5682699	26605.581665
8967936.0	60019.09	375993888.0	0.33353934827	173030.810547	0.537834770512	1.26027643681	44150.0281326	26554.8095703
8992986.0	60207.504	379599168.0	0.333874201116	173028.613281	0.541116693057	1.25912368298	44077.0559253	26505.3405762
9018036.0	60396.164	383226784.0	0.334200193558	173026.196289	0.544406066183	1.25798475742	44005.6955726	26457.1746826
9043086.0	60585.074	386876768.0	0.334517805282	173023.596191	0.547702366021	1.2568590641	43935.90156	26410.2783203
9068136.0	60774.23	390549184.0	0.334827547972	173020.751953	0.551005883608	1.25574660301	43867.6436193	26364.6179199
9093186.0	60963.621	394244096.0	0.335129617206	173017.651367	0.554316327907	1.25464773178	43800.8751057	26320.135498
9118236.0	61153.25	397961536.0	0.335424399069	173014.306641	0.557634048164	1.25356173515	43735.5347601	26276.7883301
9143287.0	61343.113	401701728.0	0.335712337311	173010.705566	0.560958636925	1.25248873234	43671.5656593	26234.5184326
9168337.0	61533.191	405464448.0	0.33599382598	173006.933594	0.564290210605	1.25142836571	43608.9361476	26193.2952881
9193387.0	61723.496	409249824.0	0.336269532324	173003.417969	0.567627896089	1.25037884712	43547.5256766	26153.024292
9218437.0	61914.016	413057984.0	0.336539615721	173000.195312	0.570972100832	1.24933946133	43487.2821403	26113.6657715
9243487.0	62104.746	416888960.0	0.336804507746	172997.265625	0.574322417378	1.24831032753	43428.1722933	26075.1831055
9268537.0	62295.688	420742784.0	0.337064643332	172994.689941	0.577678903937	1.24729204178	43370.1840209	26037.5488281
9293587.0	62486.832	424619552.0	0.337320270747	172992.431641	0.581041560508	1.24628293514	43313.213571	26000.692749
9318637.0	62678.176	428519296.0	0.337570499153	172990.380859	0.584410969168	1.24528729916	43257.5140403	25964.7796631
9343687.0	62869.723	432442048.0	0.337813834415	172988.537598	0.587787129916	1.2443048954	43203.2380058	25929.9804688
9368737.0	63061.457	436387936.0	0.338050600105	172986.828613	0.591170683037	1.24333655834	43150.3418157	25896.2371826
9393788.0	63253.387	440357120.0	0.338280686	172985.302734	0.59456116287	1.24238049984	43098.8132425	25863.571167
9418838.0	63445.5	444349312.0	0.33850425537	172983.92334	0.597958569415	1.24143707752	43048.5814449	25831.9030762
9443888.0	63637.793	448364800.0	0.338721445869	172982.727051	0.601362902671	1.24050617218	42999.6419762	25801.2329102
9468938.0	63830.27	452403584.0	0.338932506249	172981.762695	0.604773755185	1.23958575726	42951.8921771	25771.4996338
9493988.0	64022.941	456465664.0	0.339137440485	172980.981445	0.608191010542	1.23867595196	42905.298141	25742.666626
9519038.0	64215.797	460551136.0	0.339336692582	172980.407715	0.611614785157	1.23777627945	42859.8430057	25714.7247314
9544088.0	64408.84	464660032.0	0.339530159612	172980.078125	0.615044555161	1.23688602448	42815.4616388	25687.6220703
9569138.0	64602.066	468792384.0	0.339717958957	172979.833984	0.618486723397	1.23600554466	42772.1425671	25661.3464355
9594188.0	64795.465	472948320.0	0.339900484611	172979.956055	0.621928658802	1.23513174057	42729.7435504	25635.8154297
9619238.0	64989.035	477127808.0	0.340077746808	172980.322266	0.625376531389	1.23426616192	42688.3033671	25611.0290527
9644289.0	65182.781	481331104.0	0.340249176736	172980.871582	0.62883074861	1.23340904713	42647.9563549	25587.1337891
9669339.0	65376.68	485557952.0	0.340413485565	172981.494141	0.632292125374	1.23256385326	42608.9630658	25564.3066406
9694389.0	65570.734	489808544.0	0.340571205484	172982.226562	0.635760137811	1.2317302227	42571.2869177	25542.5201416
9719439.0	65764.945	494082944.0	0.340722290274	172983.007812	0.639235367998	1.23090744019	42534.8045249	25521.6812134
9744489.0	65959.305	498381216.0	0.340867137605	172983.911133	0.642717292067	1.23009550571	42499.4993988	25501.7547607
9769539.0	66153.813	502703392.0	0.341005925463	172984.887695	0.646206084639	1.22929477692	42465.3218753	25482.699585
9794589.0	66348.469	507049536.0	0.341138971847	172985.986328	0.649701512884	1.22850430012	42432.1778823	25464.4317627
9819639.0	66543.258	511419744.0	0.341266402016	172987.158203	0.653203926049	1.22772467136	42400.0499221	25446.9223022
9844689.0	66738.188	515814016.0	0.341388508918	172988.476562	0.656712800264	1.22695529461	42368.8670162	25430.1132202
9869739.0	66933.25	520232416.0	0.341505475661	172989.868164	0.66022813553	1.22619593143	42338.5483312	25413.9328003
9894790.0	67128.445	524675200.0	0.341617625475	172991.357422	0.663750513922	1.22544682026	42309.0593506	25398.3352661
9919840.0	67323.758	529142048.0	0.341725227206	172992.993164	0.667278945912	1.22470748425	42280.3427714	25383.2717896
9944890.0	67519.195	533633216.0	0.341828355761	172994.702148	0.670813897159	1.2239780426	42252.350513	25368.6965942
9969940.0	67714.75	538148736.0	0.341926083124	172996.484375	0.674356007949	1.22326016426	42225.2210949	25354.7134399
9994990.0	67910.422	542688640.0	0.342018037412	172998.205566	0.67790527828	1.22255432606	42199.1046206	25341.4703369
10020040.0	68106.211	547253056.0	0.342104069748	172999.926758	0.681462173816	1.22186112404	42173.9616868	25328.9093018
10045090.0	68302.109	551841984.0	0.342184673653	173001.550293	0.685026054271	1.22117972374	42149.8080599	25317.0639038
10070140.0	68498.117	556455488.0	0.342259729705	173003.222656	0.688597268891	1.22050964832	42126.5961684	25305.8898926
10095190.0	68694.234	561093632.0	0.34232967762	173004.833984	0.69217546843	1.21985077858	42104.3179894	25295.3933716
10120240.0	68890.445	565756480.0	0.342394567015	173006.420898	0.695760827512	1.2192029953	42082.9721854	25285.5682373
10145291.0	69086.773	570444224.0	0.342454615805	173007.983398	0.699353055097	1.21856546402	42062.5176813	25276.3916016
10170341.0	69283.195	575156544.0	0.342509958731	173009.49707	0.702951860148	1.21793746948	42042.9248772	25267.8527832
10195391.0	69479.703	579893696.0	0.342560898977	173011.022949	0.706557417288	1.21731936932	42024.1869798	25259.9304199
10220441.0	69676.305	584655680.0	0.342607628504	173012.475586	0.710169668309	1.21670973301	42006.2687436	25252.6306152
10245491.0	69872.992	589442560.0	0.342650115867	173013.928223	0.713788438588	1.21610891819	41989.1628597	25245.9259033
10270541.0	70069.758	594254464.0	0.342688721889	173015.332031	0.717413378879	1.21551597118	41972.8219705	25239.8010254
10295591.0	70266.609	599091456.0	0.342722183745	173016.577148	0.721046002582	1.21493268013	41957.432033	25234.4070435
10320641.0	70463.539	603953472.0	0.342750330366	173017.675781	0.724685844034	1.21435916424	41942.9843938	25229.7363281
10345691.0	70660.539	608840704.0	0.342773551306	173018.579102	0.728333485313	1.21379542351	41929.4083384	25225.7171631
10370741.0	70857.609	613753152.0	0.34279206869	173019.274902	0.731988344342	1.21324205399	41916.7336494	25222.3648071
10395792.0	71054.758	618691008.0	0.342806217207	173019.836426	0.735650304705	1.21269762516	41904.8511789	25219.6060181
10420842.0	71251.953	623654016.0	0.342816163894	173020.19043	0.73931994848	1.21216309071	41893.7720567	25217.4301147
10445892.0	71449.211	628642432.0	0.342822328327	173020.349121	0.742996926419	1.21163785458	41883.4225803	25215.776062
10470942.0	71646.531	633656256.0	0.342824822184	173020.324707	0.746681005694	1.21112215519	41873.7981389	25214.6331787
10495992.0	71843.906	638695616.0	0.342824037596	173020.10498	0.750372477341	1.21061515808	41864.816276	25213.9404297
10521042.0	72041.328	643760512.0	0.342819722426	173019.921875	0.754070933908	1.21011710167	41856.5126034	25213.7252808
10546092.0	72238.805	648851008.0	0.342812157131	173019.98291	0.757775967941	1.20962774754	41848.8636265	25213.9572144
10571142.0	72436.328	653967168.0	0.342801370158	173020.239258	0.761487870477	1.20914638042	41841.8707158	25214.6560669
10596192.0	72633.898	659109056.0	0.342786885862	173020.739746	0.765206292272	1.20867407322	41835.5373663	25215.7958984
10621242.0	72831.516	664276736.0	0.342767696756	173021.362305	0.768932455685	1.20821201801	41830.073988	25217.5842285
10646293.0	73029.188	669470464.0	0.342743636372	173022.119141	0.772666186094	1.20776057243	41825.4543926	25219.9752808
10671343.0	73226.883	674689920.0	0.342715154813	173023.010254	0.776407308877	1.20731794834	41821.6296194	25222.9568481
10696393.0	73424.617	679935296.0	0.342682506264	173024.023438	0.780155765824	1.20688474178	41818.58074	25226.5014648
10721443.0	73622.391	685206656.0	0.342645917042	173025.219727	0.783911207691	1.20646059513	41816.288452	25230.5847168
10746493.0	73820.195	690504128.0	0.342605725496	173026.550293	0.787674100138	1.20604455471	41814.6719669	25235.1531982
10771543.0	74018.031	695827776.0	0.342562102032	173028.015137	0.79144409392	1.20563685894	41813.755987	25240.2191162
10796593.0	74215.906	701177600.0	0.342515468834	173029.626465	0.795221130829	1.20523667336	41813.4668334	25245.7321167
10821643.0	74413.805	706553664.0	0.342466024101	173031.396484	0.799004861619	1.20484352112	41813.7933767	25251.6815186
10846693.0	74611.711	711955968.0	0.34241396595	173033.300781	0.802795751952	1.20445775986	41814.6949503	25258.0245972
10871743.0	74809.633	717384576.0	0.342359520333	173035.375977	0.806593336165	1.20407927036	41816.1615531	25264.743042
10896794.0	75007.57	722839808.0	0.342302968892	173037.585449	0.810397905298	1.20370709896	41818.1329291	25271.8063354
10921844.0	75205.508	728321280.0	0.34224344801	173039.916992	0.81420969218	1.203343153	41820.7780488	25279.3411255
10946894.0	75403.453	733829248.0	0.34218006749	173042.285156	0.818029046059	1.20298850536	41824.1914903	25287.4176025
10971944.0	75601.406	739363712.0	0.342112887439	173044.787598	0.821855734102	1.20264327526	41828.3441571	25296.0098267
10996994.0	75799.352	744924864.0	0.342042414426	173047.338867	0.825690105557	1.20230674744	41833.1954628	25305.0933838
11022044.0	75997.289	750512640.0	0.341968764062	173050.0	0.829531927593	1.20197880268	41838.7138905	25314.6438599
11047094.0	76195.234	756127168.0	0.341892219157	173052.709961	0.833381316625	1.20165908337	41844.8508242	25324.6154785
11072144.0	76393.164	761768512.0	0.341813117892	173055.517578	0.837238156237	1.20134735107	41851.5640211	25334.9807739
11097194.0	76591.086	767436672.0	0.341731630893	173058.410645	0.841102562845	1.20104289055	41858.8277146	25345.7229614
11122244.0	76789.0	773131776.0	0.341648012061	173061.401367	0.844974187203	1.20074558258	41866.5837223	25356.7947388
11147295.0	76986.914	778854080.0	0.341562514887	173064.489746	0.848853203934	1.20045483112	41874.8143256	25368.1869507
11172345.0	77184.805	784603200.0	0.341475309029	173067.675781	0.852739438415	1.2001708746	41883.4758737	25379.8553467
11197395.0	77382.68	790379392.0	0.341386675001	173070.947266	0.856633181684	1.19989287853	41892.5121642	25391.7617798
11222445.0	77580.547	796182720.0	0.341296559518	173074.34082	0.860533618834	1.19962084293	41901.9453494	25403.9230347
11247495.0	77778.391	802013312.0	0.341203521609	173077.770996	0.864442146849	1.19935703278	41911.9872655	25416.5145874
11272545.0	77976.219	807871168.0	0.341107260943	173081.225586	0.868358532898	1.19910264015	41922.6844588	25429.5455933
11297595.0	78174.023	813756352.0	0.341008254338	173084.692383	0.872282776982	1.19885611534	41933.9692289	25442.9840088
11322645.0	78371.813	819668928.0	0.340906700583	173088.208008	0.876214704476	1.19861721992	41945.7841522	25456.7840576
11347695.0	78569.578	825609024.0	0.340802881193	173091.748047	0.880154664628	1.19838559628	41958.0901655	25470.9075928
11372745.0	78767.32	831576640.0	0.340697243152	173095.3125	0.884102191776	1.19816100597	41970.846831	25485.3164673
11397796.0	78965.055	837572032.0	0.340589955842	173098.901367	0.88805751875	1.1979418993	41983.9883582	25499.9786377
11422846.0	79162.75	843594880.0	0.340481354112	173102.502441	0.892020412721	1.1977288723	41997.4891271	25514.8620605
11447896.0	79360.422	849645440.0	0.340371771998	173106.152344	0.895990873687	1.19752085209	42011.3008565	25529.9285889
11472946.0	79558.07	855723776.0	0.340261487495	173109.802246	0.899968901649	1.19731712341	42025.3564516	25545.1370239
11497996.0	79755.695	861829888.0	0.340150833066	173113.476562	0.903954263777	1.19711768627	42039.6272405	25560.4553223
11523046.0	79953.289	867963904.0	0.340040140313	173117.163086	0.907947076485	1.19692146778	42054.067944	25575.8575439
11548096.0	80150.859	874125888.0	0.339928858387	173120.874023	0.911947339773	1.19672906399	42068.7468344	25591.4001465
11573146.0	80348.398	880315840.0	0.339815667008	173124.536133	0.915955752134	1.19654297829	42083.8760404	25607.2387695
11598196.0	80545.883	886533824.0	0.339700707626	173128.125	0.919972429983	1.19636273384	42099.4344026	25623.3642578
11623246.0	80743.313	892779904.0	0.339584368819	173131.689453	0.92399737332	1.19618749619	42115.3502187	25639.7277832
11648297.0	80940.703	899054400.0	0.33946681835	173135.180664	0.92803069856	1.19601798058	42131.6114479	25656.3018799
11673347.0	81138.031	905356800.0	0.339348525563	173138.623047	0.932071881834	1.19585311413	42148.1462419	25673.0438232
11698397.0	81335.305	911687488.0	0.33922968415	173141.97998	0.936121097766	1.19569349289	42164.9368391	25689.9230957
11723447.0	81532.516	918046528.0	0.339110542105	173145.251465	0.940178520977	1.19553864002	42181.9447439	25706.9122314
11748497.0	81729.68	924433984.0	0.338991401525	173148.486328	0.944243976846	1.19538831711	42199.1211353	25723.9715576
11773547.0	81926.781	930849856.0	0.338872454147	173151.635742	0.948317465372	1.19524252415	42216.4300775	25741.0675049
11798597.0	82123.82	937294272.0	0.338754000606	173154.675293	0.952399102971	1.19510054588	42233.8271042	25758.1756592
11823647.0	82320.805	943767296.0	0.338636258678	173157.653809	0.956488656811	1.1949634552	42251.2924784	25775.2502441
11848697.0	82517.734	950268928.0	0.33851944554	173160.546875	0.960585894063	1.19483053684	42268.783846	25792.2729492
11873747.0	82714.602	956799296.0	0.338402494541	173163.305664	0.964691513218	1.194704175	42286.5069547	25809.387207
11898798.0	82911.414	963358720.0	0.338284451117	173165.930176	0.968805979937	1.19458341599	42304.5236568	25826.6815186
11923848.0	83108.164	969946688.0	0.338165753871	173168.432617	0.972928479314	1.19446992874	42322.8316495	25844.1131592
11948898.0	83304.852	976563584.0	0.338046622229	173170.751953	0.97705970984	1.19436204433	42341.3652844	25861.6516113
11973948.0	83501.477	983209472.0	0.337927411138	173172.961426	0.981199089438	1.1942589283	42360.0735517	25879.2663574
11998998.0	83698.039	989884352.0	0.337808338509	173174.975586	0.98534708377	1.19416093826	42378.9079141	25896.9055176
12024048.0	83894.547	996588352.0	0.337689703207	173176.818848	0.98950357642	1.1940664053	42397.818193	25914.5477295
12049098.0	84090.992	1003321470.0	0.337571776087	173178.515625	0.993668101728	1.19397580624	42416.7773963	25932.1624756
12074148.0	84287.375	1010083840.0	0.337454800103	173180.029297	0.997841125354	1.19388794899	42435.7077046	25949.6948242
12099198.0	84483.695	1016875520.0	0.337339098942	173181.37207	1.00202229805	1.1938021183	42454.5984399	25967.1478271
12124248.0	84679.961	1023696510.0	0.337224290481	173182.800293	1.00621138699	1.19371843338	42473.4736151	25984.5397949
12149299.0	84876.172	1030547200.0	0.337110725211	173184.350586	1.01040827576	1.19363701344	42492.3309841	26001.8554688
12174349.0	85072.313	1037427140.0	0.336998346546	173186.022949	1.01460958831	1.19355618954	42511.1178352	26019.0856934
12199399.0	85268.398	1044336580.0	0.336885745135	173187.756348	1.01882219315	1.19347906113	42530.0869756	26036.416626
12224449.0	85464.422	1051275650.0	0.336772732218	173189.562988	1.02304283064	1.19340634346	42549.2911115	26053.8787842
12249499.0	85660.391	1058244420.0	0.336659497853	173191.491699	1.02727185003	1.1933375597	42568.6788578	26071.4385986
12274549.0	85856.297	1065242880.0	0.336546204589	173193.469238	1.0315090185	1.19327223301	42588.213191	26089.0655518
12299599.0	86052.148	1072271170.0	0.336433068508	173195.568848	1.03575375397	1.19321072102	42607.8846339	26106.7352295
12324649.0	86247.945	1079329280.0	0.336320305114	173197.753906	1.04000675492	1.19315254688	42627.6425373	26124.4140625
12349699.0	86443.68	1086417410.0	0.33620818323	173200.012207	1.04426778853	1.19309711456	42647.4487252	26142.0776367
12374749.0	86639.359	1093535490.0	0.336096809379	173202.355957	1.04853708763	1.19304478168	42667.2870274	26159.6984863
12399800.0	86834.969	1100683900.0	0.33598650512	173204.785156	1.05281441938	1.19299566746	42687.1250643	26177.2399902
12424850.0	87030.492	1107862020.0	0.335877349109	173207.275391	1.05709978379	1.19294834137	42706.9122893	26194.6838379
12449900.0	87225.93	1115070340.0	0.335769688615	173209.851074	1.06139353011	1.19290459156	42726.6465499	26211.9934082
12474950.0	87421.281	1122308740.0	0.335663547692	173212.512207	1.06569507625	1.19286215305	42746.2603483	26229.1473389
12500000.0	87616.555	1129577470.0	0.335558869833	173215.209961	1.07000512071	1.19282269478	42765.8159428	26246.1700439
