z	T	P	nabla_ad	S	rho	delta	cp	cv	opac	frad	fconv	ftot	dT
0.0	3900.0	394.214421723	0.357505237532	166747.241211	1.59043658243e-05	1.02546525002	18478.9999609	11807.4409485	0.00128069746924	0.0	55580.6240755	65311815.0903	0
25000.0	3900.0	519.678305412	0.346330091905	164940.319824	2.09780388616e-05	1.03345429897	19276.3925599	12508.0673218	0.00151994593849	0.0	73186.5117005	65316507.3538	0
50000.0	3900.0	685.20995673	0.332947621546	163117.114258	2.76807803345e-05	1.04399216175	20318.3431094	13421.8338013	0.00180243698487	0.0	96400.047984	65321200.1229	0
75000.0	3900.0	903.700846338	0.317288744056	161273.046875	3.6543177373e-05	1.05767631531	21674.693623	14609.765625	0.00213719366773	0.0	127058.652053	65325893.3976	0
100000.0	3900.0	1192.25794583	0.299460695669	159401.318359	4.82738613528e-05	1.0754417181	23432.7678693	16146.6781616	0.002536969425	0.0	167666.020222	65330587.1781	0
125000.0	3900.0	1573.62601834	0.279796949113	157494.482422	6.38220285509e-05	1.09867966175	25703.3645886	18124.0997314	0.0030185661747	0.0	221770.182338	65335281.4644	0
150000.0	3900.0	2078.13811577	0.258837352818	155540.820312	8.44695406954e-05	1.12865757942	28615.5331882	20651.5472412	0.00359954783706	57820543.5961	256727.030214	65339976.2566	0
175000.0	3949.0	2735.62875955	0.253575800489	153934.741211	0.000109917706936	1.13961935043	29469.3400049	21364.5507812	0.00468760242632	65061763.7151	299608.133476	65344671.5548	0
200000.0	3988.0	3592.23113744	0.245723410248	152262.62207	0.000143046491985	1.15588986874	30832.2650778	22516.0720825	0.00594124554278	84084756.2434	273781.183276	65349367.3591	-2
225000.0	4094.0	4669.8609161	0.269561403199	151381.176758	0.000179025605007	1.12134742737	27142.7969443	19281.211853	0.00885308834542	64484427.1317	311594.364649	65354063.6694	-41
250000.0	4228.0	6035.11530024	0.276670826543	150156.494141	0.000226139462711	1.11424720287	26231.6029195	18464.0441895	0.0121523239445	74076034.2781	118293.544947	65358760.4858	-1
275000.0	4567.0	7640.32610264	0.336481245298	150304.833984	0.000263099082076	1.05000948906	20098.5636678	13136.3250732	0.022090631	64386556.4717	45506.3046649	65363457.8085	-13
300000.0	4869.0	9533.35163451	0.362659845397	150020.629883	0.00030803653317	1.02856338024	18170.7965969	11468.144989	0.0314506814403	70653902.3601	0.000592473643985	65368155.6374	-4
325000.0	5517.0	11571.7985118	0.387336545944	151006.591797	0.000327228207198	1.00832009315	16586.0195957	10122.3831177	0.0448887352176	63133422.8705	3.33076302438e-05	65372853.9727	-41
350000.0	5766.0	13948.0832781	0.38764964188	150421.289062	0.000380138203582	1.00731253624	16548.9594514	10096.3233948	0.0592952690461	59310558.1426	0.0311120035333	65377552.8144	0
375000.0	6629.0	16373.5492149	0.369395225653	151942.163086	0.000383020335448	1.0100646019	17358.1495941	10862.7830505	0.18581440849	98712291.3339	684.663896642	65382252.1626	-82
400000.0	9507.0	18247.0644133	0.157025321849	161322.827148	0.00028865079571	1.30417883396	53314.4238064	42301.071167	5.55709745289	13080697.943	18742624.0835	65386952.0172	-102
425000.0	10604.0	20042.5656447	0.120756079804	167583.886719	0.000274874196293	1.62395322323	90159.8226826	72680.7800293	14.1095449096	3008260.73631	16923240.9802	65391652.3785	-17
450000.0	11208.0	21834.0508216	0.109972186447	172338.879395	0.000273273570883	1.85973668098	117867.519682	94447.2412109	22.4512433119	1106705.06096	8492718.38346	65396353.2465	-11
475000.0	11411.0	23728.5065524	0.108402256216	173384.472656	0.000288644741886	1.92173135281	125036.260407	99859.0332031	26.0727052068	402960.417574	904961.529034	65401054.6211	-5
500000.0	11556.0	25746.998539	0.10782906717	173826.000977	0.000307316383896	1.95634496212	128911.853861	102709.716797	29.0310650199	252133.940255	125725.698348	65405756.5026	0
525000.0	11657.0	27909.5473073	0.107835077458	173801.513672	0.000329106683239	1.97168600559	130401.938838	103730.395508	31.4774936475	186816.513946	4546.5195455	65410458.8909	0
550000.0	11758.0	30224.4872354	0.107846068481	173802.001953	0.000352087369038	1.98707461357	131925.487826	104775.183105	34.0712612278	164739.643179	6485.59156726	65415161.7861	0
575000.0	11858.0	32700.4771917	0.107876147201	173814.624023	0.000376365335342	2.00206065178	133431.212138	105806.115723	36.7963078022	145643.40565	8801.40375426	65419865.1883	0
600000.0	11958.0	35346.2374383	0.107929422465	173829.040527	0.000401971192332	2.01656866074	134883.103233	106790.686035	39.6773746878	129690.491372	5492.36797619	65424569.0975	0
625000.0	12058.0	38171.20528	0.108022074259	173812.133789	0.000429034685112	2.02981996536	136147.479461	107621.862793	42.7212160394	115707.144437	3028.20974268	65429273.5139	0
650000.0	12158.0	41185.3786843	0.108135021101	173805.224609	0.000457528301467	2.04315829277	137418.909765	108453.393555	45.9308631192	102933.626757	6033.41090007	65433978.4373	0
675000.0	12257.0	44399.1013646	0.108267685641	173813.378906	0.00048754634463	2.05627417564	138684.654057	109279.931641	49.2851814824	91775.3047571	9845.61678019	65438683.868	0
700000.0	12356.0	47822.5480746	0.108414596169	173831.860352	0.000519102286489	2.06901335716	139920.332814	110080.993652	52.8123973059	82404.4029426	7330.18367162	65443389.806	0
725000.0	12455.0	51466.595136	0.108582107442	173834.155273	0.000552328515369	2.0807363987	141024.729884	110777.368164	56.5189605654	74121.65468	5263.21514349	65448096.2513	0
750000.0	12554.0	55343.0735248	0.108770307246	173809.191895	0.00058733479591	2.09140491486	141973.496504	111349.023438	60.411030935	66780.5415712	3694.30966533	65452803.204	0
775000.0	12653.0	59463.862608	0.108966667657	173811.254883	0.000624017559403	2.1025261879	142994.091575	111973.706055	64.4879779673	59980.7002236	8618.3959648	65457510.6642	0
800000.0	12751.0	63841.3824663	0.109180856199	173822.497559	0.000662558761633	2.11338067055	143997.418348	112585.205078	68.7225575642	54251.980849	6959.29987065	65462218.6319	0
825000.0	12850.0	68487.2258843	0.109402656795	173848.266602	0.000702854094925	2.12419652939	145003.636272	113194.873047	73.1751582548	49157.1969969	5271.18689598	65466927.1071	0
850000.0	12948.0	73415.4368197	0.10964970895	173838.94043	0.000745314594042	2.1336209774	145821.766978	113659.619141	77.7915741914	44384.5999546	12672.245455	65471636.09	0
875000.0	13046.0	78640.4689548	0.109910516159	173810.644531	0.000789901719145	2.14216828346	146519.621137	114030.310059	82.6072973297	40545.9263995	3515.85309411	65476345.5805	0
900000.0	13145.0	84175.5001739	0.110175843031	173820.751953	0.000836341087052	2.15133500099	147316.831727	114473.547363	87.6561039411	36916.6898114	2550.35009625	65481055.5789	0
925000.0	13243.0	90035.3115753	0.110458276449	173837.304688	0.000884996325112	2.16015458107	148087.599384	114897.912598	92.8772474728	33496.9107909	10317.9022587	65485766.085	0
950000.0	13341.0	96234.6062428	0.110752349501	173855.639648	0.000935877551456	2.16858053207	148817.98515	115291.210938	98.3114848833	30594.1428096	9718.73576324	65490477.0989	0
975000.0	13439.0	102789.218787	0.111058201507	173852.429199	0.000989193495116	2.17618918419	149437.965918	115600.317383	103.969116648	27977.6787294	9590.17979636	65495188.6208	0
1000000.0	13537.0	109716.347061	0.111370892786	173826.11084	0.0010450546597	2.18298530579	149949.62074	115827.929688	109.857486554	25615.0403952	9898.86620018	65499900.6506	0
1025000.0	13635.0	117032.807974	0.111688966271	173823.4375	0.00110326993763	2.18990015984	150506.237017	116091.601562	115.974822909	23486.3942711	10037.4504463	65504613.1885	0
1050000.0	13733.0	124754.991424	0.112015550499	173838.793945	0.00116392448035	2.19680738449	151084.750714	116372.888184	122.327789879	21564.6667487	10128.1170375	65509326.2344	0
1075000.0	13831.0	132900.077887	0.112351645771	173859.338379	0.00122716778606	2.20340251923	151635.257579	116633.300781	128.924822492	19825.1589726	10389.4575349	65514039.7885	0
1100000.0	13929.0	141486.438857	0.112697721264	173866.784668	0.00129321597342	2.20937681198	152102.799337	116830.79834	135.777037389	18245.6294075	11172.4080575	65518753.8507	0
1125000.0	14027.0	150533.970946	0.113052504743	173843.212891	0.00136230028147	2.21454977989	152447.953365	116935.253906	142.895426698	16807.3652435	12837.1567167	65523468.4212	0
1150000.0	14125.0	160063.21461	0.113415294326	173830.993652	0.00143423494592	2.21961855888	152797.715946	117044.580078	150.27807332	15500.5059381	14818.6422203	65528183.5	0
1175000.0	14223.0	170093.487766	0.113786753794	173838.500977	0.00150897483309	2.22467660904	153169.906389	117172.20459	157.91864146	14386.8200672	1713.08777306	65532899.0871	0
1200000.0	14322.0	180642.821153	0.11416449514	173867.248535	0.00158641728376	2.22977256775	153563.476987	117314.746094	165.863248108	13303.0121319	2222.96563807	65537615.1826	0
1225000.0	14420.0	191733.709292	0.114551560143	173882.324219	0.00166726158568	2.23416185379	153869.741137	117394.506836	174.025728531	12251.0975939	21985.9693324	65542331.7865	0
1250000.0	14518.0	203388.563194	0.114943892044	173877.233887	0.00175153127202	2.2379295826	154085.689163	117406.835938	182.46434677	11350.6540372	26307.9677867	65547048.8989	0
1275000.0	14616.0	215631.506019	0.115344807577	173850.549316	0.00183939664566	2.2413380146	154240.734729	117373.571777	191.186798578	10579.3476687	8101.59876597	65551766.5199	0
1300000.0	14715.0	228484.301694	0.115752183981	173852.331543	0.0019302237888	2.24494481087	154445.47483	117377.233887	200.2368253	9822.81041989	11290.0563499	65556484.6494	0
1325000.0	14813.0	241971.646124	0.116167274068	173858.38623	0.00202470528166	2.24814128876	154617.754508	117360.839844	209.518925882	9129.57522596	15469.8552329	65561203.2876	0
1350000.0	14912.0	256115.07323	0.116587594467	173881.616211	0.00212239478969	2.25121927261	154791.360533	117345.251465	219.146230576	8494.81816276	20077.3675161	65565922.4345	0
1375000.0	15010.0	270941.643685	0.117012782539	173889.562988	0.00222417429541	2.25359368324	154879.138758	117269.555664	229.025219692	7910.36510043	26512.5123745	65570642.0901	0
1400000.0	15109.0	286475.377243	0.11744537142	173891.967773	0.00232961565416	2.25578331947	154938.513096	117171.557617	239.276370658	7410.17759836	5280.25585621	65575362.2545	0
1425000.0	15208.0	302744.31087	0.1178858489	173873.522949	0.00243924296228	2.25775933266	154954.801174	117041.601562	249.859038581	6911.49070351	10766.5874037	65580082.9277	0
1450000.0	15307.0	319776.569213	0.118332166649	173867.96875	0.00255271879723	2.25960111618	154972.218098	116914.453125	260.766989427	6452.38390145	17876.3663755	65584804.1097	0
1475000.0	15406.0	337598.983057	0.118783572194	173874.926758	0.00267012660515	2.26120209694	154977.76188	116780.700684	272.009990971	6029.1836429	26622.1636928	65589525.8007	0
1500000.0	15505.0	356239.238251	0.119238977278	173887.756348	0.00279165624306	2.26244211197	154950.612535	116624.829102	283.601006279	5638.33851642	37342.78164	65594248.0007	0
1525000.0	15604.0	375725.867144	0.11970159078	173901.013184	0.00291746709991	2.26334786415	154890.000251	116446.105957	295.553677679	5303.45536197	9347.79837527	65598970.7096	0
1550000.0	15704.0	396085.783128	0.120173812489	173915.686035	0.00304734885503	2.26416015625	154818.932551	116258.898926	307.947380942	4967.35957434	18072.0174363	65603693.9276	0
1575000.0	15803.0	417354.156116	0.12064917785	173897.32666	0.00318260981658	2.26461195946	154680.747285	116024.243164	320.683117926	4654.28049322	31673.4947869	65608417.6547	0
1600000.0	15903.0	439561.974509	0.121128626737	173885.803223	0.00332213699039	2.26504611969	154544.489088	115790.527344	333.885621769	4386.23877568	5013.79366795	65613141.891	0
1625000.0	16003.0	462741.293349	0.121611393646	173885.693359	0.00346620777236	2.26521468163	154391.577432	115547.009277	347.477696071	4116.16748672	14801.1308939	65617866.6364	0
1650000.0	16103.0	486923.391796	0.122101223136	173895.43457	0.00361490492651	2.26511311531	154220.590797	115292.700195	361.469065623	3865.65160105	28681.4705911	65622591.891	0
1675000.0	16203.0	512140.307616	0.12260061905	173911.230469	0.00376837010663	2.26477527618	154031.252707	115026.904297	375.86880855	3633.01177863	47159.0532082	65627317.6548	0
1700000.0	16303.0	538425.816657	0.123107007398	173924.890137	0.00392690299122	2.26419901848	153814.590784	114742.492676	390.695026726	3433.60979241	11646.4539189	65632043.928	0
1725000.0	16404.0	565812.088705	0.123618907878	173935.668945	0.00409029462389	2.26352381706	153580.87193	114444.799805	406.036738378	3231.21435037	28016.9439605	65636770.7105	0
1750000.0	16504.0	594341.621536	0.124126707314	173913.378906	0.00426014776167	2.26259636879	153291.751193	114108.544922	421.781936523	3041.52516927	52936.0069181	65641498.0024	0
1775000.0	16605.0	624050.07003	0.124640651446	173901.550293	0.0044348234951	2.26158356667	153004.256241	113774.169922	438.055926266	2879.40305441	14168.4779615	65646225.8037	0
1800000.0	16706.0	654973.684375	0.125163605086	173902.368164	0.00461466197521	2.26034092903	152708.523408	113436.560059	454.787773559	2714.31644015	35752.7254851	65650954.1145	0
1825000.0	16807.0	687148.80559	0.12569446101	173911.779785	0.00479986465507	2.25885772705	152397.453762	113090.100098	471.984810575	2560.38519536	65448.1352972	65655682.9347	0
1850000.0	16908.0	720613.29272	0.126231313161	173924.499512	0.00499068846693	2.25712823868	152063.839127	112729.138184	489.643925563	2428.69106472	19665.1342535	65660412.2645	0
1875000.0	17010.0	755402.242825	0.126774656095	173942.993164	0.00518674005434	2.25523757935	151714.961806	112357.104492	507.85277424	2305.42579315	3423.18187006	65665142.1038	0
1900000.0	17112.0	791556.411488	0.127322603959	173953.088379	0.00538891890756	2.25314807892	151337.933003	111966.113281	526.550268317	2178.87013834	6913.01060747	65669872.4527	0
1925000.0	17214.0	829118.815979	0.127873313012	173946.948242	0.00559762338526	2.25098276138	150939.912312	111561.047363	545.756049055	2060.22039228	33127.0289566	65674603.3113	0
1950000.0	17316.0	868135.327759	0.128425267607	173930.053711	0.00581288986723	2.24876976013	150529.785241	111148.498535	565.47171807	1948.99294458	74420.8821809	65679334.6795	0
1975000.0	17418.0	908650.107851	0.128982832811	173922.424316	0.00603421312917	2.2463490963	150109.502806	110730.895996	585.682552747	1853.9846711	23116.1716484	65684066.5575	0
2000000.0	17521.0	950700.274286	0.129548941674	173930.102539	0.00626095470579	2.24374294281	149682.604403	110309.143066	606.476567827	1756.37114531	62492.3968501	65688798.9451	0
2025000.0	17623.0	994333.863697	0.130119169849	173934.814453	0.00649480807624	2.24081373215	149224.889426	109868.896484	627.70036382	1664.61971475	118501.08945	65693531.8426	0
2050000.0	17726.0	1039589.23768	0.130701893083	173950.305176	0.00673433123666	2.2376999855	148755.991208	109421.276855	649.528168342	1594.22813007	11657.7021331	65698265.2498	0
2075000.0	17830.0	1086506.22699	0.131294363416	173970.874023	0.00697977702657	2.23446965218	148275.803237	108965.576172	671.971870368	1513.11551428	5892.37226609	65702999.1668	0
2100000.0	17933.0	1135138.99126	0.131883454165	173972.998047	0.0072333659773	2.23114871979	147771.39839	108494.628906	694.855703475	1436.5954174	45014.899682	65707733.5937	0
2125000.0	18037.0	1185533.08613	0.132473135233	173965.41748	0.00749382979848	2.2279150486	147264.805923	108021.264648	718.366991869	1364.750993	109035.780665	65712468.5306	0
2150000.0	18140.0	1237747.74345	0.133060269713	173943.066406	0.00776269189373	2.22461175919	146742.061953	107538.623047	742.333859029	1303.17852826	43974.3577125	65717203.9773	0
2175000.0	18245.0	1291819.74955	0.133666125327	173946.081543	0.00803644525149	2.22112107277	146219.611395	107056.030273	766.991690629	1245.55695583	1395.01658748	65721939.934	0
2200000.0	18349.0	1347803.61953	0.134274574484	173947.583008	0.0083182239905	2.21740436554	145676.727646	106562.023926	792.104955149	1185.25145965	43789.0786629	65726676.4007	0
2225000.0	18454.0	1405742.13242	0.134893846173	173960.717773	0.00860626278154	2.21350479126	145123.863451	106061.547852	817.86222386	1134.06107308	721.937822828	65731413.3773	0
2250000.0	18559.0	1465686.2162	0.135517499101	173974.206543	0.00890183309821	2.20942091942	144553.637713	105550.415039	844.200728478	1080.4338735	45950.3751626	65736150.864	0
2275000.0	18664.0	1527687.63725	0.136148059145	173986.035156	0.00920508500712	2.20514059067	143964.307604	105027.526855	871.129635386	1029.82452847	131388.889712	65740888.8608	0
2300000.0	18769.0	1591800.68595	0.136782212844	173991.369629	0.00951643323788	2.200766325	143362.120806	104496.960449	898.676256741	986.662760388	54936.1771308	65745627.3676	0
2325000.0	18875.0	1658075.0745	0.137420788915	173992.114258	0.00983522204479	2.19642448425	142759.044985	103965.686035	926.957050936	945.786938196	4312.79673896	65750366.3846	0
2350000.0	18981.0	1726571.44557	0.138053949048	173977.685547	0.0101629620985	2.19222331047	142159.794043	103437.976074	955.910543001	902.601233066	72462.8049897	65755105.9117	0
2375000.0	19087.0	1797349.69462	0.138691338048	173966.503906	0.0104987830127	2.1878964901	141551.858443	102905.810547	985.501097172	865.838520807	12616.2171549	65759845.949	0
2400000.0	19194.0	1870456.26744	0.139344407166	173969.65332	0.0108412114059	2.18331432343	140929.588829	102364.575195	1015.81689919	827.224102013	97616.8093081	65764586.4964	0
2425000.0	19300.0	1945954.68623	0.139999431231	173970.227051	0.0111929875857	2.17855477333	140290.835372	101814.508057	1046.69515363	790.543271446	235402.00957	65769327.5541	0
2450000.0	19407.0	2023893.58174	0.140666709192	173980.322266	0.011551870557	2.17362880707	139641.556035	101257.458496	1078.3332351	763.042493847	6817.52669891	65774069.122	0
2475000.0	19515.0	2104322.82388	0.141344074615	173996.862793	0.0119180740512	2.16859388351	138983.927103	100694.506836	1110.74712096	733.463478489	68492.43126	65778811.2002	0
2500000.0	19623.0	2187301.71715	0.142027523847	174010.791016	0.0122930505313	2.16343688965	138310.779975	100121.313477	1143.86277815	698.781547401	185901.982006	65783553.7886	0
2525000.0	19730.0	2272901.25946	0.142708514726	174012.011719	0.0126785989778	2.15825271606	137627.132989	99542.5354004	1177.60753542	672.052989086	93635.551169	65788296.8873	0
2550000.0	19839.0	2361167.79414	0.143400881855	174016.882324	0.0130710213853	2.15309023857	136946.142549	98964.5996094	1212.28788845	646.761450209	23631.6497219	65793040.4964	0
2575000.0	19947.0	2452179.78462	0.144078091398	174000.57373	0.0134751071528	2.14818286896	136280.195107	98399.3103027	1247.65253871	619.593661777	158335.672669	65797784.6158	0
2600000.0	20056.0	2545997.07404	0.144761327823	173990.795898	0.0138871409945	2.14323091507	135617.231473	97837.1520996	1283.80355305	596.648275658	68462.0193667	65802529.2456	0
2625000.0	20165.0	2642682.18992	0.14545483802	173986.303711	0.0143080615089	2.1380007267	134933.715594	97262.6098633	1320.56700138	574.827988829	7662.20175808	65807274.3857	0
2650000.0	20275.0	2742286.3743	0.146165996015	173992.871094	0.0147364044096	2.13246560097	134228.674112	96673.8525391	1358.04917744	554.1643617	28257.4425227	65812020.0363	0
2675000.0	20385.0	2844872.21337	0.146886168878	174002.22168	0.0151739031935	2.12672686577	133507.545126	96075.5065918	1396.18126748	532.054430417	54607.8119252	65816766.1973	0
2700000.0	20495.0	2950504.10797	0.14761330735	174012.536621	0.0156208534463	2.120855093	132775.578192	95471.0266113	1434.99010855	513.360829255	2036.40497673	65821512.8687	0
2725000.0	20606.0	3059237.27494	0.148352298226	174028.100586	0.0160758809216	2.11487364769	132035.947984	94861.5234375	1474.58947964	493.364390163	142883.032477	65826260.0506	0
2750000.0	20716.0	3171151.54225	0.149085264335	174033.496094	0.01654272819	2.10896682739	131299.434083	94256.2072754	1514.83414452	476.363868461	57496.2467416	65831007.7429	0
2775000.0	20828.0	3286295.41216	0.149831161022	174044.873047	0.0170166895259	2.10306024551	130565.319796	93651.8310547	1556.02511188	460.25259405	3043.51103253	65835755.9457	0
2800000.0	20939.0	3404754.6765	0.150562839491	174040.014648	0.0175034219865	2.09740972519	129848.969268	93061.7248535	1597.93255562	442.722523317	167494.162855	65840504.659	0
2825000.0	21051.0	3526595.57206	0.151292126519	174029.638672	0.0179998278327	2.09196591377	129150.780415	92484.564209	1640.76508497	427.948793879	73769.3436391	65845253.8829	0
2850000.0	21163.0	3651895.51563	0.152019994146	174019.65332	0.0185067037819	2.08657312393	128460.544186	91914.4287109	1684.40541367	413.788925516	8642.87702524	65850003.6173	0
2875000.0	21276.0	3780714.66569	0.152755867199	174018.261719	0.0190220707736	2.08111834526	127771.132403	91345.6298828	1728.94448168	400.294750378	30480.2076431	65854753.8622	0
2900000.0	21389.0	3913122.59857	0.153501471992	174019.750977	0.0195475695364	2.07544660568	127063.967094	90765.9301758	1774.29497135	385.65737752	98904.6591136	65859504.6177	0
2925000.0	21502.0	4049189.14585	0.154259508358	174023.693848	0.0200832455448	2.06951618195	126334.249984	90171.862793	1820.46519705	373.324508931	24166.7447956	65864255.8838	0
2950000.0	21616.0	4188972.34881	0.155035555053	174034.594727	0.0206273361982	2.06332945824	125584.383068	89564.3737793	1867.56206405	361.56218563	9850.91011925	65869007.6605	0
2975000.0	21730.0	4332544.84878	0.155818604329	174045.031738	0.0211820624827	2.05702376366	124824.369549	88951.1169434	1915.51558708	348.738939395	168726.300131	65873759.9478	0
3000000.0	21844.0	4479981.72745	0.156605370226	174053.295898	0.021747797291	2.05067753792	124061.395383	88337.1337891	1964.34451714	337.939846243	79158.8954017	65878512.7458	0
3025000.0	21959.0	4631346.48207	0.157400523249	174062.988281	0.0223228271352	2.04430365562	123297.933996	87723.3154297	2014.16382395	327.613565371	15421.687432	65883266.0543	0
3050000.0	22074.0	4786718.97656	0.158191536378	174066.149902	0.0229096458497	2.03805685043	122545.936876	87118.7133789	2064.89973122	316.296188698	298668.284232	65888019.8735	0
3075000.0	22189.0	4946182.86106	0.158973667015	174060.253906	0.0235088191403	2.0320289135	121813.20512	86528.6865234	2116.58363145	306.760384799	186095.66088	65892774.2033	0
3100000.0	22305.0	5109810.1913	0.159753882587	174051.574707	0.024118256988	2.02616882324	121097.867934	85951.3061523	2169.29438881	298.908691925	191212.929559	65897529.0438	0
3125000.0	22422.0	5277669.68602	0.160540380941	174049.87793	0.0247367788688	2.02030229568	120388.491251	85378.8635254	2222.97122831	288.896532215	17261.1645183	65902284.395	0
3150000.0	22538.0	5449856.2069	0.16131581085	174044.519043	0.0253690559475	2.01457023621	119694.132304	84818.927002	2277.35854954	279.258678324	331305.861493	65907040.2569	0
3175000.0	22655.0	5626432.30701	0.162108253255	174046.276855	0.0260103279288	2.00860857964	118982.341307	84247.3571777	2332.55912367	272.409296741	97715.5850992	65911796.6295	0
3200000.0	22773.0	5807459.73044	0.162919808556	174054.589844	0.0266605129582	2.00238704681	118249.523155	83661.5905762	2388.56263832	263.611174613	107691.099707	65916553.5128	0
3225000.0	22890.0	5993033.32849	0.163730581922	174058.178711	0.0273245605058	1.99611341953	117511.354968	83073.7915039	2445.22337449	256.222939018	32645.2819398	65921310.9068	0
3250000.0	23009.0	6183201.14126	0.164564107787	174071.484375	0.0279954765574	1.98961913586	116757.314685	82474.7802734	2502.76375571	249.215016959	2594.45502959	65926068.8116	0
3275000.0	23127.0	6378061.60763	0.165390953668	174077.990723	0.0286808281089	1.98319792747	116009.342603	81881.6650391	2560.97479366	241.406860512	315705.038641	65930827.2271	0
3300000.0	23246.0	6577682.58555	0.16622543894	174086.474609	0.029376042221	1.97675943375	115262.332181	81289.7155762	2620.01901561	235.931118073	137729.299909	65935586.1533	0
3325000.0	23366.0	6782133.30545	0.167064009078	174095.288086	0.0300813553622	1.97036910057	114522.124145	80703.0151367	2679.89777981	228.757710067	113395.260259	65940345.5903	0
3350000.0	23485.0	6991520.45276	0.167884750229	174092.96875	0.0308023809339	1.96425235271	113806.164036	80134.9060059	2740.51608541	222.744322832	36518.6547376	65945105.5381	0
3375000.0	23606.0	7205901.4041	0.168710310799	174092.224121	0.031531748391	1.95824253559	113103.583549	79576.1474609	2802.07172669	217.018772152	2699.57070482	65949865.9966	0
3400000.0	23726.0	7425388.57981	0.169514785557	174081.469727	0.032277093851	1.95254290104	112430.353635	79039.6789551	2864.38721647	210.574035649	354733.60967	65954626.9659	0
3425000.0	23847.0	7650054.07948	0.170327259661	174077.246094	0.0330320763169	1.94678211212	111757.865	78504.6813965	2927.52277423	206.116009014	170098.260771	65959388.4459	0
3450000.0	23969.0	7879963.21218	0.171157239418	174079.199219	0.0337963683705	1.94078791142	111068.477348	77958.770752	2991.47180831	200.189558516	115731.896134	65964150.4368	0
3475000.0	24090.0	8115219.00639	0.171985163603	174077.79541	0.0345756488969	1.93475401402	110376.529449	77412.8051758	3056.14321664	195.25246984	35029.8891461	65968912.9385	0
3500000.0	24213.0	8355868.9233	0.172836177025	174086.230469	0.0353616378561	1.92848825455	109668.665207	76855.9143066	3121.69856327	190.558754387	2476.16326336	65973675.951	0
3525000.0	24335.0	8602018.21328	0.173680722605	174090.344238	0.036162964534	1.92227566242	108966.340803	76304.4067383	3188.02647433	185.231371746	434961.254931	65978439.4743	0
3550000.0	24458.0	8853735.4333	0.174534520959	174098.413086	0.0369741646864	1.91600608826	108262.110264	75752.0812988	3255.22394584	181.602107377	145530.734208	65983203.5085	0
3575000.0	24582.0	9111089.60592	0.175394672135	174109.594727	0.0377953110728	1.90972781181	107560.253855	75201.9042969	3323.32328044	176.676356232	195872.224033	65987968.0534	0
3600000.0	24705.0	9374191.61421	0.176240205805	174114.306641	0.0386326755688	1.90364789963	106876.828891	74665.9362793	3392.27734579	172.58397518	95014.618289	65992733.1093	0
3625000.0	24830.0	9643093.91102	0.177094978011	174124.475098	0.0394775343011	1.89757859707	106198.821777	74133.8317871	3462.23252316	168.680005326	20643.8048846	65997498.6759	0
3650000.0	24954.0	9917912.15539	0.177928670113	174126.147461	0.0403393351007	1.8918030262	105547.878542	73621.9665527	3533.10657743	164.860039123	19521.5814477	66002264.7534	0
3675000.0	25080.0	10198702.0198	0.178767383804	174130.712891	0.0412091503676	1.88608646393	104906.378146	73116.9006348	3605.0435445	161.210191602	107923.016978	66007031.3418	0
3700000.0	25205.0	10485583.1266	0.179591631208	174123.986816	0.0420965152443	1.88051950932	104276.958417	72621.7346191	3677.93231847	157.008910111	273051.980774	66011798.441	0
3725000.0	25331.0	10778633.9358	0.180422676377	174117.443848	0.0429946157965	1.8748922348	103644.758806	72125.402832	3751.66039298	153.589068436	142433.086219	66016566.051	0
3750000.0	25457.0	11077948.8928	0.181256153252	174112.280273	0.0439056602772	1.86920452118	103010.734558	71629.1015625	3826.13959351	150.280010542	42526.7259378	66021334.1719	0
3775000.0	25584.0	11383596.3219	0.182099675023	174112.37793	0.0448264108854	1.86340785027	102371.842236	71130.279541	3901.3733935	147.105165142	5165.18300377	66026102.8037	0
3800000.0	25711.0	11695666.6766	0.182942386659	174113.476562	0.0457602327515	1.85761356354	101736.660042	70635.168457	3977.34407188	144.031024469	81098.5393957	66030871.9463	0
3825000.0	25839.0	12014228.915	0.183791339647	174119.238281	0.0467038626084	1.85178029537	101102.577838	70141.5344238	4054.06405106	141.079534065	206269.106553	66035641.5998	0
3850000.0	25967.0	12339374.9751	0.184635495904	174125.317383	0.0476607820019	1.84602081776	100478.352453	69655.7495117	4131.51081888	137.681501158	221995.204108	66040411.7643	0
3875000.0	26095.0	12671198.5657	0.185472612669	174131.311035	0.0486312637804	1.84037196636	99867.0753927	69179.888916	4209.69287168	134.920956298	87162.416597	66045182.4396	0
3900000.0	26224.0	13009771.3132	0.186309211075	174140.50293	0.0496119864692	1.83479690552	99266.5844148	68712.0666504	4288.61505862	132.267511703	1946.17450647	66049953.6258	0
3925000.0	26353.0	13355189.5145	0.187136874143	174148.31543	0.0506066680828	1.82934558392	98679.6946765	68254.6325684	4368.27338609	129.191127476	648939.425066	66054725.3229	0
3950000.0	26482.0	13707551.2062	0.187960703376	174153.57666	0.0516155450896	1.82392036915	98096.9355912	67801.1352539	4448.67858712	126.701253548	421787.952331	66059497.5309	0
3975000.0	26612.0	14066931.2686	0.18878828312	174159.484863	0.0526351941517	1.81847035885	97514.5729035	67348.5778809	4529.82763026	124.783021515	447279.809383	66064270.2498	0
4000000.0	26743.0	14433404.8217	0.18961851917	174165.380859	0.0536656516488	1.81302392483	96934.693666	66898.3032227	4611.69734568	121.998369594	73841.2154316	66069043.4796	0
4025000.0	26873.0	14807098.2112	0.190432880589	174163.391113	0.0547145391465	1.80775439739	96369.8721551	66459.4726562	4694.33024572	119.275962774	928757.246737	66073817.2203	0
4050000.0	27004.0	15188090.205	0.191247029024	174159.94873	0.0557747698622	1.80254590511	95811.8538257	66025.7202148	4777.70406751	117.550198032	124344.66049	66078591.472	0
4075000.0	27136.0	15576459.7422	0.192060464348	174155.493164	0.0568461728108	1.79740762711	95261.663031	65597.7111816	4861.79525234	115.447324876	326351.961451	66083366.2345	0
4100000.0	27268.0	15972307.9915	0.192868822012	174151.806641	0.0579312254558	1.79234027863	94720.5891801	65176.8310547	4946.54634105	112.976817529	177910.427272	66088141.5079	0
4125000.0	27400.0	16375730.9206	0.193671134602	174149.487305	0.0590299023315	1.78735482693	94189.9532596	64763.9953613	5031.9404925	111.001884708	21532.0576479	66092917.2922	0
4150000.0	27533.0	16786797.6094	0.194474270842	174151.867676	0.060138398112	1.78240299225	93666.7090192	64356.842041	5117.94901221	109.102519997	73195.3903536	66097693.5875	0
4175000.0	27666.0	17205604.8028	0.195271331125	174154.553223	0.0612608127994	1.7774875164	93150.0897572	63955.4016113	5204.61040416	106.853837975	501973.482204	66102470.3936	0
4200000.0	27799.0	17632250.5806	0.196063384933	174157.177734	0.0623973028269	1.77258455753	92637.6894264	63558.001709	5291.91409233	105.065596567	221958.637719	66107247.7107	0
4225000.0	27933.0	18066805.8993	0.196858637957	174162.878418	0.0635438846075	1.76763904095	92125.5731523	63161.6210938	5379.8079606	103.344496946	28152.081005	66112025.5387	0
4250000.0	28067.0	18509369.3435	0.197648781424	174168.188477	0.0647046472295	1.76273477077	91619.3874467	62770.2392578	5468.33905502	101.66927047	85906.3160376	66116803.8777	0
4275000.0	28202.0	18960012.1547	0.198441331245	174176.074219	0.0658755598124	1.75782155991	91115.6232709	62381.1462402	5557.45439979	100.056109859	344792.182469	66121582.7276	0
4300000.0	28337.0	19418833.7199	0.199227959736	174183.056641	0.067060769652	1.75298333168	90620.0615734	61998.4130859	5647.25931448	98.1204344163	205364.339726	66126362.0884	0
4325000.0	28472.0	19885934.6422	0.20000814471	174188.806152	0.068260502303	1.74823904037	90133.8908316	61622.7416992	5737.79089028	96.5938265677	7269.3008837	66131141.9601	0
4350000.0	28608.0	20361387.7808	0.200788735199	174196.105957	0.0694706177455	1.74354541302	89654.1981785	61251.8371582	5828.95453266	95.1217690281	152403.588299	66135922.3428	0
4375000.0	28744.0	20845295.3838	0.201561299652	174201.428223	0.0706954888301	1.73898601532	89186.8750561	60889.8803711	5920.78646427	93.3425729852	435009.900391	66140703.2365	0
4400000.0	28880.0	21337762.499	0.202323864131	174203.857422	0.0719355448382	1.73454749584	88730.9280825	60536.3647461	6013.26622368	91.9476420198	111056.686931	66145484.6411	0
4425000.0	29017.0	21838866.9007	0.203083350716	174205.480957	0.0731867112336	1.73013651371	88279.8902526	60186.9506836	6106.30541737	90.6019800892	45669.5947812	66150266.5566	0
4450000.0	29154.0	22348716.8191	0.203832730092	174202.722168	0.0744535354897	1.72582268715	87837.9914305	59844.5495605	6199.95359852	88.963446233	641713.416715	66155048.983	0
4475000.0	29291.0	22867422.1814	0.204573590576	174196.057129	0.0757359957788	1.72159838676	87404.5608024	59508.6364746	6294.16027383	87.6870590402	221429.579831	66159831.9205	0
4500000.0	29429.0	23395058.3005	0.205317484273	174192.785645	0.0770282422309	1.71735012531	86972.2337815	59173.9990234	6388.73209281	86.4592142768	3890.15756921	66164615.3688	0
4525000.0	29567.0	23931725.0117	0.206058020436	174190.344238	0.0783346331446	1.71313714981	86544.9935032	58843.4814453	6483.69257283	85.2639947644	283255.673042	66169399.328	0
4550000.0	29706.0	24477489.9952	0.206802837007	174191.650391	0.0796505191829	1.70891141891	86119.3585155	58514.3920898	6578.90868101	83.8127675518	320509.245329	66174183.7982	0
4575000.0	29844.0	25032483.7131	0.207537837531	174190.856934	0.0809852208477	1.70479810238	85703.5927101	58192.6269531	6674.53368128	82.6855351607	10756.4943811	66178968.7794	0
4600000.0	29984.0	25596741.5885	0.208284597244	174196.520996	0.0823247391963	1.7006393671	85287.0153863	57870.2575684	6770.20302011	81.6171088765	232048.696309	66183754.2715	0
4625000.0	30123.0	26170396.019	0.209019187009	174199.633789	0.083683320554	1.69660246372	84881.2314887	57555.9387207	6866.21073921	80.2755309633	401072.997627	66188540.2745	0
4650000.0	30263.0	26753517.3023	0.209752577909	174205.175781	0.0850518554216	1.69256055355	84478.3075738	57244.2443848	6962.3032182	79.2679434095	28423.6348368	66193326.7885	0
4675000.0	30403.0	27346208.1579	0.210478648153	174210.205078	0.0864350877237	1.68856799603	84081.488601	56937.4816895	7058.5314103	78.2873443408	234108.603098	66198113.8135	0
4700000.0	30544.0	27948538.4686	0.211205635932	174217.333984	0.0878281862242	1.68457126617	83686.9002854	56632.7636719	7154.72260012	77.0721883675	414436.419607	66202901.3494	0
4725000.0	30684.0	28560644.984	0.21192091527	174220.88623	0.0892410462257	1.6806794405	83301.3203007	56334.9182129	7251.11792737	76.1475194823	15881.6414305	66207689.3963	0
4750000.0	30826.0	29182564.4783	0.212645756225	174228.833008	0.0906588829821	1.6767373085	82914.2789738	56036.2670898	7347.22262586	75.2739569029	289856.55122	66212477.9542	0
4775000.0	30967.0	29814434.9802	0.213360767416	174232.8125	0.0920966704143	1.67290818691	82536.0753653	55744.128418	7443.42413174	74.1493748593	377832.300062	66217267.023	0
4800000.0	31109.0	30456327.2986	0.214080319115	174237.976074	0.0935444695642	1.66909456253	82160.0802874	55453.6071777	7539.36197233	73.3270364174	1499.88731299	66222056.6029	0
4825000.0	31251.0	31108346.9422	0.214798404236	174241.369629	0.0950074172579	1.6653573513	81789.9078333	55167.1325684	7635.16139977	72.2727723003	1015916.85448	66226846.6937	0
4850000.0	31393.0	31770601.9271	0.215510935591	174242.333984	0.096485906397	1.661703825	81426.7170823	54885.7299805	7730.78593896	71.4983702644	344400.782395	66231637.2954	0
4875000.0	31536.0	32443167.6621	0.216220897612	174242.822266	0.0979750475381	1.65808641911	81067.9412794	54607.7148438	7826.00111694	70.7572290588	10556.5738897	66236428.4082	0
4900000.0	31679.0	33126155.1841	0.216922560535	174239.831543	0.0994801957859	1.65455460548	80716.4778627	54335.1318359	7921.01476365	70.0356535864	476322.691584	66241220.032	0
4925000.0	31823.0	33819640.0674	0.217624320687	174236.584473	0.100995748653	1.65104651451	80368.1058627	54064.9108887	8016.09931069	69.1002188533	259934.390765	66246012.1667	0
4950000.0	31966.0	34523766.1728	0.218317339824	174231.152344	0.102531186712	1.64761340618	80026.3162914	53799.7436523	8111.69288897	68.1741371311	1732189.26526	66250804.8124	0
4975000.0	32110.0	35238599.7337	0.219016365091	174228.918457	0.104075763375	1.6441526413	79684.2291968	53534.6313477	8207.29995342	67.7499844752	666329.435672	66255597.9691	0
5000000.0	32255.0	35964204.6112	0.21972264358	174229.748535	0.105629238533	1.64066314697	79341.4725307	53269.2321777	8302.79398907	67.1152290784	1586694.3216	66260391.6367	0
5025000.0	32400.0	36700681.1048	0.220431035996	174231.176758	0.107197032776	1.6371922493	79000.8039321	53005.4626465	8398.32941652	66.267061112	157223.546356	66265185.8153	0
5050000.0	32545.0	37448130.2733	0.221142401905	174233.129883	0.108779175207	1.63374245167	78662.1059694	52743.1335449	8493.81695697	65.4398835559	731225.715113	66269980.505	0
5075000.0	32690.0	38206655.0395	0.22185116886	174235.144043	0.110376000521	1.63032102585	78327.2987837	52483.9782715	8589.1735466	64.8562853912	104709.185527	66274775.7056	0
5100000.0	32836.0	38976321.5872	0.222562722162	174239.453125	0.111982066301	1.62688624859	77993.5691143	52225.9521484	8684.10357562	64.2984453582	235881.256759	66279571.4172	0
5125000.0	32982.0	39757233.7002	0.223271699409	174243.457031	0.11360294593	1.62348425388	77663.4269584	51970.7946777	8778.73327962	63.5378795802	654854.690299	66284367.6398	0
5150000.0	33128.0	40549495.9187	0.223979227512	174247.143555	0.115238697617	1.62011528015	77336.3516163	51718.0114746	8872.99116912	63.0122857346	52173.6551511	66289164.3734	0
5175000.0	33275.0	41353173.7591	0.224692963302	174252.661133	0.116883667943	1.61673462391	77008.966439	51465.0939941	8966.49871277	62.5122530812	333397.574316	66293961.618	0
5200000.0	33422.0	42168371.4288	0.225407507127	174257.617188	0.11854346667	1.61338829994	76683.8069704	51213.7512207	9059.43983362	61.8167285883	596949.29989	66298759.3737	0
5225000.0	33569.0	42995193.9742	0.226124074355	174261.828613	0.120218224765	1.61007535458	76360.414084	50963.55896	9151.69627425	61.348743299	29330.1047902	66303557.6404	0
5250000.0	33717.0	43833706.6079	0.226850193236	174267.431641	0.121902114188	1.6067533493	76035.6195526	50712.1307373	9242.92321644	60.9057446505	370261.062636	66308356.4181	0
5275000.0	33865.0	44684014.7544	0.227578175088	174271.875	0.123601072119	1.60346841812	75712.6612376	50461.819458	9333.26604606	60.273917447	651557.481499	66313155.7068	0
5300000.0	34013.0	45546226.751	0.228303636416	174274.682617	0.125315447804	1.60022926331	75393.0585175	50213.8793945	9422.6812378	59.8621772067	54442.7927937	66317955.5066	0
5325000.0	34162.0	46420410.7222	0.229033137393	174277.856445	0.127039398649	1.59699332714	75074.0414953	49966.3330078	9510.71812126	59.475039769	323647.99294	66322755.8174	0
5350000.0	34311.0	47306675.2926	0.229760317211	174278.955078	0.128778861836	1.59380328655	74758.3821834	49721.1791992	9597.61731293	58.9045349266	780201.652875	66327556.6393	0
5375000.0	34460.0	48205130.5416	0.230485441673	174277.770996	0.130534055643	1.59066140652	74446.1448731	49478.4484863	9683.26897497	58.5479282688	109895.988853	66332357.9722	0
5400000.0	34610.0	49115845.3218	0.231215081143	174276.208496	0.132298926474	1.58752584457	74134.5450774	49236.151123	9767.22890828	58.215511527	246803.110204	66337159.8162	0
5425000.0	34760.0	50038930.6572	0.231943480234	174272.167969	0.134079513373	1.58443856239	73826.2675285	48996.2005615	9849.73203603	57.7050828553	979768.57225	66341962.1712	0
5450000.0	34910.0	50974495.3843	0.232674779405	174268.066406	0.135874754051	1.58136701584	73519.1208259	48757.131958	9930.63117462	57.4038168582	227104.915942	66346765.0373	0
5475000.0	35061.0	51922600.034	0.233417069487	174266.552734	0.137678172905	1.57826304436	73209.7724969	48516.5527344	10009.4029396	57.1277243106	114079.684527	66351568.4145	0
5500000.0	35212.0	52883347.5617	0.234161104115	174265.29541	0.139496143674	1.57517278194	72901.6879105	48277.0172119	10086.3518005	56.6791149949	1364081.20022	66356372.3027	0
5525000.0	35363.0	53856841.5566	0.234906450274	174264.18457	0.141328782775	1.57209718227	72594.9820297	48038.6016846	10161.3704774	56.434850493	502339.860633	66361176.702	0
5550000.0	35515.0	54843141.6651	0.235659972588	174265.197754	0.143169716466	1.56899595261	72286.8585	47799.2736816	10233.9577823	56.2153095214	6772.55654628	66365981.6124	0
5575000.0	35667.0	55842350.6427	0.236415439639	174266.259766	0.145025187521	1.56590843201	71979.9228711	47560.9313965	10305.0833749	56.0073456466	424598.516109	66370787.0339	0
5600000.0	35820.0	56854527.0264	0.237179977263	174269.32373	0.146888720337	1.56279408932	71671.391465	47321.5423584	10374.5160264	55.819022809	1250248.20162	66375592.9664	0
5625000.0	35973.0	57879772.7662	0.237947315906	174272.277832	0.148766703205	1.55969321728	71363.8411449	47082.9437256	10442.6850411	55.4592296504	285011.718304	66380399.4101	0
5650000.0	36126.0	58918190.3431	0.238717950995	174275.073242	0.150659179781	1.55660557747	71057.1796839	46845.0531006	10509.5132836	55.2917273279	53048.9607821	66385206.3649	0
5675000.0	36280.0	59969836.6681	0.239499118817	174279.589844	0.152559543494	1.55349242687	70748.6369485	46605.8349609	10574.4701009	55.1435738321	591470.592652	66390013.8308	0
5700000.0	36434.0	61034815.3552	0.240283323575	174283.59375	0.154474575538	1.55039620399	70441.0206309	46367.3095703	10638.0178317	54.8269270966	988409.195273	66394821.8079	0
5725000.0	36588.0	62113231.0919	0.241069604752	174286.914062	0.156404450536	1.54731953144	70134.6135788	46129.6936035	10700.0910704	54.6988582541	304844.67776	66399630.2961	0
5750000.0	36743.0	63205142.6478	0.241864395989	174291.40625	0.158342416398	1.54422426224	69826.9510819	45891.2322998	10760.1397792	54.589699346	21841.3649564	66404439.2955	0
5775000.0	36898.0	64310654.9187	0.242660598547	174295.031738	0.160295225214	1.54115080833	69520.9325407	45654.0344238	10818.6128914	54.4900307333	476830.724679	66409248.8061	0
5800000.0	37054.0	65429825.5846	0.243464717356	174299.597168	0.162256052135	1.53806066513	69214.0330104	45416.2963867	10874.9318538	54.409256081	1208715.55268	66414058.8278	0
5825000.0	37210.0	66562759.2958	0.244269744638	174303.100586	0.164231751114	1.53499400616	68909.0962499	45180.0811768	10929.5877859	54.1642893448	601335.961497	66418869.3608	0
5850000.0	37366.0	67709560.8696	0.245075301729	174305.419922	0.166222220287	1.53195118904	68606.2363237	44945.4742432	10982.5286022	54.10321778	93761.8538972	66423680.405	0
5875000.0	37523.0	68870288.2478	0.245888265308	174308.312988	0.168220693013	1.5288952589	68302.9638962	44710.6781006	11033.1573984	54.0609194867	157426.376058	66428491.9604	0
5900000.0	37680.0	70045047.9073	0.246702054925	174309.58252	0.170234299731	1.52586352825	68001.6032391	44477.3529053	11081.9752542	53.8565385761	2125585.23596	66433304.027	0
5925000.0	37837.0	71233947.7717	0.247516019806	174309.020996	0.172263215063	1.52285850048	67702.2519651	44245.5291748	11128.9927666	53.8334956806	1277897.29413	66438116.6049	0
5950000.0	37995.0	72437048.0838	0.248336285246	174308.325195	0.174300483195	1.51984620094	67402.6705567	44013.6169434	11173.5350001	53.9995045955	2372960.91961	66442929.6941	0
5975000.0	38154.0	73654408.2143	0.249162064671	174307.312012	0.1763459004	1.51683175564	67103.2478361	43781.8847656	11215.5460564	53.843594994	123562.199357	66447743.2946	0
6000000.0	38312.0	74886184.5847	0.249978335589	174302.416992	0.17841369845	1.51389312744	66809.5290657	43554.3273926	11256.2195477	53.6887551755	3492374.58369	66452557.4063	0
6025000.0	38471.0	76132435.3856	0.250802416881	174298.876953	0.180488787009	1.51093578339	66514.9106585	43326.2512207	11294.2376593	53.892001378	594312.284554	66457372.0294	0
6050000.0	38631.0	77393211.8511	0.251635210346	174297.277832	0.182570554898	1.50795578957	66219.1328123	43097.4578857	11329.5103286	53.9456345398	1263368.91524	66462187.1638	0
6075000.0	38791.0	78668612.1753	0.252469434391	174295.874023	0.184666190762	1.50499045849	65924.8292177	42869.8730469	11362.6348312	53.8414585	963107.164529	66467002.8095	0
6100000.0	38951.0	79958736.6915	0.253306745099	174294.482422	0.186775898328	1.50203490257	65631.2814157	42642.9229736	11393.6042126	53.9161976615	398551.064193	66471818.9666	0
6125000.0	39112.0	81263635.8287	0.254154417613	174294.689941	0.188892503502	1.49905216694	65335.7701825	42414.6179199	11421.7231311	54.010717292	45732.1735081	66476635.635	0
6150000.0	39273.0	82583409.5449	0.25500448019	174294.750977	0.191023165826	1.49608075619	65041.2314782	42187.1307373	11447.6110883	54.115814775	149144.013153	66481452.8148	0
6175000.0	39435.0	83918107.0942	0.255863432268	174296.337891	0.193160492927	1.49308633804	64745.3985267	41958.8592529	11470.5221294	54.2412144988	553634.866729	66486270.5059	0
6200000.0	39597.0	85267827.106	0.256723397773	174297.729492	0.195311702555	1.49010717869	64451.1095853	41731.8664551	11491.1572968	54.3774112069	1101920.75003	66491088.7085	0
6225000.0	39760.0	86632617.1915	0.257590808765	174300.537109	0.197469373234	1.48710942268	64156.1435234	41504.5959473	11508.7333235	54.5343076956	1741149.94893	66495907.4224	0
6250000.0	39923.0	88012574.9444	0.258457810098	174303.076172	0.19964078092	1.48413097858	63863.3257768	41279.1046143	11523.9952157	54.5349762781	912613.479917	66500726.6478	0
6275000.0	40086.0	89407799.077	0.259324269966	174305.322266	0.201826012926	1.48117160797	63572.6533267	41055.3924561	11537.0730394	54.7133728106	437007.413607	66505546.3847	0
6300000.0	40250.0	90818338.1231	0.26019952892	174308.59375	0.204017880606	1.47819042206	63280.7089852	40830.947876	11547.249305	54.9117235438	110722.050742	66510366.633	0
6325000.0	40414.0	92244292.204	0.261076003339	174311.230469	0.206223819987	1.47522342205	62990.1238506	40607.6538086	11555.315581	55.1202429185	36745.8824874	66515187.3927	0
6350000.0	40579.0	93685709.1201	0.261960136729	174314.794922	0.208436220419	1.4722391367	62698.8141676	40384.0332031	11560.5439116	55.348627427	286796.098021	66520008.664	0
6375000.0	40744.0	95142688.0573	0.262843706374	174317.700195	0.210662576137	1.46927416325	62409.6073557	40162.1307373	11563.7175954	55.5871575701	663751.001872	66524830.4468	0
6400000.0	40910.0	96615275.4223	0.263733090772	174321.459961	0.212895203731	1.46629858017	62120.4709481	39940.4846191	11564.0857992	55.8456938396	1116280.72336	66529652.7412	0
6425000.0	41076.0	98103569.5896	0.264620116586	174324.462891	0.215141597437	1.46334910393	61834.1765899	39721.1120605	11562.4607125	55.9458931779	1912256.59143	66534475.5471	0
6450000.0	41242.0	99607668.6025	0.265503767646	174326.782227	0.217401902773	1.46042990685	61551.1466578	39504.2907715	11558.9066314	56.22424629	1363410.38481	66539298.8646	0
6475000.0	41409.0	101127618.212	0.2663923249	174329.699707	0.219668349018	1.457503438	61268.4741429	39287.9455566	11552.6261965	56.5226921882	892233.385751	66544122.6937	0
6500000.0	41576.0	102663520.063	0.26727991725	174331.469727	0.221948997932	1.45459938049	60987.9593422	39073.324585	11544.4984207	56.8309626792	492053.386139	66548947.0344	0
6525000.0	41744.0	104215420.644	0.268172775403	174333.532715	0.224235947826	1.4516876936	60707.5597645	38858.984375	11533.7293771	57.3294062548	4450076.04604	66553771.8868	0
6550000.0	41913.0	105783365.39	0.269069944455	174335.778809	0.226529024076	1.4487735033	60427.6410407	38645.1568604	11520.339118	57.5078825618	10615.8629846	66558597.2508	0
6575000.0	42081.0	107367507.07	0.269955847332	174335.302734	0.22884394275	1.44592607021	60153.2570218	38435.458374	11506.0421474	57.856189215	135831.141422	66563423.1266	0
6600000.0	42251.0	108967835.554	0.270851415961	174336.303711	0.231156736845	1.44305169582	59877.7280053	38225.0915527	11488.3567064	58.2353325689	418596.832395	66568249.514	0
6625000.0	42420.0	110584502.925	0.271733491913	174334.472656	0.233491213294	1.44025146961	59608.3760143	38019.2871094	11469.8294719	58.441928598	3353633.84423	66573076.4131	0
6650000.0	42590.0	112217552.933	0.272616317289	174332.495117	0.235831626924	1.43746352196	59340.7103723	37814.8132324	11448.8429163	59.0138579562	1371327.57124	66577903.824	0
6675000.0	42761.0	113867031.068	0.273502329525	174330.236816	0.238177977735	1.43468093872	59073.7554356	37610.9069824	11425.4231996	59.4341584316	1966038.18414	66582731.7467	0
6700000.0	42932.0	115533035.11	0.274386759947	174327.526855	0.240537585341	1.43191981316	58808.7718739	37408.5449219	11400.4240395	59.69058943	1480256.56882	66587560.1812	0
6725000.0	43103.0	117215659.529	0.275269702425	174324.694824	0.242910260567	1.42917764187	58545.8305967	37207.8125	11373.9184605	60.1313558548	965315.810175	66592389.1274	0
6750000.0	43275.0	118914941.074	0.276157472883	174323.181152	0.245287665166	1.4264228344	58282.8772299	37007.2937012	11345.0701637	60.5936519964	538832.870006	66597218.5856	0
6775000.0	43447.0	120630971.315	0.277042167663	174321.606445	0.247677904554	1.42368817329	58022.4478707	36808.8378906	11314.7544638	61.0669781386	193561.254812	66602048.5555	0
6800000.0	43620.0	122363784.277	0.277930228533	174321.386719	0.250072596828	1.42094242573	57762.6018128	36611.1206055	11282.1783181	61.7401594132	5994012.98185	66606879.0374	0
6825000.0	43794.0	124113413.439	0.278820738904	174322.485352	0.252471567364	1.41818726063	57503.5823719	36414.3310547	11247.3617337	62.0798314691	180161.513363	66611710.0311	0
6850000.0	43967.0	125880007.348	0.279700988372	174322.106934	0.254891696386	1.41547846794	57249.0495979	36221.0571289	11212.1109207	62.4176269662	4390400.49542	66616541.5368	0
6875000.0	44141.0	127663602.826	0.280585574572	174322.753906	0.257316569332	1.41275560856	56994.6090913	36028.1494141	11174.7127972	63.1376130418	1041402.08161	66621373.5545	0
6900000.0	44316.0	129464233.879	0.28147411146	174324.414062	0.25974586606	1.41002178192	56740.4353294	35835.6964111	11135.2018354	63.7005701113	1605735.88501	66626206.0841	0
6925000.0	44491.0	131281991.112	0.282358694227	174325.805664	0.262187881162	1.40731060505	56488.9415739	35645.4071045	11094.5149146	64.0920208744	2222694.72679	66631039.1256	0
6950000.0	44666.0	133116964.63	0.28323886982	174326.928711	0.264642410912	1.40462577343	56240.3373772	35457.3974609	11052.6902335	64.6771999595	1568470.9696	66635872.6793	0
6975000.0	44842.0	134969185.682	0.284120777668	174329.064941	0.267100986093	1.40194165707	55992.7858035	35270.3338623	11008.4726061	65.4737811705	3932985.25947	66640706.7449	0
7000000.0	45019.0	136838683.817	0.285003720952	174332.177734	0.269563315669	1.39926314354	55746.6535701	35084.4665527	10961.6031971	66.1144331391	4890548.66719	66645541.3226	0
7025000.0	45196.0	138725548.548	0.285881685459	174334.838867	0.272038159892	1.39661836624	55503.5799857	34900.9124756	10913.0280263	66.5837903828	120651.873844	66650376.4125	0
7050000.0	45373.0	140629871.485	0.286754645786	174336.938477	0.2745258098	1.39400458336	55263.286901	34719.4854736	10862.8908429	67.2562414132	64081.3224007	66655212.0144	0
7075000.0	45551.0	142551684.7	0.287629245481	174339.746094	0.277017592452	1.39139318466	55023.9853145	34538.9526367	10810.4080409	67.9570720956	426498.93147	66660048.1286	0
7100000.0	45729.0	144491077.649	0.288498004184	174342.016602	0.27952180244	1.38881123066	54787.6810204	34360.748291	10756.5724874	68.4819102619	4227189.79362	66664884.7549	0
7125000.0	45907.0	146448139.414	0.289360268334	174343.798828	0.282038527075	1.38625776768	54554.5431197	34185.0463867	10701.477454	69.2138690828	3220022.22127	66669721.8934	0
7150000.0	46086.0	148422898.417	0.290222320201	174346.289062	0.284558860585	1.38370394707	54322.765016	34010.6048584	10644.3152678	70.1700852596	2680998.72574	66674559.5442	0
7175000.0	46266.0	150415381.876	0.291083422946	174349.450684	0.287082482828	1.38114881516	54092.5060728	33837.5823975	10585.2034853	70.961503434	3760891.55803	66679397.7073	0
7200000.0	46446.0	152425678.41	0.291937580279	174351.953125	0.289618532406	1.37861645222	53865.4586	33667.2088623	10525.1371602	71.5704409947	687903.048915	66684236.3826	0
7225000.0	46626.0	154453878.206	0.29278472682	174353.625488	0.292167183943	1.37610840797	53641.4596759	33499.307251	10464.2282216	72.3924698542	129700.58569	66689075.5703	0
7250000.0	46807.0	156500010.727	0.293631541667	174355.67627	0.29471956077	1.37360012531	53418.7919096	33332.6660156	10401.6501244	73.2436771538	146808.223629	66693915.2704	0
7275000.0	46988.0	158564164.014	0.294470574805	174356.958008	0.29728419031	1.37112092972	53199.3733164	33168.5974121	10338.4132504	74.1109115457	781793.569878	66698755.4829	0
7300000.0	47170.0	160646364.215	0.29530826216	174358.532715	0.299852166791	1.36864817142	52981.5387299	33005.8990479	10273.6994416	75.007608039	1721910.34413	66703596.2078	0
7325000.0	47352.0	162746696.851	0.296137723291	174359.338379	0.302431901218	1.36621141434	52767.1450617	32845.8190918	10208.4827842	75.7125573671	2381637.40588	66708437.4452	0
7350000.0	47534.0	164865246.337	0.296958253485	174359.326172	0.305023451801	1.3638137579	52556.3274875	32688.4246826	10142.8448514	76.6396102798	1212504.11717	66713279.195	0
7375000.0	47717.0	167002038.716	0.297776535831	174359.362793	0.307618291117	1.36142838001	52347.1731638	32532.3822021	10075.9914941	77.5962768583	320478.868037	66718121.4574	0
7400000.0	47900.0	169157161.647	0.298586203541	174358.300781	0.31022526673	1.35907948017	52141.3380027	32378.8452148	10008.8974167	78.5686970957	119433.92519	66722964.2324	0
7425000.0	48084.0	171330640.783	0.299393661138	174357.15332	0.312835414661	1.35674059391	51937.1401724	32226.6784668	9940.7765315	79.5707979067	964378.822176	66727807.5199	0
7450000.0	48268.0	173522562.232	0.300192025949	174354.907227	0.315457582474	1.35443639755	51736.3103694	32077.0843506	9872.54476158	80.5887737706	2325529.43111	66732651.32	0
7475000.0	48453.0	175732950.559	0.300988396066	174352.832031	0.318082631566	1.35213911533	51537.0558856	31928.8513184	9803.44652391	81.6366831448	4090033.11133	66737495.6328	0
7500000.0	48638.0	177961888.63	0.301777386022	174350.793457	0.320718711009	1.34986531734	51340.6295616	31782.8796387	9734.3723149	82.4777775902	508360.868846	66742340.4583	0
7525000.0	48823.0	180209457.341	0.302558955406	174348.779297	0.323366082739	1.34761369228	51147.0586969	31639.2272949	9665.42397402	83.5549669338	104649.027019	66747185.7964	0
7550000.0	49009.0	182475678.846	0.303339362315	174347.705078	0.326016102917	1.34536147118	50954.68392	31496.7468262	9595.80498557	84.6623559502	1155718.91208	66752031.6474	0
7575000.0	49195.0	184760636.617	0.304112228856	174346.459961	0.328677619109	1.34313225746	50765.0372257	31356.4880371	9526.41550143	85.5552242845	3043056.42824	66756878.0111	0
7600000.0	49381.0	187064412.414	0.30487745309	174345.141602	0.331350485794	1.3409268856	50578.1455194	31218.4295654	9457.34087909	86.6906321996	1253538.45438	66761724.8876	0
7625000.0	49568.0	189387023.092	0.305640791708	174344.775391	0.334025302436	1.33872199059	50392.4988652	31081.5063477	9387.78785268	87.8564213776	88066.8475669	66766572.2769	0
7650000.0	49755.0	191728546.677	0.306396166366	174344.360352	0.33671077108	1.33654177189	50209.6327032	30946.7498779	9318.6337999	89.0374177897	737205.374928	66771420.1791	0
7675000.0	49943.0	194088995.422	0.307149143421	174344.970703	0.339397607604	1.33436369896	50028.087805	30813.1256104	9249.13608932	90.2489439775	2541988.82427	66776268.5942	0
7700000.0	50131.0	196468443.674	0.307893512095	174345.556641	0.342094572261	1.33221077919	49849.4413733	30681.729126	9180.1365289	91.2330042866	1480868.50534	66781117.5223	0
7725000.0	50319.0	198866970.616	0.308628779454	174345.935059	0.344802509062	1.33008217812	49673.6505349	30552.5604248	9111.10149765	92.4775689929	70314.6379008	66785966.9633	0
7750000.0	50508.0	201284590.296	0.309361040947	174347.143555	0.347512133885	1.32795631886	49499.2680221	30424.6337891	9040.83838675	93.7635382909	989895.162442	66790816.9173	0
7775000.0	50697.0	203721381.437	0.310084405748	174348.168945	0.35023241071	1.32585525513	49327.6945786	30298.9257812	8970.23068363	94.8241565034	3124631.29431	66795667.3844	0
7800000.0	50886.0	206177421.331	0.310799323256	174349.072266	0.352963426849	1.32377874851	49158.8192727	30175.3509521	8899.35360522	96.1582014694	842191.506167	66800518.3645	0
7825000.0	51076.0	208652722.456	0.311511460065	174350.78125	0.355695781764	1.32170653343	48991.274978	30052.9754639	8827.51473947	97.5343101932	243153.38188	66805369.8577	0
7850000.0	51266.0	211147361.576	0.312215107615	174352.416992	0.358438643161	1.31966114044	48826.4346392	29932.711792	8755.58282925	98.9358618217	2270529.38886	66810221.8641	0
7875000.0	51457.0	213661353.254	0.312915287721	174354.736328	0.361183017958	1.31762206554	48663.0573195	29813.7451172	8682.84507558	100.380124051	5469753.11271	66815074.3836	0
7900000.0	51648.0	216194776.371	0.313606328018	174356.738281	0.363938394003	1.31561040878	48502.4748314	29696.9696045	8610.18217804	101.583699669	8704.34052413	66819927.4163	0
7925000.0	51839.0	218747708.515	0.314288039322	174358.47168	0.366704451153	1.31362569332	48344.6820201	29582.3638916	8537.63990381	102.806256414	5241008.73459	66824780.9623	0
7950000.0	52030.0	221320227.156	0.314960871163	174359.912109	0.369481160305	1.3116697073	48189.639194	29469.8516846	8465.28125186	104.319840086	1870964.79264	66829635.0215	0
7975000.0	52222.0	223912342.309	0.315629915604	174362.011719	0.372258771677	1.30972194672	48036.0253045	29358.5113525	8392.42082595	105.87657513	4142.80645872	66834489.5941	0
8000000.0	52414.0	226524127.012	0.316290264041	174363.903809	0.375046452973	1.30780303478	47885.1384876	29249.2156982	8319.88605085	107.458445427	2087636.91068	66839344.68	0
8025000.0	52607.0	229155588.187	0.316946842784	174366.418457	0.377834658138	1.30589413643	47735.6810401	29141.0583496	8246.97303838	109.08421167	5963320.91088	66844200.2792	0
8050000.0	52800.0	231806800.78	0.317594272814	174368.530273	0.380633020541	1.3040163517	47588.9776482	29034.9731445	8174.49258054	110.449094185	190065.505368	66849056.3919	0
8075000.0	52993.0	234477839.896	0.318232570025	174370.214844	0.383441860322	1.30216872692	47444.9915822	28930.9265137	8102.524586	111.831279584	4248017.61324	66853913.0181	0
8100000.0	53186.0	237168780.855	0.318861390038	174371.484375	0.386260973755	1.30034852028	47303.6857622	28828.9459229	8031.09319916	113.524031997	751931.91794	66858770.1578	0
8125000.0	53380.0	239879631.3	0.319485253176	174373.266602	0.389080611058	1.29853463173	47163.9082247	28728.2897949	7959.52245855	115.26068167	1038279.92621	66863627.811	0
8150000.0	53574.0	242610464.462	0.320099102948	174374.658203	0.391910434701	1.29674386978	47026.7767715	28629.7210693	7888.60685804	117.021330953	5073199.2955	66868485.9777	0
8175000.0	53769.0	245361286.975	0.3207070765	174376.586914	0.394740607589	1.29495573044	46891.230801	28532.5836182	7817.67929431	118.521237072	34840.5574688	66873344.6581	0
8200000.0	53963.0	248132240.344	0.321300010947	174377.148438	0.397590745706	1.29320681095	46759.3827485	28438.2629395	7748.16356301	120.017109403	4455795.95429	66878203.8521	0
8225000.0	54158.0	250923334.555	0.321886742758	174378.039551	0.400441815145	1.2914634943	46629.1655118	28345.3826904	7678.74323785	121.860581211	490368.13662	66883063.5599	0
8250000.0	54353.0	253734644.273	0.322462704594	174378.393555	0.40330318734	1.28974413872	46501.6448114	28254.6295166	7610.12871099	123.726865922	1923930.68138	66887923.7813	0
8275000.0	54549.0	256566176.989	0.323031874173	174379.052734	0.406164966989	1.28803157806	46375.8314239	28165.3747559	7541.68014171	125.636615458	7369957.45883	66892784.5165	0
8300000.0	54745.0	259418004.649	0.323590174126	174379.162598	0.40903664194	1.28634381294	46252.7523594	28078.2745361	7474.12623472	127.243953988	1180476.90931	66897645.7655	0
8325000.0	54941.0	262290198.016	0.324137305863	174378.723145	0.411918095779	1.28468251228	46132.4277551	27993.3166504	7407.46208809	128.865240821	1888751.60587	66902507.5283	0
8350000.0	55137.0	265182827.649	0.324672316825	174377.722168	0.414809212089	1.28304696083	46014.9970236	27910.6536865	7341.73109108	130.499530741	8425044.37965	66907369.805	0
8375000.0	55333.0	268095969.715	0.325193338005	174376.000977	0.417710689362	1.28143894672	45900.7405755	27830.5175781	7276.95887663	132.482966278	2050674.44368	66912232.5956	0
8400000.0	55530.0	271029629.999	0.325705891502	174374.365234	0.420612574089	1.27984070778	45788.4344774	27752.053833	7212.5442951	134.508227201	998777.139192	66917095.9002	0
8425000.0	55727.0	273983880.977	0.326208671466	174372.167969	0.4235242086	1.27826714516	45678.6260338	27675.5187988	7149.14730755	136.55322255	7117518.90006	66921959.7188	0
8450000.0	55925.0	276958724.275	0.326708145364	174370.825195	0.426435319241	1.27669692039	45569.9448824	27599.9755859	7086.17530156	138.289869202	1419090.53998	66926824.0513	0
8475000.0	56122.0	279954294.586	0.327198506947	174368.798828	0.429365260061	1.27516174316	45463.8640817	27526.272583	7024.84542028	140.014556968	1256539.03389	66931688.898	0
8500000.0	56320.0	282970588.384	0.32768975389	174367.700195	0.432294182247	1.27362823486	45358.3311806	27453.0456543	6963.91635603	142.131565256	2109434.13275	66936554.2587	0
8525000.0	56518.0	286007672.776	0.328176572176	174366.638184	0.435232184827	1.27211511135	45254.8428952	27381.4147949	6903.50059241	143.914821353	700303.073677	66941420.1335	0
8550000.0	56716.0	289065615.83	0.328657396285	174365.612793	0.438179587945	1.27062225342	45153.4369198	27311.4135742	6843.51880106	145.720519765	5785106.07428	66946286.5226	0
8575000.0	56914.0	292144485.114	0.329131598918	174364.624023	0.441136013251	1.26914870739	45053.826561	27242.7703857	6783.99857917	147.921030835	147068.770298	66951153.4258	0
8600000.0	57113.0	295244278.863	0.329601732602	174364.428711	0.444091769168	1.26768040657	44954.9687595	27174.697876	6724.39796497	150.176580403	4521033.01367	66956020.8433	0
8625000.0	57312.0	298365063.094	0.33006313318	174364.306641	0.447056547273	1.26623141766	44857.4155396	27107.4645996	6665.30633369	152.08190445	247922.05914	66960888.775	0
8650000.0	57511.0	301506904.157	0.330514783988	174364.27002	0.450030347565	1.26480138302	44760.9381638	27040.8325195	6606.73397876	154.009517307	2654892.93138	66965757.2211	0
8675000.0	57710.0	304669870.639	0.330955998983	174364.208984	0.45301328646	1.26339125633	44665.4467312	26974.7039795	6548.71228794	156.350624412	1511949.56353	66970626.1815	0
8700000.0	57910.0	307853961.951	0.331390564618	174364.868164	0.455995788798	1.26198732853	44570.3971916	26908.807373	6490.72978617	158.350551632	868516.521174	66975495.6564	0
8725000.0	58109.0	311059314.973	0.331812622522	174364.746094	0.458997441456	1.26061737537	44477.4942393	26844.3206787	6433.86108462	160.347247018	5458165.78867	66980365.6456	0
8750000.0	58309.0	314285927.111	0.332229730425	174365.393066	0.461998220999	1.25925290585	44385.4262721	26780.4870605	6377.07052048	162.796701047	198770.523399	66985236.1493	0
8775000.0	58509.0	317533863.214	0.332639551767	174366.052246	0.465007789899	1.25790691376	44295.1521118	26718.0328369	6320.899217	165.277470086	7612395.10395	66990107.1675	0
8800000.0	58710.0	320803116.882	0.333046312792	174367.529297	0.468015787192	1.25656557083	44206.1430754	26656.6802979	6264.84435762	167.397965851	2366299.79215	66994978.7003	0
8825000.0	58910.0	324093821.651	0.333443996281	174368.286133	0.471042643767	1.25525689125	44119.9176749	26597.4151611	6209.94112072	169.513419238	163642.930598	66999850.7476	0
8850000.0	59111.0	327405974.0	0.333838432318	174369.702148	0.474068394396	1.25395560265	44034.8736015	26539.1204834	6155.20815625	172.102657847	6251099.11359	67004723.3096	0
8875000.0	59312.0	330739640.199	0.334225572842	174371.069336	0.477103021694	1.25267386436	43951.6874953	26482.2235107	6101.14515887	174.289243825	1605881.67304	67009596.3862	0
8900000.0	59513.0	334094884.513	0.334604482928	174372.399902	0.480146496557	1.25141060352	43870.3448423	26426.7364502	6047.76949523	176.495216733	495448.26139	67014469.9774	0
8925000.0	59714.0	337471768.729	0.334974514951	174373.706055	0.483198440634	1.25016379356	43790.7868463	26372.6470947	5995.09116493	178.720174704	4172528.46719	67019344.0834	0
8950000.0	59915.0	340870356.675	0.335334615145	174375.024414	0.486258708406	1.24893331528	43713.0654244	26320.0042725	5943.1000628	180.96419738	9598720.12148	67024218.7042	0
8975000.0	60116.0	344290709.361	0.335684071993	174376.342773	0.48932741629	1.24771785736	43637.1624357	26268.8323975	5891.81859512	183.682046284	288811.813791	67029093.8397	0
9000000.0	60318.0	347732822.534	0.336024754753	174378.24707	0.49239496002	1.24650788307	43562.6779355	26218.9056396	5840.80005645	186.45609174	7292156.65373	67033969.4901	0
9025000.0	60520.0	351196760.88	0.336354368954	174380.029297	0.495471293107	1.2453161478	43490.2180698	26170.59021	5790.49667403	188.792249433	2933911.86561	67038845.6554	0
9050000.0	60722.0	354682589.673	0.336673333825	174381.665039	0.49855641555	1.24414253235	43419.7149123	26123.8250732	5740.94798547	191.144584353	240038.386695	67043722.3356	0
9075000.0	60924.0	358190375.019	0.33698234498	174383.154297	0.501650443766	1.24298632145	43351.0993264	26078.5552979	5692.129508	193.513367969	1370172.15116	67048599.5307	0
9100000.0	61126.0	361720179.631	0.337281834114	174384.521484	0.504752970301	1.24184775352	43284.2922227	26034.6893311	5644.05458927	195.897800135	4711084.91175	67053477.2408	0
9125000.0	61328.0	365272067.778	0.337572292297	174385.766602	0.507864344399	1.24072647095	43219.2521244	25992.2027588	5596.72981251	198.787794634	2506455.89454	67058355.466	0
9150000.0	61531.0	368846034.919	0.337856665073	174387.597656	0.510973797645	1.239610672	43155.3515316	25950.6866455	5549.7226345	201.23679218	231634.629482	67063234.2062	0
9175000.0	61733.0	372442213.5	0.3381305044	174388.476562	0.51410717424	1.23852443695	43093.6659751	25910.760498	5503.93207031	203.66705943	1110240.49005	67068113.4615	0
9200000.0	61936.0	376060615.224	0.338399600469	174390.209961	0.517228094395	1.23744130135	43032.9105231	25871.6369629	5458.39945924	206.656193324	7601434.97168	67072993.232	0
9225000.0	62139.0	379701275.174	0.338661550562	174391.687012	0.520362285897	1.23637604713	42973.7373261	25833.6853027	5413.66553372	208.636803758	7461677.99448	67077873.5177	0
9250000.0	62341.0	383364329.528	0.338914732115	174392.211914	0.52352034254	1.23533892632	42916.5080873	25797.076416	5370.12362239	211.105147352	11790116.9763	67082754.3186	0
9275000.0	62544.0	387049761.455	0.339164370559	174393.481445	0.526670599356	1.2343057394	42860.1547503	25761.1938477	5326.90267339	214.145773463	15350.6704307	67087635.6347	0
9300000.0	62747.0	390757635.052	0.339406329591	174394.482422	0.529829761945	1.23329210281	42805.4777357	25726.5472412	5284.44731907	217.208960711	11767580.5472	67092517.4662	0
9325000.0	62951.0	394487944.719	0.339641620655	174395.849609	0.532987294719	1.23228752613	42752.1237053	25692.9840088	5242.37638052	219.784775895	8025206.54305	67097399.813	0
9350000.0	63154.0	398240827.977	0.33986649741	174396.276855	0.536164036021	1.23131299019	42700.9639732	25660.9771729	5201.43414272	221.793180982	7036310.06711	67102282.6752	0
9375000.0	63357.0	402016349.663	0.340083537404	174396.362305	0.539349624887	1.23035621643	42651.4575198	25630.2246094	5161.08931703	224.908992187	2441291.13602	67107166.0528	0
9400000.0	63561.0	405814500.396	0.340294504602	174396.838379	0.542533351108	1.22940683365	42603.0976155	25600.4119873	5120.91685948	227.526904919	676552.667228	67112049.9458	0
9425000.0	63764.0	409635416.823	0.340496003562	174396.30127	0.545736169443	1.22848415375	42556.695546	25571.9894409	5081.63732004	230.13094241	108069.61862	67116934.3543	0
9450000.0	63968.0	413479086.974	0.340692123475	174396.166992	0.548936717678	1.2275673151	42511.3355236	25544.4198608	5042.5261935	232.783736044	1298926.26371	67121819.2784	0
9475000.0	64171.0	417345647.084	0.340879465419	174395.056152	0.552156125195	1.22667467594	42467.7412699	25518.1137085	5004.28748327	235.421995741	3067987.36199	67126704.718	0
9500000.0	64375.0	421235083.926	0.341061605378	174394.299316	0.555373262614	1.2257860899	42425.0498228	25492.5643921	4966.20242761	238.694743567	7478462.7664	67131590.6732	0
9525000.0	64579.0	425147456.003	0.341237526899	174393.249512	0.558598199859	1.22491025925	42383.5938283	25467.956543	4928.62908127	240.814726024	7554028.90837	67136477.144	0
9550000.0	64782.0	429082898.075	0.34140557084	174391.223145	0.561841879971	1.22405648232	42343.6826258	25444.4198608	4891.90394134	243.503824625	10067458.6815	67141364.1306	0
9575000.0	64986.0	433041392.669	0.341569385353	174389.733887	0.565082533285	1.22320318222	42304.4644948	25421.5148926	4855.3298414	246.84782859	1859991.22987	67146251.6328	0
9600000.0	65190.0	437022997.87	0.34172628519	174388.415527	0.568330637179	1.22236132622	42266.5406999	25399.621582	4819.24612574	249.610748464	744966.070499	67151139.6508	0
9625000.0	65394.0	441027777.315	0.341875136426	174387.17041	0.571587064769	1.22153317928	42230.1305488	25378.9260864	4783.65116547	252.390107805	78206.2444419	67156028.1846	0
9650000.0	65598.0	445055790.717	0.342016252504	174385.998535	0.574851874262	1.22071802616	42195.1773743	25359.3841553	4748.53807982	255.185758426	258820.418911	67160917.2343	0
9675000.0	65802.0	449107100.195	0.342149921121	174384.912109	0.578124891035	1.21991586685	42161.6064689	25340.9255981	4713.91045645	257.99708518	919695.03754	67165806.7997	0
9700000.0	66006.0	453181764.677	0.342276487783	174383.959961	0.58140582405	1.21912670135	42129.3464081	25323.475647	4679.75114526	260.824643656	1721415.89718	67170696.8811	0
9725000.0	66210.0	457279843.919	0.342396299972	174383.093262	0.584694731515	1.21835029125	42098.3358901	25306.9793701	4646.06381589	264.313942015	12372832.7118	67175587.4784	0
9750000.0	66415.0	461401321.605	0.342510546094	174383.007812	0.587980728596	1.21757745743	42068.1830709	25291.2109375	4612.52782634	267.21454828	11178233.9478	67180478.5917	0
9775000.0	66619.0	465546330.2	0.342617591656	174382.446289	0.591285177507	1.21682524681	42039.4355169	25276.4129639	4579.75682642	269.435881756	4264587.19054	67185370.221	0
9800000.0	66823.0	469714928.081	0.342718655241	174382.006836	0.594597426243	1.21608424187	42011.6792659	25262.3474121	4547.43833944	272.325668525	5038057.98875	67190262.3664	0
9825000.0	67027.0	473907171.187	0.34281417451	174381.750488	0.59791712556	1.21535480022	41984.8781838	25248.9593506	4515.56110251	275.230870394	5739087.52939	67195155.0278	0
9850000.0	67231.0	478123116.955	0.342904280311	174381.665039	0.601244624704	1.21463668346	41958.9616674	25236.1953735	4484.12886975	278.832299703	8102069.78182	67200048.2053	0
9875000.0	67436.0	482362744.296	0.342990338416	174382.397461	0.604568282142	1.21392095089	41933.5683686	25223.8464355	4452.83720752	281.810317223	7694562.82275	67204941.899	0
9900000.0	67640.0	486626185.255	0.343070125845	174382.678223	0.607910507824	1.21322476864	41909.2819202	25212.1948242	4422.268848	284.070751061	7292398.80256	67209836.1089	0
9925000.0	67844.0	490913501.546	0.343143325013	174383.007812	0.611260940786	1.21254146099	41886.0620482	25201.3168335	4392.12251674	287.034275104	7564596.22314	67214730.8351	0
9950000.0	68048.0	495224755.753	0.343209927458	174383.361816	0.614619639236	1.21187138557	41863.9007409	25191.204834	4362.41159287	290.721187224	7305311.28657	67219626.0775	0
9975000.0	68253.0	499559930.222	0.343270993052	174384.411621	0.617975485511	1.21120607853	41842.580343	25181.7764282	4332.83980628	293.754829265	7485246.44955	67224521.8362	0
10000000.0	68457.0	503919162.706	0.343325054511	174384.924316	0.621350307483	1.21056103706	41822.5459273	25173.2086182	4303.95518547	296.039625158	7467000.61438	67229418.1112	0
10025000.0	68661.0	508302511.284	0.343373229636	174385.48584	0.62473298749	1.20992839336	41803.541843	25165.3869629	4275.48374879	299.055083528	7140033.33472	67234314.9026	0
10050000.0	68865.0	512710034.635	0.343415569697	174386.169434	0.628123409115	1.20930743217	41785.5484673	25158.2946777	4247.41050714	302.823865473	8959530.95557	67239212.2104	0
10075000.0	69070.0	517141713.224	0.343453110953	174387.548828	0.631510454696	1.20869123936	41768.3585884	25151.8478394	4219.47526879	305.909551366	9803819.24438	67244110.0347	0
10100000.0	69274.0	521597679.659	0.343484584442	174388.427734	0.63491606852	1.20809352398	41752.3707297	25146.2036133	4192.19782818	308.214611495	5362441.19337	67249008.3754	0
10125000.0	69478.0	526077991.244	0.343511084022	174389.428711	0.638328958303	1.20750701427	41737.3543849	25141.2612915	4165.30709473	311.279748226	4563725.73039	67253907.2326	0
10150000.0	69682.0	530582701.557	0.343532691802	174390.551758	0.641749240458	1.20693075657	41723.2827297	25137.008667	4138.79788028	314.356724542	3696917.16364	67258806.6064	0
10175000.0	69886.0	535111865.792	0.343549574771	174391.772461	0.645176798571	1.20636475086	41710.1305896	25133.4320068	4112.66960296	317.445009374	2791315.32443	67263706.4968	0
10200000.0	70090.0	539665536.602	0.343561731537	174393.164062	0.648611283395	1.20580887794	41697.9071802	25130.5282593	4086.91268245	320.544873857	1880421.71814	67268606.9038	0
10225000.0	70294.0	544243772.991	0.343567979098	174394.543457	0.65205374267	1.20526444912	41686.7817243	25128.4484863	4061.53111811	323.654842111	1010408.93065	67273507.8275	0
10250000.0	70498.0	548846634.685	0.343567922813	174395.947266	0.655504176393	1.20473182201	41676.7461061	25127.1881104	4036.51547978	326.774996363	279872.916704	67278409.2678	0
10275000.0	70702.0	553474179.804	0.343562294371	174397.363281	0.658962177113	1.20421051979	41667.7440122	25126.6891479	4011.8653446	329.90490796	96039.6429512	67283311.2249	0
10300000.0	70906.0	558126467.714	0.3435511506	174398.754883	0.662428268697	1.20370054245	41659.7322155	25126.9241333	3987.57589017	333.044031265	858926.052579	67288213.6988	0
10325000.0	71110.0	562803556.275	0.343534914632	174400.170898	0.665901927277	1.20320105553	41652.6686789	25127.8594971	3963.63802834	336.192710178	2125703.44437	67293116.6894	0
10350000.0	71314.0	567505503.623	0.343513841114	174401.586914	0.669383211061	1.2027118206	41646.5103114	25129.4662476	3940.05151124	339.350262499	3850736.45052	67298020.1969	0
10375000.0	71518.0	572232365.977	0.343488241253	174403.027344	0.672872178257	1.20223295689	41641.2017441	25131.6894531	3916.79886787	342.517491891	6026407.73762	67302924.2213	0
10400000.0	71722.0	576984200.265	0.343458482695	174404.467773	0.676368712448	1.20176374912	41636.7057691	25134.5001221	3893.88011215	344.846521601	9149178.87204	67307828.7626	0
10425000.0	71925.0	581761142.382	0.343424680079	174405.34668	0.679884047713	1.20130980015	41633.0816846	25137.8723145	3871.49926285	347.984852774	6506546.72986	67312733.8208	0
10450000.0	72129.0	586563169.156	0.343387369942	174406.835938	0.683395424858	1.20085942745	41630.0553529	25141.7236328	3849.20901531	352.035683152	15280814.3885	67317639.3961	0
10475000.0	72333.0	591390336.08	0.343346751319	174408.337402	0.686914194375	1.20041823387	41627.7247203	25146.0617065	3827.22779197	354.37036155	1938800.99416	67322545.4883	0
10500000.0	72536.0	596242779.111	0.343302967055	174409.25293	0.69045170676	1.19999229908	41626.1305599	25150.8331299	3805.75650243	357.537223582	391101.602501	67327452.0976	0
10525000.0	72740.0	601120475.856	0.343254783552	174410.754395	0.693985552061	1.19957149029	41625.2785749	25156.1920166	3784.3641189	360.754125059	407082.432815	67332359.224	0
10550000.0	72943.0	606023566.986	0.343201670945	174411.584473	0.697538896929	1.19916796684	41625.4084195	25162.1932983	3763.47625257	363.938510733	2183423.60945	67337266.8676	0
10575000.0	73147.0	610952033.165	0.34314383033	174412.890625	0.701088923961	1.19877004623	41626.3215276	25168.8232422	3742.65025626	367.174038826	4898227.60511	67342175.0283	0
10600000.0	73350.0	615906013.815	0.34308177163	174413.549805	0.704658275936	1.19838833809	41628.1160449	25176.0101318	3722.31139818	369.466852275	10863303.7169	67347083.7062	0
10625000.0	73553.0	620885567.948	0.343015892163	174414.123535	0.708235427737	1.19801616669	41630.649963	25183.7173462	3702.22940176	372.671846329	7012705.86735	67351992.9013	0
10650000.0	73756.0	625890755.414	0.342946420672	174414.624023	0.711820495781	1.19765281677	41633.8805905	25191.9204712	3682.40938417	375.885778567	3655423.90122	67356902.6137	0
10675000.0	73959.0	630921633.223	0.34287386606	174415.014648	0.715413189027	1.19729864597	41637.7627335	25200.5645752	3662.84025013	379.109402873	1054466.13108	67361812.8435	0
10700000.0	74162.0	635978259.799	0.342798428374	174415.332031	0.719013623893	1.19695270061	41642.2563093	25209.6206665	3643.51512302	382.34286418	202719.292738	67366723.5905	0
10725000.0	74365.0	641060691.995	0.342720503496	174415.551758	0.722621567547	1.19661390781	41647.2915048	25219.0490723	3624.43521358	385.58565754	2350343.16779	67371634.855	0
10750000.0	74568.0	646168986.001	0.342640486714	174415.637207	0.72623701999	1.19628214836	41652.8330523	25228.8146973	3605.58189811	388.839272575	5800076.1947	67376546.6368	0
10775000.0	74771.0	651303196.753	0.342558772667	174415.649414	0.729859690182	1.19595766068	41658.8711003	25238.8946533	3586.96449155	392.102396109	10267269.0071	67381458.9361	0
10800000.0	74974.0	656463380.056	0.342475587523	174415.490723	0.733489578124	1.19563889503	41665.3047161	25249.2263794	3568.56859413	394.402286272	5854423.70697	67386371.7529	0
10825000.0	75176.0	661649673.784	0.342390877553	174414.660645	0.737138674594	1.19533228874	41672.2792326	25259.8419189	3550.5788981	397.635043085	2326276.30613	67391285.0872	0
10850000.0	75379.0	666862055.847	0.342302214626	174414.160156	0.740784103982	1.19503009319	41679.9580183	25271.0128784	3532.61783164	400.920421668	86330.0782102	67396198.939	0
10875000.0	75581.0	672100669.309	0.342211140556	174412.866211	0.744449207559	1.19474196434	41688.2910131	25282.5592041	3515.05250143	404.172152978	1651086.39542	67401113.3084	0
10900000.0	75784.0	677365491.695	0.342116822061	174411.938477	0.748110469431	1.19445741177	41697.2095433	25294.5632935	3497.50922914	407.477230717	5329489.02658	67406028.1955	0
10925000.0	75986.0	682656663.995	0.342020798478	174410.27832	0.751791289076	1.19418609142	41706.6981877	25306.8695068	3480.34773938	409.734504804	11418490.3997	67410943.6002	0
10950000.0	76188.0	687974244.545	0.341922152887	174408.679199	0.755479733925	1.19392240047	41716.7803622	25319.5877075	3463.3807322	413.007920838	6279727.05519	67415859.5226	0
10975000.0	76390.0	693318289.99	0.3418210013	174407.299805	0.759175396524	1.19366562366	41727.4192371	25332.699585	3446.59861314	416.292333423	2192436.97942	67420775.9627	0
11000000.0	76592.0	698688856.439	0.341717849341	174406.079102	0.762878626119	1.19341683388	41738.6033386	25346.1624146	3430.00702571	419.586484223	18678.8008934	67425692.9206	0
11025000.0	76794.0	704085998.986	0.341612867626	174405.029297	0.766588898841	1.19317412376	41750.2350197	25359.9334717	3413.5927547	422.891884683	2560591.0889	67430610.3963	0
11050000.0	76996.0	709509771.517	0.341506282031	174404.211426	0.770306447521	1.19293761253	41762.3280889	25374.017334	3397.35774678	426.207800619	7153668.11891	67435528.3898	0
11075000.0	77198.0	714960228.815	0.341398345714	174403.564453	0.774031039327	1.1927074194	41774.8194653	25388.3529663	3381.29276405	429.535152904	13223767.9398	67440446.9011	0
11100000.0	77400.0	720437424.268	0.341289394546	174403.125	0.777762732469	1.19248342514	41787.6946916	25402.9251099	3365.39981772	431.801834755	4511443.57694	67445365.9304	0
11125000.0	77601.0	725941496.417	0.341179846827	174402.34375	0.781513401307	1.19226872921	41800.9012385	25417.6574707	3349.83902124	435.097897026	796577.982995	67450285.4775	0
11150000.0	77803.0	731472417.85	0.341066736165	174402.258301	0.785259646364	1.19205904007	41814.8105117	25432.9406738	3334.27329449	438.449877728	1130665.98528	67455205.5427	0
11175000.0	78004.0	737030330.98	0.340951316916	174401.77002	0.789025507402	1.19186127186	41829.307771	25448.5748291	3319.03497865	440.670677204	19958238.4191	67460126.1258	0
11200000.0	78205.0	742615293.718	0.34083345536	174401.391602	0.792799168266	1.19167172909	41844.4113607	25464.6286011	3303.94973876	445.09461595	11528001.947	67465047.227	0
11225000.0	78407.0	748227277.848	0.340712464721	174401.733398	0.796567997895	1.1914857626	41860.0966409	25481.1416626	3288.85361884	448.479411523	19359135.5192	67469968.8462	0
11250000.0	78608.0	753866425.111	0.340590121783	174401.660156	0.800356443506	1.19131052494	41876.2324241	25497.8912354	3274.06731679	450.708340364	1439092.99683	67474890.9835	0
11275000.0	78809.0	759532791.509	0.340465987364	174401.77002	0.804152456112	1.19114124775	41892.8003312	25514.9261475	3259.42980169	454.060612095	772171.785981	67479813.6389	0
11300000.0	79010.0	765226432.788	0.340340452106	174402.001953	0.807955570053	1.19097793102	41909.7470169	25532.1990967	3244.9361079	456.28614335	21575202.992	67484736.8125	0
11325000.0	79210.0	770947492.036	0.340214485062	174401.855469	0.811778591014	1.19082331657	41926.9746692	25549.5819092	3230.73032946	459.606817133	13387746.8246	67489660.5043	0
11350000.0	79411.0	776695938.901	0.34008698428	174402.380371	0.815596664324	1.19066977501	41944.5505968	25567.2393799	3216.50904553	464.139127644	20178757.6775	67494584.7143	0
11375000.0	79612.0	782471828.7	0.339958835055	174403.088379	0.819421838969	1.19052064419	41962.3739922	25585.0234985	3202.44529663	466.370501259	1431213.83847	67499509.4425	0
11400000.0	79812.0	788275302.273	0.339831333046	174403.381348	0.823266571388	1.1903783083	41980.2995636	25602.7862549	3188.73011621	469.711357004	908510.688313	67504434.6891	0
11425000.0	80013.0	794106328.741	0.339703018708	174404.406738	0.827105890494	1.19023573399	41998.4559412	25620.7244873	3175.04229935	473.103060129	5710312.6902	67509360.454	0
11450000.0	80213.0	799965048.501	0.339574278878	174405.004883	0.830965058412	1.19010090828	42016.8630436	25638.7573242	3161.69093841	475.261292025	13534550.4623	67514286.7372	0
11475000.0	80413.0	805851522.205	0.33944332901	174405.700684	0.834832084365	1.18997240067	42035.7555841	25657.119751	3148.50979794	478.602493143	6319282.59708	67519213.5388	0
11500000.0	80613.0	811765807.624	0.33931064097	174406.518555	0.838706619106	1.18984973431	42055.070508	25675.7537842	3135.50410036	481.945744953	1166931.93912	67524140.8588	0
11525000.0	80813.0	817707962.048	0.339176465803	174407.446289	0.842588837259	1.18973219395	42074.7712436	25694.6502686	3122.65840921	485.292802829	1390630.75016	67529068.6973	0
11550000.0	81013.0	823678043.525	0.339041163436	174408.459473	0.846478622407	1.18961966038	42094.8069057	25713.7512207	3109.9711963	488.643500063	6947659.05498	67533997.0543	0
11575000.0	81213.0	829676109.374	0.338905065302	174409.570312	0.850375799928	1.18951177597	42115.1301298	25733.026123	3097.44095582	490.767708113	12609635.2193	67538925.9297	0
11600000.0	81412.0	835702302.62	0.338769350009	174410.266113	0.854292768054	1.18941140175	42135.6121509	25752.3193359	3085.19831053	494.070250258	5304579.28166	67543855.3237	0
11625000.0	81612.0	841756593.868	0.338632595086	174411.572266	0.858204788528	1.1893119812	42156.3790721	25771.8353271	3072.95344431	498.67258306	36560525.9791	67548785.2363	0
11650000.0	81812.0	847839038.74	0.338496005165	174412.976074	0.862124259584	1.18921661377	42177.3156469	25791.4215088	3060.8546353	500.785453745	2490721.56876	67553715.6675	0
11675000.0	82011.0	853949779.502	0.338360699115	174413.964844	0.866063521244	1.18912780285	42198.2666579	25810.9130859	3049.02440189	502.839168491	20458979.5106	67558646.6173	0
11700000.0	82210.0	860088874.347	0.338226101228	174415.002441	0.870010117069	1.18904209137	42219.2897952	25830.4046631	3037.3199278	506.153828037	11451179.4159	67563578.0858	0
11725000.0	82409.0	866256377.642	0.338092455216	174416.162109	0.873963814229	1.1889603138	42240.3666042	25849.8657227	3025.74011459	509.474300495	4349824.65301	67568510.073	0
11750000.0	82608.0	872452344.474	0.337959731721	174417.382812	0.877924961969	1.18888163567	42261.4806919	25869.2962646	3014.27725877	512.801341037	113773.41177	67573442.5789	0
11775000.0	82807.0	878676834.819	0.337826051202	174418.676758	0.88189356029	1.18880927563	42282.9403897	25888.9282227	3002.9336616	516.134235341	3343191.42431	67578375.6036	0
11800000.0	83006.0	884929904.71	0.337691443242	174420.019531	0.885869725607	1.18874359131	42304.7385013	25908.7463379	2991.70173291	519.473895861	10341037.8577	67583309.1471	0
11825000.0	83205.0	891211613.111	0.337556209015	174421.398926	0.889853807166	1.18868303299	42326.8005642	25928.7139893	2980.58053802	522.819977638	19688678.1945	67588243.2094	0
11850000.0	83404.0	897522018.603	0.337420675888	174422.77832	0.893845455721	1.18862736225	42349.0782573	25948.7884521	2969.55937202	524.852231234	3716740.75129	67593177.7906	0
11875000.0	83602.0	903861269.314	0.337286092364	174423.718262	0.897857302334	1.18857872486	42371.4208489	25968.8049316	2958.77062009	528.15603052	35791.9069442	67598112.8907	0
11900000.0	83801.0	910229330.835	0.337150776018	174425.195312	0.901863910258	1.18853139877	42394.00432	25988.9984131	2947.94661939	531.517830711	4352655.03313	67603048.5097	0
11925000.0	83999.0	916626353.782	0.337017003421	174426.196289	0.905891065486	1.18848979473	42416.5388585	26009.0545654	2937.34603986	533.490630185	19597302.8449	67607984.6476	0
11950000.0	84197.0	923052394.033	0.336883986335	174427.22168	0.909925554879	1.18845069408	42439.0987706	26029.0771484	2926.83499539	536.810854457	10429422.9642	67612921.3046	0
11975000.0	84395.0	929507508.765	0.336752155692	174428.271484	0.913967611268	1.1884137392	42461.6310101	26049.029541	2916.40959483	540.140032163	3416248.01449	67617858.4806	0
12000000.0	84593.0	935991755.937	0.336621616893	174429.321289	0.918017118238	1.18837845325	42484.0952177	26068.8751221	2906.06280887	543.479343958	121823.021587	67622796.1756	0
12025000.0	84791.0	942505191.186	0.336492879969	174430.395508	0.922073959373	1.18834412098	42506.4314231	26088.5772705	2895.79724321	546.828198269	4588492.73275	67627734.3898	0
12050000.0	84989.0	949047871.106	0.336365967877	174431.469727	0.926138251089	1.18831038475	42528.6057044	26108.1054688	2885.60912762	550.187058284	12122114.3022	67632673.1231	0
12075000.0	85187.0	955619834.706	0.336240175769	174432.60498	0.930207257625	1.18827819824	42550.7535901	26127.5726318	2875.48842777	552.161436444	11549030.1266	67637612.3755	0
12100000.0	85384.0	962221252.035	0.336115285758	174433.154297	0.934299954679	1.18825137615	42572.9122864	26146.9665527	2865.56367949	555.482708858	4333037.94708	67642552.1472	0
12125000.0	85582.0	968852089.073	0.335989761787	174434.143066	0.938387122005	1.18822586536	42595.3110648	26166.5435791	2855.58853167	558.86520773	62950.082648	67647492.4381	0
12150000.0	85779.0	975512498.449	0.335865541804	174434.631348	0.942495302297	1.18820595741	42617.6638799	26185.9863281	2845.79808303	562.208111672	3567508.3645	67652433.2482	0
12175000.0	85977.0	982202446.097	0.335741144889	174435.559082	0.946597661823	1.18818628788	42640.1719368	26205.5419922	2835.94778707	565.614651283	10748419.4861	67657374.5777	0
12200000.0	86174.0	988922084.771	0.335618800524	174435.913086	0.950721441768	1.18817150593	42662.5296856	26224.8840332	2826.28053309	567.540390364	14395380.802	67662316.4265	0
12225000.0	86371.0	995671473.93	0.335497538223	174436.206055	0.954852788709	1.18815910816	42684.8476705	26244.1314697	2816.66788109	570.910926183	6459600.63727	67667258.7946	0
12250000.0	86568.0	1002450671.72	0.33537775799	174436.450195	0.958991877269	1.18814897537	42707.0831901	26263.2507324	2807.10641579	574.29484765	1025602.7027	67672201.6822	0
12275000.0	86765.0	1009259738.23	0.335259697927	174436.59668	0.963138823863	1.18814063072	42729.1912817	26282.2052002	2797.60198094	577.690825471	1713649.88085	67677145.0892	0
12300000.0	86962.0	1016098732.64	0.335143488388	174436.669922	0.967293628491	1.18813419342	42751.1431489	26300.9613037	2788.14503295	581.100759746	7631199.63613	67682089.0157	0
12325000.0	87159.0	1022967714.82	0.335029366463	174436.657715	0.9714558837	1.18812942505	42772.915666	26319.5037842	2778.73530764	584.524915049	15862906.4894	67687033.4616	0
12350000.0	87356.0	1029866741.53	0.334917488429	174436.560059	0.975625996944	1.18812584877	42794.4560558	26337.7868652	2769.36950184	586.471418088	11260214.2818	67691978.4272	0
12375000.0	87552.0	1036795967.0	0.334808999084	174435.827637	0.979817239568	1.18812561035	42815.6197225	26355.657959	2760.16254362	589.863307271	4482189.79966	67696923.9123	0
12400000.0	87749.0	1043755360.11	0.334700606711	174435.48584	0.984002952464	1.1881275177	42836.938001	26373.5870361	2750.88048023	593.323167273	233804.499403	67701869.917	0
12425000.0	87945.0	1050745074.64	0.3345938593	174434.49707	0.988210085779	1.1881364584	42858.1977969	26391.3299561	2741.75305195	596.744938447	2708349.63861	67706816.4413	0
12450000.0	88142.0	1057765078.45	0.334487126608	174433.874512	0.992411980405	1.18814694881	42879.6038852	26409.1400146	2732.55089855	600.235041012	8912129.8942	67711763.4853	0
12475000.0	88338.0	1064815525.64	0.334382248061	174432.60498	0.996635179035	1.18816280365	42900.8660686	26426.7181396	2723.49325869	602.152631463	20606843.9863	67716711.0491	0
12500000.0	88534.0	1071896480.89	0.334278714046	174431.152344	1.00086675957	1.18818092346	42922.0397238	26444.1589355	2714.47160312	606.184076922	8.92758827371e-13	67721659.1325	0
