z	T	P	nabla_ad	S	rho	delta	cp	cv	opac	frad	fconv	ftot	dT
0.0	3900.0	95.9698722268	0.388405428836	175858.178711	3.86659326779e-06	1.00627171993	16554.6798202	10113.2553101	0.000526697422999	0.0	12892.4110962	65311815.0903	0
25000.0	3900.0	126.458919197	0.384924674398	174089.282227	5.09569098028e-06	1.00824189186	16753.2104416	10288.3514404	0.000628619034799	0.0	17209.993634	65316507.3538	0
50000.0	3900.0	166.644797278	0.380454854602	172316.552734	6.71622624182e-06	1.01082217693	17013.6353762	10518.0847168	0.000749131349903	0.0	23787.5287701	65321200.1229	0
75000.0	3900.0	219.618147032	0.37476922626	170538.73291	8.85334205947e-06	1.01425671577	17357.150396	10820.2972412	0.000890814217673	0.0	31064.4828801	65325893.3976	0
100000.0	3900.0	289.458585025	0.367601429037	168754.382324	1.16724701016e-05	1.01879644394	17807.9220297	11216.7251587	0.00105768214532	0.0	40879.5601994	65330587.1781	0
125000.0	3900.0	381.555120478	0.358687742705	166960.864258	1.53927501856e-05	1.0246604681	18398.1372095	11736.3128662	0.00125506664312	0.0	53812.2740922	65335281.4644	0
150000.0	3900.0	503.03079272	0.347759180376	165155.725098	2.03044940861e-05	1.03239071369	19170.9508149	12415.5029297	0.00148963411528	0.0	70853.5094462	65339976.2566	0
175000.0	3900.0	663.309792993	0.334635663704	163334.643555	2.67934208154e-05	1.0426068306	20181.2319118	13301.663208	0.00176676696323	0.0	93329.2324885	65344671.5548	0
200000.0	3900.0	874.876992557	0.31923756312	161493.29834	3.53730484903e-05	1.05588829517	21497.1320413	14454.3075562	0.0020949253011	0.0	123012.049247	65349367.3591	0
225000.0	3900.0	1154.29794603	0.301643391443	159624.902344	4.6728970915e-05	1.07310688496	23203.2067368	15946.3302612	0.00248646276878	27791277.0989	158961.650304	65354063.6694	0
250000.0	3909.0	1522.53981388	0.285004611793	157784.057617	6.15806570181e-05	1.09239244461	25063.2066503	17563.9328003	0.00301008532141	0.0	214678.470116	65358760.4858	0
275000.0	3900.0	2010.7304436	0.261366337135	155779.504395	8.17056928781e-05	1.12468981743	28232.2782346	20319.6762085	0.00352490771149	29898220.8957	266731.7028	65363457.8085	0
300000.0	3933.0	2650.27421989	0.250886533095	154047.998047	0.000106947865675	1.1434789896	29900.6709232	21744.8425293	0.00446754196551	23104292.9673	347812.778872	65368155.6374	0
325000.0	3930.0	3496.88973418	0.228617027191	151994.189453	0.000141692950706	1.18772506714	34108.0019598	25364.9108887	0.0052989855904	30804741.5309	413117.865148	65372853.9727	0
350000.0	3996.0	4593.602368	0.228892725199	150499.194336	0.000183157254696	1.19161725044	34120.0145788	25328.8223267	0.00699627500062	28009718.3333	494036.285205	65377552.8144	0
375000.0	4022.0	6027.1727974	0.216952137537	148677.478027	0.000239333957097	1.22367572784	36893.5654675	27669.5281982	0.00865348903956	30423898.4337	484339.383648	65382252.1626	-1
400000.0	4155.0	7835.04277914	0.236693047507	147784.594727	0.000300356418848	1.18370258808	32648.3782936	23972.6242065	0.0126922399737	27561772.3842	455226.407084	65386952.0172	-1
425000.0	4265.0	10114.7971358	0.2482655522	146683.642578	0.00037740960579	1.16531789303	30584.7207586	22158.0581665	0.0179032580598	30209371.7629	133845.678581	65391652.3785	0
450000.0	4589.0	12806.2916531	0.309461927948	146875.195312	0.000441059768264	1.0799986124	22551.397687	15222.7981567	0.0319440364455	27541559.038	2538.54338524	65396353.2465	-2
475000.0	4927.0	15945.2796985	0.349587763881	146848.046875	0.000510060431225	1.04120898247	19109.9530523	12257.5080872	0.0481849812195	28892700.0263	0.131077865466	65401054.6211	-1
500000.0	5567.0	19348.8313876	0.382807965808	147752.539062	0.000546033163573	1.01279580593	16868.5945897	10353.502655	0.0686850598422	26978565.104	0.0640331427525	65405756.5026	-5
525000.0	5895.0	23229.9673485	0.385532423142	147509.619141	0.000619379989075	1.00926947594	16673.3891439	10198.6175537	0.0967032010518	26520504.7012	11.2495412494	65410458.8909	0
550000.0	6845.0	27180.8087832	0.369563627565	149040.637207	0.00062260426148	1.0105458498	17362.5072495	10861.6905212	0.29591381415	32525412.9621	30506.8342821	65415161.7861	-9
575000.0	8963.0	30598.7097765	0.21951431921	154344.995117	0.00052869307865	1.13110232353	32583.6280006	24383.9492798	3.41178483235	7875414.55871	13374230.0149	65419865.1883	-9
600000.0	10105.0	33901.3075327	0.153726591747	158751.879883	0.000507122877025	1.33897590637	56274.874225	44632.7423096	10.4217640508	2224201.42239	22074538.9405	65424569.0975	-1
625000.0	10851.0	37192.6524504	0.129271363025	162778.881836	0.000503183230194	1.54939544201	79769.9470971	63931.9946289	19.634776877	872294.022711	17835497.7065	65429273.5139	-4
650000.0	11219.0	40619.3168766	0.122194977818	164715.332031	0.000522798075053	1.6593991518	92016.6232356	73674.8962402	26.0611997971	537367.452851	15265023.3476	65433978.4373	-1
675000.0	11710.0	44093.3027215	0.114710472499	168156.005859	0.000528592295268	1.8293030262	111334.242211	88671.0632324	36.4373315282	345586.462313	14981083.0417	65438683.868	-2
700000.0	11904.0	47763.3180574	0.113329195343	168992.602539	0.000557893429232	1.88085234165	117074.379885	92974.3103027	41.6093728236	228167.346882	9326028.1621	65443389.806	-1
725000.0	12230.0	51546.0528964	0.110671015647	171298.730469	0.000574082037019	1.9875112772	129505.91443	102245.782471	50.6189947997	176708.221524	9405300.48465	65448096.2513	-1
750000.0	12368.0	55555.0480734	0.110411776066	171678.967285	0.000607987999501	2.01540350914	132535.671254	104391.699219	55.3681668783	126142.919225	5478985.87293	65452803.204	-1
775000.0	12602.0	59729.5726857	0.109405556147	173162.158203	0.000632318972293	2.08061814308	140231.727364	109949.438477	63.0987064788	105276.535172	5439285.01708	65457510.6642	0
800000.0	12715.0	64154.8107556	0.10948696051	173348.815918	0.000669905034556	2.09787487984	142030.367607	111147.155762	67.7734284577	67931.451225	1120198.7419	65462218.6319	-1
825000.0	12850.0	68825.2383226	0.109463769753	173769.897461	0.000706582454768	2.12228035927	144736.911496	112993.359375	73.2801618186	57502.7282517	726035.228497	65466927.1071	0
850000.0	12948.0	73779.7450101	0.109711155702	173755.786133	0.000749309492676	2.13164067268	145542.943966	113449.157715	77.9051266851	44083.6171898	14568.7491018	65471636.09	0
875000.0	13046.0	79032.893802	0.10997066403	173728.417969	0.000794154743744	2.14022183418	146245.873191	113824.279785	82.7293326634	40269.2966982	4859.37466199	65476345.5805	0
900000.0	13145.0	84597.84438	0.110234705636	173739.355469	0.000840864572638	2.14941477776	147047.402192	114271.472168	87.7872364095	36663.2463088	3816.37029347	65481055.5789	0
925000.0	13243.0	90489.4815329	0.110516323084	173755.737305	0.000889808916327	2.15824222565	147819.402725	114697.375488	93.0180800937	33265.2993076	12293.5820753	65485766.085	0
950000.0	13341.0	96722.6502814	0.110809956258	173772.143555	0.000941004145716	2.16665053368	148546.133365	115088.391113	98.4628278482	30380.697055	11772.7593801	65490477.0989	0
975000.0	13439.0	103313.373636	0.111115856138	173764.27002	0.000994667288978	2.17421579361	149156.28683	115390.234375	104.132256043	27780.1234516	11801.1551216	65495188.6208	0
1000000.0	13537.0	110278.996287	0.111427392489	173738.28125	0.00105086780877	2.18103742599	149671.483415	115620.996094	110.032281662	25432.8776744	12213.5965003	65499900.6506	0
1025000.0	13635.0	117636.30692	0.111744312589	173736.59668	0.00110943369691	2.18797659874	150232.882927	115888.989258	116.16190215	23318.294457	12437.1376952	65504613.1885	0
1050000.0	13733.0	125401.804311	0.112070095111	173752.087402	0.0011704607914	2.19489884377	150813.642835	116172.509766	122.528076744	21409.1880224	12634.5954005	65509326.2344	0
1075000.0	13831.0	133592.833524	0.112405686833	173771.264648	0.00123410529795	2.20148968697	151362.54087	116432.141113	129.139242666	19680.9797719	13053.2995499	65514039.7885	0
1100000.0	13929.0	142227.986305	0.11275139265	173775.146484	0.00130059208914	2.20744681358	151824.140976	116625.341797	136.007109605	18111.4624085	14086.3081455	65518753.8507	0
1125000.0	14027.0	151327.412428	0.113105575242	173749.157715	0.0013701314856	2.21262097359	152166.943925	116728.295898	143.141489951	16682.5729991	16057.2260479	65523468.4212	0
1150000.0	14125.0	160911.631562	0.113467330865	173738.220215	0.00144251384881	2.21772360802	152522.404481	116842.431641	150.540320339	15384.6976364	18289.3217692	65528183.5	0
1175000.0	14223.0	170999.979281	0.113837895946	173746.386719	0.00151772542267	2.22280454636	152898.360465	116973.413086	158.198129957	14278.6008572	3652.47364201	65532899.0871	0
1200000.0	14322.0	181610.731294	0.114214957339	173774.658203	0.00159566911861	2.22791099548	153292.800323	117117.004395	166.16117563	13202.1660108	4393.27501744	65537615.1826	0
1225000.0	14420.0	192766.587946	0.114601425785	173787.646484	0.00167705582044	2.23230266571	153597.065324	117195.495605	174.343390297	12157.3578071	26477.7999135	65542331.7865	0
1250000.0	14518.0	204490.246163	0.114993368484	173778.137207	0.00176191917944	2.2360599041	153807.764608	117204.138184	182.803634084	11262.7901111	31406.7167648	65547048.8989	0
1275000.0	14616.0	216806.113926	0.115393309148	173751.062012	0.00185036935818	2.23949337006	153965.216718	117172.937012	191.547457598	10496.8105935	11787.2116868	65551766.5199	0
1300000.0	14715.0	229735.842326	0.115799698821	173754.02832	0.00194178596757	2.24313044548	154175.120033	117180.92041	200.619622682	9745.69037274	15479.3524788	65556484.6494	0
1325000.0	14813.0	243304.263649	0.116214087075	173760.620117	0.00203688978218	2.24634742737	154350.731627	117167.443848	209.924999731	9057.40849854	20247.1156729	65561203.2876	0
1350000.0	14912.0	257533.130823	0.116633696075	173783.288574	0.00213523935599	2.24943947792	154525.536066	117153.076172	219.577593137	8427.12967463	25478.4085446	65565922.4345	0
1375000.0	15010.0	272449.814702	0.117058332464	173789.160156	0.00223773076868	2.25182414055	154612.292318	117076.757812	229.483586612	7846.73872665	32724.7005446	65570642.0901	0
1400000.0	15109.0	288078.700242	0.117490126671	173787.255859	0.00234394701693	2.2540204525	154668.361459	116976.477051	239.764467665	7349.87735752	9379.7072517	65575362.2545	0
1425000.0	15208.0	304448.150162	0.117929508121	173767.932129	0.00245434057433	2.25602769852	154687.267193	116848.620605	250.377107464	6854.76244145	15990.3709928	65580082.9277	0
1450000.0	15307.0	321586.173335	0.118374981147	173763.647461	0.0025685815217	2.25789856911	154709.63789	116725.500488	261.315278432	6399.08135941	24124.7698785	65584804.1097	0
1475000.0	15406.0	339519.712113	0.118825757971	173771.289062	0.00268679332294	2.25952172279	154718.815362	116594.812012	272.590748533	5979.0178478	33925.1116708	65589525.8007	0
1500000.0	15505.0	358276.726852	0.1192804017	173783.947754	0.00280917174678	2.26077890396	154693.840564	116440.844727	284.216653054	5591.04568321	45768.7621432	65594248.0007	0
1525000.0	15604.0	377886.091426	0.119742229709	173795.703125	0.00293588868772	2.26170039177	154634.053678	116263.000488	296.206491511	5258.56316835	15130.4550378	65598970.7096	0
1550000.0	15704.0	398375.132561	0.120213422114	173807.080078	0.00306674564854	2.26253557205	154562.115507	116075.146484	308.64146335	4924.84153152	25480.8955126	65603693.9276	0
1575000.0	15803.0	419779.553177	0.120687587402	173784.912109	0.00320304184243	2.2630212307	154423.791637	115840.319824	321.420374229	4613.98346505	40968.2610562	65608417.6547	0
1600000.0	15903.0	442130.364904	0.121166250117	173774.841309	0.00334354604092	2.26348495483	154292.659881	115610.705566	334.665723899	4347.99445472	10622.3743868	65613141.891	0
1625000.0	16003.0	465459.512126	0.121648301444	173775.817871	0.00348863477484	2.26367855072	154144.083873	115370.690918	348.303130928	4080.01424126	22564.6786091	65617866.6364	0
1650000.0	16103.0	489798.5656	0.122137376127	173785.961914	0.00363839944839	2.26359915733	153976.200961	115118.884277	362.341859952	3831.43832914	38440.4922935	65622591.891	0
1675000.0	16203.0	515179.931991	0.12263605007	173801.245117	0.00379299171982	2.2632818222	153789.070651	114854.931641	376.792713043	3600.57824726	58978.4026457	65627317.6548	0
1700000.0	16303.0	541637.826647	0.123141502525	173813.110352	0.00395272581954	2.26273202896	153573.750429	114571.594238	391.673651139	3402.65523475	19746.5433754	65632043.928	0
1725000.0	16404.0	569204.946854	0.1236520282	173820.385742	0.00411740757045	2.26209592819	153341.05404	114274.621582	407.074797321	3201.75146413	39032.9603622	65636770.7105	0
1750000.0	16504.0	597924.473393	0.124158159755	173795.068359	0.00428860130341	2.26121258736	153054.142106	113939.96582	422.882070932	3013.48551311	66941.3171492	65641498.0024	0
1775000.0	16605.0	627831.896526	0.124671445888	173784.643555	0.00446455305791	2.26022648811	152771.393023	113609.277344	439.216832947	2852.66908851	23808.0069047	65646225.8037	0
1800000.0	16706.0	658963.394882	0.125193806502	173786.523438	0.00464571712655	2.2590072155	152479.62911	113274.768066	456.012297734	2688.93209472	48738.4914624	65650954.1145	0
1825000.0	16807.0	691355.668348	0.125723969501	173796.435547	0.00483230542159	2.25754499435	152171.793033	112930.883789	473.271746413	2536.28099239	81576.6347721	65655682.9347	0
1850000.0	16908.0	725047.029808	0.12626000246	173808.813477	0.00502458624396	2.25583982468	151840.949195	112572.094727	490.993836339	2405.67392895	31199.5659927	65660412.2645	0
1875000.0	17010.0	760073.066487	0.126802251197	173825.891113	0.00522217487742	2.25397896767	151494.154436	112201.611328	509.270219	2283.4093146	269.863450771	65665142.1038	0
1900000.0	17112.0	796475.164213	0.12734866722	173833.068848	0.00542599900655	2.25193357468	151119.520734	111812.341309	528.038740809	2157.88023434	16373.6803968	65669872.4527	0
1925000.0	17214.0	834297.12501	0.127897090616	173822.290039	0.00563647336094	2.24983310699	150724.54577	111409.362793	547.321948755	2040.1664032	48390.8365113	65674603.3113	0
1950000.0	17316.0	873585.10731	0.128448291121	173806.591797	0.00585338284509	2.24764800072	150319.164498	111000.415039	567.110686911	1929.91636393	94408.36749	65679334.6795	0
1975000.0	17418.0	914382.838505	0.129005255184	173800.231934	0.00607639958616	2.2452480793	149902.767108	110585.791016	587.395579126	1835.74380868	37439.8871335	65684066.5575	0
2000000.0	17521.0	956727.756652	0.129570680719	173808.71582	0.00630489466857	2.24265885353	149479.119627	110166.601562	608.267443318	1738.99556287	82240.4647412	65688798.9451	0
2025000.0	17623.0	1000668.41114	0.130140163891	173813.647461	0.00654058703731	2.23975348473	149024.240433	109728.430176	629.573266001	1648.05131069	143362.770343	65693531.8426	0
2050000.0	17726.0	1046243.68999	0.130721894087	173828.515625	0.00678203286952	2.23667049408	148558.293344	109282.971191	651.486585151	1578.25641812	2549.16159776	65698265.2498	0
2075000.0	17830.0	1093494.06246	0.131312926392	173847.375488	0.00702950728737	2.23348450661	148081.443353	108829.626465	674.023119229	1497.83870148	17222.8317527	65702999.1668	0
2100000.0	17933.0	1142474.52752	0.131899977377	173846.435547	0.0072852590165	2.23022294044	147580.867042	108361.328125	697.004356693	1421.96547737	65247.9899761	65707733.5937	0
2125000.0	18037.0	1193231.53613	0.132486952371	173834.729004	0.00754801430958	2.22706604004	147079.291848	107891.467285	720.620786324	1350.71621287	136697.442889	65712468.5306	0
2150000.0	18140.0	1245824.54339	0.133073466522	173813.85498	0.0078190014392	2.22378158569	146560.578567	107411.92627	744.685740187	1289.70743617	65194.0761902	65717203.9773	0
2175000.0	18245.0	1300289.68958	0.133678726818	173818.078613	0.00809494122223	2.2203130722	146041.818294	106932.019043	769.446615153	1232.61102404	11256.417517	65721939.934	0
2200000.0	18349.0	1356682.03358	0.134286594463	173820.458984	0.008378991879	2.21661186218	145501.883206	106440.258789	794.667743815	1172.86083738	65846.2393387	65726676.4007	0
2225000.0	18454.0	1415044.84449	0.134905074752	173833.935547	0.0086693889898	2.21273469925	144951.959042	105941.931152	820.538978613	1122.13081497	10313.8021932	65731413.3773	0
2250000.0	18559.0	1475429.7286	0.135527658111	173847.021484	0.00896742130863	2.20867872238	144384.861172	105433.093262	846.994838919	1068.99339846	69427.5999186	65736150.864	0
2275000.0	18664.0	1537889.2163	0.136156704034	173857.556152	0.009273255273	2.20443892479	143799.108522	104912.719727	874.049341005	1018.83922959	164737.924762	65740888.8608	0
2300000.0	18769.0	1602478.51449	0.136788734643	173860.498047	0.00958733744483	2.200122118	143201.422319	104385.302734	901.728385026	976.050875835	81134.1929527	65745627.3676	0
2325000.0	18875.0	1669248.31257	0.137424246852	173857.507324	0.00990901935438	2.19586277008	142604.505369	103858.325195	930.150673087	935.520076537	18626.2457938	65750366.3846	0
2350000.0	18981.0	1738260.11383	0.13805555764	173842.102051	0.0102395961221	2.19171142578	142010.076185	103334.020996	959.242359221	892.734470642	102428.264896	65755105.9117	0
2375000.0	19087.0	1809573.1578	0.138692466225	173832.312012	0.0105781982711	2.18739938736	141405.291979	102804.187012	988.971883351	856.322445911	31433.4560351	65759845.949	0
2400000.0	19194.0	1883233.86204	0.139344944172	173836.523438	0.0109234870251	2.18283343315	140786.005718	102265.142822	1019.43138905	818.082547011	131550.427907	65764586.4964	0
2425000.0	19300.0	1959306.44465	0.139999300388	173837.817383	0.0112782263386	2.1780898571	140150.007522	101717.120361	1050.45757494	781.758404283	281242.028642	65769327.5541	0
2450000.0	19407.0	2037840.16344	0.140665671324	173848.095703	0.0116401806736	2.17318797112	139503.658929	101162.139893	1082.24859377	754.513956661	1243.48203922	65774069.122	0
2475000.0	19515.0	2118885.69299	0.141341731178	173864.208984	0.0120095746752	2.16818571091	138849.254941	100601.416016	1114.82423658	725.213267574	41242.2386097	65778811.2002	0
2500000.0	19623.0	2202503.20269	0.142023387938	173876.855469	0.0123878853628	2.16307353973	138180.350566	100031.231689	1148.10808864	690.86798625	230997.574952	65783553.7886	0
2525000.0	19730.0	2288764.83537	0.142701930882	173875.891113	0.0127769490064	2.15795326233	137501.794876	99455.9082031	1182.02869938	664.385546148	130779.564089	65788296.8873	0
2550000.0	19839.0	2377718.04243	0.143390792613	173877.429199	0.0131730557769	2.15287852287	136827.812756	98882.7758789	1216.89403379	639.322700311	49267.905012	65793040.4964	0
2575000.0	19947.0	2469442.4979	0.144065511602	173859.521484	0.0135808313644	2.14802861214	136167.273557	98321.3195801	1252.44393253	612.418355151	203811.046836	65797784.6158	0
2600000.0	20056.0	2563997.12416	0.144748278763	173851.11084	0.0139964085974	2.14308381081	135506.732801	97760.9558105	1288.77339852	589.707474374	104029.402376	65802529.2456	0
2625000.0	20165.0	2661444.35021	0.145441270259	173847.729492	0.0144209807331	2.13786220551	134825.538518	97188.1164551	1325.72574319	568.107678517	28348.5627401	65807274.3857	0
2650000.0	20275.0	2761836.02254	0.146151745251	173855.151367	0.014853076209	2.13233971596	134122.957652	96601.1474609	1363.39924978	547.653870007	7517.08902167	65812020.0363	0
2675000.0	20385.0	2865235.52111	0.146871047043	173864.96582	0.0152944412548	2.1266207695	133404.527668	96004.675293	1401.73081071	525.771383233	89452.0768567	65816766.1973	0
2700000.0	20495.0	2971708.14979	0.147596944704	173875.244141	0.0157454032887	2.12077689171	132675.656462	95402.3376465	1440.74927404	507.264178745	19532.154632	65821512.8687	0
2725000.0	20606.0	3081310.02177	0.148334291978	173890.112305	0.0162045835168	2.11483597755	131939.892072	94795.4650879	1480.56446742	487.470698663	190990.157824	65826260.0506	0
2750000.0	20716.0	3194122.19989	0.149064992388	173894.165039	0.0166757745319	2.1089823246	131207.968418	94193.2495117	1521.0356623	470.63651753	94679.0188372	65831007.7429	0
2775000.0	20828.0	3310194.22248	0.14980777491	173903.295898	0.0171542487806	2.10314750671	130479.834951	93592.9504395	1562.46902554	454.678900174	22656.908034	65835755.9457	0
2800000.0	20939.0	3429613.45662	0.150535388362	173895.214844	0.0176457397174	2.0975894928	129770.933065	93007.9223633	1604.62577526	437.320053293	220302.424479	65840504.659	0
2825000.0	21051.0	3552447.12812	0.151262390427	173883.935547	0.0181467912626	2.09219741821	129077.683839	92434.1491699	1647.71007923	422.693842704	115301.613679	65845253.8829	0
2850000.0	21163.0	3678771.65284	0.151989872135	173875.280762	0.0186582092283	2.08680915833	128389.09901	91865.1855469	1691.59827491	408.683753139	33171.711968	65850003.6173	0
2875000.0	21276.0	3808646.99993	0.152725308303	173875.0	0.0191782328329	2.08136034012	127701.343124	91297.5708008	1736.39616893	395.331417628	6901.62159445	65854753.8622	0
2900000.0	21389.0	3942143.575	0.153470344536	173877.355957	0.0197085009859	2.07569909096	126995.921474	90719.0307617	1782.01059629	380.852101709	145946.347985	65859504.6177	0
2925000.0	21502.0	4079332.1252	0.154227528317	173881.811523	0.0202490973606	2.06978178024	126268.368299	90126.5075684	1828.45386685	368.649038483	56463.2157152	65864255.8838	0
2950000.0	21616.0	4220271.51573	0.155002370322	173892.84668	0.0207982338907	2.06361722946	125520.96209	89520.6542969	1875.83566977	357.009642242	2376.96685451	65869007.6605	0
2975000.0	21730.0	4365035.54379	0.155783810622	173902.978516	0.0213581843127	2.05734324455	124764.239414	88909.6435547	1924.08613554	344.322606569	226271.010816	65873759.9478	0
3000000.0	21844.0	4513700.47528	0.156568400799	173910.339355	0.0219293287955	2.05103969574	124005.274269	88298.4069824	1973.22669796	333.633779593	125376.536101	65878512.7458	0
3025000.0	21959.0	4666330.96129	0.157360650623	173918.481445	0.0225099574891	2.04472255707	123246.819501	87687.9882812	2023.36235504	323.413037468	45845.7464743	65883266.0543	0
3050000.0	22074.0	4823008.47991	0.158147934596	173919.311523	0.0231026060646	2.03854942322	122501.005717	87087.5793457	2074.43246056	312.213034108	369536.207846	65888019.8735	0
3075000.0	22189.0	4983818.30199	0.15892532135	173910.205078	0.0237078711507	2.03261399269	121775.908175	86502.7648926	2126.45768954	302.772354246	247025.132079	65892774.2033	0
3100000.0	22305.0	5148832.94475	0.159704319403	173901.977539	0.0243230679189	2.02677321434	121063.166384	85927.1789551	2179.51006578	295.002518524	137701.912467	65897529.0438	0
3125000.0	22422.0	5318119.66007	0.160490439152	173901.513672	0.0249473596341	2.02090835571	120355.026286	85355.5786133	2233.52305828	285.104642465	49268.1783741	65902284.395	0
3150000.0	22538.0	5491773.81218	0.16126550953	173897.192383	0.0255855557043	2.01517724991	119661.722215	84796.3806152	2288.25396134	275.577222928	406687.097384	65907040.2569	0
3175000.0	22655.0	5669858.69702	0.162057406511	173899.780273	0.0262328867393	2.0092215538	118951.176015	84225.604248	2343.80869523	268.801797202	54872.022836	65911796.6295	0
3200000.0	22773.0	5852437.02352	0.162868147947	173908.642578	0.0268892490567	2.00301074982	118219.932868	83640.8874512	2400.1719043	260.104538884	161607.523363	65916553.5128	0
3225000.0	22890.0	6039604.85261	0.163677831074	173912.548828	0.0275596685242	1.99675416946	117483.732681	83054.3823242	2457.20785254	252.798124871	71670.0166057	65921310.9068	0
3250000.0	23009.0	6231411.21494	0.164509863601	173925.720215	0.0282371129288	1.99028539658	116732.270229	82457.0739746	2515.12966176	245.867576312	11712.9942116	65926068.8116	0
3275000.0	23127.0	6427955.93402	0.165334755356	173931.689453	0.028929203836	1.98389828205	115987.433443	81866.0400391	2573.73852071	238.147317834	393309.560598	65930827.2271	0
3300000.0	23246.0	6629308.15426	0.166166749916	173939.086914	0.0296313610306	1.97750520706	115244.32477	81276.6723633	2633.18687572	232.728553964	87135.9206412	65935586.1533	0
3325000.0	23366.0	6835538.54257	0.167002106606	173946.240234	0.0303438209812	1.97117197514	114508.889795	80693.170166	2693.48487322	225.635048767	169997.898414	65940345.5903	0
3350000.0	23485.0	7046755.65355	0.167818867347	173941.577148	0.0310722825816	1.96512567997	113798.625217	80128.8696289	2754.53148564	219.686003356	77615.0236187	65945105.5381	0
3375000.0	23606.0	7263018.33297	0.168640022027	173938.15918	0.0318092679663	1.95919311047	113102.295749	79574.3041992	2816.53490315	214.020704986	11714.2257805	65949865.9966	0
3400000.0	23726.0	7484439.23134	0.169444400006	173928.57666	0.0325618166244	1.95349085331	112429.640673	79038.1958008	2879.27003982	207.653831045	436423.373542	65954626.9659	0
3425000.0	23847.0	7711088.51511	0.170256847572	173925.500488	0.0333240968757	1.9477263689	111757.571348	78503.4484863	2942.83380085	203.246818573	114604.588556	65959388.4459	0
3450000.0	23969.0	7943032.25033	0.171086614132	173928.45459	0.0340958213201	1.94173133373	111068.706109	77957.824707	3007.21964428	197.39223536	174230.332424	65964150.4368	0
3475000.0	24090.0	8180374.66785	0.171914248142	173927.807617	0.034882723412	1.93569982052	110377.503483	77412.298584	3072.33606906	192.513625972	77452.4037639	65968912.9385	0
3500000.0	24213.0	8423164.04257	0.172764657796	173936.889648	0.0356764503522	1.92944157124	109670.684488	76856.0424805	3138.35246673	187.874953943	13388.6354898	65973675.951	0
3525000.0	24335.0	8671507.01202	0.173608502872	173941.381836	0.0364857187378	1.92324137688	108969.663488	76305.3161621	3205.14332023	182.612342564	527048.928124	65978439.4743	0
3550000.0	24458.0	8925473.21861	0.174461096124	173949.511719	0.0373050315829	1.9169896841	108267.109963	75754.0283203	3272.82016265	179.023718145	90814.8278333	65983203.5085	0
3575000.0	24582.0	9185132.97577	0.17531977447	173960.412598	0.038134483475	1.91073679924	107567.433439	75205.2185059	3341.41601364	174.156837534	267886.48181	65987968.0534	0
3600000.0	24705.0	9450598.82964	0.176163356192	173964.428711	0.0389804081351	1.90468811989	106886.579343	74670.9106445	3410.86905903	170.112088922	153135.47088	65992733.1093	0
3625000.0	24830.0	9721924.4538	0.177015722786	173973.461914	0.0398340125685	1.89865887165	106211.7392	74140.8508301	3481.33376827	166.253247969	59743.0947363	65997498.6759	0
3650000.0	24954.0	9999227.4311	0.177846480171	173973.522949	0.0407048646593	1.8929309845	105564.490844	73631.4025879	3552.7353607	162.476927872	296.043868637	66002264.7534	0
3675000.0	25080.0	10282565.0078	0.178681539982	173975.878906	0.0415839640482	1.88727211952	104927.379682	73129.2236328	3625.2232359	158.867853552	58513.415995	66007031.3418	0
3700000.0	25205.0	10572058.9103	0.179502274643	173966.918945	0.0424808058597	1.88176119328	104302.223038	72636.8591309	3698.66214552	154.716548783	353627.393165	66011798.441	0
3725000.0	25331.0	10867786.8067	0.180333499064	173961.523438	0.0433878631156	1.87612473965	103669.857815	72140.3869629	3772.92176001	151.339340297	208807.520787	66016566.051	0
3750000.0	25457.0	11169841.4804	0.181167198899	173957.446289	0.0443080134573	1.87042784691	103035.694213	71643.9575195	3847.93711812	148.071779316	90237.9927117	66021334.1719	0
3775000.0	25584.0	11478292.0368	0.182010775611	173958.520508	0.0452380190836	1.86462545395	102396.81274	71145.0805664	3923.71584154	144.936670353	11036.3285322	66026102.8037	0
3800000.0	25711.0	11793230.2322	0.182853475839	173960.461426	0.0461812560388	1.85882771015	101761.759978	70650.0	4000.24456696	141.900900773	35415.9737127	66030871.9463	0
3825000.0	25839.0	12114725.799	0.183702229495	173966.882324	0.047134457418	1.8529945612	101128.044352	70156.5490723	4077.52715546	138.986317579	139967.715337	66035641.5998	0
3850000.0	25967.0	12442872.1133	0.184546036455	173973.425293	0.0481011702504	1.84723937511	100504.355634	69671.0327148	4155.54990182	135.631794051	302946.697755	66040411.7643	0
3875000.0	26095.0	12777764.3874	0.18538258619	173979.650879	0.0490816164529	1.84159827232	99893.8714612	69195.6115723	4234.31237854	132.905706062	148922.722492	66045182.4396	0
3900000.0	26224.0	13119475.264	0.186218238528	173988.830566	0.0500725291204	1.83603620529	99294.4345131	68728.3874512	4313.82874261	130.285006391	31533.8385353	66049953.6258	0
3925000.0	26353.0	13468102.7034	0.187044874851	173996.313477	0.0510776008014	1.83060193062	98708.8541857	68271.7285156	4394.10013216	127.247660001	768080.307398	66054725.3229	0
3950000.0	26482.0	13823746.4581	0.187867337111	174000.927734	0.0520971407241	1.8251991272	98127.6873718	67819.1894531	4475.12811928	124.788078555	525819.642672	66059497.5309	0
3975000.0	26612.0	14186482.8643	0.188693312094	174005.822754	0.0531276673428	1.81977725029	97547.2509747	67367.791748	4556.9047256	122.891743777	354880.259766	66064270.2498	0
4000000.0	26743.0	14556388.6392	0.189521615059	174010.327148	0.0541692170373	1.81436550617	96969.6944593	66918.927002	4639.42172608	120.141990111	136134.36308	66069043.4796	0
4025000.0	26873.0	14933592.3039	0.190333674221	174006.494141	0.0552295532543	1.80913627148	96407.515022	66481.7321777	4722.71213743	117.453593906	1069469.40113	66073817.2203	0
4050000.0	27004.0	15318174.2457	0.191145178323	174000.695801	0.0563015055377	1.80397629738	95852.5460869	66049.822998	4806.76419533	115.746421286	64679.1632806	66078591.472	0
4075000.0	27136.0	15710213.9703	0.191958764717	173996.630859	0.0573840879952	1.79883790016	95302.4479923	65621.7834473	4891.501125	113.670593776	239649.469202	66083366.2345	0
4100000.0	27268.0	16109810.3808	0.192767770829	173993.981934	0.058480341977	1.79376029968	94760.7952453	65200.4150391	4976.90119273	111.233399966	263087.864121	66088141.5079	0
4125000.0	27400.0	16517059.6298	0.193570688378	173992.590332	0.0595904057263	1.78876507282	94229.6376858	64787.1520996	5062.95278387	109.284279742	71313.8322193	66092917.2922	0
4150000.0	27533.0	16932031.9445	0.194374287137	173995.776367	0.0607104157098	1.78380608559	93705.9919345	64379.6386719	5149.62142358	107.409843279	22761.1152576	66097693.5875	0
4175000.0	27666.0	17354825.2793	0.195171743339	173999.206543	0.061844541051	1.77888464928	93189.0865443	63977.923584	5236.94561659	105.191747781	626987.19579	66102470.3936	0
4200000.0	27799.0	17785539.1134	0.195964196376	174002.392578	0.0629929563729	1.77397751808	92676.441831	63580.2734375	5324.93202066	103.42679683	320071.103528	66107247.7107	0
4225000.0	27933.0	18224245.5963	0.196759603274	174008.520508	0.064151645347	1.7690308094	92164.24398	63183.7341309	5413.5169363	101.728019695	85516.9820576	66112025.5387	0
4250000.0	28067.0	18671044.6812	0.197549787746	174014.099121	0.0653247116134	1.76412725449	91658.1107252	62792.2973633	5502.7477527	100.074518504	28359.8368421	66116803.8777	0
4275000.0	28202.0	19126008.8689	0.19834229261	174022.021484	0.0665081097395	1.75921869278	91154.5912084	62403.2470703	5592.57735061	98.4820853671	243383.950531	66121582.7276	0
4300000.0	28337.0	19589239.2077	0.199128701785	174028.78418	0.0677060670569	1.75438868999	90659.4414554	62020.6604004	5683.09958312	96.5723663208	308880.88092	66126362.0884	0
4325000.0	28472.0	20060838.019	0.199908393876	174034.082031	0.0689187872922	1.74965572357	90173.9292317	61645.3186035	5774.35153464	95.0654527528	56079.8571414	66131141.9601	0
4350000.0	28608.0	20540879.7137	0.200688377272	174040.649414	0.0701421231497	1.74497759342	89695.1395358	61274.8962402	5866.26352417	93.6119454683	73863.4033359	66135922.3428	0
4375000.0	28744.0	21029468.3678	0.201459935914	174044.921875	0.0713804911356	1.74043834209	89228.8985677	60913.5192871	5958.84680003	91.8563356264	573679.379324	66140703.2365	0
4400000.0	28880.0	21526710.9342	0.202221439666	174045.97168	0.0726343278075	1.73602294922	88774.2795917	60560.7666016	6052.09380919	90.4788334297	204929.791878	66145484.6411	0
4425000.0	29017.0	22032686.9759	0.202979507718	174045.812988	0.073899544077	1.73163962364	88324.7107901	60212.1704102	6145.91594798	89.1497373497	1183.24866408	66150266.5566	0
4450000.0	29154.0	22547506.9559	0.203727407034	174040.942383	0.0751807529014	1.72735667229	87884.4769356	59870.7214355	6240.3634519	87.5323941748	809249.753632	66155048.983	0
4475000.0	29291.0	23071281.1642	0.204468916104	174034.777832	0.0764769647503	1.72312581539	87450.5546902	59534.375	6335.32326124	86.2732619772	343606.23151	66159831.9205	0
4500000.0	29429.0	23604082.0985	0.20521385462	174032.385254	0.0777829845902	1.7188642025	87017.3906707	59199.1149902	6430.64771724	85.0622030534	31689.7984964	66164615.3688	0
4525000.0	29567.0	24146009.7383	0.205955381532	174030.79834	0.0791033089627	1.7146396637	86589.3951083	58868.0114746	6526.37453253	83.8832522954	169515.11485	66169399.328	0
4550000.0	29706.0	24697132.8359	0.206701044036	174032.910156	0.080433281255	1.7104036808	86163.1000699	58538.4094238	6622.35559446	82.4526024469	466284.32153	66174183.7982	0
4575000.0	29844.0	25257583.4798	0.207436674085	174032.763672	0.081782352936	1.70628154278	85746.8308054	58216.2414551	6718.75225914	81.3407200229	77437.1987443	66178968.7794	0
4600000.0	29984.0	25827398.0484	0.208183944632	174039.025879	0.0831362995086	1.70211660862	85329.826507	57893.5058594	6815.20505891	80.2867069439	121265.76249	66183754.2715	0
4625000.0	30123.0	26406710.5498	0.208918884779	174042.602539	0.0845096219564	1.69807481766	84923.7665442	57578.9428711	6911.99513944	78.9640904293	566308.512589	66188540.2745	0
4650000.0	30263.0	26995592.5664	0.20965247198	174048.474121	0.0858930143295	1.69402956963	84520.6330807	57267.0410156	7008.86688677	77.9702021854	112568.650862	66193326.7885	0
4675000.0	30403.0	27594148.3832	0.210378840051	174053.710938	0.0872913806234	1.69003510475	84123.6664256	56960.1135254	7105.9024898	77.0025990172	117560.737677	66198113.8135	0
4700000.0	30544.0	28202449.0162	0.211105966105	174060.864258	0.0886997877387	1.68603825569	83729.005378	56655.2856445	7202.88949546	75.8045147507	590858.237471	66202901.3494	0
4725000.0	30684.0	28820633.4669	0.211821040052	174064.233398	0.0901282764971	1.68214809895	83343.4908078	56357.421875	7300.0860606	74.8921564398	96824.5793652	66207689.3963	0
4750000.0	30826.0	29448739.5544	0.212545627614	174071.801758	0.0915618875297	1.67821073532	82956.6513601	56058.8317871	7397.00220199	74.0300127731	156796.469547	66212477.9542	0
4775000.0	30967.0	30086907.3229	0.213260094596	174075.20752	0.0930157693801	1.67438960075	82578.8568918	55766.8884277	7494.02006173	72.9210234432	558480.782099	66217267.023	0
4800000.0	31109.0	30735209.2925	0.213978769784	174079.541016	0.094479881227	1.67058801651	82203.4488451	55476.6479492	7590.77671546	72.1093015438	68606.4194409	66222056.6029	0
4825000.0	31251.0	31393752.964	0.214695733086	174081.848145	0.0959594472079	1.66686594486	81834.1006311	55190.637207	7687.39825488	71.0695114442	1270976.33017	66226846.6937	0
4850000.0	31393.0	32062648.4363	0.215406830048	174081.445312	0.0974548456725	1.66323232651	81471.9956299	54909.8449707	7783.85649186	70.3048705917	527300.868963	66231637.2954	0
4875000.0	31536.0	32741972.7454	0.216115036178	174080.236816	0.0989612017293	1.65963709354	81114.4292242	54632.5317383	7879.89834019	69.5729839413	37303.3448086	66236428.4082	0
4900000.0	31679.0	33431839.2959	0.216814733401	174075.463867	0.10048376862	1.65612912178	80764.2800765	54360.7177734	7975.74147914	68.860418313	304338.648773	66241220.032	0
4925000.0	31823.0	34132322.8087	0.217516765054	174072.814941	0.102016012534	1.65261268616	80415.5190188	54090.222168	8071.62476606	67.9385535239	433842.812858	66246012.1667	0
4950000.0	31966.0	34843564.7274	0.21821016538	174068.237305	0.103568279883	1.64916884899	80073.2284134	53824.6948242	8168.00604928	67.02615702	2055089.39047	66250804.8124	0
4975000.0	32110.0	35565631.5703	0.218909485975	174066.748047	0.105129831354	1.64569783211	79730.6644701	53559.2529297	8264.39479967	66.6073395846	465907.96445	66255597.9691	0
5000000.0	32255.0	36298588.0782	0.219616017131	174068.322754	0.106700426841	1.64219844341	79387.4699218	53293.560791	8360.69084267	65.9813453888	1315340.70573	66260391.6367	0
5025000.0	32400.0	37042536.0933	0.220324484922	174070.385742	0.108285516035	1.63872003555	79046.5064328	53029.5776367	8457.01316553	65.1457371819	43251.6174053	66265185.8153	0
5050000.0	32545.0	37797577.823	0.221035814482	174072.912598	0.109885178972	1.63526344299	78707.5912004	52767.1081543	8553.29001409	64.3307862585	982305.202531	66269980.505	0
5075000.0	32690.0	38563818.2084	0.221744483435	174075.415039	0.111499772174	1.63183736801	78372.6201945	52507.824707	8649.44723649	63.7552229124	249696.981135	66274775.7056	0
5100000.0	32836.0	39341324.2538	0.222455799794	174080.078125	0.113123751362	1.62839913368	78038.8210079	52249.7497559	8745.16825064	63.2050786362	96137.4592279	66279571.4172	0
5125000.0	32982.0	40130201.4329	0.223164379885	174084.399414	0.114762806334	1.62499594688	77708.7094887	51994.5922852	8840.57984784	62.4557250343	903569.431268	66284367.6398	0
5150000.0	33128.0	40930555.7211	0.223871441988	174088.232422	0.116416980745	1.62162673473	77381.684693	51741.8273926	8935.62932978	61.9372826319	179077.925493	66289164.3734	0
5175000.0	33275.0	41742454.0367	0.224584441806	174093.798828	0.118080468383	1.6182488203	77054.5445549	51489.0441895	9029.93578415	61.4439525865	169295.718308	66293961.618	0
5200000.0	33422.0	42566002.3501	0.225298100854	174098.64502	0.119759090012	1.61490595341	76729.6776309	51237.878418	9123.65466193	60.7585863486	842808.959704	66298759.3737	0
5225000.0	33569.0	43401307.502	0.22601355746	174102.600098	0.121452962048	1.61159932613	76406.7536223	50987.9730225	9216.7067044	60.2967218058	144335.733603	66303557.6404	0
5250000.0	33717.0	44248436.046	0.226738230171	174107.788086	0.123156147311	1.60828518867	76082.5625945	50736.9262695	9308.70433669	59.8595585271	197759.891912	66308356.4181	0
5275000.0	33865.0	45107495.2357	0.22746448091	174111.608887	0.124874655739	1.60501110554	75760.4215732	50487.1368408	9399.83461639	59.2366903682	904981.367083	66313155.7068	0
5300000.0	34013.0	45978595.4932	0.228187850819	174113.61084	0.126608880237	1.6017844677	75441.7840334	50239.8284912	9490.02300734	58.8301810573	183410.370065	66317955.5066	0
5325000.0	34162.0	46861806.1845	0.228914836754	174115.783691	0.128352869069	1.59856319427	75123.9137923	49993.0480957	9578.8363096	58.4477972048	162767.1085	66322755.8174	0
5350000.0	34311.0	47757238.1499	0.229639101825	174115.673828	0.130112719489	1.59539103508	74809.6273527	49748.8128662	9666.48525536	57.885314351	1040924.12281	66327556.6393	0
5375000.0	34460.0	48665003.6743	0.230360702016	174113.024902	0.13188860612	1.59226942062	74498.9773308	49507.1594238	9752.91213605	57.5328342316	254273.415782	66332357.9722	0
5400000.0	34610.0	49585173.591	0.231086495015	174109.82666	0.133674402605	1.58915734291	74189.1936919	49266.0980225	9837.63793705	57.2041211089	110232.844494	66337159.8162	0
5425000.0	34760.0	50517859.0273	0.231813442282	174105.981445	0.135475274874	1.58607041836	73881.2558162	49026.4007568	9920.8338386	56.7012578008	1244921.94367	66341962.1712	0
5450000.0	34910.0	51463165.4979	0.232544178251	174102.624512	0.137290742714	1.58299207687	73574.0107081	48787.2955322	10002.4157996	56.4040429907	394824.353268	66346765.0373	0
5475000.0	35061.0	52421153.2076	0.233285737741	174101.867676	0.139114490594	1.57988238335	73264.6153753	48546.7163086	10081.8455299	56.131646555	20362.4698999	66351568.4145	0
5500000.0	35212.0	53391926.2855	0.234029038477	174101.281738	0.140952994116	1.57678711414	72956.52032	48307.1899414	10159.4293867	55.6898120775	1655185.17455	66356372.3027	0
5525000.0	35363.0	54375589.7215	0.234773621642	174100.830078	0.142806369695	1.57370686531	72649.837924	48068.8232422	10235.0814897	55.448703933	710233.928384	66361176.702	0
5550000.0	35515.0	55372204.0706	0.235526237765	174102.441406	0.144668156281	1.57060158253	72341.783752	47829.586792	10308.2858901	55.2319009372	85662.5572488	66365981.6124	0
5575000.0	35667.0	56381873.9455	0.23628071314	174104.02832	0.146544713061	1.56751048565	72034.9709071	47591.3635254	10380.0078374	55.0265265854	264517.123391	66370787.0339	0
5600000.0	35820.0	57404658.6606	0.237044137087	174107.543945	0.148429477122	1.56439399719	71726.6143344	47352.1209717	10450.0485711	54.8403295602	1020457.34182	66375592.9664	0
5625000.0	35973.0	58440661.4964	0.237810245035	174110.888672	0.150328909513	1.56129181385	71419.3125164	47113.7207031	10518.7831909	54.4858512405	451761.675785	66380399.4101	0
5650000.0	36126.0	59489986.5432	0.23857958396	174113.989258	0.152243112097	1.558203578	71112.9381412	46876.05896	10586.1914107	54.3201504902	813.96440849	66385206.3649	0
5675000.0	36280.0	60552692.1756	0.239359243967	174118.725586	0.154165289132	1.5550917387	70804.790844	46637.1307373	10651.7157181	54.173479952	420430.102533	66390013.8308	0
5700000.0	36434.0	61628883.2817	0.24014178904	174122.851562	0.156102396431	1.55199766159	70497.6435853	46398.9593506	10715.786487	53.8614459388	1224268.05295	66394821.8079	0
5725000.0	36588.0	62718666.2132	0.240926063232	174126.23291	0.158054550411	1.54892480373	70191.8205712	46161.7645264	10778.4081823	53.7344999844	461952.709038	66399630.2961	0
5750000.0	36743.0	63822101.1136	0.241718680826	174130.627441	0.160015013535	1.54583489895	69884.8758383	45923.8250732	10838.9678095	53.6262248304	14283.3889211	66404439.2955	0
5775000.0	36898.0	64939294.4768	0.242512380302	174134.082031	0.161990581546	1.5427672863	69579.6331243	45687.2039795	10897.9530497	53.5271996251	334395.149609	66409248.8061	0
5800000.0	37054.0	66070305.4283	0.243313708765	174138.317871	0.163974327734	1.53968572617	69273.6718021	45450.1403809	10954.7692317	53.4467306818	1023083.74799	66414058.8278	0
5825000.0	37210.0	67215239.8988	0.24411563328	174141.369629	0.165973149706	1.53662896156	68969.7862838	45214.6759033	11009.8989458	53.2050415931	767117.028078	66418869.3608	0
5850000.0	37366.0	68374205.0694	0.244917827091	174143.103027	0.167987091118	1.53359806538	68668.1116642	44980.9112549	11063.32595	53.1438360665	182354.982849	66423680.405	0
5875000.0	37523.0	69547260.0788	0.245727095606	174145.263672	0.170009210706	1.53055608273	68366.1356344	44747.0367432	11114.4004358	53.1011796217	81303.3595267	66428491.9604	0
5900000.0	37680.0	70734513.1963	0.246536715849	174145.654297	0.172046740772	1.52754044533	68066.2338841	44514.7338867	11163.6758212	52.8991891965	2337973.3873	66433304.027	0
5925000.0	37837.0	71936074.8183	0.247346087462	174144.042969	0.174099899596	1.52455317974	67768.5115368	44284.0698242	11211.1261297	52.8753470665	1435373.52849	66438116.6049	0
5950000.0	37995.0	73152006.2411	0.248161319436	174142.114258	0.176161556737	1.52156162262	67470.7389546	44053.427124	11256.0836011	53.03719054	2249677.06759	66442929.6941	0
5975000.0	38154.0	74382368.4481	0.248981617893	174139.709473	0.178231595783	1.51856935024	67173.2478651	43823.0560303	11298.4918661	52.8828274266	173952.177464	66447743.2946	0
6000000.0	38312.0	75627318.7776	0.249795455339	174134.94873	0.1803234627	1.5156339407	66880.1065456	43595.9259033	11339.5284142	52.7298886047	3655304.3226	66452557.4063	0
6025000.0	38471.0	76886911.4021	0.250618254442	174132.116699	0.182422401849	1.51267230511	66585.5652185	43367.9290771	11377.852888	52.9289132321	538998.657496	66457372.0294	0
6050000.0	38631.0	78161196.8712	0.251449808225	174131.225586	0.184528151294	1.50968766212	66289.8248892	43139.1998291	11413.4242876	52.9809313071	1204599.00677	66462187.1638	0
6075000.0	38791.0	79450274.5132	0.252282831744	174130.493164	0.186647957889	1.50671887398	65995.5997319	42911.6882324	11446.8318369	52.8779623085	1034096.58002	66467002.8095	0
6100000.0	38951.0	80754246.2619	0.253118796203	174129.711914	0.188782025361	1.50376009941	65702.1188341	42684.7961426	11478.0685083	52.9507073412	442577.270739	66471818.9666	0
6125000.0	39112.0	82073163.1321	0.253965024636	174130.505371	0.190923106857	1.50077438354	65406.7347094	42456.6101074	11506.4337818	53.0428756288	63240.7587664	66476635.635	0
6150000.0	39273.0	83407126.6239	0.254813617409	174131.12793	0.193078449229	1.49780058861	65112.332854	42229.2419434	11532.5517269	53.145426099	131608.170063	66481452.8148	0
6175000.0	39435.0	84756186.4969	0.255670954727	174133.203125	0.19524054369	1.49480426311	64816.6935798	42001.1291504	11555.6708296	53.2679185073	536892.196349	66486270.5059	0
6200000.0	39597.0	86120442.8992	0.256529248147	174135.058594	0.197416724404	1.49182367325	64522.6074844	41774.3041992	11576.4845982	53.4010655952	1094700.75052	66491088.7085	0
6225000.0	39760.0	87499944.3106	0.257394776799	174138.269043	0.199599511689	1.48882508278	64227.8965963	41547.2442627	11594.2420551	53.5544102734	1749879.6473	66495907.4224	0
6250000.0	39923.0	88894789.917	0.258259916133	174141.174316	0.201796225156	1.48584592342	63935.3511915	41321.9726562	11609.6683292	53.5543320651	921226.445404	66500726.6478	0
6275000.0	40086.0	90305079.873	0.259124455115	174143.676758	0.204007024877	1.48288679123	63645.0081178	41098.5229492	11622.8689006	53.7288826439	433216.339712	66505546.3847	0
6300000.0	40250.0	91730863.6953	0.25999762213	174147.192383	0.206224503927	1.47990643978	63353.4217283	40874.3499756	11633.1719331	53.9229241171	101220.132249	66510366.633	0
6325000.0	40414.0	93172242.8834	0.260871890833	174149.975586	0.208456360269	1.47694087029	63063.2485412	40651.3763428	11641.336575	54.1269760298	48996.3397864	66515187.3927	0
6350000.0	40579.0	94629266.693	0.261753529173	174153.601074	0.210694808629	1.4739587307	62772.4340308	40428.1341553	11646.6294018	54.3505847798	321328.665986	66520008.664	0
6375000.0	40744.0	96102035.8744	0.262634502763	174156.506348	0.212947430555	1.47099685669	62483.7792616	40206.6436768	11649.8650915	54.5840849881	724136.049025	66524830.4468	0
6400000.0	40910.0	97590596.784	0.263521128477	174160.180664	0.215206382563	1.4680249691	62195.2227364	39985.43396	11650.2744128	54.8372378627	1206990.69869	66529652.7412	0
6425000.0	41076.0	99095049.4197	0.264405159877	174163.049316	0.217479391722	1.46508073807	61909.6132641	39766.5496826	11648.6755833	54.9348838832	1823002.97218	66534475.5471	0
6450000.0	41242.0	100615494.254	0.265285611696	174165.112305	0.219766458031	1.46216773987	61627.3031373	39550.2532959	11645.1205731	55.2075329704	1261705.37741	66539298.8646	0
6475000.0	41409.0	102151978.449	0.266170899539	174167.651367	0.222059941734	1.45924842358	61345.4233	39334.4818115	11638.8316314	55.4998027049	785988.269834	66544122.6937	0
6500000.0	41576.0	103704604.273	0.267054821031	174168.981934	0.224367788178	1.45635247231	61065.7601583	39120.4803467	11630.6815163	55.8017218224	389263.657192	66548947.0344	0
6525000.0	41744.0	105273419.822	0.267943794143	174170.471191	0.226682110224	1.45345032215	60786.2842183	38906.7932129	11619.8703529	56.2903447197	4771197.55691	66553771.8868	0
6550000.0	41913.0	106858471.083	0.268836896158	174172.058105	0.229002704145	1.45054686069	60507.3813756	38693.6859131	11606.4183171	56.4647831451	20015.8708748	66558597.2508	0
6575000.0	42081.0	108459913.534	0.269718400703	174170.800781	0.231345387874	1.4477108717	60234.042481	38484.7229004	11592.0527032	56.8059744568	257188.398345	66563423.1266	0
6600000.0	42251.0	110077737.49	0.270609266734	174170.898438	0.233686121646	1.44484937191	59959.6675862	38275.1617432	11574.2731832	57.177396599	608989.665626	66568249.514	0
6625000.0	42420.0	111712097.316	0.271486512649	174168.029785	0.236048930674	1.4420633316	59691.5122191	38070.1843262	11555.6581419	57.3793097497	3013411.16445	66573076.4131	0
6650000.0	42590.0	113363037.821	0.272364866102	174165.148926	0.238417531364	1.43928730488	59424.8894999	37866.4337158	11534.5525374	57.9400295542	1713239.49723	66577903.824	0
6675000.0	42761.0	115030602.873	0.273249313197	174163.293457	0.240791414399	1.43650126457	59157.8886972	37662.5030518	11510.9574933	58.3522448866	2371017.50049	66582731.7467	0
6700000.0	42932.0	116714887.79	0.27413287579	174161.230469	0.243178597884	1.4337335825	58892.6844678	37460.0036621	11485.7964036	58.6034732156	1162619.85176	66587560.1812	0
6725000.0	43103.0	118415987.731	0.275014867692	174159.04541	0.245578994509	1.43098497391	58629.4781644	37259.1003418	11459.1049184	59.0357458164	681101.074983	66592389.1274	0
6750000.0	43275.0	120133939.057	0.275901736634	174158.117676	0.247984222369	1.42822420597	58366.3054475	37058.4411621	11430.0280088	59.4892753564	302336.567401	66597218.5856	0
6775000.0	43447.0	121868834.47	0.276785485086	174157.141113	0.250402401434	1.42548322678	58105.6610129	36859.8571777	11399.5103214	59.9534449267	38125.0150493	66602048.5555	0
6800000.0	43620.0	123620709.435	0.277672541877	174157.470703	0.252825208008	1.42273116112	57845.5769177	36661.9873047	11366.7026365	60.6138595389	6705910.57332	66606879.0374	0
6825000.0	43794.0	125389597.325	0.278562176097	174159.130859	0.255252321949	1.41997039318	57586.3485483	36465.0695801	11331.6376534	60.9468533531	417805.170199	66611710.0311	0
6850000.0	43967.0	127175648.906	0.279441442773	174159.240723	0.257700827206	1.41725564003	57331.6086954	36271.6705322	11296.1351105	61.2780075414	3852252.9542	66616541.5368	0
6875000.0	44141.0	128978901.737	0.280325116139	174160.351562	0.260154192802	1.41452729702	57076.9776076	36078.6376953	11258.4814459	61.9842906711	1459673.11319	66621373.5545	0
6900000.0	44316.0	130799390.21	0.281212604921	174162.475586	0.262612127699	1.41178846359	56822.6584242	35886.1022949	11218.6989347	62.5363868017	2100818.12793	66626206.0841	0
6925000.0	44491.0	132637206.221	0.282096168317	174164.233398	0.265082839178	1.40907287598	56571.0171481	35695.7183838	11177.7314691	62.9201301333	1747097.95834	66631039.1256	0
6950000.0	44666.0	134492440.971	0.28297514452	174165.722656	0.267566385446	1.40638422966	56322.2866929	35507.6202393	11135.6175267	63.4940157086	1133477.12827	66635872.6793	0
6975000.0	44842.0	136365126.884	0.283855926961	174168.164062	0.270053918939	1.40369713306	56074.6444276	35320.4864502	11091.1168488	64.2753152187	4665953.0284	66640706.7449	0
7000000.0	45019.0	138255293.506	0.284737724919	174171.533203	0.272545381449	1.40101575851	55828.4496672	35134.576416	11043.9077015	64.903714092	5703973.09963	66645541.3226	0
7025000.0	45196.0	140163032.331	0.285614243341	174174.42627	0.275049562333	1.39836835861	55585.3000841	34950.9674072	10995.0040232	65.3637955117	11613.073803	66650376.4125	0
7050000.0	45373.0	142088435.7	0.286485881723	174176.708984	0.277566694422	1.39575266838	55344.9923775	34769.53125	10944.5262713	66.0232454315	319204.383671	66655212.0144	0
7075000.0	45551.0	144031536.521	0.287359037109	174179.638672	0.280088046566	1.39314079285	55105.6692395	34588.949585	10891.684933	66.7105393582	833355.089732	66660048.1286	0
7100000.0	45729.0	145992425.775	0.288226102418	174182.006836	0.282622058876	1.39055800438	54869.394019	34410.7574463	10837.4684208	67.225116218	3512544.17105	66664884.7549	0
7125000.0	45907.0	147971193.871	0.289086799361	174183.789062	0.285168731352	1.38800406456	54636.289489	34235.067749	10781.9945538	67.9429335385	2545289.95062	66669721.8934	0
7150000.0	46086.0	149967870.224	0.289947059808	174186.230469	0.287719100015	1.38544988632	54404.5292959	34060.6262207	10724.4493837	68.8807947891	3463262.04074	66674559.5442	0
7175000.0	46266.0	151982481.928	0.290806507326	174189.294434	0.29027290293	1.38289535046	54174.3506871	33887.6434326	10664.9160062	69.6570017591	4662448.42239	66679397.7073	0
7200000.0	46446.0	154015119.334	0.291658774232	174191.625977	0.2928392787	1.38036370277	53947.4278913	33717.3461914	10604.4439209	70.2539225476	273521.313212	66684236.3826	0
7225000.0	46626.0	156065874.05	0.292504158328	174193.078613	0.295418460155	1.37785613537	53723.5613986	33549.5361328	10543.1107619	71.0600702213	39447.2690409	66689075.5703	0
7250000.0	46807.0	158134776.502	0.293348856243	174194.848633	0.298001512419	1.3753490448	53501.0519078	33382.9986572	10480.095452	71.8948258478	543654.852409	66693915.2704	0
7275000.0	46988.0	160221915.865	0.294186066004	174195.727539	0.300596933812	1.3728710413	53281.7673528	33219.0155029	10416.4159797	72.7453094021	1399995.60961	66698755.4829	0
7300000.0	47170.0	162327319.414	0.295021821873	174196.875	0.30319581856	1.37040054798	53064.0855816	33056.3934326	10351.2593698	73.624602936	2526381.98553	66703596.2078	0
7325000.0	47352.0	164451073.13	0.295849150723	174197.119141	0.305806694087	1.36796605587	52849.9042472	32896.4538574	10285.5955404	74.3156508454	1619776.06169	66708437.4452	0
7350000.0	47534.0	166593263.26	0.296667450838	174196.484375	0.308429502184	1.36557197571	52639.2989574	32739.1723633	10219.495454	75.2247813032	605030.011487	66713279.195	0
7375000.0	47717.0	168753916.251	0.297483475047	174195.849609	0.311055686325	1.36319029331	52430.3756291	32583.2550049	10152.1926117	76.1627887407	4855.85426417	66718121.4574	0
7400000.0	47900.0	170933121.247	0.298290996127	174193.969727	0.313694297802	1.36084508896	52224.7844196	32429.8614502	10084.6464883	77.1162056501	584979.329016	66722964.2324	0
7425000.0	48084.0	173130904.655	0.299096087887	174191.967773	0.316336168908	1.35851073265	52020.8457534	32277.8289795	10016.0430439	78.098897436	1748996.61928	66727807.5199	0
7450000.0	48268.0	175347353.443	0.299893593396	174189.355469	0.318989739753	1.35620486736	51819.9163194	32128.1555176	9947.33834466	79.0971846156	3363253.39895	66732651.32	0
7475000.0	48453.0	177582489.937	0.300690254205	174187.805176	0.321645871736	1.35389900208	51620.1076777	31979.5288086	9877.73831511	80.1251015606	5345529.92869	66737495.6328	0
7500000.0	48638.0	179836395.198	0.301479998496	174186.315918	0.324313092278	1.35161590576	51423.133426	31833.1787109	9808.18372858	80.9498646782	64740.8163739	66742340.4583	0
7525000.0	48823.0	182109151.506	0.302262182701	174184.863281	0.326991663314	1.34935545921	51228.9906542	31689.1235352	9738.72327581	82.0066253053	595263.723454	66747185.7964	0
7550000.0	49009.0	184400780.274	0.303043246932	174184.301758	0.329672970111	1.34709429741	51036.0507359	31546.2524414	9668.59755194	83.0929141626	2017015.82132	66752031.6474	0
7575000.0	49195.0	186711366.716	0.303816826074	174183.59375	0.332365976647	1.34485650063	50845.8453106	31405.5938721	9598.72384382	83.9684485686	2078832.34408	66756878.0111	0
7600000.0	49381.0	189040993.271	0.304582442581	174182.763672	0.335070420988	1.34264206886	50658.3846964	31267.1386719	9529.15631224	85.0821160203	560941.24629	66761724.8876	0
7625000.0	49568.0	191389677.675	0.305346459028	174182.861328	0.337776786182	1.34042930603	50472.2307434	31129.8553467	9459.09589808	86.2256971298	160108.68856	66766572.2769	0
7650000.0	49755.0	193757498.36	0.306102410619	174182.897949	0.340494152624	1.33824110031	50288.8312054	30994.7174072	9389.45779967	87.3839432374	1515116.24293	66771420.1791	0
7675000.0	49943.0	196144467.691	0.306855806075	174183.959961	0.343212799635	1.3360555172	50106.7990864	30860.7421875	9319.46258581	88.5722607847	3666094.62606	66776268.5942	0
7700000.0	50131.0	198550661.952	0.30760080475	174184.94873	0.345941749401	1.33389496803	49927.6329545	30728.9703369	9249.97900635	89.537213763	725882.08541	66781117.5223	0
7725000.0	50319.0	200976160.511	0.308336645102	174185.742188	0.348681758624	1.33175897598	49751.3716567	30599.4781494	9180.44899579	90.757924778	192126.964448	66785966.9633	0
7750000.0	50508.0	203420979.002	0.309069523518	174187.304688	0.351423514076	1.32962548733	49576.4896024	30471.2036133	9109.6910981	92.0191461103	1852379.4717	66790816.9173	0
7775000.0	50697.0	205885195.996	0.30979344612	174188.671875	0.354176183464	1.3275167942	49404.4212357	30345.1538086	9038.57543667	93.0592595468	2111039.94295	66795667.3844	0
7800000.0	50886.0	208368890.076	0.310508974976	174189.868164	0.356939650374	1.32543325424	49235.0823234	30221.2615967	8967.19772367	94.3676113976	241634.823807	66800518.3645	0
7825000.0	51076.0	210872075.342	0.311221512292	174191.882324	0.359704601578	1.32335472107	49067.0973155	30098.5656738	8894.85025977	95.7171916848	863092.763016	66805369.8577	0
7850000.0	51266.0	213394828.605	0.311925820878	174193.75	0.36248008837	1.32130289078	48901.8195042	29977.9876709	8822.39871898	97.0918531515	3390897.59168	66810221.8641	0
7875000.0	51457.0	215937164.516	0.312626450246	174196.276855	0.365257263184	1.31925821304	48738.041924	29858.7280273	8749.15391748	98.5081550383	6965808.84405	66815074.3836	0
7900000.0	51648.0	218499163.612	0.313318039581	174198.461914	0.368045468349	1.31724047661	48577.0399095	29741.6442871	8675.97421386	99.6883742098	422021.971268	66819927.4163	0
7925000.0	51839.0	221080904.12	0.314000283283	174200.354004	0.370844558347	1.31525146961	48418.849021	29626.7181396	8602.90596718	100.887293964	3999900.37121	66824780.9623	0
7950000.0	52030.0	223682465.228	0.314673582082	174201.89209	0.373654504074	1.31329035759	48263.4212839	29513.9099121	8530.0409969	102.371546256	1010058.16725	66829635.0215	0
7975000.0	52222.0	226303856.874	0.315343183397	174204.077148	0.376465293812	1.31133878231	48109.4696469	29402.2918701	8456.66961099	103.898138978	410072.396733	66834489.5941	0
8000000.0	52414.0	228945153.356	0.316004045523	174205.981445	0.379286328098	1.30941522121	47958.1950388	29292.6971436	8383.60715518	105.449587757	3206927.56502	66839344.68	0
8025000.0	52607.0	231606361.75	0.3166612283	174208.508301	0.382107886253	1.30750179291	47808.3826902	29184.2712402	8310.18133089	107.043860462	7538700.85316	66844200.2792	0
8050000.0	52800.0	234287558.099	0.317309243182	174210.546875	0.384939863579	1.30562031269	47661.3267719	29077.8991699	8237.19961656	108.381946158	802813.553534	66849056.3919	0
8075000.0	52993.0	236988818.271	0.317948032985	174212.158203	0.387782347389	1.3037686348	47516.9880112	28973.5839844	8164.70644457	109.73737436	3068710.51537	66853913.0181	0
8100000.0	53186.0	239710219.112	0.318577470124	174213.28125	0.390635337681	1.30194413662	47375.3268555	28871.3348389	8092.76240805	111.397382419	164418.517779	66858770.1578	0
8125000.0	53380.0	242451768.684	0.31920197072	174214.868164	0.393488968257	1.30012643337	47235.1993002	28770.401001	8020.68612136	113.100286024	1962636.79948	66863627.811	0
8150000.0	53574.0	245213540.723	0.319816462751	174216.015625	0.39635275607	1.29833173752	47097.7334646	28671.585083	7949.26922108	114.82675314	6580182.87686	66868485.9777	0
8175000.0	53769.0	247995542.941	0.32042492875	174217.663574	0.39921712596	1.2965400219	46961.8604722	28574.1943359	7877.83083164	116.297403095	516070.176912	66873344.6581	0
8200000.0	53963.0	250797918.633	0.321018318148	174217.895508	0.402101664804	1.29478788376	46829.7331526	28479.6630859	7807.8316616	117.763823433	3246874.29996	66878203.8521	0
8225000.0	54158.0	253620678.099	0.321605623535	174218.383789	0.404987164075	1.29304158688	46699.2098717	28386.5325928	7737.91071861	119.571544559	26559.343512	66883063.5599	0
8250000.0	54353.0	256463898.061	0.322181865779	174218.29834	0.407883140724	1.29131889343	46571.3868541	28295.5535889	7668.80117214	121.401607053	3042582.93491	66887923.7813	0
8275000.0	54549.0	259327585.212	0.32275165783	174218.457031	0.41077969945	1.28960347176	46445.280542	28206.060791	7599.87494496	123.273969289	9096984.04117	66892784.5165	0
8300000.0	54745.0	262211812.981	0.323310434223	174218.005371	0.413686211687	1.28791308403	46321.8995694	28118.7164307	7531.83284184	124.849865844	2151355.66618	66897645.7655	0
8325000.0	54941.0	265116653.167	0.323858194984	174216.967773	0.416602648329	1.28624904156	46201.3113606	28033.5449219	7464.70316677	126.439138801	1000488.74717	66902507.5283	0
8350000.0	55137.0	268042178.221	0.324393990252	174215.258789	0.419528863858	1.2846108675	46083.5537247	27950.6134033	7398.49672712	128.041420636	6931321.29573	66907369.805	0
8375000.0	55333.0	270988464.847	0.32491572867	174212.780762	0.42246573139	1.28300094604	45969.0518016	27870.2697754	7333.26395743	129.986050713	1137563.58787	66912232.5956	0
8400000.0	55530.0	273955517.971	0.32542983069	174210.961914	0.42540251161	1.28139686584	45856.2591157	27791.4367676	7268.38289296	131.971984258	1912584.32878	66917095.9002	0
8425000.0	55727.0	276943409.846	0.325934696093	174209.16748	0.428348896094	1.27981412411	45745.8012396	27714.4348145	7204.52673503	133.977333411	8785030.92694	66921959.7188	0
8450000.0	55925.0	279952139.836	0.326436379406	174208.276367	0.43129461119	1.27823460102	45636.4793473	27638.4338379	7141.09045091	135.680320125	2402427.7998	66926824.0513	0
8475000.0	56122.0	282981842.723	0.326929033793	174206.689453	0.434259389294	1.27669024467	45529.7743485	27564.2944336	7079.30083203	137.371702388	536855.43842	66931688.898	0
8500000.0	56320.0	286032515.209	0.327422180613	174206.030273	0.437223206973	1.27514863014	45423.6313634	27490.6158447	7017.9379829	139.44750376	3188953.85317	66936554.2587	0
8525000.0	56518.0	289104225.585	0.327911049199	174205.383301	0.44019613415	1.27362632751	45319.5521462	27418.5760498	6957.08410656	141.196006898	158256.887646	66941420.1335	0
8550000.0	56716.0	292197043.118	0.328394051816	174204.760742	0.443178636488	1.2721247673	45217.5288374	27348.1384277	6896.65946589	142.966642962	4569123.05492	66946286.5226	0
8575000.0	56914.0	295311036.245	0.32887030496	174204.150391	0.446170393843	1.27064323425	45117.3123658	27279.0466309	6836.69958223	145.124568532	94610.5898342	66951153.4258	0
8600000.0	57113.0	298446203.723	0.329342562423	174204.345703	0.449161394499	1.26916658878	45017.8451636	27210.534668	6776.66572687	147.336333405	5826461.62113	66956020.8433	0
8625000.0	57312.0	301602611.907	0.329806012005	174204.602051	0.452161591966	1.26770937443	44919.7115021	27142.8894043	6717.14428549	149.204447826	814704.843782	66960888.775	0
8650000.0	57511.0	304780328.077	0.330259741405	174204.89502	0.455170695204	1.26627159119	44822.6696697	27075.8483887	6658.13832801	151.094645427	1772782.60178	66965757.2211	0
8675000.0	57710.0	307979421.671	0.330703039157	174205.175781	0.458189460915	1.26485395432	44726.6268169	27009.3200684	6599.70142455	153.390013784	2390758.28838	66970626.1815	0
8700000.0	57910.0	311199892.554	0.331139685344	174206.152344	0.461207644548	1.26344251633	44631.0182358	26943.0236816	6541.28900953	155.35101932	317670.13028	66975495.6564	0
8725000.0	58109.0	314441879.429	0.331563725067	174206.335449	0.464245211333	1.26206481457	44537.5561789	26878.1402588	6484.0058086	157.308657391	4388125.68745	66980365.6456	0
8750000.0	58309.0	317705379.199	0.331982834708	174207.250977	0.467281846795	1.26069235802	44444.9351879	26813.9282227	6426.80085115	159.710463725	690477.192759	66985236.1493	0
8775000.0	58509.0	320990458.33	0.332394759987	174208.203125	0.47032738803	1.25933885574	44354.1310539	26751.0986328	6370.21248945	162.14313365	9013639.6153	66990107.1675	0
8800000.0	58710.0	324297109.289	0.33280340441	174209.936523	0.473371415865	1.25799024105	44264.5987166	26689.3798828	6313.75497228	164.221952709	3292339.47647	66994978.7003	0
8825000.0	58910.0	327625468.597	0.333203260548	174210.913086	0.476434506709	1.25667417049	44177.8465618	26629.7393799	6258.45058328	166.295982137	37653.9139062	66999850.7476	0
8850000.0	59111.0	330975532.665	0.333599833292	174212.524414	0.479496637126	1.25536584854	44092.2774571	26571.0571289	6203.31050068	168.834905313	7482123.10711	67004723.3096	0
8875000.0	59312.0	334347367.842	0.333989000025	174214.074707	0.482567586005	1.2540769577	44008.571799	26513.7878418	6148.85201097	170.978665456	2372433.37198	67009596.3862	0
8900000.0	59513.0	337741039.675	0.33436998586	174215.576172	0.485647586174	1.25280666351	43926.7116692	26457.925415	6095.09244623	173.141191854	120468.085546	67014469.9774	0
8925000.0	59714.0	341156611.975	0.33474201035	174217.016602	0.488736201078	1.25155353546	43846.6799399	26403.4851074	6042.02181699	175.322678959	3339700.40924	67019344.0834	0
8950000.0	59915.0	344594147.825	0.335104180765	174218.457031	0.491833256092	1.25031626225	43768.4477229	26350.4699707	5989.65002464	177.52264391	8558777.04919	67024218.7042	0
8975000.0	60116.0	348053709.64	0.335455759679	174219.848633	0.494938809425	1.24909472466	43692.0455159	26298.9257812	5937.98644838	180.187605332	23062.8162574	67029093.8397	0
9000000.0	60318.0	351535293.483	0.335798613574	174221.826172	0.498043198604	1.24787843227	43617.0815911	26248.6480713	5886.5939851	182.90746028	8424439.92379	67033969.4901	0
9025000.0	60520.0	355038965.035	0.336130423898	174223.657227	0.501156551763	1.24668037891	43544.1161451	26199.9603271	5835.92824439	185.197499629	3728586.36043	67038845.6554	0
9050000.0	60722.0	358564790.527	0.336451635855	174225.292969	0.504278868902	1.2455009222	43473.1352653	26152.8442383	5786.00350808	187.503965246	606111.43062	67043722.3356	0
9075000.0	60924.0	362112835.762	0.33676291682	174226.757812	0.507410208229	1.24433887005	43404.0375328	26107.2113037	5736.82709355	189.826125795	895085.634919	67048599.5307	0
9100000.0	61126.0	365683166.547	0.337064643332	174228.100586	0.510550220497	1.24319446087	43336.7546539	26063.0004883	5688.39340217	192.163790087	4025133.12693	67053477.2408	0
9125000.0	61328.0	369275847.005	0.337357440819	174229.272461	0.513699080329	1.24206733704	43271.2395609	26020.1629639	5640.72162239	194.99717745	3153201.2106	67058355.466	0
9150000.0	61531.0	372890868.52	0.337644088066	174230.981445	0.516846135724	1.24094629288	43206.8501916	25978.2745361	5593.36952034	197.397891547	533150.215743	67063234.2062	0
9175000.0	61733.0	376528366.666	0.337920495826	174231.872559	0.520012108609	1.2398532629	43144.6408622	25937.9669189	5547.19446485	199.783986698	705926.947081	67068113.4615	0
9200000.0	61936.0	380188355.256	0.338191739044	174233.276367	0.523176102433	1.23876583576	43083.4733709	25898.5290527	5501.36435748	202.711104295	8444939.75228	67072993.232	0
9225000.0	62139.0	383870851.43	0.338456207675	174234.570312	0.52634824533	1.23769509792	43023.7981138	25860.1959229	5456.30827009	204.65203895	6874246.30425	67077873.5177	0
9250000.0	62341.0	387576022.285	0.338712145665	174235.009766	0.529539189301	1.23665201664	42966.0873876	25823.2330322	5412.39961441	207.075494629	11110534.4467	67082754.3186	0
9275000.0	62544.0	391303874.074	0.338964033221	174235.876465	0.532733276486	1.23561501503	42909.280448	25786.9812012	5368.89735887	210.052772309	51900.0745933	67087635.6347	0
9300000.0	62747.0	395054428.579	0.339208614271	174236.547852	0.535930681508	1.23459649086	42854.1343904	25751.9714355	5326.12485094	213.055964697	12549420.9897	67092517.4662	0
9325000.0	62951.0	398827691.238	0.339446598092	174237.585449	0.53912657313	1.23358690739	42800.2993402	25718.0358887	5283.73951004	215.581020806	8631120.75827	67097399.813	0
9350000.0	63154.0	402623801.472	0.339674214975	174237.609863	0.542342022527	1.23260736465	42748.6626618	25685.6658936	5242.49725601	217.549207347	6699567.7116	67102282.6752	0
9375000.0	63357.0	406442825.362	0.339893929014	174237.255859	0.545566377696	1.23164582253	42698.6583272	25654.5196533	5201.8567707	220.603596157	2737698.40029	67107166.0528	0
9400000.0	63561.0	410284753.822	0.340107749743	174237.255859	0.548789044842	1.23069190979	42649.808259	25624.3133545	5161.37832478	223.169991976	832703.552756	67112049.9458	0
9425000.0	63764.0	414149725.72	0.340312230474	174236.230469	0.552030804101	1.22976446152	42602.9053469	25595.4986572	5121.80529981	225.722599056	53328.1351893	67116934.3543	0
9450000.0	63968.0	418037728.575	0.340511373019	174235.534668	0.555270467885	1.22884225845	42557.0037986	25567.5170898	5082.40175876	228.322919695	1210385.1211	67121819.2784	0
9475000.0	64171.0	421948901.306	0.340701837155	174233.80127	0.558529456612	1.22794532776	42512.9148219	25540.8111572	5043.87727624	230.908855355	3019327.22812	67126704.718	0
9500000.0	64375.0	425883230.598	0.340887139587	174232.385254	0.561785825994	1.22705245018	42469.6867967	25514.8300171	5005.51290637	234.116960782	7614838.50785	67131590.6732	0
9525000.0	64579.0	429840775.204	0.341066375618	174230.847168	0.565050228033	1.22617149353	42427.6728265	25489.7781372	4967.6639615	236.194316565	7676492.62722	67136477.144	0
9550000.0	64782.0	433821670.458	0.341237637948	174228.833008	0.568333023693	1.22531044483	42387.1926375	25465.8340454	4930.65878474	238.830602838	10297199.5803	67141364.1306	0
9575000.0	64986.0	437825896.948	0.341404375894	174227.685547	0.571612559725	1.22444927692	42347.4243778	25442.539978	4893.81105552	242.109021692	1785893.12873	67146251.6328	0
9600000.0	65190.0	441853512.17	0.341564183801	174226.708984	0.574899662752	1.22359919548	42308.9012662	25420.2209473	4857.44668943	244.818008596	657469.883891	67151139.6508	0
9625000.0	65394.0	445904579.089	0.341715928364	174225.78125	0.57819543872	1.22276318073	42271.9425914	25399.1439819	4821.5854614	247.542454765	27462.5440802	67156028.1846	0
9650000.0	65598.0	449979159.872	0.34185992225	174224.914551	0.581499421969	1.22194004059	42236.4169737	25379.196167	4786.20969455	250.282970409	377655.810986	67160917.2343	0
9675000.0	65802.0	454077316.485	0.341996563975	174224.169922	0.584811728913	1.22113096714	42202.3300274	25360.3637695	4751.31779307	253.039104944	1133763.70753	67165806.7997	0
9700000.0	66006.0	458199109.262	0.342126031106	174223.522949	0.588132243138	1.22033381462	42169.4960834	25342.5125122	4716.90294681	255.810772982	2030231.60991	67170696.8811	0
9725000.0	66210.0	462344598.663	0.342248726126	174222.961426	0.591460731812	1.21954989433	42137.9385152	25325.6286621	4682.95332075	259.232040357	11911445.1063	67175587.4784	0
9750000.0	66415.0	466513767.125	0.342366031654	174223.168945	0.594786251895	1.21876966953	42107.2478056	25309.4772339	4649.16126635	262.07564183	10647738.63	67180478.5917	0
9775000.0	66619.0	470706750.98	0.342475867163	174222.888184	0.598130631261	1.21800994873	42077.9369296	25294.2779541	4616.14519884	264.252641818	4866801.36201	67185370.221	0
9800000.0	66823.0	474923607.783	0.342579841087	174222.729492	0.601482752245	1.21726202965	42049.6757176	25279.8477173	4583.57495849	267.085866009	5739251.829	67190262.3664	0
9825000.0	67027.0	479164395.309	0.342678194656	174222.729492	0.604842556641	1.21652531624	42022.3441151	25266.0858154	4551.4593982	269.933537486	6538952.38721	67195155.0278	0
9850000.0	67231.0	483429170.989	0.342771142233	174222.900391	0.60820998624	1.21579992771	41995.8894999	25252.9342651	4519.78224461	273.464725598	7346039.81163	67200048.2053	0
9875000.0	67436.0	487717913.364	0.342860076307	174223.88916	0.611573806964	1.21507740021	41969.9818507	25240.2145386	4488.25163773	276.384059047	6881783.40336	67204941.899	0
9900000.0	67640.0	492030757.076	0.342942831469	174224.377441	0.614956370555	1.21437466145	41945.1888454	25228.1906128	4457.45484334	278.599321442	8378901.91782	67209836.1089	0
9925000.0	67844.0	496367763.882	0.343018697417	174224.938965	0.618347257841	1.21368432045	41921.4521592	25216.9433594	4427.08323358	281.504100064	8733583.53229	67214730.8351	0
9950000.0	68048.0	500728997.752	0.34308822626	174225.512695	0.621746643446	1.21300756931	41898.7981636	25206.477356	4397.14064254	285.118862384	6305099.38815	67219626.0775	0
9975000.0	68253.0	505114441.132	0.343152055986	174226.757812	0.625142944045	1.21233582497	41876.9695064	25196.6766357	4367.33823085	288.093018514	6413777.92804	67224521.8362	0
10000000.0	68457.0	509524232.865	0.343208916435	174227.441406	0.628558686003	1.21168458462	41856.4545818	25187.7563477	4338.23791791	290.331999903	8855337.09517	67229418.1112	0
10025000.0	68661.0	513958433.073	0.34325986817	174228.186035	0.631982285995	1.21104574203	41836.9628678	25179.5715332	4309.54442649	293.288220145	8580723.00594	67234314.9026	0
10050000.0	68865.0	518417100.3	0.343305130714	174229.02832	0.635413685814	1.21041882038	41818.4928414	25172.1252441	4281.26164104	296.982583336	7608069.56672	67239212.2104	0
10075000.0	69070.0	522900215.084	0.34334551464	174230.554199	0.638841884211	1.20979642868	41800.8225917	25165.3244019	4253.11310311	300.007224808	8334990.26524	67244110.0347	0
10100000.0	69274.0	527407911.704	0.343379920133	174231.542969	0.642288650852	1.20919299126	41784.3577666	25159.3261719	4225.62284514	302.26671799	6888640.37406	67249008.3754	0
10125000.0	69478.0	531940247.896	0.34340921521	174232.641602	0.645743217319	1.20860040188	41768.8543346	25154.0237427	4198.53153729	305.270731008	6085387.79159	67253907.2326	0
10150000.0	69682.0	536497279.082	0.343433509738	174233.862305	0.649204826914	1.20801794529	41754.2825759	25149.4094849	4171.81545338	308.287210137	5181686.66964	67258806.6064	0
10175000.0	69886.0	541079059.974	0.343453364068	174235.180664	0.652673945297	1.20744633675	41740.6594564	25145.4727173	4145.48783889	311.314353499	4219299.18414	67263706.4968	0
10200000.0	70090.0	545685645.263	0.343468382891	174236.621094	0.656150339637	1.20688414574	41727.9531068	25142.2241211	4119.53442974	314.352703493	3213067.25116	67268606.9038	0
10225000.0	70294.0	550317095.645	0.343477439819	174238.037109	0.659634592012	1.20633375645	41716.3433957	25139.793396	4093.95476467	317.401389468	2186136.27155	67273507.8275	0
10250000.0	70498.0	554973469.771	0.34348036514	174239.453125	0.663126935251	1.20579504967	41705.8012969	25138.1607056	4068.74835839	320.459687232	1202016.06686	67278409.2678	0
10275000.0	70702.0	559654827.196	0.343477721098	174240.856934	0.666627078317	1.20526766777	41696.2975966	25137.2940063	4043.90582397	323.527817839	373550.832095	67283311.2249	0
10300000.0	70906.0	564361229.014	0.343469564202	174242.236328	0.67013525404	1.20475149155	41687.7906004	25137.1734619	4019.42679668	326.605041671	58290.7899662	67288213.6988	0
10325000.0	71110.0	569092732.717	0.343456288979	174243.579102	0.673651287798	1.20424556732	41680.2129371	25137.7441406	3995.31089034	329.690799076	817758.577836	67293116.6894	0
10350000.0	71314.0	573849397.493	0.343438346558	174244.970703	0.67717517959	1.20375013351	41673.5376355	25138.973999	3971.54025736	332.785889945	2119727.299	67298020.1969	0
10375000.0	71518.0	578631282.258	0.343415822757	174246.289062	0.680706696585	1.20326495171	41667.6972094	25140.8096313	3948.11044944	335.890159527	3902011.55643	67302924.2213	0
10400000.0	71722.0	583438443.431	0.343389141077	174247.631836	0.684245780576	1.20278906822	41662.6739686	25143.2434082	3925.01278663	338.172845282	12204489.2001	67307828.7626	0
10425000.0	71925.0	588271020.251	0.343358500217	174248.388672	0.687804305926	1.20232927799	41658.5290085	25146.232605	3902.46585031	341.248201194	9359070.10104	67312733.8208	0
10450000.0	72129.0	593128987.556	0.34332435194	174249.707031	0.691358582117	1.20187294483	41654.9784769	25149.697876	3880.001572	345.219236922	12002101.5927	67317639.3961	0
10475000.0	72333.0	598012402.772	0.343286895019	174251.025391	0.694920541719	1.20142579079	41652.0932006	25153.6209106	3857.85297675	347.506851742	4114919.99489	67322545.4883	0
10500000.0	72536.0	602921403.481	0.343246356341	174251.782227	0.698501302395	1.20099365711	41649.9655532	25157.9986572	3836.21829959	350.610595208	1980583.31286	67327452.0976	0
10525000.0	72740.0	607855967.342	0.343201333953	174253.027344	0.702078570612	1.20056688786	41648.5551493	25162.9425049	3814.66725351	353.762889348	377591.454286	67332359.224	0
10550000.0	72943.0	612816237.064	0.343151522569	174253.588867	0.70567545481	1.20015728474	41648.1359292	25168.5379028	3793.61212848	356.884500428	442944.623668	67337266.8676	0
10575000.0	73147.0	617802193.205	0.343097094757	174254.626465	0.709269195795	1.19975364208	41648.4874853	25174.7421265	3772.62765326	360.055355839	2314676.96804	67342175.0283	0
10600000.0	73350.0	622813976.983	0.343038419645	174254.992676	0.712882494554	1.19936585426	41649.6988376	25181.4865112	3752.13412698	362.30175239	15221518.1408	67347083.7062	0
10625000.0	73553.0	627851649.034	0.342976034467	174255.236816	0.716503593139	1.19898748398	41651.6336923	25188.7466431	3731.89943085	365.442668666	10959495.0113	67351992.9013	0
10650000.0	73756.0	632915269.034	0.342910139528	174255.371094	0.720132899005	1.19861841202	41654.2751329	25196.4981079	3711.92872478	368.592226341	7054977.73789	67356902.6137	0
10675000.0	73959.0	638004897.072	0.342841159242	174255.383301	0.723769946489	1.19825816154	41657.5508241	25204.6798706	3692.20677234	371.751659732	3664552.22519	67361812.8435	0
10700000.0	74162.0	643120590.714	0.34276940548	174255.26123	0.727414968424	1.19790625572	41661.423074	25213.2629395	3672.73880514	374.919827019	1050441.11908	67366723.5905	0
10725000.0	74365.0	648262408.739	0.342695357738	174255.004883	0.731067324523	1.19756162167	41665.8419818	25222.2229004	3653.50987212	378.098081275	207845.756978	67371634.855	0
10750000.0	74568.0	653430406.68	0.342619242909	174254.638672	0.734727422241	1.19722437859	41670.7598644	25231.4956665	3634.51329935	381.286438204	2358082.26057	67376546.6368	0
10775000.0	74771.0	658624643.489	0.342541539339	174254.11377	0.738395028748	1.19689381123	41676.1297778	25241.0629272	3615.75444551	384.483988936	5792088.97462	67381458.9361	0
10800000.0	74974.0	663845173.672	0.342462444946	174253.405762	0.742069853004	1.19656944275	41681.9146006	25250.8911133	3597.21879679	386.737047893	10724682.9539	67386371.7529	0
10825000.0	75176.0	669092137.381	0.342381793988	174251.965332	0.745764293242	1.19625759125	41688.2565405	25261.0107422	3579.09253012	389.904730442	6310299.61914	67391285.0872	0
10850000.0	75379.0	674365513.713	0.342297493559	174250.842285	0.749455066398	1.19594991207	41695.2402964	25271.6339111	3560.99504338	393.123966251	2623998.5535	67396198.939	0
10875000.0	75581.0	679665446.928	0.342210442536	174249.035645	0.753165630158	1.19565594196	41702.9306024	25282.6812744	3543.29639316	396.310245939	210551.324873	67401113.3084	0
10900000.0	75784.0	684991912.18	0.342119528911	174247.98584	0.756871770136	1.19536602497	41711.296323	25294.2596436	3525.61215847	399.549972621	1425134.52835	67406028.1955	0
10925000.0	75986.0	690345050.377	0.34202612551	174246.484375	0.760597467888	1.19508802891	41720.3328905	25306.262207	3508.32047793	401.76151482	18339361.8433	67410943.6002	0
10950000.0	76188.0	695724919.641	0.341929929825	174245.178223	0.764330849051	1.19481873512	41729.9683762	25318.6599731	3491.21710114	404.970316379	12233719.7093	67415859.5226	0
10975000.0	76390.0	701131576.759	0.341831364495	174244.042969	0.768071739003	1.19455635548	41740.183439	25331.4682007	3474.30772776	408.188888835	6881314.76866	67420775.9627	0
11000000.0	76592.0	706565077.751	0.341730545034	174243.066406	0.771820079535	1.19430160522	41750.9334222	25344.6273804	3457.58275138	411.418002371	2578403.34665	67425692.9206	0
11025000.0	76794.0	712025478.77	0.341627837214	174242.285156	0.775575637817	1.19405305386	41762.1478302	25358.1085205	3441.04407319	414.657181315	31343.0804418	67430610.3963	0
11050000.0	76996.0	717512835.619	0.34152352258	174241.662598	0.779338530265	1.19381129742	41773.8264208	25371.8933105	3424.67850712	417.907583232	2258558.07014	67435528.3898	0
11075000.0	77198.0	723027202.787	0.34141790984	174241.259766	0.783108640462	1.19357573986	41785.9279895	25385.9542847	3408.48807591	421.168681284	6772171.68464	67440446.9011	0
11100000.0	77400.0	728568635.25	0.341311057009	174241.015625	0.786885910202	1.19334566593	41798.3936055	25400.2548218	3392.46730461	423.390237582	10646319.1085	67445365.9304	0
11125000.0	77601.0	734137271.682	0.341203771419	174240.441895	0.790682563093	1.19312608242	41811.202686	25414.6942139	3376.78506217	426.620550429	5171708.17429	67450285.4775	0
11150000.0	77803.0	739733085.672	0.341092836236	174240.576172	0.794474617578	1.19291031361	41824.6920122	25429.6920776	3361.09781536	429.905745391	1100743.33553	67455205.5427	0
11175000.0	78004.0	745356222.082	0.340979478328	174240.29541	0.798286520876	1.1927074194	41838.8103097	25445.0576782	3345.73690593	432.082266442	29778642.8992	67460126.1258	0
11200000.0	78205.0	751006739.157	0.340863508688	174240.124512	0.802106456831	1.19251251221	41853.5157963	25460.8337402	3330.53396075	436.418427366	4978662.0557	67465047.227	0
11225000.0	78407.0	756684607.344	0.340744462126	174240.649414	0.805921386927	1.19232130051	41868.8188828	25477.0767212	3315.32001459	439.735748341	11198208.8484	67469968.8462	0
11250000.0	78608.0	762389971.382	0.340624032573	174240.759277	0.809756456874	1.19214057922	41884.5615294	25493.5516357	3300.41834643	441.919568345	6768427.70461	67474890.9835	0
11275000.0	78809.0	768122888.304	0.340501863694	174241.027832	0.813598744571	1.19196605682	41900.7424059	25510.319519	3285.65941512	445.206034164	1798361.52886	67479813.6389	0
11300000.0	79010.0	773883414.542	0.340378207927	174241.442871	0.817448715679	1.19179749489	41917.3121718	25527.3254395	3271.04549474	447.387462398	32435708.5495	67484736.8125	0
11325000.0	79210.0	779671694.628	0.340254117494	174241.455078	0.821318593808	1.19163775444	41934.1623184	25544.4473267	3256.73256534	450.641321976	22953309.1533	67489660.5043	0
11350000.0	79411.0	785487698.062	0.340128407413	174242.138672	0.825183349662	1.19147908688	41951.3585132	25561.831665	3242.3932627	455.084721251	11314695.6818	67494584.7143	0
11375000.0	79612.0	791331481.129	0.340002156271	174242.96875	0.829055556096	1.19132459164	41968.7880046	25579.3487549	3228.21988304	457.270921575	7242143.61151	67499509.4425	0
11400000.0	79812.0	797203187.069	0.339876411937	174243.395996	0.832947553135	1.19117712975	41986.3491885	25596.8566895	3214.39431724	460.545451527	1934180.45711	67504434.6891	0
11425000.0	80013.0	803102782.328	0.339749879914	174244.53125	0.836834020447	1.19102931023	42004.1252781	25614.5324707	3200.59633525	463.869860203	569670.311462	67509360.454	0
11450000.0	80213.0	809030412.676	0.339622919566	174245.227051	0.84074086044	1.19088983536	42022.1782435	25632.3150635	3187.13751711	465.984706741	23868799.9299	67514286.7372	0
11475000.0	80413.0	814986138.009	0.339493800762	174246.044922	0.844655209221	1.19075608253	42040.7030267	25650.4211426	3173.8537742	469.259159545	14866906.1097	67519213.5388	0
11500000.0	80613.0	820970017.26	0.339362885486	174246.948242	0.848577532452	1.19062829018	42059.6463379	25668.8018799	3160.74338706	472.535919787	7276747.0915	67524140.8588	0
11525000.0	80813.0	826982108.895	0.339230479809	174247.949219	0.852507655509	1.1905053854	42078.9749014	25687.4420166	3147.79429434	475.816391637	1691226.65872	67529068.6973	0
11550000.0	81013.0	833022471.365	0.339096998562	174249.023438	0.856445170939	1.19038748741	42098.6249369	25706.2805176	3135.00839763	479.100047638	937323.038032	67533997.0543	0
11575000.0	81213.0	839091162.067	0.338962690946	174250.20752	0.860390486196	1.1902743578	42118.5747139	25725.302124	3122.37385268	481.182037778	23509726.139	67538925.9297	0
11600000.0	81412.0	845188326.579	0.338828763395	174250.952148	0.864355824888	1.19016873837	42138.6806004	25744.3389893	3110.03266004	484.418818582	14151162.2524	67543855.3237	0
11625000.0	81612.0	851313935.483	0.338693847637	174252.270508	0.868316157721	1.19006431103	42159.0750312	25763.5986328	3097.69262972	488.929453849	23798697.5107	67548785.2363	0
11650000.0	81812.0	857468044.003	0.338559011951	174253.686523	0.872283766512	1.18996369839	42179.6304708	25782.925415	3085.49303003	491.000479654	1014909.84529	67553715.6675	0
11675000.0	82011.0	863650798.637	0.338425430449	174254.663086	0.876271747984	1.18986988068	42200.2168191	25802.166748	3073.56419433	493.013314467	33712894.5545	67558646.6173	0
11700000.0	82210.0	869862257.204	0.338292609157	174255.737305	0.880267121829	1.18977952003	42220.8752772	25821.4050293	3061.76887955	496.261384221	22869241.3244	67563578.0858	0
11725000.0	82409.0	876102474.547	0.338160737256	174256.860352	0.884269771632	1.18969249725	42241.5671624	25840.6005859	3050.09585447	499.515638133	13475245.0195	67568510.073	0
11750000.0	82608.0	882371507.898	0.338029594707	174258.056641	0.888279872015	1.18960952759	42262.3367668	25859.7900391	3038.54072822	502.776376227	5862589.86765	67573442.5789	0
11775000.0	82807.0	888669416.699	0.337897601085	174259.277344	0.892297481187	1.18953251839	42283.4310666	25879.1656494	3027.1058206	506.042865482	716219.219499	67578375.6036	0
11800000.0	83006.0	894996258.286	0.337764704101	174260.546875	0.8963230066	1.18946170807	42304.8435862	25898.7213135	3015.78348032	509.315836067	2194301.01536	67583309.1471	0
11825000.0	83205.0	901352094.706	0.337631150616	174261.853027	0.900356390048	1.18939650059	42326.5315241	25918.4265137	3004.56946632	512.595746093	8647913.78211	67588243.2094	0
11850000.0	83404.0	907736983.403	0.337497322506	174263.134766	0.904397515114	1.18933641911	42348.4418857	25938.2415771	2993.45959748	514.586911597	13218872.5794	67593177.7906	0
11875000.0	83602.0	914151075.566	0.33736436024	174263.977051	0.908459303901	1.18928313255	42370.4111481	25958.001709	2982.58401327	517.824622151	5470155.03767	67598112.8907	0
11900000.0	83801.0	920594336.2	0.33723079773	174265.319824	0.912515737582	1.1892311573	42392.6118785	25977.9266357	2971.67615938	521.118652633	431268.787114	67603048.5097	0
11925000.0	83999.0	927066915.546	0.337098668476	174266.186523	0.916592893191	1.18918502331	42414.7675363	25997.7142334	2960.99025032	523.051464043	34611609.9096	67607984.6476	0
11950000.0	84197.0	933568873.776	0.336967346583	174267.028809	0.92067749938	1.18914175034	42436.9536471	26017.4743652	2950.39135763	526.305893744	23261187.2541	67612921.3046	0
11975000.0	84395.0	940100268.217	0.336837127844	174267.883301	0.924769847188	1.18910050392	42459.1044746	26037.1520996	2939.87882134	529.56905513	13488012.7193	67617858.4806	0
12000000.0	84593.0	946661158.238	0.33670836121	174268.75	0.928869936615	1.18906068802	42481.1815844	26056.729126	2929.45198808	532.840867906	5667560.59732	67622796.1756	0
12025000.0	84791.0	953251599.226	0.336581259544	174269.592285	0.932977418415	1.18902206421	42503.1393833	26076.159668	2919.10380096	536.122628834	570513.817099	67627734.3898	0
12050000.0	84989.0	959871649.74	0.336456089085	174270.422363	0.937092467211	1.18898391724	42524.917814	26095.4101562	2908.83368726	539.414177984	2417237.47982	67632673.1231	0
12075000.0	85187.0	966521350.566	0.336332036536	174271.30127	0.941212521866	1.18894720078	42546.6757868	26114.5996094	2898.62834932	541.348811624	25702515.3922	67637612.3755	0
12100000.0	85384.0	973200872.164	0.336208830028	174271.533203	0.945356150623	1.18891656399	42568.4517831	26133.7188721	2888.62690518	544.603001133	15751580.0164	67642552.1472	0
12125000.0	85582.0	979910181.802	0.33608501357	174272.229004	0.949494598899	1.18888700008	42590.4612169	26153.012085	2878.56831276	547.918169823	7444407.53799	67647492.4381	0
12150000.0	85779.0	986649433.767	0.335962579974	174272.387695	0.953654292971	1.18886256218	42612.4098436	26172.164917	2868.69907743	551.193924887	1567736.06393	67652433.2482	0
12175000.0	85977.0	993418594.162	0.335839966639	174272.937012	0.9578083409	1.18883860111	42634.5074888	26191.4276123	2858.76951317	554.531922476	1241029.74162	67657374.5777	0
12200000.0	86174.0	1000217818.37	0.335719296898	174272.949219	0.961983925663	1.18881964684	42656.4693743	26210.4858398	2849.02133577	556.418823526	30495662.1477	67662316.4265	0
12225000.0	86371.0	1007047165.33	0.335599787933	174272.827148	0.966167310253	1.18880319595	42678.377367	26229.4342041	2839.32822105	559.722130628	19901056.8255	67667258.7946	0
12250000.0	86568.0	1013906696.54	0.335481759362	174272.65625	0.970358378254	1.18878889084	42700.2086236	26248.2574463	2829.68983292	563.038031471	10925333.2239	67672201.6822	0
12275000.0	86765.0	1020796473.7	0.335365369039	174272.375488	0.974557653535	1.18877625465	42721.9063452	26266.9189453	2820.10893406	566.365598158	3968227.99312	67677145.0892	0
12300000.0	86962.0	1027716555.09	0.335250801219	174271.960449	0.978764612228	1.18876564503	42743.4630545	26285.3881836	2810.5728182	569.707623278	28182.5431305	67682089.0157	0
12325000.0	87159.0	1034667002.39	0.335138373591	174271.435547	0.9829797782	1.18875670433	42764.8181544	26303.6254883	2801.08740124	573.062573828	3509715.72771	67687033.4616	0
12350000.0	87356.0	1041647874.47	0.335028162212	174270.788574	0.987202627584	1.18874907494	42785.9586228	26321.6217041	2791.64625708	574.969003117	27734846.0717	67691978.4272	0
12375000.0	87552.0	1048659327.78	0.334921205795	174269.543457	0.991446664557	1.18874466419	42806.7313786	26339.2089844	2782.36218334	578.293216565	18079980.6096	67696923.9123	0
12400000.0	87749.0	1055701329.2	0.334814397828	174268.62793	0.995685695671	1.18874287605	42827.643161	26356.8359375	2773.00546548	581.683086471	9818165.00602	67701869.917	0
12425000.0	87945.0	1062774037.29	0.33470918043	174267.016602	0.999946380034	1.18874716759	42848.4921212	26374.2919922	2763.80462644	585.035620884	3482454.66227	67706816.4413	0
12450000.0	88142.0	1069877417.41	0.334603655436	174265.905762	1.00420124363	1.18875432014	42869.5648517	26391.8579102	2754.52543693	588.456090194	5559.15322824	67711763.4853	0
12475000.0	88338.0	1077011625.85	0.334499530786	174264.440918	1.00847752765	1.1887665987	42890.5693214	26409.2651367	2745.39194332	590.334991083	41082351.8639	67716711.0491	0
12500000.0	88534.0	1084176723.8	0.334396217403	174263.098145	1.01276172791	1.18878149986	42911.5944853	26426.6265869	2736.291739	594.747776417	0.0	67721659.1325	0
