z	T	P	nabla_ad	S	rho	delta	cp	cv	opac	frad	fconv	ftot	dT
0.0	3900.0	125.072379038	0.385081019067	174159.70459	5.03978903055e-06	1.00815296173	16744.2229754	10280.4122925	0.0006242083455	0.0	17011.3633184	65311815.0903	0
25000.0	3900.0	164.814045056	0.380655636803	172387.62207	6.64238530845e-06	1.01070439816	17001.7401358	10507.6080322	0.000743921644891	0.0	23149.3801776	65316507.3538	0
50000.0	3900.0	217.200549996	0.375023761407	170610.48584	8.75578898274e-06	1.01409888268	17341.52915	10806.5628052	0.000884680395979	0.0	30692.3165192	65321200.1229	0
75000.0	3900.0	286.265507749	0.367921209866	168826.831055	1.15435403458e-05	1.01859176159	17787.4050763	11198.664093	0.0010504316247	0.0	40417.9029201	65325893.3976	0
100000.0	3900.0	377.33685389	0.359083753854	167034.082031	1.52222838778e-05	1.0243922472	18371.1724119	11712.5907898	0.00124645516211	0.0	53213.2788071	65330587.1781	0
125000.0	3900.0	497.456654185	0.348240239788	165229.858398	2.00789962435e-05	1.03203487396	19135.6088725	12384.4703674	0.0014793928752	0.0	70071.2947042	65335281.4644	0
150000.0	3900.0	655.941291693	0.335211709533	163409.802246	2.64948987194e-05	1.04214048386	20135.0427747	13261.1709595	0.00175466185402	0.0	92296.1174481	65339976.2566	0
175000.0	3900.0	865.131869799	0.319904837878	161569.689941	3.49774964548e-05	1.05528259277	21436.9908968	14401.6479492	0.00208051925537	0.0	121644.63565	65344671.5548	0
200000.0	3900.0	1141.40172009	0.302396836729	159702.783203	4.62042457627e-05	1.07231271267	23125.1013471	15878.1509399	0.00246917786911	25158798.6031	157554.579428	65349367.3591	0
225000.0	3908.0	1505.58837899	0.285506749662	157856.82373	6.09076451497e-05	1.09174537659	25003.1482808	17512.0346069	0.00298304497029	17881951.6688	207628.490097	65354063.6694	0
250000.0	3909.0	1986.84608922	0.265215611177	155928.466797	8.05182196473e-05	1.11919689178	27666.7228524	19825.3479004	0.00356022586869	26465794.8999	266018.270695	65358760.4858	0
275000.0	3929.0	2619.493048	0.250494742022	154103.515625	0.000105816084783	1.14396774769	29963.687316	21801.31073	0.00440285452251	22834863.0584	344547.174898	65363457.8085	0
300000.0	3938.0	3453.8182249	0.232134519786	152152.062988	0.000139589360515	1.18042647839	33379.115359	24734.3994141	0.00533016140462	36737240.2777	393774.293993	65368155.6374	0
325000.0	4003.0	4534.21482278	0.232081856874	150655.456543	0.000180380652637	1.18472909927	33447.7542274	24749.3972778	0.00701432700498	29130287.0766	485610.508265	65372853.9727	0
350000.0	4033.0	5944.05218871	0.220988136316	148872.631836	0.000235268572624	1.21358203888	35923.6028442	26837.9547119	0.00871354433395	36772220.5043	417334.46877	65377552.8144	0
375000.0	4193.0	7705.94361855	0.24851682824	148173.339844	0.000292295908366	1.1609364748	30483.9746772	22111.0961914	0.0133704296377	28978810.6049	446148.569748	65382252.1626	0
400000.0	4287.0	9932.61070542	0.255601527453	146962.585449	0.000368326993794	1.15193665028	29348.7673018	21098.046875	0.0183431982753	36747679.2072	24739.3758607	65386952.0172	0
425000.0	4713.0	12493.3690541	0.332427585337	147604.89502	0.000418256433932	1.05604279041	20455.3054733	13421.987915	0.0349249930577	28930501.4457	38282.7992722	65391652.3785	-1
450000.0	4954.0	15536.6287622	0.353398939105	147114.929199	0.000494233404424	1.03772735596	18829.0446258	12018.346405	0.0479279782679	36260183.3768	0.555202483856	65396353.2465	0
475000.0	5879.0	18659.6367108	0.386556833745	148883.666992	0.000498542419791	1.00796365738	16604.1574082	10143.9315796	0.0811199598713	28548836.0128	0.0182262679156	65401054.6211	-3
500000.0	5892.0	22404.2183034	0.385718062739	147733.520508	0.000597651194312	1.00904119015	16661.0167185	10188.8305664	0.093877708616	34839778.1262	36.611516208	65405756.5026	0
525000.0	7451.0	25875.665414	0.335899002475	150922.302246	0.000543654550711	1.02370274067	19288.1734782	12610.9130859	0.598624606894	29073242.6938	244369.434852	65410458.8909	-11
550000.0	9647.0	28839.3377946	0.170947516966	157726.501465	0.000456389386727	1.25420999527	46898.3220621	36741.7388916	6.61790356175	5100238.44144	23924564.2249	65415161.7861	-10
575000.0	10287.0	31867.4837207	0.143989594502	160404.882812	0.000464501056285	1.40039753914	63317.1356628	50528.0731201	12.015727236	1766368.46396	16064503.6967	65419865.1883	-3
600000.0	11150.0	34814.6633577	0.120329632246	165906.005859	0.000449844094419	1.67814731598	94656.8504553	75876.348877	23.9678399926	863089.998787	22394363.9741	65424569.0975	-3
625000.0	11396.0	37922.9527101	0.11715377953	167082.751465	0.00047376704515	1.7505210638	102711.378234	82133.8256836	28.8706531867	445377.288822	10345915.1143	65429273.5139	-3
650000.0	11832.0	41089.1107076	0.111773662427	170290.844727	0.000481432721244	1.9046125412	120524.859005	95768.0419922	38.4254573471	342363.43394	13399619.9966	65433978.4373	-1
675000.0	12029.0	44422.8164113	0.110570233213	171301.977539	0.000506364642661	1.96014332771	126880.007755	100478.216553	43.7926805642	201393.98069	5804189.32232	65438683.868	-2
700000.0	12257.0	47907.7463848	0.109329174156	172685.327148	0.000528714338088	2.02694153786	134695.430425	106215.258789	50.2966476495	161666.51885	5473540.24053	65443389.806	0
725000.0	12416.0	51583.0232672	0.108928588124	173362.04834	0.000557188172934	2.06430315971	138957.590646	109253.637695	55.5354753732	111141.041225	2370085.93419	65448096.2513	-1
750000.0	12554.0	55468.9570878	0.10880030547	173772.937012	0.000588769012211	2.09050178528	141847.809407	111253.186035	60.4496134375	79352.43447	616792.10046	65452803.204	0
775000.0	12653.0	59599.8480326	0.108995992544	173775.439453	0.000625548068456	2.10163640976	142870.48521	111879.772949	64.5300144889	59794.9699233	9280.93634427	65457510.6642	0
800000.0	12751.0	63988.1496585	0.109209682286	173786.633301	0.000664192612021	2.11249375343	143874.402364	112492.041016	68.7681471919	54082.6484504	7602.6298593	65462218.6319	0
825000.0	12850.0	68645.5045918	0.109431246101	173811.535645	0.000704599699475	2.12329745293	144878.558622	113100.402832	73.2243850523	49002.4477183	5894.19930161	65466927.1071	0
850000.0	12948.0	73586.0261057	0.1096784849	173799.951172	0.000747184969896	2.13269209862	145691.076854	113560.998535	77.844804003	44243.2211398	13549.7957386	65471636.09	0
875000.0	13046.0	78824.2230371	0.109938714526	173772.045898	0.000791893285168	2.14125657082	146391.110939	113933.544922	82.6645030708	40415.9675794	4129.28873112	65476345.5805	0
900000.0	13145.0	84373.2647618	0.11020339013	173782.543945	0.000838459072838	2.15043354034	147190.44433	114378.78418	87.7176727809	36797.590284	3123.49762587	65481055.5789	0
925000.0	13243.0	90247.977384	0.110485487674	173799.023438	0.000887249484549	2.15925741196	147961.796949	114803.857422	92.9432999749	33388.1008157	11229.3687245	65485766.085	0
950000.0	13341.0	96463.1324723	0.110779366422	173816.491699	0.000938277878504	2.16767477989	148690.496404	115196.118164	98.3824282926	30493.8711233	10665.5488282	65490477.0989	0
975000.0	13439.0	103034.65148	0.111085108968	173811.120605	0.000991755882751	2.17526435852	149306.062971	115501.977539	104.045570672	27884.8878986	10604.0668645	65495188.6208	0
1000000.0	13537.0	109979.801659	0.111397407608	173784.887695	0.00104777654997	2.18206954002	149818.945452	115730.737305	109.939417337	25529.4585674	10964.6919184	65499900.6506	0
1025000.0	13635.0	117315.389326	0.111714882945	173782.69043	0.00110615587801	2.18899679184	150378.005807	115996.606445	116.062526546	23407.4173092	11140.3201462	65504613.1885	0
1050000.0	13733.0	125057.851385	0.112041104191	173798.095703	0.00116698481634	2.19591212273	150957.659011	116278.979492	122.421709158	21491.6143607	11279.570662	65509326.2344	0
1075000.0	13831.0	133224.44765	0.112376991747	173818.041992	0.00123041581901	2.20250511169	151507.454976	116539.074707	129.025435889	19757.4060686	11612.7965784	65514039.7885	0
1100000.0	13929.0	141833.651527	0.112722920698	173823.852539	0.00129666921111	2.20847296715	151972.248376	116734.545898	135.884937813	18182.5888846	12510.5959332	65518753.8507	0
1125000.0	14027.0	150905.498538	0.11307741192	173799.072266	0.00136596736411	2.2136452198	152316.152272	116838.195801	143.01078974	16748.7224476	14318.159932	65523468.4212	0
1150000.0	14125.0	160460.48327	0.113439723463	173787.438965	0.00143811121234	2.21872973442	152668.505859	116949.707031	150.401047888	15446.0863342	16415.7852898	65528183.5	0
1175000.0	14223.0	170517.967171	0.113810750293	173795.300293	0.00151307210672	2.22379946709	153042.51778	117078.930664	158.049690483	14335.9650309	2562.95264269	65532899.0871	0
1200000.0	14322.0	181096.059045	0.114188166281	173823.803711	0.00159074920703	2.22889995575	153436.525386	117221.99707	166.002986001	13255.6177044	3180.11354001	65537615.1826	0
1225000.0	14420.0	192217.36723	0.114574953906	173837.939453	0.00167184748534	2.23329043388	153741.88243	117301.184082	174.174733661	12207.040702	24056.6571159	65542331.7865	0
1250000.0	14518.0	203904.420678	0.114967093397	173830.810547	0.0017563942265	2.23705458641	153955.614874	117311.975098	182.623284155	11309.3761701	28657.6389719	65547048.8989	0
1275000.0	14616.0	216181.503374	0.115367536421	173803.857422	0.00184453460861	2.2404718399	154111.376279	117279.382324	191.355854933	10540.5583709	9772.30304492	65551766.5199	0
1300000.0	14715.0	229070.319548	0.115774383398	173806.201172	0.00193563755602	2.24409365654	154318.619624	117285.131836	200.416304636	9786.56504631	13196.1152655	65556484.6494	0
1325000.0	14813.0	242595.624953	0.116189233889	173812.512207	0.00203041008717	2.24730157852	154492.491393	117270.068359	209.709257849	9095.66131329	17655.5960323	65561203.2876	0
1350000.0	14912.0	256779.056698	0.116609233692	173835.498047	0.00212840836866	2.2503862381	154666.744891	117255.13916	219.348679889	8462.99881095	22555.2838808	65565922.4345	0
1375000.0	15010.0	271647.816334	0.117034135775	173842.504883	0.00223052074944	2.25276398659	154753.997462	117179.138184	229.240067331	7880.46527127	29366.9499026	65570642.0901	0
1400000.0	15109.0	287226.095954	0.11746633016	173842.932129	0.00233632408708	2.25495958328	154811.959278	117080.102539	239.505042287	7381.84561189	7100.83880381	65575362.2545	0
1425000.0	15208.0	303542.087539	0.117906289004	173823.950195	0.00244631200985	2.25694727898	154829.246744	116951.037598	250.101942842	6884.82555127	13128.7070611	65580082.9277	0
1450000.0	15307.0	320623.866155	0.118352227496	173818.994141	0.00256014618571	2.25880265236	154848.906968	116825.695801	261.023793818	6427.33485105	20727.5053014	65584804.1097	0
1475000.0	15406.0	338498.308648	0.118803315284	173826.293945	0.00267792984232	2.26041388512	154856.352869	116693.579102	272.282202321	6005.60511466	29968.461685	65589525.8007	0
1500000.0	15505.0	357193.227795	0.119258383763	173839.038086	0.00279985670204	2.26166152954	154830.291492	116538.684082	283.889804367	5616.10544751	41218.3559238	65594248.0007	0
1525000.0	15604.0	376737.31824	0.119720628727	173851.660156	0.00292609115604	2.26257705688	154770.124034	116360.339355	295.859844897	5282.35246487	11940.2434192	65598970.7096	0
1550000.0	15704.0	397157.680191	0.120192367209	173864.819336	0.00305642879539	2.26339936256	154698.629345	116172.827148	308.272817806	4947.37434807	21434.0028352	65603693.9276	0
1575000.0	15803.0	418489.736007	0.120667185358	173844.543457	0.00319217610922	2.26386642456	154560.266381	115938.024902	321.028710812	4635.33717843	35931.5159222	65608417.6547	0
1600000.0	15903.0	440764.503458	0.121146217797	173833.691406	0.00333216075887	2.26431417465	154426.351392	115706.176758	334.251314544	4368.25974559	7468.13290361	65613141.891	0
1625000.0	16003.0	464013.969249	0.12162868786	173834.130859	0.00347670788869	2.26449537277	154275.569602	115464.355469	347.864768687	4099.16984975	18303.9631087	65617866.6364	0
1650000.0	16103.0	488269.551699	0.122118144964	173844.067383	0.00362590367331	2.2644033432	154105.914353	115211.132812	361.878279758	3849.56756523	33131.2093003	65622591.891	0
1675000.0	16203.0	513563.4551	0.122617177743	173859.643555	0.0037798968151	2.26407527924	153917.652861	114946.240234	376.301967887	3617.76380352	52580.7378099	65627317.6548	0
1700000.0	16303.0	539929.665312	0.123123182714	173872.485352	0.00393899063056	2.2635102272	153701.696695	114662.426758	391.153431964	3419.06141386	15261.8040713	65632043.928	0
1725000.0	16404.0	567400.590842	0.123634387087	173881.665039	0.00410298525821	2.26285529137	153468.436157	114364.978027	406.523186803	3217.36559089	33015.3073496	65636770.7105	0
1750000.0	16504.0	596019.052984	0.124141402733	173857.824707	0.00427346822107	2.26194858551	153180.308795	114029.467773	422.297912502	3028.3400522	59355.7338809	65641498.0024	0
1775000.0	16605.0	625820.654207	0.124655024244	173846.66748	0.00444874194727	2.26094794273	152895.054969	113696.838379	438.600237909	2866.83226077	18474.5853205	65646225.8037	0
1800000.0	16706.0	656841.587515	0.125177732633	173847.998047	0.00462920024802	2.25971794128	152601.171464	113360.620117	455.361374932	2702.38358835	41666.5721433	65650954.1145	0
1825000.0	16807.0	689118.358481	0.12570827161	173857.653809	0.00481505094285	2.25824332237	152291.773569	113015.563965	472.588403765	2549.05011608	72852.0515153	65655682.9347	0
1850000.0	16908.0	722689.054308	0.12624473281	173870.239258	0.00500655642099	2.2565267086	151959.415681	112655.517578	490.276830687	2417.86819289	24843.795685	65660412.2645	0
1875000.0	17010.0	757588.983259	0.126787616631	173888.122559	0.00520332605447	2.25464749336	151611.311335	112284.094238	508.517311532	2295.07391379	1018.85031144	65665142.1038	0
1900000.0	17112.0	793859.195872	0.127334795381	173896.862793	0.00540627252121	2.25257849693	151235.618094	111894.116211	527.247955091	2169.0022157	11001.0621103	65669872.4527	0
1925000.0	17214.0	831543.079227	0.127884487151	173888.562012	0.00561580509384	2.25044250488	150839.004418	111490.026855	546.489984078	2050.79231669	40028.58346	65674603.3113	0
1950000.0	17316.0	870686.652829	0.128435987813	173872.08252	0.00583184510106	2.24824571609	150431.030124	111079.02832	566.240870663	1940.01932963	83575.1773016	65679334.6795	0
1975000.0	17418.0	911333.878896	0.128993297202	173865.063477	0.00605396098763	2.24583411217	150012.506117	110662.780762	586.485635376	1845.40661791	29535.488076	65684066.5575	0
2000000.0	17521.0	953522.025524	0.129559097926	173873.120117	0.00628152429272	2.243237257	149587.199721	110242.248535	607.316164663	1748.19952177	71516.9314166	65688798.9451	0
2025000.0	17623.0	997299.350752	0.130128987758	173877.954102	0.00651623577141	2.24031853676	149130.917977	109803.100586	628.57762432	1656.83030419	129939.735714	65693531.8426	0
2050000.0	17726.0	1042704.4684	0.130711269574	173893.188477	0.00675665978633	2.23721933365	148663.284299	109356.359863	650.44629019	1586.7168698	6851.05925637	65698265.2498	0
2075000.0	17830.0	1089777.50128	0.13130305234	173912.988281	0.00700305190549	2.23400831223	148184.780245	108901.916504	672.93316898	1505.93229172	10700.4286978	65702999.1668	0
2100000.0	17933.0	1138573.00165	0.131891250747	173913.696289	0.00725765403331	2.23071527481	147682.009522	108432.055664	695.863109241	1429.71497919	54183.7631256	65707733.5937	0
2125000.0	18037.0	1189136.92938	0.132479537122	173904.064941	0.00751919287723	2.22751998901	147177.614805	107960.119629	719.42349232	1358.15010742	121718.794531	65712468.5306	0
2150000.0	18140.0	1241528.68293	0.13306644985	173882.409668	0.00778904995968	2.2242231369	146657.060137	107479.321289	743.436218816	1296.8427843	53571.094554	65717203.9773	0
2175000.0	18245.0	1295784.71485	0.133672004023	173886.010742	0.00806382558949	2.22074341774	146136.460636	106998.083496	768.142896136	1239.46736486	5236.60488281	65721939.934	0
2200000.0	18349.0	1351959.78675	0.134280128513	173887.915039	0.00834666661831	2.21703481674	145594.933319	106505.065918	793.306048204	1179.42412499	53729.5371246	65726676.4007	0
2225000.0	18454.0	1410096.89228	0.134899035037	173901.220703	0.00863580862642	2.21314501762	145043.430212	106005.603027	819.116763019	1128.4501322	4298.8118663	65731413.3773	0
2250000.0	18559.0	1470247.29439	0.13552221059	173914.562988	0.00893253127288	2.20907473564	144474.601286	105495.458984	845.510057987	1075.05340237	56531.6515388	65736150.864	0
2275000.0	18664.0	1532463.09177	0.136152089754	173925.78125	0.00923698826227	2.20481204987	143886.920664	104973.754883	872.497974028	1024.65816409	146671.362872	65740888.8608	0
2300000.0	18769.0	1596799.02278	0.136785246162	173930.053711	0.0095496106951	2.20046377182	143286.774298	104444.616699	900.107135864	981.671850653	66747.1925819	65745627.3676	0
2325000.0	18875.0	1663305.24886	0.137422391791	173929.101562	0.00986975464912	2.19616150856	142686.639308	103915.368652	928.453346787	940.958891811	10172.5876525	65750366.3846	0
2350000.0	18981.0	1732042.83313	0.138054594298	173914.025879	0.0101988316601	2.19198584557	142089.692774	103389.27002	957.472498213	897.95949722	86047.118833	65755105.9117	0
2375000.0	19087.0	1803071.38261	0.138691787482	173903.515625	0.0105359540612	2.18766522408	141483.271151	102858.26416	987.128202419	861.3616802	20720.7140991	65759845.949	0
2400000.0	19194.0	1876437.31384	0.139344573823	173907.177734	0.0108797194116	2.18309164047	140862.478077	102318.096924	1017.51025618	822.924393139	113066.50529	65764586.4964	0
2425000.0	19300.0	1952204.47139	0.139999291042	173908.105469	0.0112328816613	2.17833900452	140224.971887	101768.963623	1048.45840283	786.410844487	256500.386561	65769327.5541	0
2450000.0	19407.0	2030421.76061	0.140666152516	173918.286133	0.0115932007247	2.17342400551	139577.0292	101212.8479	1080.16875692	759.03021131	1610.34645976	65774069.122	0
2475000.0	19515.0	2111139.41733	0.141342912413	173934.643555	0.0119608957903	2.168405056	138920.915561	100650.909424	1112.65736343	729.582849853	55185.4127546	65778811.2002	0
2500000.0	19623.0	2194417.15756	0.142025523191	173947.998047	0.0123374284158	2.16326832771	138249.763316	100079.150391	1145.85261786	695.058911513	206560.589691	65783553.7886	0
2525000.0	19730.0	2280326.51727	0.142705416942	173948.217773	0.0127246194097	2.15811252594	137568.355057	99501.8920898	1179.68068611	668.445628975	110482.051491	65788296.8873	0
2550000.0	19839.0	2368914.35479	0.143396175326	173951.586914	0.0131187607622	2.15299153328	136890.679288	98926.2207031	1214.44476084	643.263396911	34837.4233253	65793040.4964	0
2575000.0	19947.0	2460259.73922	0.144072093204	173934.362793	0.0135245891215	2.14811348915	136227.377748	98362.7990723	1249.89977746	616.216861345	179132.110006	65797784.6158	0
2600000.0	20056.0	2554422.11424	0.144755102748	173925.231934	0.0139382773341	2.1431646347	135565.591198	97801.5319824	1286.13285138	593.382692658	84467.3446933	65802529.2456	0
2625000.0	20165.0	2651463.90072	0.145448371582	173921.289062	0.0143609067891	2.13793897629	134883.146299	97227.7526855	1322.98479086	571.666088602	16248.2750402	65807274.3857	0
2650000.0	20275.0	2751436.64025	0.146159231904	173928.24707	0.0147910050146	2.13240909576	134179.322245	96639.9169922	1360.55650552	551.101195906	17476.062519	65812020.0363	0
2675000.0	20385.0	2854403.25216	0.146879008764	173937.817383	0.0152303146024	2.12667942047	133459.462481	96042.4499512	1398.78203463	529.098170197	70196.4609324	65816766.1973	0
2700000.0	20495.0	2960428.55832	0.147605567107	173948.132324	0.0156791356858	2.12082028389	132728.847609	95438.8977051	1437.68842385	510.492656237	8744.41889447	65821512.8687	0
2725000.0	20606.0	3069568.2184	0.148343798229	173963.391113	0.0161361058417	2.11485767365	131991.027355	94830.6213379	1477.38821003	490.591872287	164785.895994	65826260.0506	0
2750000.0	20716.0	3181902.62342	0.149075726402	173968.200684	0.0166049776453	2.10897541046	131256.659565	94226.7456055	1517.73925333	473.669663935	74090.4820391	65831007.7429	0
2775000.0	20828.0	3297480.77551	0.149820178808	173978.564453	0.017081050828	2.10310149193	130525.255964	93624.21875	1559.04516231	457.630161904	10712.0050385	65835755.9457	0
2800000.0	20939.0	3416389.17874	0.150549998898	173972.229004	0.0175700006366	2.09749317169	129812.328469	93036.4501953	1601.06910092	440.180877577	191551.875856	65840504.659	0
2825000.0	21051.0	3538694.62242	0.151278069985	173961.230469	0.01806860746	2.09207820892	129116.747056	92461.0717773	1644.02180621	425.475254729	92432.6938862	65845253.8829	0
2850000.0	21163.0	3664474.03319	0.152005746952	173951.879883	0.0185775970749	2.08668684959	128427.307631	91891.5222168	1687.7765521	411.386539081	18775.9070921	65850003.6173	0
2875000.0	21276.0	3793787.43703	0.152741426124	173951.013184	0.0190951468539	2.08123421669	127738.625335	91323.2421875	1732.43519379	397.95937051	18096.2818343	65854753.8622	0
2900000.0	21389.0	3926704.80491	0.153486766038	173952.91748	0.0196228793357	2.07556772232	127032.308928	90744.1101074	1777.9104303	383.396038392	120133.064238	65859504.6177	0
2925000.0	21502.0	4063296.37558	0.154244407225	173957.104492	0.0201608527277	2.06964349747	126303.535043	90150.6896973	1824.20878556	371.124256997	38129.7631079	65864255.8838	0
2950000.0	21616.0	4203620.59157	0.15501990054	173968.103027	0.0207073026104	2.0634663105	125554.804205	89543.9697266	1871.4394875	359.419697639	2057.3001567	65869007.6605	0
2975000.0	21730.0	4347750.6132	0.155802212543	173978.417969	0.0212644663407	2.05717515945	124796.37286	88931.817627	1919.53261474	346.660527791	194883.859623	65873759.9478	0
3000000.0	21844.0	4495762.04251	0.156587994058	173986.291504	0.0218327277253	2.05084824562	124035.191787	88319.0429688	1968.50717025	335.913406933	99855.0794169	65878512.7458	0
3025000.0	21959.0	4647718.97177	0.157381789102	173995.263672	0.0224103750952	2.04450082779	123274.042196	87706.7871094	2018.47415678	325.636849775	28281.7979919	65883266.0543	0
3050000.0	22074.0	4803702.03883	0.158171110334	173997.375488	0.0229999168369	2.03828787804	122524.908443	87104.1259766	2069.36408046	314.37509242	331147.285396	65888019.8735	0
3075000.0	22189.0	4963795.571	0.158951062689	173990.014648	0.0236019259319	2.03230261803	121795.688275	86516.5100098	2121.21095958	304.88370716	213814.301613	65892774.2033	0
3100000.0	22305.0	5128071.98095	0.159730496222	173981.335449	0.0242140849878	2.02645540237	121081.885171	85940.1916504	2174.08230802	297.070078518	165537.956599	65897529.0438	0
3125000.0	22422.0	5296599.24935	0.160516825184	173980.249023	0.0248353062489	2.02058982849	120373.061992	85368.1213379	2227.91431144	287.111980044	30829.789308	65902284.395	0
3150000.0	22538.0	5469472.47263	0.161292064221	173975.366211	0.0254703554674	2.01485800743	119679.191686	84808.5205078	2282.4626668	277.526019965	365825.440692	65907040.2569	0
3175000.0	22655.0	5646754.53646	0.162084272767	173977.526855	0.0261144668912	2.00889921188	118967.983286	84237.3168945	2337.83059479	270.711191931	76695.1723879	65911796.6295	0
3200000.0	22773.0	5828507.6033	0.162895473504	173986.108398	0.0267675313808	2.0026819706	118235.84436	83651.9958496	2394.00273055	261.960608365	131940.936915	65916553.5128	0
3225000.0	22890.0	6014827.08426	0.163705748497	173989.855957	0.027434558433	1.99641597271	117498.586986	83064.8071289	2450.84095099	254.610687579	49597.8656401	65921310.9068	0
3250000.0	23009.0	6205761.51065	0.1645386207	174003.112793	0.0281085267488	1.98993349075	116745.76013	82466.6015625	2508.55759187	247.639415463	1661.15106187	65926068.8116	0
3275000.0	23127.0	6401409.97245	0.165364557871	174009.399414	0.028797021514	1.98352777958	115999.20901	81874.420166	2566.95693619	239.872490884	351206.353028	65930827.2271	0
3300000.0	23246.0	6601840.88337	0.166197893664	174017.382812	0.0294954788842	1.97710978985	115253.989855	81283.6669922	2626.19098019	234.423527001	113177.023495	65935586.1533	0
3325000.0	23366.0	6807124.12449	0.167034961221	174025.488281	0.0302041407849	1.97074592113	114515.991997	80698.4436035	2686.26093984	227.288093874	138880.661857	65940345.5903	0
3350000.0	23485.0	7017367.27436	0.167853938439	174022.094727	0.0309286260745	1.96466171741	113802.636781	80132.0678711	2747.0804846	221.305024958	54443.8810367	65945105.5381	0
3375000.0	23606.0	7232628.41022	0.168677241596	174019.958496	0.0316615878546	1.95869076252	113103.207784	79575.4272461	2808.84833423	215.607379606	1611.08846137	65949865.9966	0
3400000.0	23726.0	7453020.1599	0.169481592013	174009.692383	0.032410309359	1.95299053192	112430.267472	79039.1479492	2871.36181865	209.199130315	392129.36244	65954626.9659	0
3425000.0	23847.0	7678613.77964	0.170294079076	174005.981445	0.033168700611	1.94722807407	111757.989941	78504.2724609	2934.6962176	204.765256456	143321.943446	65959388.4459	0
3450000.0	23969.0	7909474.78507	0.171123972086	174008.459473	0.0339364632964	1.94123280048	111068.828589	77958.5021973	2998.85133772	198.872555407	142006.755284	65964150.4368	0
3475000.0	24090.0	8145706.76784	0.171951799263	174007.421875	0.034719305404	1.93519997597	110377.21778	77412.7319336	3063.73273843	193.962901633	53435.1887591	65968912.9385	0
3500000.0	24213.0	8387357.60021	0.172802524431	174016.149902	0.0355089141522	1.9289380312	109669.82763	76856.1096191	3129.49898742	189.295388758	2123.67561862	65973675.951	0
3525000.0	24335.0	8634533.10175	0.173646725982	174020.446777	0.0363139552064	1.9227309227	108968.097094	76304.9560547	3196.04527346	183.99838514	477155.571735	65978439.4743	0
3550000.0	24458.0	8887302.41814	0.174499971501	174028.588867	0.0371289424947	1.91646945477	108264.63826	75753.1066895	3263.46909579	180.388165759	118986.898779	65983203.5085	0
3575000.0	24582.0	9145735.05693	0.175359444081	174039.660645	0.0379539633286	1.91020226479	107563.777367	75203.5644531	3331.79944936	175.490237648	228453.049246	65987968.0534	0
3600000.0	24705.0	9409942.79232	0.176204133952	174044.055176	0.0387953332392	1.90413653851	106881.526977	74668.3532715	3400.98912851	171.42015233	120981.170984	65992733.1093	0
3625000.0	24830.0	9679978.66844	0.177057822961	174053.723145	0.0396442774218	1.89808571339	106204.965425	74137.1765137	3471.18112703	167.537517084	37214.3359251	65997498.6759	0
3650000.0	24954.0	9955959.16302	0.177890093097	174054.663086	0.0405102982768	1.89233243465	105555.736526	73626.4282227	3542.300593	163.738202984	7028.6379867	66002264.7534	0
3675000.0	25080.0	10237940.6597	0.178727147572	174058.227539	0.0413844500144	1.8866417408	104916.231981	73122.6806641	3614.49619129	160.107512469	83664.9297925	66007031.3418	0
3700000.0	25205.0	10526043.7277	0.179549593491	174050.268555	0.0422762859671	1.88110482693	104289.025473	72628.9611816	3687.64491444	155.92948895	309756.291565	66011798.441	0
3725000.0	25331.0	10820346.7692	0.180380652141	174044.250488	0.0431785811088	1.87547314167	103656.760898	72132.5805664	3761.62137925	152.529711937	172282.416185	66016566.051	0
3750000.0	25457.0	11120943.324	0.181214303607	174039.599609	0.0440938747488	1.86978113651	103022.670541	71636.2182617	3836.34887404	149.240323457	63285.657103	66021334.1719	0
3775000.0	25584.0	11427902.0229	0.18205786173	174040.161133	0.0450189545518	1.86398148537	102383.78778	71137.3779297	3911.83925529	146.084117541	604.747337436	66026102.8037	0
3800000.0	25711.0	11741313.9425	0.182900552395	174041.687012	0.0459571674583	1.85818552971	101748.645511	70642.2607422	3988.07065649	143.028090165	58314.632128	66030871.9463	0
3825000.0	25839.0	12061248.3215	0.183749438256	174047.729492	0.046905282943	1.85235202312	101114.726041	70148.7121582	4065.05110214	140.09403791	174311.338771	66035641.5998	0
3850000.0	25967.0	12387797.8481	0.184593436238	174054.064941	0.0478667789139	1.84659433365	100490.723337	69663.0249023	4142.77144073	136.716355721	258676.350355	66040411.7643	0
3875000.0	26095.0	12721056.8851	0.185430351148	174060.180664	0.0488419209432	1.84094893932	99879.813581	69187.3718262	4221.22683336	133.971972593	114635.424845	66045182.4396	0
3900000.0	26224.0	13061097.4694	0.186266451678	174069.384766	0.0498274021083	1.83537960052	99279.7940242	68719.8181152	4300.42663742	131.333971777	12833.2184258	66049953.6258	0
3925000.0	26353.0	13408016.6802	0.187093667271	174077.050781	0.0508269295096	1.82993602753	98693.4989353	68262.7319336	4380.37168952	128.27599903	703588.895691	66054725.3229	0
3950000.0	26482.0	13761913.4549	0.187916845878	174082.019043	0.0518407941854	1.82452046871	98111.4297057	67809.6496582	4461.06815198	125.800380618	469276.541561	66059497.5309	0
3975000.0	26612.0	14122863.3047	0.188743800796	174087.475586	0.0528655291419	1.81908369064	97529.9694337	67357.635498	4542.51301942	123.892392282	403203.321386	66064270.2498	0
4000000.0	26743.0	14490942.0327	0.189573113557	174092.773438	0.0539011525689	1.81365275383	96951.1553068	66908.0078125	4624.68309124	121.124278252	101312.240412	66069043.4796	0
4025000.0	26873.0	14866277.0806	0.190386410101	174089.941406	0.0549553878955	1.80840206146	96387.516226	66469.8852539	4707.62620231	118.417821225	993547.222514	66073817.2203	0
4050000.0	27004.0	15248947.9228	0.191199341089	174085.400391	0.0560211046832	1.80321526527	95830.8837517	66036.9873047	4791.30981606	116.700972563	94891.6757137	66078591.472	0
4075000.0	27136.0	15639034.0015	0.192012703966	174080.908203	0.0570977645111	1.79808092117	95280.983492	65609.1186523	4875.71006502	114.610601744	284826.505085	66083366.2345	0
4100000.0	27268.0	16036635.4	0.192821314764	174077.709961	0.0581880594837	1.79300844669	94739.6302146	65188.0126953	4960.76363099	112.155796995	216202.497587	66088141.5079	0
4125000.0	27400.0	16441848.0668	0.193623946398	174075.854492	0.0592920769122	1.78801894188	94208.7837616	64774.987793	5046.46971035	110.192891626	42384.0336396	66092917.2922	0
4150000.0	27533.0	16854741.541	0.194427339416	174078.625488	0.0604059459874	1.78306365013	93685.3439384	64367.6696777	5132.78856202	108.305254697	47287.9373305	66097693.5875	0
4175000.0	27666.0	17275413.1416	0.195224541288	174081.665039	0.061533828557	1.77814483643	93168.5508389	63966.0705566	5219.75854009	106.07102248	559087.757053	66102470.3936	0
4200000.0	27799.0	17703961.6594	0.196016801077	174084.545898	0.0626758992439	1.77323961258	92656.0379875	63568.560791	5307.38042731	104.293763926	266243.671243	66107247.7107	0
4225000.0	27933.0	18140458.4961	0.196812155709	174090.466309	0.0638281344436	1.76829361916	92143.8523132	63172.076416	5395.59634244	102.583210518	52343.2599785	66112025.5387	0
4250000.0	28067.0	18585003.0133	0.197602260474	174095.935059	0.0649946450721	1.76338899136	91637.6830043	62780.6762695	5484.45349164	100.91824305	56567.0537337	66116803.8777	0
4275000.0	28202.0	19037666.8868	0.198394793105	174103.833008	0.0661713856971	1.75847804546	91134.020876	62391.583252	5573.90488545	99.314819499	296176.062903	66121582.7276	0
4300000.0	28337.0	19498550.3902	0.199181411386	174110.72998	0.0673625618219	1.75364339352	90638.62056	62008.8989258	5664.04403679	97.3913777864	251938.406493	66126362.0884	0
4325000.0	28472.0	19967754.8398	0.199961269251	174116.28418	0.0685683553456	1.74890422821	90152.7708493	61633.3984375	5754.91419434	95.8740297604	26191.8116243	66131141.9601	0
4350000.0	28608.0	20445353.8837	0.200741685331	174123.266602	0.0697846408002	1.74421739578	89673.4765107	61262.701416	5846.42692569	94.410733915	113477.407466	66135922.3428	0
4375000.0	28744.0	20931450.5931	0.201513732161	174128.125	0.07101582014	1.73966753483	89206.6402625	60900.9887695	5938.60584843	92.6427119089	497967.649661	66140703.2365	0
4400000.0	28880.0	21426150.8763	0.202275877548	174129.919434	0.0722623080947	1.7352386713	88751.2812627	60547.833252	6031.45002683	91.2559104538	152448.951331	66145484.6411	0
4425000.0	29017.0	21929533.4281	0.203034688726	174130.725098	0.0735200446798	1.73084032536	88300.8873078	60198.7731934	6124.85126362	89.9181026886	19897.2976909	66150266.5566	0
4450000.0	29154.0	22441707.3354	0.203783411328	174126.977539	0.0747935628169	1.72654116154	87859.7888981	59856.8237305	6218.87263375	88.2895857075	718113.953201	66155048.983	0
4475000.0	29291.0	22962783.1274	0.204524451237	174120.336914	0.0760825350881	1.72231686115	87426.2784178	59520.7946777	6313.43609736	87.0211619386	276264.203506	66159831.9205	0
4500000.0	29429.0	23492834.7928	0.205268770527	174117.492676	0.0773812062107	1.71806228161	86993.5759654	59185.8825684	6408.36086659	85.8012260482	6102.16535685	66164615.3688	0
4525000.0	29567.0	24031962.0721	0.206009723701	174115.466309	0.0786941382103	1.71384370327	86565.943712	58855.0598145	6503.67737026	84.6136698952	227883.439116	66169399.328	0
4550000.0	29706.0	24580232.8902	0.206754985495	174117.150879	0.0800165871624	1.70961284637	86140.0079745	58525.7446289	6599.2594214	83.1720537524	386131.577649	66174183.7982	0
4575000.0	29844.0	25137778.604	0.207490302238	174116.687012	0.081358011812	1.70549583435	85723.9952104	58203.7597656	6695.23902991	82.0521240371	36827.2207337	66178968.7794	0
4600000.0	29984.0	25704635.097	0.208237298247	174122.631836	0.0827042676974	1.70133292675	85307.1974013	57881.2438965	6791.28717012	80.9903446071	177514.785777	66183754.2715	0
4625000.0	30123.0	26280935.6436	0.20897203276	174125.952148	0.0840697612148	1.69729423523	84901.2942759	57566.796875	6887.65438048	79.6577545503	475745.86078	66188540.2745	0
4650000.0	30263.0	26866750.8812	0.209705511605	174131.689453	0.0854452155181	1.69325065613	84498.261547	57254.9987793	6984.11597685	78.6565917778	62964.2653148	66193326.7885	0
4675000.0	30403.0	27462184.314	0.210431804467	174136.816406	0.086835520051	1.6892567873	84101.3463601	56948.1445312	7080.7156186	77.6821841879	176490.636491	66198113.8135	0
4700000.0	30544.0	28067306.4961	0.211158850831	174143.95752	0.0882357708178	1.68525993824	83706.7348394	56643.3837891	7177.28004985	76.4750603419	494074.898411	66202901.3494	0
4725000.0	30684.0	28682255.2737	0.211874026834	174147.44873	0.0896559213288	1.6813685894	83321.1664028	56345.5200195	7274.0511719	75.5561903943	47915.3641774	66207689.3963	0
4750000.0	30826.0	29307067.7916	0.212598740497	174155.224609	0.0910811504582	1.67742848396	82934.1975201	56046.875	7370.53265497	74.6880166791	224514.827727	66212477.9542	0
4775000.0	30967.0	29941883.0028	0.213313500108	174158.959961	0.0925264321268	1.67360293865	82556.19621	55754.8461914	7467.1131596	73.5708274719	458945.153806	66217267.023	0
4800000.0	31109.0	30586772.4528	0.214032798021	174163.745117	0.0939818564802	1.66979455948	82180.4737804	55464.4592285	7563.43936957	72.753433631	24900.7371072	66222056.6029	0
4825000.0	31251.0	31241842.6553	0.214750321949	174166.662598	0.0954525457928	1.6660643816	81810.6548945	55178.1677246	7659.62042724	71.7060308609	1132418.48771	66226846.6937	0
4850000.0	31393.0	31907202.6425	0.215462157488	174166.992188	0.0969389511738	1.66242027283	81447.9595771	54897.0336914	7755.63645016	70.9361987056	426426.136329	66231637.2954	0
4875000.0	31536.0	32582928.3771	0.216171351981	174166.73584	0.0984361249721	1.65881240368	81089.735915	54619.3603516	7851.23527867	70.1994491739	4287.87731697	66236428.4082	0
4900000.0	31679.0	33269132.2063	0.216872020036	174162.841797	0.0999494441203	1.65529286861	80738.9433386	54347.1679688	7946.64253775	69.4820429369	392956.236332	66241220.032	0
4925000.0	31823.0	33965889.5293	0.217573836427	174159.716797	0.101472869574	1.65178239346	80390.4780974	54076.8737793	8042.10536166	68.5529114466	337537.475003	66246012.1667	0
4950000.0	31966.0	34673343.0497	0.218266942459	174154.6875	0.103016129287	1.64834451675	80048.4499832	53811.5356445	8138.06267861	67.6333462844	1880076.40968	66250804.8124	0
4975000.0	32110.0	35391559.103	0.218966124626	174152.79541	0.104568651295	1.64487862587	79706.1358992	53546.2646484	8234.03478959	67.2117041072	570112.271141	66255597.9691	0
5000000.0	32255.0	36120601.7192	0.219672469775	174154.003906	0.106130144559	1.64138412476	79363.1538019	53280.7189941	8329.90391286	66.5810654512	1458426.26493	66260391.6367	0
5025000.0	32400.0	36860571.9907	0.220380931884	174155.737305	0.107706015115	1.63790977001	79022.3386735	53016.8395996	8425.80678537	65.7388232596	98371.4378051	66265185.8153	0
5050000.0	32545.0	37611571.5556	0.221092300241	174157.958984	0.109296335722	1.63445675373	78683.5690976	52754.473877	8521.66287709	64.9174161797	844983.855566	66269980.505	0
5075000.0	32690.0	38373704.2818	0.221801073981	174160.217285	0.110901484732	1.63103342056	78348.6675864	52495.2331543	8617.39831196	64.3375582586	167181.764701	66274775.7056	0
5100000.0	32836.0	39147036.4916	0.222512494333	174164.697266	0.112515917863	1.62759697437	78014.9154715	52237.1948242	8712.69768612	63.7833509099	165700.628135	66279571.4172	0
5125000.0	32982.0	39931673.0828	0.223221269902	174168.847656	0.114145281259	1.62419390678	77684.7397502	51982.0007324	8807.69699965	63.0280450499	767297.76994	66284367.6398	0
5150000.0	33128.0	40727718.948	0.223928597475	174172.607422	0.115789640404	1.62082505226	77357.7140696	51729.2480469	8902.32452077	62.5058258211	104969.111822	66289164.3734	0
5175000.0	33275.0	41535240.5161	0.224641986047	174178.173828	0.117443254567	1.61744523048	77030.4167812	51476.3793945	8996.21033436	62.0089240497	252530.105932	66293961.618	0
5200000.0	33422.0	42354342.7179	0.225356180953	174183.093262	0.119111849926	1.61410045624	76705.3951613	51225.1159668	9089.50932667	61.318225361	708015.049038	66298759.3737	0
5225000.0	33569.0	43185131.4004	0.226072202034	174187.207031	0.12079552107	1.6107904911	76382.1987264	50975.0335693	9182.14254975	60.8531014459	75636.6797664	66303557.6404	0
5250000.0	33717.0	44027672.4545	0.226797619371	174192.626953	0.12248843268	1.60747182369	76057.6843102	50723.7945557	9273.72390051	60.4128884975	285654.54378	66308356.4181	0
5275000.0	33865.0	44882072.1002	0.227524843652	174196.789551	0.124196521938	1.60419166088	75735.0896768	50473.7091064	9364.4397564	59.7852526013	766075.950307	66313155.7068	0
5300000.0	34013.0	45748439.7743	0.228249368251	174199.230957	0.125920196297	1.60095834732	75415.9309836	50226.05896	9454.20550211	59.3760343032	108323.956764	66317955.5066	0
5325000.0	34162.0	46626843.9136	0.228977721875	174201.953125	0.127653474919	1.59772872925	75097.4301252	49978.8635254	9542.62073817	58.9910566918	244152.801304	66322755.8174	0
5350000.0	34311.0	47517394.2919	0.229703542896	174202.502441	0.129402455059	1.59454703331	74782.3910744	49734.1247559	9629.85371587	58.4244371532	898574.857918	66327556.6393	0
5375000.0	34460.0	48420201.9565	0.230427093186	174200.683594	0.131167311338	1.59141397476	74470.8865485	49491.897583	9715.86773707	58.0697757134	172351.074897	66332357.9722	0
5400000.0	34610.0	49335337.0303	0.23115493588	174198.327637	0.132941961056	1.58828997612	74160.1537604	49250.1739502	9800.18564288	57.739101419	178550.012299	66337159.8162	0
5425000.0	34760.0	50262910.8225	0.231882365767	174194.177246	0.134732123115	1.58520543575	73852.2080743	49010.4644775	9883.03226068	57.232081745	1100460.24649	66341962.1712	0
5450000.0	34910.0	51203030.4964	0.232613330606	174190.41748	0.136536807986	1.58213078976	73544.9845134	48771.3500977	9964.23772603	56.9328032022	301030.788728	66346765.0373	0
5475000.0	35061.0	52155756.1353	0.233355305939	174189.27002	0.138349743793	1.57902359962	73235.6195116	48530.7891846	10043.3312006	56.6583661713	64383.8768301	66351568.4145	0
5500000.0	35212.0	53121191.3256	0.234098972372	174188.317871	0.140177289722	1.57593107224	72927.5358718	48291.2567139	10120.5631142	56.2130354835	1496651.16856	66356372.3027	0
5525000.0	35363.0	54099440.0703	0.234843922418	174187.524414	0.142019620398	1.57285356522	72620.8426315	48052.8656006	10195.8922158	55.9701795219	595525.431652	66361176.702	0
5550000.0	35515.0	55090562.6895	0.235597042994	174188.818359	0.143870332977	1.5697504282	72312.7479697	47813.5772705	10268.7599491	55.7519602505	36131.4472053	66365981.6124	0
5575000.0	35667.0	56094662.6573	0.236352079342	174190.136719	0.145735641127	1.56666100025	72005.8668412	47575.2868652	10340.1614745	55.5452389598	347288.79739	66370787.0339	0
5600000.0	35820.0	57111798.9415	0.237116099321	174193.408203	0.147609083797	1.56354510784	71697.3998202	47335.9649658	10409.8761904	55.3579340184	1141944.97645	66375592.9664	0
5625000.0	35973.0	58142073.9976	0.237882862128	174196.582031	0.149497092934	1.56044352055	71389.9632624	47097.4578857	10478.3120643	55.0006313893	359083.048112	66380399.4101	0
5650000.0	36126.0	59185591.1607	0.23865286184	174199.511719	0.151399726747	1.55735588074	71083.4438051	46859.6679688	10545.4146165	54.8339597338	19257.3276237	66385206.3649	0
5675000.0	36280.0	60242408.1532	0.239433384345	174204.138184	0.153310276801	1.55424308777	70775.0684616	46620.5810547	10610.6399315	54.6864911089	509831.654705	66390013.8308	0
5700000.0	36434.0	61312628.976	0.240216772765	174208.215332	0.155235611601	1.55114805698	70467.6793786	46382.2235107	10674.4284666	54.3720417589	1095362.03308	66394821.8079	0
5725000.0	36588.0	62396359.0845	0.241002202304	174211.572266	0.157175876666	1.54807281494	70161.5208044	46144.7906494	10736.7613167	54.2444927275	374904.963961	66399630.2961	0
5750000.0	36743.0	63493658.0744	0.241795907224	174216.040039	0.159124378115	1.54497981071	69854.1924686	45906.5734863	10797.0513823	54.1357298444	1806.00077486	66404439.2955	0
5775000.0	36898.0	64604631.4662	0.242591012753	174219.604492	0.161087809829	1.54190886021	69548.5177797	45669.631958	10855.7608383	54.0363836492	408804.111339	66409248.8061	0
5800000.0	37054.0	65729337.5252	0.243393822237	174224.023438	0.163059332408	1.5388225317	69242.0438336	45432.2021484	10912.3091271	53.9557727526	1121679.37664	66414058.8278	0
5825000.0	37210.0	66867881.4687	0.24419744162	174227.319336	0.165045785252	1.53576040268	68937.5851037	45196.3226318	10967.1890368	53.7123542277	676183.213869	66418869.3608	0
5850000.0	37366.0	68020369.3572	0.245001490697	174229.406738	0.167047226569	1.53272294998	68635.2662156	44962.1002197	11020.3482859	53.6512602404	132357.019495	66423680.405	0
5875000.0	37523.0	69186859.4731	0.245812753721	174231.958008	0.16905675875	1.52967321873	68332.5890717	44727.7374268	11071.1878956	53.6087770512	120058.997531	66428491.9604	0
5900000.0	37680.0	70367459.4175	0.246624592605	174232.824707	0.171081541339	1.52664875984	68031.8948327	44494.8791504	11120.2228611	53.4055062916	2223318.34297	66433304.027	0
5925000.0	37837.0	71562278.2211	0.247436498262	174231.799316	0.173121778062	1.52365195751	67733.2856781	44263.583374	11167.4394308	53.3821032223	1350595.61914	66438116.6049	0
5950000.0	37995.0	72771376.6781	0.248254384415	174230.529785	0.175170440343	1.52064883709	67434.5305982	44032.2509766	11212.1847836	53.5461058306	2315391.33425	66442929.6941	0
5975000.0	38154.0	73994814.5588	0.249077606696	174228.894043	0.177227339009	1.51764500141	67136.0167735	43801.1566162	11254.3782285	53.3909460814	146233.272738	66447743.2946	0
6000000.0	38312.0	75232749.4007	0.249892311012	174223.828125	0.17930654576	1.51471078396	66842.7715508	43573.9440918	11295.2297509	53.2369139867	3566280.32775	66452557.4063	0
6025000.0	38471.0	76485237.7741	0.250715749355	174220.64209	0.181392737431	1.51175141335	66548.191872	43345.9014893	11333.3920638	53.4381793058	569738.361788	66457372.0294	0
6050000.0	38631.0	77752329.8715	0.251547921144	174219.360352	0.183485768503	1.50876915455	66252.4349067	43117.1386719	11368.7994974	53.4910580944	1237568.77117	66462187.1638	0
6075000.0	38791.0	79034124.5971	0.252381626313	174218.273926	0.185592682101	1.50580227375	65958.1546056	42889.5751953	11402.0513901	53.3874790782	994508.026787	66467002.8095	0
6100000.0	38951.0	80330722.6185	0.253218277291	174217.175293	0.187713798368	1.5028450489	65664.630963	42662.6495361	11433.1533094	53.4612359641	417761.813098	66471818.9666	0
6125000.0	39112.0	81642175.0515	0.254065310647	174217.651367	0.189841812244	1.49986100197	65369.1944183	42434.4116211	11461.3824175	53.5546791352	53075.7465732	66476635.635	0
6150000.0	39273.0	82968582.415	0.25491468331	174217.993164	0.191983999684	1.49688827991	65074.7084972	42206.9702148	11487.3728772	53.658601927	141737.243321	66481452.8148	0
6175000.0	39435.0	84309994.2559	0.255772889161	174219.799805	0.194132881006	1.49389278889	64778.9437533	41978.7628174	11510.4014106	53.7825423896	547253.762538	66486270.5059	0
6200000.0	39597.0	85666509.7393	0.256632072389	174221.411133	0.19629576127	1.49091279507	64484.7547949	41751.8554688	11531.1083197	53.9173563282	1100396.78363	66491088.7085	0
6225000.0	39760.0	87038177.1021	0.257498643994	174224.414062	0.198465160793	1.48791480064	64189.9008233	41524.6734619	11548.7708128	54.0725730034	1747210.60511	66495907.4224	0
6250000.0	39923.0	88425094.4983	0.258364769337	174227.148438	0.200648384634	1.4849357605	63897.2002653	41299.2767334	11564.098496	54.0729430934	914966.950783	66500726.6478	0
6275000.0	40086.0	89827361.4953	0.259230300033	174229.528809	0.202845592867	1.48197674751	63606.6808572	41075.6866455	11577.2345417	54.2495153278	433950.580507	66505546.3847	0
6300000.0	40250.0	91245026.9659	0.260104681756	174232.885742	0.205049364013	1.47899568081	63314.8963515	40851.3641357	11587.4716767	54.4458443361	105490.50667	66510366.633	0
6325000.0	40414.0	92678191.8504	0.260980094026	174235.632324	0.207267454243	1.47602915764	63024.5015072	40628.2196045	11595.6042443	54.6521514416	42845.56725	66515187.3927	0
6350000.0	40579.0	94126904.4291	0.261863102723	174239.233398	0.209492020076	1.47304558754	62733.4101735	40404.7698975	11600.8635412	54.8782823371	303647.07972	66520008.664	0
6375000.0	40744.0	95591264.5839	0.262745457195	174242.138672	0.211730657611	1.47008192539	62444.4452336	40183.0505371	11604.0482939	55.1145239866	692856.169813	66524830.4468	0
6400000.0	40910.0	97071318.7508	0.263633562583	174245.874023	0.213975581573	1.46710813046	62155.5770276	39961.605835	11604.430523	55.370548494	1159645.91448	66529652.7412	0
6425000.0	41076.0	98567166.0756	0.264519217246	174248.852539	0.216234388063	1.46416091919	61869.5984465	39742.4560547	11602.8252455	55.4695136435	1868927.58023	66534475.5471	0
6450000.0	41242.0	100078905.688	0.265401420927	174251.049805	0.218507164391	1.46124434471	61586.8968135	39525.8789062	11599.2587572	55.745244011	1314340.65847	66539298.8646	0
6475000.0	41409.0	101606584.361	0.266288497533	174253.78418	0.220786270802	1.45832121372	61304.5653042	39309.7717285	11592.994583	56.0406739436	841422.80475	66544122.6937	0
6500000.0	41576.0	103150303.598	0.267174358828	174255.383301	0.22307963809	1.45542049408	61024.4439192	39095.4467773	11584.851126	56.345972844	442544.93918	66548947.0344	0
6525000.0	41744.0	104710110.709	0.268065431346	174257.177734	0.225379364565	1.45251345634	60744.4718335	38881.4056396	11574.0698559	56.8397538276	4600089.53854	66553771.8868	0
6550000.0	41913.0	106286051.478	0.268960708291	174259.130859	0.227685231948	1.44960403442	60465.0037831	38667.8955078	11560.645456	57.0163681123	896.710435923	66558597.2508	0
6575000.0	42081.0	107878280.128	0.269844623481	174258.300781	0.230013116379	1.44676172733	60191.0974667	38458.5388184	11546.3111418	57.3613479558	189630.626644	66563423.1266	0
6600000.0	42251.0	109486786.014	0.270737967622	174258.911133	0.232338963542	1.44389307499	59916.0987862	38248.5443115	11528.5764629	57.736877746	505084.078642	66568249.514	0
6625000.0	42420.0	111111723.231	0.27161780847	174256.616211	0.234686725889	1.44109928608	59647.3036341	38043.1243896	11510.0096411	57.9412457911	3193049.95651	66573076.4131	0
6650000.0	42590.0	112753135.324	0.27249823464	174254.11377	0.237040381762	1.43831801414	59380.199902	37839.0441895	11488.974796	58.5078361022	1529526.18074	66577903.824	0
6675000.0	42761.0	114411067.808	0.273383317878	174251.89209	0.239399640122	1.43553495407	59113.3033587	37635.1837158	11465.4729856	58.9243157319	2155061.78146	66582731.7467	0
6700000.0	42932.0	116085617.269	0.27426740795	174249.499512	0.241772155277	1.43277132511	58848.2519858	37432.7728271	11440.4113176	59.1782200893	1326768.78971	66587560.1812	0
6725000.0	43103.0	117776877.85	0.275149815891	174246.972656	0.244157767156	1.4300262928	58585.1640679	37231.9366455	11413.8002377	59.6150832669	826164.896719	66592389.1274	0
6750000.0	43275.0	119484886.599	0.276037211647	174245.739746	0.246548152063	1.42726838589	58322.1200394	37031.3720703	11384.8507865	60.0732224525	421006.418324	66597218.5856	0
6775000.0	43447.0	121209735.24	0.276921500491	174244.433594	0.248951459071	1.42453050613	58061.5842678	36832.8521729	11354.4412537	60.5422259819	110206.288332	66602048.5555	0
6800000.0	43620.0	122951458.778	0.277809117903	174244.482422	0.251359277172	1.42178189754	57801.5966617	36635.0311279	11321.7508463	61.2094247459	6326962.63185	66606879.0374	0
6825000.0	43794.0	124710090.51	0.278699165923	174245.837402	0.253771431744	1.41902434826	57542.4726592	36438.1713867	11286.8245343	61.5459054039	284377.131987	66611710.0311	0
6850000.0	43967.0	126485779.764	0.279579038078	174245.703125	0.256204744801	1.4163120985	57287.8570995	36244.8669434	11251.4376858	61.8806887537	4132762.13619	66616541.5368	0
6875000.0	44141.0	128278563.694	0.280463226942	174246.569824	0.258642976405	1.41358697414	57033.3099417	36051.8768311	11213.9330122	62.5941339404	1232693.94665	66621373.5545	0
6900000.0	44316.0	130088476.521	0.281351214364	174248.449707	0.261085660895	1.41085076332	56779.0697051	35859.387207	11174.3079154	63.1518971813	1833915.04846	66626206.0841	0
6925000.0	44491.0	131915609.771	0.28223530851	174250.024414	0.263541092863	1.4081376791	56527.5056048	35669.052124	11133.4781049	63.5397783826	1993294.0942	66631039.1256	0
6950000.0	44666.0	133760054.061	0.283115000484	174251.318359	0.266009184998	1.40545046329	56278.8360928	35481.0058594	11091.5187163	64.1196294378	1357803.4741	66635872.6793	0
6975000.0	44842.0	135621840.616	0.283996366681	174253.588867	0.268481264357	1.40276491642	56031.230002	35293.9025879	11047.1700095	64.9090059223	4273102.11921	66640706.7449	0
7000000.0	45019.0	137500999.492	0.284878942017	174256.835938	0.270957185421	1.4000852108	55785.0608016	35108.001709	11000.1358434	65.5439218952	5266822.60866	66645541.3226	0
7025000.0	45196.0	139397621.086	0.285756058863	174259.606934	0.273445766652	1.3974391222	55541.9479844	34924.4171143	10951.4139677	66.0088571275	34018.5624986	66650376.4125	0
7050000.0	45373.0	141311797.55	0.286628544781	174261.816406	0.275947153568	1.39482438564	55301.6566671	34742.9931641	10901.1123986	66.6752194717	167801.845499	66655212.0144	0
7075000.0	45551.0	143243560.971	0.287502354552	174264.697266	0.27845276054	1.39221251011	55062.3296777	34562.4328613	10848.4687559	67.3696244168	606857.496769	66660048.1286	0
7100000.0	45729.0	145193001.311	0.288370425047	174267.016602	0.280970940366	1.38963019848	54826.0334453	34384.2285156	10794.4555129	67.8896104589	3886708.48858	66664884.7549	0
7125000.0	45907.0	147160208.658	0.289231905663	174268.823242	0.283501576632	1.38707649708	54592.8896593	34208.5113525	10739.166443	68.6150294446	2895922.84884	66669721.8934	0
7150000.0	46086.0	149145212.07	0.290093091416	174271.289062	0.286035909085	1.38452231884	54361.1292257	34034.0789795	10681.8381248	69.5625183493	3041177.64095	66674559.5442	0
7175000.0	46266.0	151148038.32	0.290953648353	174274.389648	0.288573675789	1.38196730614	54130.9017648	33861.0748291	10622.5296272	70.3467520079	4174407.79867	66679397.7073	0
7200000.0	46446.0	153168776.838	0.291806779195	174276.831055	0.291123898933	1.37943553925	53903.8993466	33690.713501	10562.2746867	70.9500145913	477957.740471	66684236.3826	0
7225000.0	46626.0	155207518.435	0.292653124847	174278.442383	0.293686724035	1.37692725658	53679.9582764	33522.8637695	10501.1508333	71.764691138	23192.3916804	66689075.5703	0
7250000.0	46807.0	157264293.578	0.293499013204	174280.34668	0.296253507258	1.37441921234	53457.3726622	33356.2866211	10438.3863145	72.6080003487	311876.036776	66693915.2704	0
7275000.0	46988.0	159339190.062	0.294337226083	174281.45752	0.298832484987	1.37194049358	53237.9859818	33192.2302246	10374.937494	73.4673815869	1056418.61315	66698755.4829	0
7300000.0	47170.0	161432234.866	0.295174049987	174282.861328	0.301414926071	1.36946880817	53020.20946	33029.5562744	10310.0063797	74.3559411691	2085212.31471	66703596.2078	0
7325000.0	47352.0	163543514.201	0.296002547385	174283.38623	0.304009212414	1.36703312397	52805.9088024	32869.53125	10244.5817449	75.0543277913	2013740.01706	66708437.4452	0
7350000.0	47534.0	165673112.839	0.296822054559	174283.117676	0.30661537312	1.36463654041	52595.1774717	32712.1948242	10178.7340566	75.9728831718	911757.643728	66713279.195	0
7375000.0	47717.0	167821056.849	0.297639268618	174282.861328	0.309224764351	1.36225295067	52386.1179877	32556.1920166	10111.6663514	76.9208072102	134621.255451	66718121.4574	0
7400000.0	47900.0	169987434.894	0.298448019125	174281.396484	0.311846553814	1.35990560055	52180.3961469	32402.7313232	10044.3567786	77.884292008	307574.535518	66722964.2324	0
7425000.0	48084.0	172172272.784	0.299254237433	174279.882812	0.31447148649	1.35756874084	51976.3389779	32250.6439209	9976.01646222	78.8772035298	1312435.73335	66727807.5199	0
7450000.0	48268.0	174375657.808	0.300051879316	174277.258301	0.317108468153	1.355265975	51775.5699952	32101.071167	9907.56456767	79.8858533736	2797386.30083	66732651.32	0
7475000.0	48453.0	176597613.326	0.300848411364	174275.402832	0.319748040056	1.3529651165	51576.0932493	31952.6794434	9838.23202729	80.9243349967	4665829.54076	66737495.6328	0
7500000.0	48638.0	178838220.743	0.301637751263	174273.596191	0.322398729622	1.35068666935	51379.3886742	31806.5216064	9768.93417446	81.757705702	266098.04114	66742340.4583	0
7525000.0	48823.0	181097561.868	0.302419708664	174271.850586	0.325060682371	1.3484313488	51185.5403344	31662.6586914	9699.7410327	82.8253088972	301287.693848	66747185.7964	0
7550000.0	49009.0	183375658.646	0.303200207439	174271.032715	0.327725312673	1.34617447853	50992.8897645	31519.9920654	9629.88543545	83.9227502402	1541182.2574	66752031.6474	0
7575000.0	49195.0	185672595.168	0.303973289395	174270.056152	0.330401526298	1.34394133091	50802.9972283	31379.5623779	9560.27050123	84.8074413601	2572631.68936	66756878.0111	0
7600000.0	49381.0	187988453.426	0.30473894288	174268.95752	0.333089148626	1.34173130989	50615.8313045	31241.317749	9490.96082199	85.9326410466	905704.125378	66761724.8876	0
7625000.0	49568.0	190323250.655	0.305502588535	174268.798828	0.335778750014	1.33952283859	50429.9290553	31104.208374	9421.17088527	87.0879469948	6064.55540757	66766572.2769	0
7650000.0	49755.0	192677065.181	0.306258151506	174268.603516	0.338479119819	1.33733844757	50246.798566	30969.2687988	9351.79145597	88.2582098726	1079824.7248	66771420.1791	0
7675000.0	49943.0	195049909.354	0.307011348422	174269.458008	0.341180711985	1.33515691757	50065.0301242	30835.4858398	9282.05664924	89.4588661322	3054098.59321	66776268.5942	0
7700000.0	50131.0	197441858.472	0.307756109881	174270.202637	0.343892723322	1.33300054073	49886.1382347	30703.9031982	9212.83172846	90.4338822	1104850.05429	66781117.5223	0
7725000.0	50319.0	199852991.755	0.308491673314	174270.800781	0.346615677699	1.33086824417	49710.0978039	30574.5605469	9143.57090636	91.6671370027	16707.7981697	66785966.9633	0
7750000.0	50508.0	202283324.22	0.309224195475	174272.167969	0.349340261891	1.32873916626	49535.5166928	30446.4996338	9073.07732115	92.9414434916	1372243.20191	66790816.9173	0
7775000.0	50697.0	204732934.087	0.309947904593	174273.364258	0.352075672708	1.32663440704	49363.6981436	30320.6237793	9002.22772045	93.9924393839	2633542.7157	66795667.3844	0
7800000.0	50886.0	207201898.788	0.310663089486	174274.401855	0.354821851943	1.32455432415	49194.5913068	30196.8902588	8931.11743369	95.314361762	531008.125638	66800518.3645	0
7825000.0	51076.0	209690232.704	0.311375317997	174276.269531	0.357569369953	1.32247912884	49026.8396425	30074.3621826	8859.04161229	96.6779721005	503147.031746	66805369.8577	0
7850000.0	51266.0	212198011.678	0.312079394863	174278.015137	0.360327539966	1.3204305172	48861.7946638	29953.9550781	8786.86244972	98.0668763188	2776602.85027	66810221.8641	0
7875000.0	51457.0	214725250.439	0.312779945353	174280.444336	0.363087136066	1.31838881969	48698.2151157	29834.8388672	8713.89354034	99.4979173965	6154301.0108	66815074.3836	0
7900000.0	51648.0	217272029.141	0.313471137036	174282.543945	0.365857908037	1.31637430191	48537.4549464	29717.9351807	8640.98029934	100.690565237	152886.939217	66819927.4163	0
7925000.0	51839.0	219838425.712	0.314152965976	174284.338379	0.368639361113	1.3143876791	48379.465791	29603.1677246	8568.18795312	101.902038186	4643740.05752	66824780.9623	0
7950000.0	52030.0	222424517.97	0.314826093333	174285.852051	0.371431582607	1.31242895126	48224.2178443	29490.4998779	8495.59838213	103.401729034	1445140.89027	66829635.0215	0
7975000.0	52222.0	225030315.908	0.31549544276	174287.976074	0.374224735424	1.31047952175	48070.4617669	29379.0435791	8422.49551265	104.944286434	142086.93097	66834489.5941	0
8000000.0	52414.0	227655893.313	0.316156062136	174289.892578	0.37702798727	1.30855822563	47919.3766069	29269.5953369	8349.71914059	106.51175414	2591891.70505	66839344.68	0
8025000.0	52607.0	230301257.486	0.3168129208	174292.419434	0.379831792088	1.30664741993	47769.7645583	29161.315918	8276.55376708	108.12283175	6685546.85854	66844200.2792	0
8050000.0	52800.0	232966483.137	0.317460572158	174294.506836	0.382645899663	1.30476784706	47622.8781296	29055.0842285	8203.84936192	109.474931623	442098.818735	66849056.3919	0
8075000.0	52993.0	235651646.644	0.318099248266	174296.166992	0.385470397305	1.30291795731	47478.7320744	28950.9246826	8131.63183931	110.844573218	3681015.02852	66853913.0181	0
8100000.0	53186.0	238356822.849	0.318728243378	174297.363281	0.388305314118	1.30109596252	47337.2508007	28848.8037109	8059.96154359	112.521885395	441630.164093	66858770.1578	0
8125000.0	53380.0	241082020.385	0.319352509084	174299.072266	0.391140900319	1.29928016663	47197.303005	28748.0102539	7988.15984874	114.242528744	1445841.76222	66863627.811	0
8150000.0	53574.0	243827313.185	0.319966605048	174300.341797	0.393986556446	1.29748749733	47060.0101251	28649.3286133	7916.99779508	115.987248433	5762261.21996	66868485.9777	0
8175000.0	53769.0	246592707.689	0.320575054984	174302.160645	0.396832707338	1.29569780827	46924.3115394	28552.06604	7845.84080766	117.473221701	212797.097704	66873344.6581	0
8200000.0	53963.0	249378346.08	0.321168066538	174302.587891	0.399698852561	1.29394710064	46792.3079505	28457.6293945	7776.10027429	118.95520675	3874923.5081	66878203.8521	0
8225000.0	54158.0	252184239.036	0.321755007227	174303.320312	0.40256610373	1.29220271111	46661.9874319	28364.6636963	7706.43810916	120.781915572	227705.151304	66883063.5599	0
8250000.0	54353.0	255010461.826	0.322331042264	174303.466797	0.405443599448	1.29048120975	46534.3185767	28273.815918	7637.59288224	122.631125693	2426554.97517	66887923.7813	0
8275000.0	54549.0	257857021.55	0.322900741086	174303.90625	0.40832158993	1.28876698017	46408.3451456	28184.4299316	7568.92222016	124.523240175	8159775.50371	66892784.5165	0
8300000.0	54745.0	260723991.003	0.323459285913	174303.747559	0.411209533922	1.287078619	46285.1566617	28097.2320557	7501.14076661	126.115744528	1608717.87142	66897645.7655	0
8325000.0	54941.0	263611441.034	0.324006575451	174303.039551	0.414107285906	1.2854155302	46164.6681028	28012.1459961	7434.25199363	127.722070018	1450170.27273	66902507.5283	0
8350000.0	55137.0	266519443.578	0.32454198328	174301.721191	0.417014874984	1.28377866745	46047.1047319	27929.3792725	7368.30754344	129.341092501	7715930.53785	66907369.805	0
8375000.0	55333.0	269448074.703	0.325063240911	174299.658203	0.419932854129	1.28216981888	45932.7210109	27849.130249	7303.31689644	131.306297054	1601111.94849	66912232.5956	0
8400000.0	55530.0	272397341.303	0.325576369681	174297.729492	0.422851240728	1.28057014942	45820.2562593	27770.5383301	7238.69284086	133.312795649	1402137.47507	66917095.9002	0
8425000.0	55727.0	275367314.743	0.32608016917	174295.703125	0.425779086072	1.27899181843	45710.1437024	27693.7957764	7175.07389015	135.339240719	7883221.36309	66921959.7188	0
8450000.0	55925.0	278357995.593	0.326580571609	174294.555664	0.428706349339	1.27741801739	45601.183069	27618.0419922	7111.88132296	137.060088823	1859275.51203	66926824.0513	0
8475000.0	56122.0	281369518.023	0.327072054818	174292.724609	0.431652530096	1.27587842941	45494.7818778	27544.1101074	7050.33670053	138.769082441	893930.589797	66931688.898	0
8500000.0	56320.0	284401879.039	0.327564252101	174291.833496	0.434597779531	1.27434122562	45388.9613875	27470.6634521	6989.20188874	140.866715061	2596545.25729	66936554.2587	0
8525000.0	56518.0	287455146.123	0.328052031507	174291.003418	0.437552109361	1.27282369137	45285.1890695	27398.8372803	6928.58197394	142.63356965	414931.550085	66941420.1335	0
8550000.0	56716.0	290529388.497	0.328533854354	174290.136719	0.440515868831	1.27132630348	45183.4853178	27328.6346436	6868.39734277	144.42266335	5202757.27964	66946286.5226	0
8575000.0	56914.0	293624672.829	0.329009093924	174289.306641	0.44348888332	1.26984906197	45083.5969379	27259.7869873	6808.6756957	146.602980591	11648.956836	66951153.4258	0
8600000.0	57113.0	296740998.391	0.329480119783	174289.331055	0.446461141109	1.26837682724	44984.4591369	27191.5130615	6748.85828143	148.838186433	5118737.09278	66956020.8433	0
8625000.0	57312.0	299878431.642	0.329942555296	174289.379883	0.449442362878	1.26692414284	44886.6337715	27124.0814209	6689.56639125	150.725989182	486332.620775	66960888.775	0
8650000.0	57511.0	303037038.846	0.330395229294	174289.501953	0.452432694146	1.26549053192	44789.8655321	27057.232666	6630.79540817	152.635857984	2227832.55562	66965757.2211	0
8675000.0	57710.0	306216889.045	0.330837351433	174289.599609	0.45543233864	1.26407670975	44694.1380838	26990.9423828	6572.57683776	154.955477645	1907324.30054	66970626.1815	0
8700000.0	57910.0	309417982.212	0.331273018212	174290.41748	0.458431546576	1.26266920567	44598.8084293	26924.8443604	6514.39734358	156.936947728	589123.952335	66975495.6564	0
8725000.0	58109.0	312640455.808	0.331695904509	174290.441895	0.461449963041	1.26129567623	44505.6520817	26860.1776123	6457.33545785	158.915218105	4947238.70639	66980365.6456	0
8750000.0	58309.0	315884307.029	0.332114033707	174291.223145	0.46446750639	1.25992739201	44413.3237013	26796.1700439	6400.34471684	161.342365826	403874.636229	66985236.1493	0
8775000.0	58509.0	319149601.718	0.332524834887	174292.016602	0.467493897304	1.25857794285	44322.807102	26733.5388184	6343.98233754	163.800355311	8257044.318	66990107.1675	0
8800000.0	58710.0	322436332.718	0.332932478027	174293.62793	0.470518716611	1.25723314285	44233.5302754	26671.9940186	6287.73658026	165.901274551	2786278.74306	66994978.7003	0
8825000.0	58910.0	325744634.483	0.33333118758	174294.458008	0.473562482512	1.25592088699	44147.0598466	26612.5610352	6232.65325226	167.997004415	34937.9250543	66999850.7476	0
8850000.0	59111.0	329074504.892	0.333726657735	174295.996094	0.476605258882	1.25461626053	44061.7763689	26554.0893555	6177.72689127	170.562592786	6816232.92627	67004723.3096	0
8875000.0	59312.0	332426009.116	0.334114630133	174297.460938	0.479656824609	1.25333094597	43978.3339276	26497.0092773	6123.47955187	172.728980903	1952934.23311	67009596.3862	0
8900000.0	59513.0	335799211.914	0.33449459568	174298.864746	0.482717354316	1.25206458569	43896.7515233	26441.3452148	6069.92182557	174.914544698	299251.452906	67014469.9774	0
8925000.0	59714.0	339194176.918	0.334865534168	174300.244141	0.485786382342	1.25081467628	43816.9695463	26387.0941162	6017.05714668	177.119110866	3774332.8676	67019344.0834	0
8950000.0	59915.0	342610966.455	0.335226659218	174301.623535	0.488863908686	1.24958109856	43739.0160053	26334.2803955	5964.88864781	179.342318143	9108306.1536	67024218.7042	0
8975000.0	60116.0	346049643.325	0.335577179717	174302.978516	0.491949904244	1.24836266041	43662.8763576	26282.9315186	5913.43215748	182.035095499	141540.29499	67029093.8397	0
9000000.0	60318.0	349510202.072	0.335918829184	174304.931641	0.495034502819	1.2471498251	43588.1610578	26232.8338623	5862.23289875	184.783835644	7815070.60619	67033969.4901	0
9025000.0	60520.0	352992708.958	0.336249421587	174306.738281	0.498128065374	1.2459551096	43515.4631681	26184.3475342	5811.75768996	187.098352994	3299372.90684	67038845.6554	0
9050000.0	60722.0	356497229.407	0.336569537738	174308.374023	0.501230650116	1.24477863312	43444.7367806	26137.4176025	5762.03339952	189.429026611	397041.535292	67043722.3356	0
9075000.0	60924.0	360023829.521	0.336879548829	174309.863281	0.50434214063	1.2436196804	43375.895144	26091.9799805	5713.0481664	191.775799512	1139664.37799	67048599.5307	0
9100000.0	61126.0	363572573.054	0.33718010206	174311.230469	0.50746218767	1.24247813225	43308.8586556	26047.9492188	5664.80901108	194.138061293	4386165.24226	67053477.2408	0
9125000.0	61328.0	367143524.422	0.337471661153	174312.438965	0.510591082275	1.24135446548	43243.5939922	26005.2886963	5617.31637835	197.001562269	2802357.51614	67058355.466	0
9150000.0	61531.0	370736679.259	0.337757142675	174314.221191	0.513718056027	1.24023604393	43179.4678707	25963.6047363	5570.14852445	199.42779555	362099.524869	67063234.2062	0
9175000.0	61733.0	374352163.003	0.338032210023	174315.197754	0.516863830853	1.23914599419	43117.5085201	25923.4832764	5524.1591004	201.839054154	893979.963497	67068113.4615	0
9200000.0	61936.0	377990003.397	0.338302268348	174316.711426	0.520007684827	1.23806166649	43056.5983261	25884.2346191	5478.50727749	204.797118749	7992354.59666	67072993.232	0
9225000.0	62139.0	381650228.223	0.338565324851	174318.09082	0.523159687873	1.23699355125	42997.1699151	25846.09375	5433.62645742	206.758847907	7184045.56556	67077873.5177	0
9250000.0	62341.0	385332974.183	0.338819703628	174318.54248	0.526335672475	1.23595428467	42939.7620359	25809.3505859	5389.93583696	209.204136499	11509662.4645	67082754.3186	0
9275000.0	62544.0	389038224.674	0.339070599989	174319.677734	0.529503915459	1.23491871357	42883.1519495	25773.260498	5346.56130146	212.216729791	5559.35962648	67087635.6347	0
9300000.0	62747.0	392766044.684	0.339313687896	174320.532227	0.532680889592	1.23390257359	42828.2479903	25738.4429932	5303.95509161	215.251757393	12132065.8035	67092517.4662	0
9325000.0	62951.0	396516427.502	0.339550279874	174321.765137	0.53585623391	1.23289585114	42774.673606	25704.7058105	5261.72884631	217.804029325	8308373.15499	67097399.813	0
9350000.0	63154.0	400289511.606	0.339776549519	174321.984863	0.53905119421	1.23191869259	42723.2917374	25672.5341797	5220.65266457	219.79315385	6880908.82571	67102282.6752	0
9375000.0	63357.0	404085362.745	0.3399947975	174321.899414	0.542254885659	1.23095977306	42673.5595462	25641.6046143	5180.17014599	222.879988764	2577377.49235	67107166.0528	0
9400000.0	63561.0	407903970.943	0.340206979123	174322.155762	0.545456714462	1.23000836372	42624.9744504	25611.6088867	5139.85481201	225.473642597	749461.40974	67112049.9458	0
9425000.0	63764.0	411745474.508	0.340409949184	174321.411133	0.548677751794	1.22908341885	42578.3386897	25583.0032349	5100.44121082	228.053280324	80756.6387234	67116934.3543	0
9450000.0	63968.0	415609862.229	0.340607352931	174320.996094	0.551896519028	1.22816359997	42532.7070558	25555.2368164	5061.185359	230.681719611	1254702.00212	67121819.2784	0
9475000.0	64171.0	419497269.49	0.34079620767	174319.616699	0.555134436581	1.22726905346	42488.8870607	25528.7460327	5022.81618142	233.295159894	3042777.09399	67126704.718	0
9500000.0	64375.0	423407684.583	0.340979921852	174318.566895	0.558369909413	1.22637856007	42445.9400372	25502.986145	4984.60105913	236.537405715	7543193.61968	67131590.6732	0
9525000.0	64579.0	427341165.979	0.341157368538	174317.211914	0.561613298487	1.22550046444	42404.2360135	25478.1845093	4946.8993752	238.637257059	7609622.08158	67136477.144	0
9550000.0	64782.0	431297849.164	0.341327000118	174315.014648	0.56487537222	1.22464382648	42364.0549015	25454.4418335	4910.03809618	241.301662324	10176896.9702	67141364.1306	0
9575000.0	64986.0	435277715.748	0.341492129397	174313.671875	0.568134186324	1.22378718853	42324.5903267	25431.3552856	4873.33911847	244.614601309	1824919.81565	67146251.6328	0
9600000.0	65190.0	439280822.562	0.341650461032	174312.524414	0.571400509216	1.22294151783	42286.3788845	25409.2559814	4837.12687289	247.351960003	702656.3866	67151139.6508	0
9625000.0	65394.0	443307233.391	0.341800583187	174311.425781	0.574675330427	1.22210931778	42249.7122864	25388.3926392	4801.40511713	250.1055438	52333.4189987	67156028.1846	0
9650000.0	65598.0	447357008.441	0.341943198824	174310.424805	0.577958475333	1.2212908268	42214.4935255	25368.6523438	4766.17217954	252.875029272	313996.281546	67160917.2343	0
9675000.0	65802.0	451430210.27	0.342078288982	174309.49707	0.581249827519	1.22048532963	42180.6717574	25350.0152588	4731.41596355	255.660614438	1020286.46328	67165806.7997	0
9700000.0	66006.0	455526899.09	0.34220617072	174308.679199	0.58454927057	1.21969246864	42148.1519155	25332.383728	4697.14011338	258.4616555	1866005.04745	67170696.8811	0
9725000.0	66210.0	459647134.046	0.342327274781	174307.958984	0.587856629863	1.21891236305	42116.8674006	25315.6921387	4663.32760899	261.919043444	12154633.6917	67175587.4784	0
9750000.0	66415.0	463790899.159	0.342443012558	174308.02002	0.591161195189	1.21813571453	42086.4553435	25299.7451782	4629.67208997	264.792719555	10924122.9074	67180478.5917	0
9775000.0	66619.0	467958327.84	0.342551386743	174307.580566	0.594484212343	1.21738004684	42057.4522376	25284.765625	4596.78937796	266.99302256	4545927.79011	67185370.221	0
9800000.0	66823.0	472149477.828	0.342653754932	174307.299805	0.597815029323	1.21663594246	42029.4612702	25270.5291748	4564.35069545	269.856316385	5363143.42168	67190262.3664	0
9825000.0	67027.0	476364406.987	0.342750526428	174307.15332	0.601153587922	1.21590316296	42002.4092662	25256.9625854	4532.35988038	272.734469387	6109589.85925	67195155.0278	0
9850000.0	67231.0	480603172.244	0.342842084028	174307.214355	0.604499597102	1.21518146992	41976.2323844	25244.0139771	4500.81565522	276.302701702	7743716.08622	67200048.2053	0
9875000.0	67436.0	484865751.598	0.342929512816	174308.044434	0.607842230238	1.21446239948	41950.5995124	25231.4926147	4469.41245458	279.252944402	7305353.77554	67204941.899	0
9900000.0	67640.0	489152279.134	0.343010702565	174308.398438	0.611203140579	1.213763237	41926.064827	25219.6548462	4438.7351809	281.492286602	7797531.86483	67209836.1089	0
9925000.0	67844.0	493462817.12	0.343085167296	174308.850098	0.614572432823	1.2130767107	41902.6180596	25208.6181641	4408.48628033	284.427956979	8107379.48141	67214730.8351	0
9950000.0	68048.0	497797427.941	0.343153150898	174309.326172	0.617950223386	1.21240341663	41880.2217067	25198.336792	4378.66466225	288.080973423	6827178.32564	67219626.0775	0
9975000.0	68253.0	502156093.843	0.343215488191	174310.449219	0.621324812528	1.21173524857	41858.6685709	25188.7359619	4348.98747483	291.086484233	6975981.9023	67224521.8362	0
10000000.0	68457.0	506538953.137	0.343270824488	174311.05957	0.624718843028	1.21108734608	41838.402887	25179.9972534	4319.99994972	293.349773067	8108156.17273	67229418.1112	0
10025000.0	68661.0	510946065.721	0.34332033329	174311.71875	0.628120673355	1.21045136452	41819.159404	25172.0046997	4291.42237404	296.337449644	7805801.91482	67234314.9026	0
10050000.0	68865.0	515377488.81	0.343364065765	174312.475586	0.6315302453	1.20982789993	41800.9494347	25164.7445679	4263.25383957	300.070960553	8314621.26226	67239212.2104	0
10075000.0	69070.0	519833204.707	0.34340291719	174313.916016	0.634936557617	1.20920860767	41783.5413278	25158.1451416	4235.21439956	303.128167408	9103268.01121	67244110.0347	0
10100000.0	69274.0	524313345.502	0.343435787526	174314.868164	0.638361321762	1.20860803127	41767.3209706	25152.3269653	4207.83983096	305.411611724	6063085.66866	67249008.3754	0
10125000.0	69478.0	528817968.117	0.343463517098	174315.917969	0.641793652903	1.20801889896	41752.0714789	25147.2091675	4180.85794313	308.447752725	5257384.26431	67253907.2326	0
10150000.0	69682.0	533347128.757	0.343486497226	174317.077637	0.645233260002	1.20743989944	41737.7753779	25142.7902222	4154.2543198	311.496025839	4373513.86693	67258806.6064	0
10175000.0	69886.0	537900880.878	0.343504669736	174318.347168	0.648680259474	1.20687115192	41724.4120402	25139.0548706	4128.0284658	314.55580266	3435467.09888	67263706.4968	0
10200000.0	70090.0	542479279.044	0.343518173775	174319.750977	0.652134302072	1.20631194115	41711.9427814	25135.9802246	4102.17985948	317.62666306	2474689.6242	67268606.9038	0
10225000.0	70294.0	547082381.79	0.343525713993	174321.179199	0.65559631912	1.20576488972	41700.5925483	25133.7341309	4076.70347911	320.707897949	1523337.91198	67273507.8275	0
10250000.0	70498.0	551710249.945	0.343527177058	174322.607422	0.65906625241	1.2052295208	41690.3263763	25132.3013306	4051.5988402	323.798916827	659140.773096	67278409.2678	0
10275000.0	70702.0	556362942.297	0.343522816034	174323.999023	0.662543927319	1.20470523834	41681.0854011	25131.6329956	4026.86101549	326.899528354	47116.1671792	67283311.2249	0
10300000.0	70906.0	561040518.514	0.343513109636	174325.415039	0.666029751301	1.20419216156	41672.8409604	25131.7016602	4002.48516576	330.009250121	409104.574288	67288213.6988	0
10325000.0	71110.0	565743035.284	0.343498311952	174326.806641	0.669523200486	1.20368981361	41665.5390392	25132.4676514	3978.46217007	333.128421395	1462368.78507	67293116.6894	0
10350000.0	71314.0	570470551.721	0.343478621193	174328.186035	0.67302439129	1.20319783688	41659.1394001	25133.8973999	3954.78743859	336.256706367	2999224.1124	67298020.1969	0
10375000.0	71518.0	575223125.972	0.343454517152	174329.589844	0.67653338192	1.20271575451	41653.5929581	25135.9512329	3931.45646269	339.39379349	4992079.60822	67302924.2213	0
10400000.0	71722.0	580000814.578	0.343426198523	174330.981445	0.680049706716	1.20224356651	41648.835825	25138.571167	3908.45193951	341.701198272	10543435.1399	67307828.7626	0
10425000.0	71925.0	584803754.872	0.343393751735	174331.799316	0.683585065417	1.20178675652	41644.964312	25141.7633057	3885.98733575	344.810455005	7793020.54043	67312733.8208	0
10450000.0	72129.0	589631923.027	0.343357994267	174333.227539	0.68711664062	1.2013335228	41641.6978318	25145.4376221	3863.61791488	348.823399719	13714881.1703	67317639.3961	0
10475000.0	72333.0	594485374.394	0.343318815782	174334.643555	0.690655317158	1.20088970661	41639.1114175	25149.5834351	3841.5586262	351.136009313	2885241.23397	67322545.4883	0
10500000.0	72536.0	599364246.263	0.343276583858	174335.498047	0.694213318639	1.20046067238	41637.2609257	25154.1656494	3820.01532708	354.272565273	1033339.14728	67327452.0976	0
10525000.0	72740.0	604268515.802	0.343229840207	174336.889648	0.697767245583	1.20003712177	41636.1517486	25159.3353271	3798.54696449	357.459276136	11100.13038	67332359.224	0
10550000.0	72943.0	609198326.714	0.343178223492	174337.573242	0.701341079548	1.19963097572	41636.0389228	25165.1565552	3777.58081569	360.613999096	1264216.37463	67337266.8676	0
10575000.0	73147.0	614153657.173	0.343122018812	174338.781738	0.704911421053	1.19923019409	41636.6806613	25171.5820312	3756.68089346	363.819074338	3614900.23767	67342175.0283	0
10600000.0	73350.0	619134648.891	0.34306148322	174339.306641	0.708501203917	1.19884574413	41638.2054745	25178.5629272	3736.26578803	366.090436563	12830289.5195	67347083.7062	0
10625000.0	73553.0	624141361.048	0.342997294492	174339.746094	0.712099194061	1.1984705925	41640.4687685	25186.0687256	3716.11666747	369.264640863	8783122.13323	67351992.9013	0
10650000.0	73756.0	629173853.272	0.342929484778	174340.087891	0.715704751201	1.19810461998	41643.4213061	25194.0582275	3696.22230391	372.448704874	5148319.47821	67356902.6137	0
10675000.0	73959.0	634232184.493	0.342858478785	174340.307617	0.719318166375	1.19774746895	41647.022012	25202.4917603	3676.58380171	375.641856637	2138249.8513	67361812.8435	0
10700000.0	74162.0	639316412.36	0.342784812775	174340.41748	0.722939439584	1.19739866257	41651.2237512	25211.3311768	3657.19017913	378.844705492	161603.460629	67366723.5905	0
10725000.0	74365.0	644426594.101	0.34270868621	174340.41748	0.72656822158	1.19705736637	41655.9692804	25220.5291748	3638.04265226	382.056811262	1165965.90736	67371634.855	0
10750000.0	74568.0	649562786.714	0.34263049424	174340.307617	0.730204337742	1.19672298431	41661.234101	25230.0842285	3619.12650193	385.279319273	4073853.57623	67376546.6368	0
10775000.0	74771.0	654725045.839	0.342550603406	174340.063477	0.733847788069	1.19639539719	41666.9619009	25239.9246216	3600.43915786	388.512043665	8085943.46297	67381458.9361	0
10800000.0	74974.0	659913427.32	0.34246940759	174339.672852	0.737498921808	1.19607436657	41673.0934612	25250.0183105	3581.97808791	390.789697555	8000176.60157	67386371.7529	0
10825000.0	75176.0	665128070.441	0.342386489432	174338.562012	0.741169264074	1.19576489925	41679.7628463	25260.4003906	3563.92470562	393.991720112	4017360.22063	67391285.0872	0
10850000.0	75379.0	670368952.832	0.342299868044	174337.792969	0.744835764635	1.19546067715	41687.1297752	25271.3180542	3545.90002091	397.245953182	982857.57791	67396198.939	0
10875000.0	75581.0	675636219.815	0.342210749665	174336.193848	0.748522230424	1.19516968727	41695.1429547	25282.6156616	3528.26864731	400.467177918	443860.1551	67401113.3084	0
10900000.0	75784.0	680929845.979	0.342118496396	174335.03418	0.752204563469	1.19488251209	41703.7534742	25294.3771362	3510.66326913	403.740957238	3294935.42208	67406028.1955	0
10925000.0	75986.0	686249974.471	0.34202361537	174333.410645	0.75590639608	1.19460833073	41713.0255246	25306.5307617	3493.43723546	405.977066818	14524833.6105	67410943.6002	0
10950000.0	76188.0	691596662.447	0.341926166747	174331.970215	0.759615853895	1.19434177876	41722.8907757	25319.0963745	3476.40641581	409.22002067	8907363.3863	67415859.5226	0
10975000.0	76390.0	696969967.021	0.341826294251	174330.67627	0.763332704082	1.19408249855	41733.3337775	25332.0663452	3459.5649781	412.47334164	4176613.41384	67420775.9627	0
11000000.0	76592.0	702369942.176	0.341724224911	174329.589844	0.76705677202	1.19383072853	41744.3073554	25345.3857422	3442.91475204	415.736512971	774902.525428	67425692.9206	0
11025000.0	76794.0	707796645.997	0.341620268782	174328.662109	0.770788290538	1.19358491898	41755.7446778	25359.0286255	3426.43871121	419.011081278	923193.550568	67430610.3963	0
11050000.0	76996.0	713250131.172	0.341514763051	174327.941895	0.774527143221	1.19334626198	41767.6470016	25372.9705811	3410.14260807	422.296055571	4632386.92486	67435528.3898	0
11075000.0	77198.0	718730453.857	0.341407905177	174327.392578	0.778272980824	1.19311356544	41779.9539942	25387.1749878	3394.02462294	425.591476601	10022432.0732	67440446.9011	0
11100000.0	77400.0	724237666.841	0.341299919938	174327.062988	0.782025745139	1.19288694859	41792.6437706	25401.6220093	3378.06812461	427.837477841	7167936.11271	67445365.9304	0
11125000.0	77601.0	729771909.933	0.341191447892	174326.391602	0.785798067227	1.19266951084	41805.6550106	25416.2200928	3362.45244476	431.102204809	2532639.59781	67450285.4775	0
11150000.0	77803.0	735333155.535	0.341079355786	174326.379395	0.789565732703	1.1924571991	41819.3702756	25431.362915	3346.82810711	434.422917793	21420.327672	67455205.5427	0
11175000.0	78004.0	740921546.926	0.340964953554	174325.98877	0.793353305198	1.19225716591	41833.690052	25446.8704224	3331.53241319	436.622736433	24404546.2668	67460126.1258	0
11200000.0	78205.0	746537141.917	0.340847996631	174325.744629	0.797148328274	1.19206500053	41848.6074654	25462.7960205	3316.39401287	441.005186089	8233738.98726	67465047.227	0
11225000.0	78407.0	752179913.93	0.340727853726	174326.147461	0.800938869361	1.19187641144	41864.1113448	25479.1824341	3301.24103365	444.358307977	15348793.5857	67469968.8462	0
11250000.0	78608.0	757850003.249	0.340606440162	174326.159668	0.804748968221	1.1916987896	41880.0595418	25495.7977295	3286.39903923	446.566274749	3612514.85969	67474890.9835	0
11275000.0	78809.0	763547467.789	0.340483205954	174326.35498	0.80856657587	1.1915268898	41896.4463906	25512.7105713	3271.70639216	449.887314861	121706.160791	67479813.6389	0
11300000.0	79010.0	769272363.673	0.340358486578	174326.68457	0.812391634099	1.19136118889	41913.2219613	25529.864502	3257.15453189	452.09229295	26477734.8101	67484736.8125	0
11325000.0	79210.0	775024834.875	0.340233444551	174326.611328	0.816236482933	1.19120395184	41930.2655921	25547.1191406	3242.89882383	455.381478195	17655143.9309	67489660.5043	0
11350000.0	79411.0	780804850.948	0.340106812071	174327.209473	0.820076325908	1.1910482645	41947.6627439	25564.6469116	3228.62397566	459.871671354	15815733.0052	67494584.7143	0
11375000.0	79612.0	786612466.03	0.339979502197	174327.978516	0.823923386633	1.19089627266	41965.3015735	25582.3120117	3214.50725588	462.082037475	3781898.972	67499509.4425	0
11400000.0	79812.0	792447824.169	0.339852838343	174328.356934	0.827790354379	1.190751791	41983.0703802	25599.961853	3200.74041744	465.391546389	109156.419893	67504434.6891	0
11425000.0	80013.0	798310891.479	0.339725360782	174329.394531	0.831651850604	1.19060671329	42001.0396872	25617.7703857	3187.00454483	468.750933311	2869872.72567	67509360.454	0
11450000.0	80213.0	804201812.511	0.33959748389	174330.078125	0.835533137433	1.19046986103	42019.2914115	25635.6933594	3173.59939701	470.889316651	18134139.5477	67514286.7372	0
11475000.0	80413.0	810120647.121	0.339467367847	174330.822754	0.839422340505	1.19033885002	42038.00224	25653.9276123	3160.37554989	474.198221362	10024920.3081	67519213.5388	0
11500000.0	80613.0	816067452.718	0.339335484622	174331.689453	0.843319226988	1.19021368027	42057.1490379	25672.4517822	3147.31392665	477.511162577	3598191.78096	67524140.8588	0
11525000.0	80813.0	822042288.5	0.339202112767	174332.641602	0.847223796882	1.19009387493	42076.6787264	25691.2231445	3134.42329388	480.826326855	93.544347783	67529068.6973	0
11550000.0	81013.0	828045209.74	0.339067639657	174333.691406	0.851135817356	1.18997859955	42096.5342107	25710.2081299	3121.6882808	484.145708593	3684203.79378	67533997.0543	0
11575000.0	81213.0	834076277.623	0.338932396696	174334.838867	0.855055404827	1.18986845016	42116.6903885	25729.3640137	3109.11083156	486.249813417	17429715.1165	67538925.9297	0
11600000.0	81412.0	840135634.74	0.338797535245	174335.559082	0.858995248564	1.18976533413	42136.9822104	25748.5321045	3096.82206105	489.521200541	9096024.36256	67543855.3237	0
11625000.0	81612.0	846223251.027	0.338661605251	174336.877441	0.862929737195	1.18966364861	42157.5776207	25767.9290771	3084.53444793	494.080080878	30360855.239	67548785.2363	0
11650000.0	81812.0	852339182.717	0.338525838933	174338.293457	0.866871559992	1.18956577778	42178.339861	25787.399292	3072.38666892	496.173595725	359300.713162	67553715.6675	0
11675000.0	82011.0	858483574.774	0.338391355365	174339.282227	0.870833580848	1.18947470188	42199.1205976	25806.7718506	3060.50850377	498.208333537	26386666.8744	67558646.6173	0
11700000.0	82210.0	864656483.253	0.338257524192	174340.332031	0.874802935869	1.18938684464	42219.9752482	25826.1474609	3048.76329238	501.49133045	16464610.8485	67563578.0858	0
11725000.0	82409.0	870857964.619	0.338124780122	174341.479492	0.878779450431	1.18930256367	42240.872971	25845.4864502	3037.13651658	504.781174656	8201755.40549	67568510.073	0
11750000.0	82608.0	877088073.558	0.337992739404	174342.712402	0.882763415575	1.18922185898	42261.8299053	25864.8071289	3025.63380811	508.076439243	2109088.99773	67573442.5789	0
11775000.0	82807.0	883346870.093	0.337859849234	174343.969727	0.88675506413	1.18914723396	42283.1107366	25884.3170166	3014.24747296	511.37794505	737036.330873	67578375.6036	0
11800000.0	83006.0	889634412.169	0.337726030155	174345.275879	0.890754396096	1.18907928467	42304.7369664	25904.0130615	3002.96992987	514.68667401	6038859.57806	67583309.1471	0
11825000.0	83205.0	895950759.231	0.337591556219	174346.606445	0.894761411473	1.18901669979	42326.6288564	25923.8616943	2991.80684718	518.001360857	14158286.4499	67588243.2094	0
11850000.0	83404.0	902295968.993	0.337456809222	174347.961426	0.898776110262	1.18895864487	42348.7297077	25943.8171387	2980.74744287	520.013713633	7674144.61657	67593177.7906	0
11875000.0	83602.0	908670190.497	0.337323010743	174348.852539	0.902811298147	1.18890798092	42370.9035593	25963.7145996	2969.91478254	523.28692841	1644545.8766	67598112.8907	0
11900000.0	83801.0	915073390.403	0.337188477994	174350.268555	0.906841247343	1.18885862827	42393.3083432	25983.7799072	2959.05326234	526.616440862	1238438.82887	67603048.5097	0
11925000.0	83999.0	921505718.167	0.337055433886	174351.208496	0.910891685635	1.18881487846	42415.6765659	26003.7200928	2948.4127442	528.570434575	26257450.2278	67607984.6476	0
11950000.0	84197.0	927967233.553	0.336923225469	174352.172852	0.914949574508	1.18877387047	42438.0557542	26023.614502	2937.85887282	531.85996547	16001439.4424	67612921.3046	0
11975000.0	84395.0	934457991.281	0.336792121338	174353.125	0.919015146792	1.18873476982	42460.4161296	26043.4448242	2927.39420516	535.15774112	7569215.63285	67617858.4806	0
12000000.0	84593.0	940978050.685	0.336662416284	174354.101562	0.923088286072	1.18869745731	42482.6952152	26063.1591797	2917.00844819	538.465511052	1574654.00945	67622796.1756	0
12025000.0	84791.0	947527468.427	0.336534377215	174355.090332	0.927168875933	1.18866109848	42504.8532396	26082.7362061	2906.70740888	541.782093701	1235017.78654	67627734.3898	0
12050000.0	84989.0	954106301.064	0.336408297245	174356.054688	0.931256683543	1.18862509727	42526.8489595	26102.142334	2896.47772847	545.109937136	6988180.79468	67632673.1231	0
12075000.0	85187.0	960714588.33	0.33628333626	174357.055664	0.935349613428	1.18859088421	42548.8173501	26121.4813232	2886.31890917	547.065256209	17692390.0318	67637612.3755	0
12100000.0	85384.0	967352501.059	0.33615922245	174357.458496	0.939466117416	1.1885625124	42570.8009136	26140.7470703	2876.3599376	550.354578341	9073497.75618	67642552.1472	0
12125000.0	85582.0	974020005.827	0.336034446402	174358.337402	0.943577149883	1.18853509426	42593.0189413	26160.1928711	2866.3409133	553.706323863	2542127.5003	67647492.4381	0
12150000.0	85779.0	980717255.351	0.335911054253	174358.666992	0.947709369939	1.18851292133	42615.187583	26179.5043945	2856.51359989	557.017594656	484272.348124	67652433.2482	0
12175000.0	85977.0	987444215.953	0.335787537629	174359.448242	0.951836002059	1.18849122524	42637.5003973	26198.9227295	2846.62933927	560.391139747	5554360.07416	67657374.5777	0
12200000.0	86174.0	994201041.545	0.335665884757	174359.619141	0.955983879976	1.18847453594	42659.6793152	26218.1365967	2836.92255891	562.298960365	21405714.355	67662316.4265	0
12225000.0	86371.0	1000987791.24	0.33554550112	174359.753418	0.960139557719	1.18846011162	42681.8035108	26237.2467041	2827.27371161	565.637506277	12119181.502	67667258.7946	0
12250000.0	86568.0	1007804525.18	0.335426491382	174359.790039	0.964302918874	1.18844807148	42703.8495412	26256.2255859	2817.67624374	568.989371115	4782149.95128	67672201.6822	0
12275000.0	86765.0	1014651303.46	0.335309201188	174359.753418	0.968474312685	1.1884380579	42725.7750806	26275.0427246	2808.13602106	572.353100928	256870.792783	67677145.0892	0
12300000.0	86962.0	1021528185.75	0.335193760957	174359.619141	0.972653389908	1.18842959404	42747.5475851	26293.6706543	2798.64039126	575.731416747	2884652.22705	67682089.0157	0
12325000.0	87159.0	1028435231.78	0.335080407877	174359.362793	0.976840266958	1.18842256069	42769.116843	26312.0727539	2789.19524511	579.123008856	9381472.04815	67687033.4616	0
12350000.0	87356.0	1035372500.32	0.334969351807	174359.008789	0.981035060249	1.18841731548	42790.4784907	26330.2246094	2779.79418379	581.050595224	18333708.4493	67691978.4272	0
12375000.0	87552.0	1042340145.29	0.334861523958	174358.044434	0.985250808299	1.18841516972	42811.4626061	26347.9644775	2770.55256801	584.410380452	10060975.684	67696923.9123	0
12400000.0	87749.0	1049338134.47	0.334753872376	174357.421875	0.989461550489	1.18841528893	42832.5941916	26365.7562256	2761.23859605	587.836530986	3576498.80521	67701869.917	0
12425000.0	87945.0	1056366626.49	0.334647838598	174356.188965	0.993693713099	1.18842184544	42853.6533771	26383.3618164	2752.07377785	591.226303115	5847.79724736	67706816.4413	0
12450000.0	88142.0	1063425586.42	0.334541685188	174355.285645	0.997920404188	1.18843114376	42874.9051928	26401.0498047	2742.83397346	594.68390058	3511247.02928	67711763.4853	0
12475000.0	88338.0	1070515171.5	0.334437465763	174353.747559	1.00216863211	1.18844497204	42895.9827203	26418.4967041	2733.74224809	596.582811145	29597916.196	67716711.0491	0
12500000.0	88534.0	1077635443.23	0.33433413741	174352.270508	1.00642489269	1.18846154213	42917.0672413	26435.8856201	2724.68365083	600.79556688	8.9762962852e-13	67721659.1325	0
