z	T	P	nabla_ad	S	rho	delta	cp	cv	opac	frad	fconv	ftot	dT
0.0	3900.0	416.052753667	0.355490011361	166400.390625	1.67870837231e-05	1.02685165405	18618.2206847	11929.8667908	0.00132420370511	0.0	58645.2871586	65311815.0903	0
25000.0	3900.0	548.48420433	0.343896577444	164588.757324	2.21437339576e-05	1.03529632092	19458.6190646	12667.9870605	0.00157146617158	0.0	77229.3052793	65316507.3538	0
50000.0	3900.0	723.221269848	0.330071081329	162760.36377	2.92213471198e-05	1.04639267921	20555.9101099	13629.989624	0.00186331006353	0.0	101731.851023	65321200.1229	0
75000.0	3900.0	953.88482058	0.313971278127	160909.997559	3.85811560477e-05	1.0607779026	21982.9681397	14879.624939	0.00220963376288	0.0	134105.36673	65325893.3976	0
100000.0	3900.0	1258.55595427	0.295754961716	159030.981445	5.09727442477e-05	1.07951498032	23831.7542582	16494.5877075	0.00262390035964	0.0	177031.555579	65330587.1781	0
125000.0	3900.0	1661.28569379	0.275789314077	157114.916992	6.74031923609e-05	1.10394120216	26216.797502	18570.5612183	0.00312356281975	0.0	234292.440899	65335281.4644	0
150000.0	3900.0	2194.17116308	0.254657823949	155149.804688	8.92307880918e-05	1.13545608521	29271.155029	21218.812561	0.00372617556277	74456946.4379	254896.047303	65339976.2566	0
175000.0	3969.0	2884.26351702	0.255870534257	153698.901367	0.000115286596269	1.13670372963	29115.87869	21049.848938	0.00501069542	63500707.0193	310402.33096	65344671.5548	0
200000.0	3995.0	3785.88745302	0.243936120122	151934.008789	0.000150541126231	1.15967738628	31154.3021269	22788.5559082	0.00620673566372	75644172.3574	291286.38812	65349367.3591	-2
225000.0	4152.0	4916.29077631	0.270592960783	151120.532227	0.000187694112697	1.1203918457	27004.1131437	19155.3436279	0.00940457813999	63031194.8092	304828.545713	65354063.6694	0
250000.0	4249.0	6343.6794453	0.279773116046	149953.088379	0.000236246847862	1.11053979397	25834.4680296	18114.9261475	0.0130608752247	75752718.4133	68228.5122041	65358760.4858	-5
275000.0	4646.0	7999.96837015	0.34513782624	150313.525391	0.000270948845582	1.04253780842	19420.7879307	12549.5193481	0.0241965882478	61472306.5218	47348.3999472	65363457.8085	-8
300000.0	4900.0	9962.98021757	0.364913111037	149882.458496	0.000319125120996	1.02684164047	18018.6573479	11336.7149353	0.0332232592034	73559287.8943	0.00301037121785	65368155.6374	-15
325000.0	5740.0	12018.7647973	0.388180905475	151295.556641	0.000329019684386	1.00678193569	16516.5944899	10070.0927734	0.0517890836123	57127534.4629	7.89404669218e-07	65372853.9727	0
350000.0	5766.0	14486.8995221	0.387488341086	150181.04248	0.000394833307382	1.00751578808	16559.8204582	10104.863739	0.0610701508461	93624054.0404	1.90148168091	65377552.8144	0
375000.0	7568.0	16656.5303546	0.305430775826	154418.688965	0.000339198379606	1.03938663006	21485.9535635	14596.6781616	0.637519870061	58543134.4142	39729.8229469	65382252.1626	-119
400000.0	10328.0	18355.8465053	0.125682559054	166461.096191	0.000260553690623	1.54908013344	81677.0662936	65869.6289062	11.2623635763	7446647.95915	42601028.1852	65386952.0172	-46
425000.0	10890.0	20074.4171859	0.113790001313	170356.274414	0.000262622165792	1.75281405449	105367.221557	84777.9418945	17.8371558653	1551458.23059	7629759.99006	65391652.3785	-33
450000.0	11291.0	21844.7953729	0.10878458199	173167.456055	0.000269931348384	1.89549922943	122207.41587	97789.5751953	23.6445155956	721214.716533	3350258.3039	65396353.2465	-5
475000.0	11449.0	23728.5062966	0.107921435596	173776.452637	0.000286947681616	1.93812358379	127042.263903	101388.83667	26.6608062983	308651.18147	199682.582453	65401054.6211	-2
500000.0	11556.0	25746.9982832	0.10782906717	173826.000977	0.000307316383896	1.95634496212	128911.853861	102709.716797	29.0310650199	215516.977977	226.649654295	65405756.5026	0
525000.0	11657.0	27909.5471784	0.107835077458	173801.513672	0.000329106683239	1.97168600559	130401.938838	103730.395508	31.4774936475	186816.513946	4546.52417668	65410458.8909	0
550000.0	11758.0	30224.4871065	0.107846068481	173802.001953	0.000352087369038	1.98707461357	131925.487826	104775.183105	34.0712612278	164739.643179	6485.5963341	65415161.7861	0
575000.0	11858.0	32700.4770627	0.107876147201	173814.624023	0.000376365335342	2.00206065178	133431.212138	105806.115723	36.7963078022	145643.40565	8801.40856122	65419865.1883	0
600000.0	11958.0	35346.2373093	0.107929422465	173829.040527	0.000401971192332	2.01656866074	134883.103233	106790.686035	39.6773746878	129690.491372	5492.3720141	65424569.0975	0
625000.0	12058.0	38171.2051511	0.108022074259	173812.133789	0.000429034685112	2.02981996536	136147.479461	107621.862793	42.7212160394	115707.144437	3028.21303454	65429273.5139	0
650000.0	12158.0	41185.3785553	0.108135021101	173805.224609	0.000457528301467	2.04315829277	137418.909765	108453.393555	45.9308631192	102933.626757	6033.41455879	65433978.4373	0
675000.0	12257.0	44399.1017689	0.108267685641	173813.378906	0.00048754634463	2.05627417564	138684.654057	109279.931641	49.2851814824	91775.3047571	9845.60445248	65438683.868	0
700000.0	12356.0	47822.5484789	0.108414596169	173831.860352	0.000519102286489	2.06901335716	139920.332814	110080.993652	52.8123973059	82404.4029426	7330.17277536	65443389.806	0
725000.0	12455.0	51466.5955168	0.108582107442	173834.155273	0.000552328515369	2.0807363987	141024.729884	110777.368164	56.5189605654	74121.65468	5263.20615818	65448096.2513	0
750000.0	12554.0	55343.0739767	0.108770318529	173809.191895	0.000587334909596	2.09140539169	141973.476538	111348.999023	60.411030935	66780.5286449	3694.63924009	65452803.204	0
775000.0	12653.0	59463.8630599	0.108966667657	173811.254883	0.000624017559403	2.1025261879	142994.091575	111973.706055	64.4879779673	59980.7002236	8618.3846157	65457510.6642	0
800000.0	12751.0	63841.383172	0.109180856199	173822.497559	0.000662558761633	2.11338067055	143997.418348	112585.205078	68.7225575642	54251.980849	6959.28371906	65462218.6319	0
825000.0	12850.0	68487.2271491	0.109402656795	173848.266602	0.000702854094925	2.12419652939	145003.636272	113194.873047	73.1751582548	49157.1969969	5271.16099323	65466927.1071	0
850000.0	12948.0	73415.4376325	0.10964970895	173838.94043	0.000745314594042	2.1336209774	145821.766978	113659.619141	77.7915741914	44384.5999546	12672.2243502	65471636.09	0
875000.0	13046.0	78640.4697676	0.109910516159	173810.644531	0.000789901719145	2.14216828346	146519.621137	114030.310059	82.6072973297	40545.9263995	3515.8391501	65476345.5805	0
900000.0	13145.0	84175.5009867	0.110175843031	173820.751953	0.000836341087052	2.15133500099	147316.831727	114473.547363	87.6561039411	36916.6898114	2550.33776782	65481055.5789	0
925000.0	13243.0	90035.3127728	0.110458276449	173837.304688	0.000884996325112	2.16015458107	148087.599384	114897.912598	92.8772474728	33496.9107909	10317.8748944	65485766.085	0
950000.0	13341.0	96234.6074093	0.110752349501	173855.639648	0.000935877665142	2.16857981682	148817.930592	115291.186523	98.3114848833	30594.1390931	9718.96342084	65490477.0989	0
975000.0	13439.0	102789.219953	0.111058201507	173852.429199	0.000989193495116	2.17618918419	149437.965918	115600.317383	103.969116648	27977.6787294	9590.15471218	65495188.6208	0
1000000.0	13537.0	109716.348073	0.111370892786	173826.11084	0.0010450546597	2.18298530579	149949.62074	115827.929688	109.857486554	25615.0403952	9898.84461096	65499900.6506	0
1025000.0	13635.0	117032.808987	0.111688966271	173823.4375	0.00110326993763	2.18990015984	150506.237017	116091.601562	115.974822909	23486.3942711	10037.4291295	65504613.1885	0
1050000.0	13733.0	124754.992436	0.112015550499	173838.793945	0.00116392448035	2.19680738449	151084.750714	116372.888184	122.327789879	21564.6667487	10128.0960046	65509326.2344	0
1075000.0	13831.0	132900.078868	0.112351645771	173859.350586	0.00122716789974	2.20340204239	151635.23559	116633.300781	128.924822492	19825.157136	10389.6895297	65514039.7885	0
1100000.0	13929.0	141486.439838	0.112697721264	173866.784668	0.00129321597342	2.20937681198	152102.799337	116830.79834	135.777037389	18245.6294075	11172.3876626	65518753.8507	0
1125000.0	14027.0	150533.971927	0.113052504743	173843.212891	0.00136230028147	2.21454977989	152447.953365	116935.253906	142.895426698	16807.3652435	12837.135712	65523468.4212	0
1150000.0	14125.0	160063.215591	0.113415294326	173830.993652	0.00143423494592	2.21961855888	152797.715946	117044.580078	150.27807332	15500.5059381	14818.6205408	65528183.5	0
1175000.0	14223.0	170093.488818	0.113786766142	173838.513184	0.00150897494677	2.22467756271	153169.967926	117172.241211	157.91864146	14386.8189833	1713.41526437	65532899.0871	0
1200000.0	14322.0	180642.822205	0.11416449514	173867.248535	0.00158641728376	2.22977256775	153563.476987	117314.746094	165.863248108	13303.0121319	2222.9534676	65537615.1826	0
1225000.0	14420.0	191733.710853	0.114551560143	173882.324219	0.00166726158568	2.23416185379	153869.741137	117394.506836	174.025728531	12251.0975939	21985.9317356	65542331.7865	0
1250000.0	14518.0	203388.548391	0.114943892044	173877.233887	0.00175153127202	2.2379295826	154085.689163	117406.835938	182.46434677	11350.6540372	26308.340576	65547048.8989	0
1275000.0	14616.0	215631.48967	0.115344820265	173850.549316	0.00183939641829	2.24133777618	154240.635341	117373.474121	191.186798578	10579.3489765	8101.82076869	65551766.5199	0
1300000.0	14715.0	228484.284501	0.115752145647	173852.331543	0.00193022356143	2.24494457245	154445.582865	117377.34375	200.236935226	9822.80618447	11288.4673064	65556484.6494	0
1325000.0	14813.0	241971.628945	0.116167274068	173858.38623	0.00202470528166	2.24814128876	154617.754508	117360.839844	209.518925882	9129.57522596	15470.2046131	65561203.2876	0
1350000.0	14912.0	256115.053172	0.11658760743	173881.616211	0.00212239456232	2.25121879578	154791.392675	117345.300293	219.146350883	8494.81440934	20077.8329084	65565922.4345	0
1375000.0	15010.0	270941.623413	0.117012782539	173889.562988	0.00222417429541	2.25359368324	154879.138758	117269.555664	229.025219692	7910.36510043	26512.9913653	65570642.0901	0
1400000.0	15109.0	286475.356432	0.11744537142	173891.955566	0.00232961542679	2.25578331947	154938.510787	117171.557617	239.276370658	7410.1783216	5280.15722018	65575362.2545	0
1425000.0	15208.0	302744.288654	0.1178858489	173873.522949	0.00243924296228	2.25775933266	154954.801174	117041.601562	249.859038581	6911.49070351	10766.9677397	65580082.9277	0
1450000.0	15307.0	319776.54559	0.118332153295	173867.96875	0.00255271834249	2.25960063934	154972.058052	116914.306641	260.766989427	6452.3850509	17874.9527246	65584804.1097	0
1475000.0	15406.0	337598.957012	0.118783572194	173874.926758	0.00267012660515	2.26120209694	154977.76188	116780.700684	272.009990971	6029.1836429	26622.748872	65589525.8007	0
1500000.0	15505.0	356239.209143	0.119238977278	173887.768555	0.00279165601569	2.26244211197	154950.615592	116624.829102	283.601006279	5638.33897565	37342.7816678	65594248.0007	0
1525000.0	15604.0	375725.836252	0.119701577115	173901.025391	0.00291746687253	2.26334834099	154890.065829	116446.154785	295.553839931	5303.45286381	9347.16005655	65598970.7096	0
1550000.0	15704.0	396085.750307	0.120173812489	173915.686035	0.00304734885503	2.26416015625	154818.932551	116258.898926	307.947380942	4967.35957434	18072.6423288	65603693.9276	0
1575000.0	15803.0	417354.121605	0.120649163968	173897.32666	0.00318260936183	2.2646112442	154680.738669	116024.255371	320.683117926	4654.28115825	31671.8224667	65608417.6547	0
1600000.0	15903.0	439561.941589	0.121128626737	173885.791016	0.00332213676302	2.26504611969	154544.489375	115790.539551	333.885621769	4386.23907588	5013.82777654	65613141.891	0
1625000.0	16003.0	462741.259255	0.12161140775	173885.693359	0.00346620799974	2.26521468163	154391.505459	115546.936035	347.477886829	4116.16495702	14803.1554525	65617866.6364	0
1650000.0	16103.0	486923.354811	0.122101223136	173895.43457	0.00361490447176	2.26511311531	154220.592058	115292.700195	361.469065623	3865.65208734	28680.9556054	65622591.891	0
1675000.0	16203.0	512140.26782	0.12260061905	173911.230469	0.00376837010663	2.26477527618	154031.252707	115026.904297	375.86880855	3633.01177863	47160.0291109	65627317.6548	0
1700000.0	16303.0	538425.775612	0.123107007398	173924.890137	0.00392690299122	2.26419901848	153814.590784	114742.492676	390.695026726	3433.60979241	11647.0807224	65632043.928	0
1725000.0	16404.0	565812.042831	0.123618907878	173935.668945	0.00409029462389	2.26352381706	153580.87193	114444.799805	406.036738378	3231.21435037	28017.8688829	65636770.7105	0
1750000.0	16504.0	594341.573686	0.124126707314	173913.40332	0.00426014685218	2.26259446144	153291.674517	114108.532715	421.782168073	3041.52414887	52934.0061566	65641498.0024	0
1775000.0	16605.0	624050.011677	0.124640651446	173901.550293	0.00443482258561	2.26158356667	153004.258569	113774.169922	438.055926266	2879.40364492	14167.3820066	65646225.8037	0
1800000.0	16706.0	654973.618851	0.125163605086	173902.368164	0.00461466152046	2.26034069061	152708.524691	113436.560059	454.788023228	2714.31521753	35752.7410242	65650954.1145	0
1825000.0	16807.0	687148.728754	0.12569446101	173911.791992	0.00479986374557	2.25885748863	152397.391421	113090.05127	471.984810575	2560.38568051	65446.7375608	65655682.9347	0
1850000.0	16908.0	720613.215676	0.126231313161	173924.499512	0.00499068846693	2.25712823868	152063.839127	112729.138184	489.643925563	2428.69106472	19666.4344714	65660412.2645	0
1875000.0	17010.0	755402.162353	0.126774671422	173943.017578	0.00518673914485	2.25523781776	151714.970807	112357.104492	507.85277424	2305.42619741	3422.81517761	65665142.1038	0
1900000.0	17112.0	791556.323097	0.127322603959	173953.088379	0.00538891890756	2.25314807892	151337.933003	111966.113281	526.550268317	2178.87013834	6914.04011936	65669872.4527	0
1925000.0	17214.0	829118.729302	0.127873336403	173946.948242	0.00559762293051	2.25098276138	150939.864084	111560.998535	545.756049055	2060.22055965	33130.3355682	65674603.3113	0
1950000.0	17316.0	868135.23702	0.128425267607	173930.053711	0.00581288986723	2.24876976013	150529.785241	111148.498535	565.47171807	1948.99294458	74423.1474156	65679334.6795	0
1975000.0	17418.0	908650.01441	0.128982832811	173922.424316	0.00603421267442	2.24634933472	150109.467812	110730.859375	585.682552747	1853.98481082	23116.5844284	65684066.5575	0
2000000.0	17521.0	950700.177348	0.129548941674	173930.102539	0.00626095425105	2.24374294281	149682.603496	110309.143066	606.476567827	1756.37127288	62493.033999	65688798.9451	0
2025000.0	17623.0	994333.769223	0.130119169849	173934.814453	0.00649480807624	2.24081373215	149224.889426	109868.896484	627.70036382	1664.61971475	118503.742515	65693531.8426	0
2050000.0	17726.0	1039589.13731	0.130701884937	173950.305176	0.00673433032716	2.23770070076	148755.930886	109421.203613	649.528168342	1594.22834538	11659.0522651	65698265.2498	0
2075000.0	17830.0	1086506.11913	0.131294363416	173970.874023	0.00697977702657	2.23446965218	148275.803237	108965.576172	671.971870368	1513.11551428	5893.46841803	65702999.1668	0
2100000.0	17933.0	1135138.88924	0.131883454165	173972.973633	0.00723336688679	2.23114871979	147771.411952	108494.641113	694.855703475	1436.59523677	45019.7361249	65707733.5937	0
2125000.0	18037.0	1185532.98525	0.132473135233	173965.41748	0.00749382979848	2.2279150486	147264.805923	108021.264648	718.366991869	1364.750993	109038.413581	65712468.5306	0
2150000.0	18140.0	1237747.63862	0.133060269713	173943.041992	0.00776269007474	2.22461152077	146742.057024	107538.623047	742.333859029	1303.17883363	43970.8020808	65717203.9773	0
2175000.0	18245.0	1291819.63462	0.133666150886	173946.069336	0.0080364434325	2.22112107277	146219.636401	107056.054688	766.991269567	1245.55792154	1395.43481987	65721939.934	0
2200000.0	18349.0	1347803.4945	0.134274574484	173947.583008	0.00831822217151	2.21740436554	145676.725642	106562.023926	792.104955149	1185.25171883	43785.9007826	65726676.4007	0
2225000.0	18454.0	1405741.99885	0.134893846173	173960.717773	0.00860626278154	2.21350479126	145123.863451	106061.547852	817.86222386	1134.06107308	722.56752517	65731413.3773	0
2250000.0	18559.0	1465686.07918	0.135517490344	173974.194336	0.00890183218871	2.20942115784	144553.646533	105550.415039	844.199801581	1080.43517015	45948.3777039	65736150.864	0
2275000.0	18664.0	1527687.48565	0.136148059145	173986.010742	0.00920508318814	2.20514154434	143964.365742	105027.55127	871.129157154	1029.82529732	131385.047952	65740888.8608	0
2300000.0	18769.0	1591800.52821	0.136782212844	173991.369629	0.00951643141889	2.20076584816	143362.077585	104496.923828	898.676256741	986.662948981	54933.3265677	65745627.3676	0
2325000.0	18875.0	1658074.91776	0.137420788915	173992.102051	0.00983522113529	2.19642448425	142759.085194	103965.722656	926.957050936	945.787025656	4312.82543122	65750366.3846	0
2350000.0	18981.0	1726571.28167	0.138053949048	173977.685547	0.0101629611891	2.19222354889	142159.698337	103437.878418	955.910018226	902.60180935	72462.9470893	65755105.9117	0
2375000.0	19087.0	1797349.51944	0.138691338048	173966.516113	0.0104987811937	2.1878964901	141551.869523	102905.822754	985.501638191	865.838195493	12614.6609038	65759845.949	0
2400000.0	19194.0	1870456.08894	0.139344407166	173969.65332	0.0108412114059	2.18331432343	140929.588829	102364.575195	1015.81689919	827.224102013	97620.7809131	65764586.4964	0
2425000.0	19300.0	1945954.50355	0.139999431231	173970.239258	0.0111929866762	2.17855501175	140290.83745	101814.508057	1046.69515363	790.543335682	235402.728961	65769327.5541	0
2450000.0	19407.0	2023893.39747	0.140666709192	173980.322266	0.011551870557	2.17362880707	139641.556035	101257.458496	1078.3332351	763.042493847	6815.86663045	65774069.122	0
2475000.0	19515.0	2104322.63452	0.141344074615	173996.850586	0.0119180731417	2.16859388351	138983.910547	100694.488525	1110.74712096	733.463534461	68491.8629763	65778811.2002	0
2500000.0	19623.0	2187301.52573	0.142027523847	174010.791016	0.0122930505313	2.16343688965	138310.779975	100121.313477	1143.86277815	698.781547401	185907.024472	65783553.7886	0
2525000.0	19730.0	2272901.06632	0.142708524437	174011.999512	0.0126785962493	2.15825295448	137627.134564	99542.5354004	1177.60753542	672.053133714	93632.6132274	65788296.8873	0
2550000.0	19839.0	2361167.59818	0.143400881855	174016.882324	0.0130710213853	2.15309023857	136946.142549	98964.5996094	1212.28788845	646.761450209	23634.2016859	65793040.4964	0
2575000.0	19947.0	2452179.58077	0.144078101297	174000.585938	0.0134751080623	2.14818263054	136280.183205	98399.3103027	1247.65253871	619.593619957	158348.69552	65797784.6158	0
2600000.0	20056.0	2545996.86399	0.144761327823	173990.795898	0.013887140085	2.14323091507	135617.191928	97837.1154785	1283.80355305	596.648314734	68462.7808241	65802529.2456	0
2625000.0	20165.0	2642681.96373	0.145454848109	173986.315918	0.0143080578709	2.13800096512	134933.684329	97262.5671387	1320.56845131	574.827503848	7659.92377241	65807274.3857	0
2650000.0	20275.0	2742286.12671	0.146165996015	173992.871094	0.0147364025906	2.13246560097	134228.678747	96673.8525391	1358.04768636	554.165038553	28258.6474176	65812020.0363	0
2675000.0	20385.0	2844871.93594	0.146886168878	174002.233887	0.015173902284	2.12672662735	133507.574454	96075.5432129	1396.18126748	532.054462307	54609.5610089	65816766.1973	0
2700000.0	20495.0	2950503.82478	0.14761330735	174012.536621	0.0156208534463	2.120855093	132775.578192	95471.0266113	1434.99010855	513.360829255	2037.93490426	65821512.8687	0
2725000.0	20606.0	3059236.98193	0.148352298226	174028.100586	0.0160758809216	2.11487364769	132035.947984	94861.5234375	1474.58947964	493.364390163	142889.465494	65826260.0506	0
2750000.0	20716.0	3171151.25828	0.149085264335	174033.496094	0.016542724552	2.10896658897	131299.392457	94256.1706543	1514.8324813	476.364496248	57489.5693249	65831007.7429	0
2775000.0	20828.0	3286295.11438	0.149831161022	174044.873047	0.0170166895259	2.10306024551	130565.319796	93651.8310547	1556.02511188	460.25259405	3045.29278585	65835755.9457	0
2800000.0	20939.0	3404754.37713	0.150562839491	174040.014648	0.0175034219865	2.09740972519	129848.969268	93061.7248535	1597.93255562	442.722523317	167500.87792	65840504.659	0
2825000.0	21051.0	3526595.25879	0.151292126519	174029.638672	0.0179998278327	2.09196591377	129150.780415	92484.564209	1640.76508497	427.948793879	73774.6457692	65845253.8829	0
2850000.0	21163.0	3651895.18315	0.152019994146	174019.665527	0.0185067001439	2.08657360077	128460.523847	91914.3981934	1684.40541367	413.789006857	8639.70944113	65850003.6173	0
2875000.0	21276.0	3780714.32167	0.152755867199	174018.261719	0.0190220707736	2.08111834526	127771.132403	91345.6298828	1728.94448168	400.294750378	30475.9416262	65854753.8622	0
2900000.0	21389.0	3913122.23749	0.153501471992	174019.750977	0.0195475695364	2.07544660568	127063.967094	90765.9301758	1774.29497135	385.65737752	98911.1951522	65859504.6177	0
2925000.0	21502.0	4049188.79058	0.154259497011	174023.681641	0.0200832419068	2.06951642036	126334.225523	90171.8322754	1820.46519705	373.324576557	24159.1472828	65864255.8838	0
2950000.0	21616.0	4188971.97553	0.155035555053	174034.58252	0.0206273307413	2.06332945824	125584.398548	89564.3859863	1867.56206405	361.562281282	9856.9721546	65869007.6605	0
2975000.0	21730.0	4332544.46446	0.155818604329	174045.031738	0.0211820606637	2.05702376366	124824.365001	88951.1169434	1915.51558708	348.738969343	168726.536719	65873759.9478	0
3000000.0	21844.0	4479981.30122	0.156605346837	174053.320312	0.021747795472	2.05067777634	124061.407592	88337.1337891	1964.34451714	337.939874508	79148.9049577	65878512.7458	0
3025000.0	21959.0	4631346.03073	0.157400523249	174062.988281	0.0223228271352	2.04430365562	123297.933996	87723.3154297	2014.16382395	327.613565371	15425.8767239	65883266.0543	0
3050000.0	22074.0	4786718.5396	0.158191536378	174066.162109	0.0229096440307	2.0380563736	122545.926206	87118.7072754	2064.89973122	316.296213811	298669.597626	65888019.8735	0
3075000.0	22189.0	4946182.44414	0.158973667015	174060.266113	0.0235088227782	2.03202867508	121813.197661	86528.6865234	2116.58363145	306.760337328	186120.274219	65892774.2033	0
3100000.0	22305.0	5109809.75523	0.159753882587	174051.574707	0.024118255169	2.02616882324	121097.885977	85951.3244629	2169.29438881	298.908714469	191211.88172	65897529.0438	0
3125000.0	22422.0	5277669.21512	0.160540368651	174049.890137	0.0247367752308	2.0203025341	120388.50226	85378.8696289	2222.97122831	288.896574702	17254.5888507	65902284.395	0
3150000.0	22538.0	5449855.73392	0.161315798441	174044.519043	0.0253690486716	2.01456999779	119694.121565	84818.927002	2277.35854954	279.258758417	331268.728898	65907040.2569	0
3175000.0	22655.0	5626431.79973	0.162108253255	174046.276855	0.0260103315668	2.00860905647	118982.348525	84247.3510742	2332.55912367	272.40925864	97694.5846095	65911796.6295	0
3200000.0	22773.0	5807459.21742	0.162919808556	174054.56543	0.0266605093202	2.00238728523	118249.532328	83661.5905762	2388.56263832	263.611210585	107686.47403	65916553.5128	0
3225000.0	22890.0	5993032.78337	0.163730581922	174058.178711	0.0273245586868	1.99611330032	117511.377114	83073.815918	2445.22068974	256.223237397	32646.8967971	65921310.9068	0
3250000.0	23009.0	6183200.5696	0.164564133614	174071.472168	0.0279954692814	1.98961901665	116757.306939	82474.7802734	2502.76100778	249.215355358	2594.76023981	65926068.8116	0
3275000.0	23127.0	6378061.03038	0.165390953668	174078.00293	0.0286808244709	1.98319792747	116009.346932	81881.6650391	2560.97479366	241.406891132	315699.686029	65930827.2271	0
3300000.0	23246.0	6577681.96934	0.16622543894	174086.474609	0.029376042221	1.97675943375	115262.332181	81289.7155762	2620.01901561	235.931118073	137718.593705	65935586.1533	0
3325000.0	23366.0	6782132.66804	0.167064009078	174095.288086	0.0300813517242	1.97036898136	114522.107867	80703.0029297	2679.89777981	228.757737732	113392.291121	65940345.5903	0
3350000.0	23485.0	6991519.78513	0.167884750229	174092.96875	0.0308023772959	1.96425235271	113806.166812	80134.9060059	2740.51608541	222.744349139	36516.9249403	65945105.5381	0
3375000.0	23606.0	7205900.69865	0.168710310799	174092.224121	0.031531748391	1.95824253559	113103.583549	79576.1474609	2802.07172669	217.018772152	2696.36471247	65949865.9966	0
3400000.0	23726.0	7425387.8467	0.169514785557	174081.469727	0.032277093851	1.95254290104	112430.353635	79039.6789551	2864.38721647	210.574035649	354750.326936	65954626.9659	0
3425000.0	23847.0	7650053.27879	0.170327287329	174077.258301	0.0330320654029	1.94678175449	111757.854543	78504.675293	2927.52277423	206.116077116	170106.851747	65959388.4459	0
3450000.0	23969.0	7879962.37907	0.171157239418	174079.211426	0.0337963610946	1.940787673	111068.451038	77958.7585449	2991.47180831	200.189601614	115718.495353	65964150.4368	0
3475000.0	24090.0	8115218.17161	0.171985163603	174077.79541	0.0345756488969	1.93475401402	110376.529449	77412.8051758	3056.14321664	195.25246984	35038.4821095	65968912.9385	0
3500000.0	24213.0	8355868.06006	0.172836177025	174086.230469	0.0353616342181	1.92848837376	109668.670213	76855.9143066	3121.69856327	190.558773992	2476.14804169	65973675.951	0
3525000.0	24335.0	8602017.3443	0.173680722605	174090.332031	0.036162960896	1.92227602005	108966.347959	76304.4067383	3188.02647433	185.23139038	434961.364713	65978439.4743	0
3550000.0	24458.0	8853734.55543	0.174534506433	174098.413086	0.0369741610484	1.91600596905	108262.108649	75752.0812988	3255.22394584	181.602125246	145542.482211	65983203.5085	0
3575000.0	24582.0	9111088.6606	0.175394672135	174109.594727	0.0377953074349	1.90972781181	107560.251801	75201.9042969	3323.32328044	176.676373238	195873.40389	65987968.0534	0
3600000.0	24705.0	9374190.66812	0.176240205805	174114.306641	0.0386326719308	1.90364789963	106876.834425	74665.9362793	3392.27734579	172.583991432	95015.4831194	65992733.1093	0
3625000.0	24830.0	9643092.93876	0.177094978011	174124.475098	0.0394775343011	1.89757859707	106198.821777	74133.8317871	3462.23252316	168.680005326	20651.7609095	65997498.6759	0
3650000.0	24954.0	9917911.14046	0.177928670113	174126.147461	0.0403393351007	1.8918030262	105547.878542	73621.9665527	3533.10657743	164.860039123	19513.4926256	66002264.7534	0
3675000.0	25080.0	10198700.9565	0.178767383804	174130.712891	0.0412091540056	1.88608646393	104906.379875	73116.9006348	3605.0435445	161.21017737	107895.561477	66007031.3418	0
3700000.0	25205.0	10485582.0046	0.179591631208	174123.986816	0.0420965152443	1.88051950932	104276.958417	72621.7346191	3677.93231847	157.008910111	273073.096247	66011798.441	0
3725000.0	25331.0	10778632.7422	0.180422676377	174117.443848	0.0429946157965	1.8748922348	103644.758806	72125.402832	3751.66039298	153.589068436	142451.033456	66016566.051	0
3750000.0	25457.0	11077947.6168	0.181256153252	174112.255859	0.0439056457253	1.86920440197	103010.730237	71629.1015625	3826.13959351	150.28006035	42502.8137681	66021334.1719	0
3775000.0	25584.0	11383594.9694	0.182099675023	174112.37793	0.0448264108854	1.86340785027	102371.842236	71130.279541	3901.3733935	147.105165142	5158.55272635	66026102.8037	0
3800000.0	25711.0	11695665.3055	0.182942418576	174113.500977	0.0457602218376	1.85761344433	101736.655741	70635.168457	3977.34407188	144.031058821	81090.9598951	66030871.9463	0
3825000.0	25839.0	12014227.4681	0.183791387969	174119.262695	0.0467038407805	1.85178029537	101102.59139	70141.5466309	4054.05959987	141.079754901	206285.813178	66035641.5998	0
3850000.0	25967.0	12339373.4878	0.184635495904	174125.32959	0.047660774726	1.84602081776	100478.349889	69655.7495117	4131.51081888	137.681522176	221988.540089	66040411.7643	0
3875000.0	26095.0	12671197.0302	0.185472629072	174131.298828	0.0486312601424	1.84037196636	99867.0776883	69179.888916	4209.69287168	134.920966391	87183.1787843	66045182.4396	0
3900000.0	26224.0	13009769.7459	0.186309177971	174140.50293	0.0496119828313	1.83479690552	99266.5832377	68712.0666504	4288.61505862	132.267521402	1940.40878717	66049953.6258	0
3925000.0	26353.0	13355187.8944	0.187136840745	174148.31543	0.0506066644448	1.82934558392	98679.6935485	68254.6325684	4368.27338609	129.191136763	648899.042392	66054725.3229	0
3950000.0	26482.0	13707549.5438	0.187960703376	174153.57666	0.0516155450896	1.82392036915	98096.9355912	67801.1352539	4448.67858712	126.701253548	421821.222756	66059497.5309	0
3975000.0	26612.0	14066929.581	0.18878828312	174159.484863	0.0526351905137	1.81847035885	97514.5718678	67348.5778809	4529.82763026	124.78303014	447265.201185	66064270.2498	0
4000000.0	26743.0	14433403.0881	0.189618570604	174165.405273	0.0536656334589	1.81302404404	96934.7106177	66898.3093262	4611.69734568	121.998410945	73849.5985659	66069043.4796	0
4025000.0	26873.0	14807096.4553	0.190432880589	174163.378906	0.0547145245946	1.80775427818	96369.8756581	66459.4848633	4694.33024572	119.275994497	928701.633992	66073817.2203	0
4050000.0	27004.0	15188088.3487	0.191247046464	174159.936523	0.0557747662242	1.80254602432	95811.8426606	66025.7080078	4777.70406751	117.550205699	124315.500253	66078591.472	0
4075000.0	27136.0	15576457.8301	0.192060464348	174155.480957	0.0568461546209	1.7974075079	95261.6513957	65597.7050781	4861.79525234	115.447361817	326406.357099	66083366.2345	0
4100000.0	27268.0	15972306.0579	0.192868804274	174151.806641	0.0579312181799	1.79234039783	94720.5972115	65176.8310547	4946.54634105	112.976831719	177888.295051	66088141.5079	0
4125000.0	27400.0	16375728.9877	0.193671152487	174149.499512	0.0590299132455	1.78735482693	94189.9556637	64763.9953613	5031.9404925	111.001864185	21577.688671	66092917.2922	0
4150000.0	27533.0	16786795.6166	0.194474270842	174151.867676	0.0601383944741	1.78240311146	93666.700505	64356.829834	5117.94901221	109.102526597	73185.0941739	66097693.5875	0
4175000.0	27666.0	17205602.7651	0.195271331125	174154.553223	0.0612607909716	1.77748763561	93150.0922734	63955.4016113	5204.61040416	106.853876048	501892.404431	66102470.3936	0
4200000.0	27799.0	17632248.5136	0.196063384933	174157.177734	0.0623972955509	1.77258467674	92637.6971133	63558.001709	5291.91409233	105.065608819	221958.801542	66107247.7107	0
4225000.0	27933.0	18066803.8002	0.196858656436	174162.902832	0.0635438700556	1.76763927937	92125.5780155	63161.6271973	5379.8079606	103.344520612	28149.5245186	66112025.5387	0
4250000.0	28067.0	18509367.2286	0.197648781424	174168.188477	0.0647046326776	1.76273477077	91619.3871306	62770.2392578	5468.33905502	101.669293336	85928.3602112	66116803.8777	0
4275000.0	28202.0	18960010.0334	0.198441331245	174176.074219	0.0658755598124	1.75782155991	91115.6232709	62381.1462402	5557.45439979	100.056109859	344756.085072	66121582.7276	0
4300000.0	28337.0	19418831.4572	0.199227959736	174183.056641	0.0670607623761	1.7529835701	90620.0670593	61998.4130859	5647.25931448	98.1204450622	205366.548786	66126362.0884	0
4325000.0	28472.0	19885932.3277	0.20000814471	174188.806152	0.068260502303	1.74823904037	90133.8908316	61622.7416992	5737.79089028	96.5938265677	7280.00003201	66131141.9601	0
4350000.0	28608.0	20361385.4481	0.200788735199	174196.118164	0.0694706104696	1.74354565144	89654.2117008	61251.8371582	5828.95453266	95.1217789907	152401.070501	66135922.3428	0
4375000.0	28744.0	20845293.015	0.201561299652	174201.428223	0.0706954888301	1.73898601532	89186.8750561	60889.8803711	5920.78646427	93.3425729852	435052.014527	66140703.2365	0
4400000.0	28880.0	21337760.1077	0.202323864131	174203.857422	0.0719355302863	1.73454737663	88730.9199244	60536.3647461	6013.25962137	91.9477615748	111035.062641	66145484.6411	0
4425000.0	29017.0	21838864.4266	0.203083370382	174205.480957	0.0731867039576	1.73013651371	88279.883686	60186.9506836	6106.30541737	90.6019890965	45649.5490097	66150266.5566	0
4450000.0	29154.0	22348714.2184	0.203832730092	174202.722168	0.0744535209378	1.72582232952	87837.9732559	59844.5495605	6199.95359852	88.9634636209	641678.094835	66155048.983	0
4475000.0	29291.0	22867419.4617	0.204573590576	174196.081543	0.0757359885029	1.72159850597	87404.5635282	59508.6364746	6294.16027383	87.6870674643	221436.794955	66159831.9205	0
4500000.0	29429.0	23395055.4609	0.205317464171	174192.785645	0.0770282495068	1.71735036373	86972.2430653	59173.9990234	6388.73209281	86.45920611	3880.3080212	66164615.3688	0
4525000.0	29567.0	23931722.1493	0.206058020436	174190.332031	0.0783346185926	1.71313714981	86544.9969648	58843.4814453	6483.68545401	85.2641042199	283279.117955	66169399.328	0
4550000.0	29706.0	24477487.0708	0.206802837007	174191.662598	0.079650504631	1.70891129971	86119.3519114	58514.3920898	6578.90145765	83.8128748871	320485.472151	66174183.7982	0
4575000.0	29844.0	25032480.6845	0.207537816993	174190.856934	0.0809852062957	1.70479810238	85703.5912564	58192.6269531	6674.52635293	82.6856408035	10737.1197299	66178968.7794	0
4600000.0	29984.0	25596738.5027	0.208284597244	174196.520996	0.0823247319204	1.70063889027	85286.9996616	57870.2575684	6770.20302011	81.61711609	232037.40377	66183754.2715	0
4625000.0	30123.0	26170392.7938	0.209019187009	174199.621582	0.0836833060021	1.69660186768	84881.2133649	57555.9387207	6866.21073921	80.2755449227	401051.356243	66188540.2745	0
4650000.0	30263.0	26753513.9942	0.209752577909	174205.163574	0.0850518335938	1.69256079197	84478.3146071	57244.2443848	6962.3032182	79.267963753	28399.9690933	66193326.7885	0
4675000.0	30403.0	27346204.7284	0.210478648153	174210.205078	0.0864350731717	1.68856787682	84081.4885135	56937.4816895	7058.5314103	78.2873575209	234124.252505	66198113.8135	0
4700000.0	30544.0	27948534.9378	0.211205635932	174217.333984	0.0878281716723	1.68457102776	83686.8907647	56632.7636719	7154.72260012	77.0722011373	414418.662777	66202901.3494	0
4725000.0	30684.0	28560641.3362	0.21192091527	174220.898438	0.0892410316737	1.6806794405	83301.319202	56334.9182129	7251.11792737	76.1475318991	15876.2168288	66207689.3963	0
4750000.0	30826.0	29182560.7698	0.212645777787	174228.833008	0.0906588757061	1.6767373085	82914.2723469	56036.2609863	7347.22262586	75.2739629442	289795.685453	66212477.9542	0
4775000.0	30967.0	29814431.1411	0.213360832537	174232.8125	0.0920966413105	1.67290771008	82536.0678367	55744.1345215	7443.41595917	74.1494797046	377885.888229	66217267.023	0
4800000.0	31109.0	30456323.4306	0.214080319115	174237.988281	0.0935444550123	1.66909456253	82160.086994	55453.6071777	7539.36197233	73.3270478243	1497.80014184	66222056.6029	0
4825000.0	31251.0	31108342.9857	0.214798404236	174241.357422	0.095007402706	1.66535723209	81789.9052602	55167.1325684	7635.16139977	72.27278337	1015899.75557	66226846.6937	0
4850000.0	31393.0	31770598.0055	0.215510957738	174242.346191	0.0964858845691	1.66170442104	81426.734846	54885.7299805	7730.78593896	71.4983864394	344400.899438	66231637.2954	0
4875000.0	31536.0	32443163.7174	0.216220897612	174242.822266	0.0979750475381	1.65808641911	81067.9412794	54607.7148438	7826.00111694	70.7572290588	10538.7709921	66236428.4082	0
4900000.0	31679.0	33126151.2108	0.216922560535	174239.831543	0.099480181234	1.65455448627	80716.4706218	54335.1318359	7921.00606671	70.0357407274	476336.518967	66241220.032	0
4925000.0	31823.0	33819635.954	0.217624320687	174236.584473	0.100995734101	1.65104651451	80368.102693	54064.9108887	8016.09931069	69.1002288096	259924.502947	66246012.1667	0
4950000.0	31966.0	34523761.8827	0.218317339824	174231.152344	0.102531172161	1.64761340618	80026.3178028	53799.7436523	8111.69288897	68.1741468068	1732174.32009	66250804.8124	0
4975000.0	32110.0	35238595.3354	0.219016365091	174228.918457	0.104075748823	1.64415252209	79684.2244002	53534.6313477	8207.29995342	67.749993948	666338.571857	66255597.9691	0
5000000.0	32255.0	35964200.0502	0.21972264358	174229.760742	0.105629231257	1.64066302776	79341.472633	53269.2321777	8302.79398907	67.1152337015	1586645.46478	66260391.6367	0
5025000.0	32400.0	36700676.5049	0.220431059165	174231.201172	0.107197003672	1.63719260693	79000.802911	53005.4504395	8398.32019551	66.267151862	157239.700528	66265185.8153	0
5050000.0	32545.0	37448125.4886	0.221142401905	174233.129883	0.108779146103	1.63374197483	78662.1274551	52743.1640625	8493.81695697	65.4399010643	731132.802116	66269980.505	0
5075000.0	32690.0	38206650.2268	0.22185116886	174235.15625	0.110375971417	1.63032102585	78327.2916201	52483.972168	8589.1735466	64.8563024924	104660.552848	66274775.7056	0
5100000.0	32836.0	38976316.5724	0.222562722162	174239.453125	0.111982037197	1.62688624859	77993.5719631	52225.9521484	8684.10357562	64.2984620692	235942.877479	66279571.4172	0
5125000.0	32982.0	39757228.6057	0.223271699409	174243.457031	0.11360294593	1.62348425388	77663.4269584	51970.7946777	8778.73327962	63.5378795802	654940.264503	66284367.6398	0
5150000.0	33128.0	40549490.5945	0.223979227512	174247.143555	0.115238697617	1.62011528015	77336.3516163	51718.0114746	8872.99116912	63.0122857346	52211.980546	66289164.3734	0
5175000.0	33275.0	41353168.2444	0.224692939228	174252.685547	0.116883631563	1.6167345047	77008.9813445	51465.1062012	8966.49871277	62.512272538	333554.237897	66293961.618	0
5200000.0	33422.0	42168365.8696	0.225407531355	174257.617188	0.118543437566	1.61338829994	76683.8122955	51213.7573242	9059.43983362	61.8167437651	596945.140688	66298759.3737	0
5225000.0	33569.0	42995188.1919	0.226124074355	174261.84082	0.120218210213	1.61007523537	76360.4103546	50963.55896	9151.69627425	61.348750725	29333.4733284	66303557.6404	0
5250000.0	33717.0	43833700.7773	0.226850193236	174267.443848	0.121902106912	1.60675323009	76035.6130085	50712.1276855	9242.92321644	60.9057482857	370217.468425	66308356.4181	0
5275000.0	33865.0	44684008.9023	0.227578199784	174271.862793	0.123601057567	1.60346841812	75712.6609125	50461.819458	9333.26604606	60.2739245432	651645.724811	66313155.7068	0
5300000.0	34013.0	45546220.8406	0.228303636416	174274.682617	0.125315447804	1.60022926331	75393.0585175	50213.8793945	9422.6812378	59.8621772067	54484.5082905	66317955.5066	0
5325000.0	34162.0	46420404.7106	0.229033137393	174277.844238	0.127039384097	1.59699308872	75074.0347038	49966.3330078	9510.71812126	59.4750465817	323639.063252	66322755.8174	0
5350000.0	34311.0	47306669.1018	0.229760342383	174278.942871	0.128778847284	1.59380352497	74758.3882258	49721.182251	9597.61731293	58.9045415827	780303.894384	66327556.6393	0
5375000.0	34460.0	48205124.1489	0.230485492336	174277.770996	0.130534026539	1.59066140652	74446.1434696	49478.4484863	9683.26897497	58.5479413226	109950.758838	66332357.9722	0
5400000.0	34610.0	49115839.0278	0.231215132127	174276.208496	0.13229889737	1.58752596378	74134.56377	49236.1602783	9767.22890828	58.2155243335	246730.936915	66337159.8162	0
5425000.0	34760.0	50038924.2387	0.231943480234	174272.167969	0.134079513373	1.58443856239	73826.2675285	48996.2005615	9849.73203603	57.7050828553	979883.880907	66341962.1712	0
5450000.0	34910.0	50974488.8109	0.232674779405	174268.066406	0.135874724947	1.58136677742	73519.1048179	48757.1228027	9930.63117462	57.4038291539	227057.042306	66346765.0373	0
5475000.0	35061.0	51922593.4049	0.233417069487	174266.552734	0.137678158353	1.57826280594	73209.7710593	48516.5527344	10009.4029396	57.1277303488	114069.729992	66351568.4145	0
5500000.0	35212.0	52883340.9907	0.234161104115	174265.29541	0.139496143674	1.57517278194	72901.6879105	48277.0172119	10086.3518005	56.6791149949	1364210.88075	66356372.3027	0
5525000.0	35363.0	53856834.8613	0.234906450274	174264.18457	0.141328782775	1.57209718227	72594.9820297	48038.6016846	10161.3704774	56.434850493	502434.198025	66361176.702	0
5550000.0	35515.0	54843134.77	0.235659972588	174265.197754	0.143169701914	1.56899595261	72286.8589896	47799.2767334	10233.9577823	56.2153152351	6776.96783087	66365981.6124	0
5575000.0	35667.0	55842343.6243	0.236415439639	174266.259766	0.145025158417	1.56590819359	71979.9169799	47560.9313965	10305.0833749	56.0073568863	424653.717732	66370787.0339	0
5600000.0	35820.0	56854519.8506	0.237179950439	174269.311523	0.146888691233	1.56279420853	71671.3953299	47321.5423584	10374.5160264	55.8190338688	1250446.26684	66375592.9664	0
5625000.0	35973.0	57879765.4294	0.237947315906	174272.277832	0.148766688653	1.55969321728	71363.8410782	47082.9437256	10442.6850411	55.4592350753	285030.839108	66380399.4101	0
5650000.0	36126.0	58918182.8024	0.238717950995	174275.073242	0.150659179781	1.55660557747	71057.1796839	46845.0531006	10509.5132836	55.2917273279	52999.9500871	66385206.3649	0
5675000.0	36280.0	59969829.2885	0.239499118817	174279.602051	0.152559528942	1.55349218845	70748.6313364	46605.8349609	10574.4701009	55.1435790919	591446.443332	66390013.8308	0
5700000.0	36434.0	61034807.8845	0.240283323575	174283.59375	0.154474546434	1.55039620399	70441.0205748	46367.3095703	10638.0178317	54.8269374263	988340.433213	66394821.8079	0
5725000.0	36588.0	62113223.3548	0.241069604752	174286.92627	0.156404421432	1.54731953144	70134.611297	46129.6936035	10700.0910704	54.6988684325	304800.842443	66399630.2961	0
5750000.0	36743.0	63205134.75	0.241864395989	174291.40625	0.158342401846	1.54422426224	69826.9626882	45891.2414551	10760.1397792	54.5897043629	21831.4673336	66404439.2955	0
5775000.0	36898.0	64310646.9278	0.242660598547	174295.031738	0.160295225214	1.54115080833	69520.9325407	45654.0344238	10818.6128914	54.4900307333	476725.317033	66409248.8061	0
5800000.0	37054.0	65429817.5121	0.243464717356	174299.609375	0.162256037584	1.53806066513	69214.0330276	45416.2963867	10874.9318538	54.4092609607	1208675.95471	66414058.8278	0
5825000.0	37210.0	66562751.0254	0.244269716187	174303.100586	0.164231707458	1.53499400616	68909.1025575	45180.0811768	10929.5877859	54.1643037426	601093.923594	66418869.3608	0
5850000.0	37366.0	67709552.3747	0.245075301729	174305.432129	0.166222191183	1.53195130825	68606.2509745	44945.4803467	10982.5286022	54.1032272529	93736.5012178	66423680.405	0
5875000.0	37523.0	68870279.5558	0.245888265308	174308.312988	0.168220693013	1.5288952589	68302.9638962	44710.6781006	11033.1573984	54.0609194867	157348.722255	66428491.9604	0
5900000.0	37680.0	70045038.8055	0.246702054925	174309.58252	0.170234241523	1.52586340904	68001.5994905	44477.3529053	11081.9752542	53.8565569911	2125270.99398	66433304.027	0
5925000.0	37837.0	71233938.4671	0.247516049019	174309.020996	0.172263185959	1.52285826206	67702.2538544	44245.5383301	11128.9927666	53.8335047758	1277998.02092	66438116.6049	0
5950000.0	37995.0	72437038.7526	0.248336285246	174308.312988	0.174300454091	1.51984632015	67402.6733815	44013.6199951	11173.5350001	53.9995136121	2373020.99679	66442929.6941	0
5975000.0	38154.0	73654398.6738	0.249162064671	174307.312012	0.176345871296	1.51683175564	67103.2443129	43781.8847656	11215.5460564	53.8436038802	123541.046986	66447743.2946	0
6000000.0	38312.0	74886175.085	0.249978335589	174302.429199	0.178413669346	1.51389312744	66809.5243847	43554.3243408	11256.2195477	53.6887639335	3492307.47629	66452557.4063	0
6025000.0	38471.0	76132425.7057	0.250802416881	174298.876953	0.180488772457	1.51093578339	66514.9149859	43326.2512207	11294.2376593	53.892005723	594264.360298	66457372.0294	0
6050000.0	38631.0	77393201.9777	0.251635210346	174297.277832	0.182570540346	1.50795567036	66219.1302838	43097.4609375	11329.5103286	53.9456388395	1263304.52487	66462187.1638	0
6075000.0	38791.0	78668602.0797	0.252469434391	174295.88623	0.184666161658	1.50499033928	65924.8293028	42869.8760986	11362.6348312	53.8414669856	963070.821667	66467002.8095	0
6100000.0	38951.0	79958726.4765	0.253306745099	174294.482422	0.186775898328	1.50203490257	65631.2814157	42642.9229736	11393.6042126	53.9161976615	398670.117609	66471818.9666	0
6125000.0	39112.0	81263625.4749	0.254154417613	174294.689941	0.188892503502	1.49905216694	65335.7701825	42414.6179199	11421.7231311	54.010717292	45790.5895549	66476635.635	0
6150000.0	39273.0	82583399.1194	0.25500448019	174294.750977	0.191023165826	1.49608075619	65041.2314782	42187.1307373	11447.6110883	54.115814775	149057.156861	66481452.8148	0
6175000.0	39435.0	83918096.5534	0.255863432268	174296.337891	0.193160478375	1.49308645725	64745.4056363	41958.8623047	11470.5221294	54.2412185851	553580.699375	66486270.5059	0
6200000.0	39597.0	85267816.3721	0.256723413486	174297.753906	0.195311658899	1.49010717869	64451.1140194	41731.8664551	11491.1572968	54.3774233612	1101970.71836	66491088.7085	0
6225000.0	39760.0	86632606.0306	0.257590824585	174300.537109	0.19746934413	1.48710942268	64156.1499137	41504.598999	11508.7333235	54.5343157331	1741080.73291	66495907.4224	0
6250000.0	39923.0	88012563.4874	0.258457810098	174303.076172	0.199640751816	1.48413097858	63863.3184848	41279.0985107	11523.9952157	54.5349842283	912592.724535	66500726.6478	0
6275000.0	40086.0	89407787.231	0.259324269966	174305.34668	0.201825998374	1.48117172718	63572.6670166	41055.4016113	11537.0730394	54.7133767555	437070.347799	66505546.3847	0
6300000.0	40250.0	90818326.1498	0.260199545062	174308.59375	0.20401783695	1.47819054127	63280.7003187	40830.9387207	11547.249305	54.9117352938	110708.634359	66510366.633	0
6325000.0	40414.0	92244279.8803	0.261076003339	174311.242676	0.206223776331	1.47522330284	62990.117634	40607.6538086	11555.315581	55.1202545869	36782.3201251	66515187.3927	0
6350000.0	40579.0	93685696.4961	0.26196015309	174314.794922	0.208436191315	1.47223925591	62698.8176068	40384.0362549	11560.5439116	55.3486351553	286742.207874	66520008.664	0
6375000.0	40744.0	95142675.2708	0.262843673431	174317.700195	0.210662590689	1.46927416325	62409.6074444	40162.1337891	11563.7175954	55.5871537303	663652.985052	66524830.4468	0
6400000.0	40910.0	96615262.3317	0.263733107355	174321.459961	0.212895160075	1.46629834175	62120.4633521	39940.4815674	11564.0731023	55.8457666075	1116290.48486	66529652.7412	0
6425000.0	41076.0	98103556.1654	0.264620116586	174324.487305	0.215141539229	1.46334898472	61834.1811558	39721.1120605	11562.4607125	55.9459083144	1912013.24873	66534475.5471	0
6450000.0	41242.0	99607654.6983	0.265503784452	174326.806641	0.217401830014	1.46042990685	61551.1500473	39504.2907715	11558.9066314	56.224265107	1363193.89517	66539298.8646	0
6475000.0	41409.0	101127604.55	0.266392291062	174329.6875	0.219668319914	1.457503438	61268.4770551	39287.9455566	11552.6261965	56.5226996768	892053.803894	66544122.6937	0
6500000.0	41576.0	102663506.136	0.267279900218	174331.481934	0.221948954277	1.45459926128	60987.9628163	39073.3276367	11544.4984207	56.8309738575	491904.159577	66548947.0344	0
6525000.0	41744.0	104215406.733	0.268172758257	174333.520508	0.224235962378	1.45168757439	60707.5593888	38858.984375	11533.7293771	57.3294025344	4449735.7729	66553771.8868	0
6550000.0	41913.0	105783351.327	0.269069944455	174335.778809	0.226529024076	1.4487735033	60427.6410407	38645.1568604	11520.339118	57.5078825618	10661.1068612	66558597.2508	0
6575000.0	42081.0	107367492.846	0.269955864707	174335.302734	0.228843826335	1.445925951	60153.2385874	38435.4492188	11506.0421474	57.8562186471	136081.944322	66563423.1266	0
6600000.0	42251.0	108967821.193	0.270851293528	174336.303711	0.231156707741	1.44305181503	59877.7376219	38225.0946045	11488.3567064	58.235339901	419124.490391	66568249.514	0
6625000.0	42420.0	110584488.555	0.271733509518	174334.472656	0.233491242398	1.44025123119	59608.3749916	38019.2962646	11469.8294719	58.4419213134	3354395.84952	66573076.4131	0
6650000.0	42590.0	112217538.51	0.272616317289	174332.495117	0.235831626924	1.43746352196	59340.7103723	37814.8132324	11448.8429163	59.0138579562	1371096.7458	66577903.824	0
6675000.0	42761.0	113867016.076	0.273502347359	174330.236816	0.238177948631	1.43468058109	59073.7366925	37610.9039307	11425.4231996	59.4341656941	1965884.44482	66582731.7467	0
6700000.0	42932.0	115533019.897	0.274386777897	174327.539062	0.240537541686	1.43191957474	58808.7687106	37408.5449219	11400.4240395	59.6906002633	1480285.55038	66587560.1812	0
6725000.0	43103.0	117215644.394	0.275269702425	174324.707031	0.242910216912	1.42917776108	58545.836127	37207.8125	11373.9184605	60.1313666616	965232.60155	66592389.1274	0
6750000.0	43275.0	118914925.827	0.276157472883	174323.168945	0.245287636062	1.4264228344	58282.87423	37007.2937012	11345.0577073	60.5937257153	538845.85883	66597218.5856	0
6775000.0	43447.0	120630955.872	0.277042204261	174321.606445	0.247677846346	1.42368805408	58022.4453602	36808.8378906	11314.7544638	61.0669924902	193585.928309	66602048.5555	0
6800000.0	43620.0	122363768.662	0.277930228533	174321.386719	0.250072596828	1.42094242573	57762.6018128	36611.1206055	11282.1783181	61.7401594132	5993613.42542	66606879.0374	0
6825000.0	43794.0	124113397.91	0.278820757439	174322.485352	0.252471538261	1.41818773746	57503.5804673	36414.3218994	11247.3617337	62.0798386254	180086.750994	66611710.0311	0
6850000.0	43967.0	125879991.547	0.27970096972	174322.106934	0.254891638178	1.41547834873	57249.0386716	36221.0510254	11212.0986103	62.417709752	4389913.01548	66616541.5368	0
6875000.0	44141.0	127663586.73	0.280585593342	174322.766113	0.257316540228	1.41275560856	56994.6095508	36028.1494141	11174.7127972	63.137620183	1041258.66004	66621373.5545	0
6900000.0	44316.0	129464217.62	0.28147411146	174324.414062	0.259745836956	1.41002178192	56740.4315682	35835.6903076	11135.2018354	63.7005772488	1605707.21944	66626206.0841	0
6925000.0	44491.0	131281974.749	0.28235877026	174325.805664	0.262187822955	1.40731072426	56488.9529885	35645.4162598	11094.5149146	64.0920351033	2223100.25024	66631039.1256	0
6950000.0	44666.0	133116948.107	0.28323886982	174326.928711	0.264642410912	1.40462577343	56240.3373772	35457.3974609	11052.6902335	64.6771999595	1568733.53353	66635872.6793	0
6975000.0	44842.0	134969168.776	0.284120777668	174329.064941	0.267100986093	1.40194165707	55992.7858035	35270.3338623	11008.4726061	65.4737811705	3932620.22654	66640706.7449	0
7000000.0	45019.0	136838666.578	0.28500387588	174332.177734	0.269563286565	1.39926314354	55746.6448878	35084.4573975	10961.5911617	66.1145128682	4888774.70427	66645541.3226	0
7025000.0	45196.0	138725531.019	0.285881685459	174334.838867	0.272038159892	1.39661836624	55503.5799857	34900.9124756	10913.0280263	66.5837903828	120769.105249	66650376.4125	0
7050000.0	45373.0	140629853.701	0.2867547046	174336.938477	0.274525780696	1.39400470257	55263.2903867	34719.4854736	10862.8908429	67.2562485434	63910.2692847	66655212.0144	0
7075000.0	45551.0	142551666.558	0.287629245481	174339.746094	0.277017592452	1.39139318466	55023.9853145	34538.9526367	10810.4080409	67.9570720956	426315.440442	66660048.1286	0
7100000.0	45729.0	144491059.131	0.288498043872	174342.041016	0.279521773336	1.38881123066	54787.6648367	34360.7299805	10756.5724874	68.4819173922	4227692.99751	66664884.7549	0
7125000.0	45907.0	146448120.33	0.289360268334	174343.798828	0.282038527075	1.38625776768	54554.5431197	34185.0463867	10701.477454	69.2138690828	3220396.93909	66669721.8934	0
7150000.0	46086.0	148422879.179	0.290222239874	174346.289062	0.28455874417	1.38370394707	54322.7514252	34010.5957031	10644.3152678	70.1701139667	2682521.22089	66674559.5442	0
7175000.0	46266.0	150415362.325	0.291083523951	174349.462891	0.28708242462	1.38114845753	54092.5119896	33837.5976562	10585.2034853	70.9615178218	3760043.02781	66679397.7073	0
7200000.0	46446.0	152425658.336	0.29193745836	174351.953125	0.289618474199	1.37861680984	53865.4591515	33667.199707	10525.1371602	71.570455379	687040.194414	66684236.3826	0
7225000.0	46626.0	154453857.819	0.29278472682	174353.637695	0.292167125735	1.37610816956	53641.4569326	33499.307251	10464.2282216	72.3924842768	129631.581899	66689075.5703	0
7250000.0	46807.0	156499990.017	0.293631541667	174355.688477	0.294719531666	1.3736000061	53418.7972901	33332.6751709	10401.6501244	73.2436843866	146771.959743	66693915.2704	0
7275000.0	46988.0	158564143.036	0.294470698849	174356.958008	0.297284102999	1.37112092972	53199.3749862	33168.5974121	10338.4132504	74.1109333118	781299.268076	66698755.4829	0
7300000.0	47170.0	160646343.231	0.29530826216	174358.532715	0.299852137687	1.36864817142	52981.5349013	33005.8959961	10273.6994416	75.0076153193	1721826.07792	66703596.2078	0
7325000.0	47352.0	162746675.637	0.296137702382	174359.338379	0.302431872115	1.36621141434	52767.1365592	32845.8099365	10208.4827842	75.7125646532	2381534.11347	66708437.4452	0
7350000.0	47534.0	164865224.935	0.296958232461	174359.326172	0.305023422698	1.3638137579	52556.3243675	32688.4246826	10142.8448514	76.6396175923	1212421.43062	66713279.195	0
7375000.0	47717.0	167002016.775	0.297776641535	174359.375	0.30761823291	1.36142838001	52347.1561294	32532.3669434	10075.9914941	77.5962915411	320914.6237	66718121.4574	0
7400000.0	47900.0	169157139.208	0.298586224797	174358.300781	0.310225208523	1.35907936096	52141.3385786	32378.8513184	10008.8974167	78.5687118376	119416.643634	66722964.2324	0
7425000.0	48084.0	171330617.773	0.299393575654	174357.15332	0.312835385557	1.35674059391	51937.1275833	32226.6693115	9940.7765315	79.5708053094	964905.181167	66727807.5199	0
7450000.0	48268.0	173522538.985	0.300192025949	174354.907227	0.315457582474	1.35443639755	51736.3103694	32077.0843506	9872.54476158	80.5887737706	2325137.87554	66732651.32	0
7475000.0	48453.0	175732926.855	0.300988309669	174352.844238	0.31808251515	1.35213923454	51537.0680994	31928.8604736	9803.44652391	81.6367130231	4091876.4771	66737495.6328	0
7500000.0	48638.0	177961864.341	0.301777386022	174350.78125	0.320718681905	1.34986519814	51340.6501802	31782.901001	9734.3723149	82.4777850747	508442.823039	66742340.4583	0
7525000.0	48823.0	180209432.753	0.302558933581	174348.76709	0.323366111843	1.34761369228	51147.0655651	31639.2333984	9665.42397402	83.5549594136	104484.500425	66747185.7964	0
7550000.0	49009.0	182475653.627	0.303339384253	174347.705078	0.32601604471	1.34536147118	50954.6861012	31496.7468262	9595.80498557	84.662371066	1155642.21323	66752031.6474	0
7575000.0	49195.0	184760610.964	0.304112228856	174346.459961	0.328677619109	1.34313225746	50765.0372257	31356.4880371	9526.41550143	85.5552242845	3043519.06817	66756878.0111	0
7600000.0	49381.0	187064385.973	0.304877408768	174345.153809	0.331350427587	1.34092664719	50578.1513483	31218.4356689	9457.34087909	86.6906474283	1253088.07992	66761724.8876	0
7625000.0	49568.0	189386996.299	0.305640724892	174344.775391	0.334025186021	1.33872187138	50392.4783765	31081.4910889	9387.77754529	87.8565484603	87623.1704528	66766572.2769	0
7650000.0	49755.0	191728519.503	0.306396054454	174344.384766	0.336710712872	1.33654153347	50209.6349321	30946.7559814	9318.6337999	89.0374331817	738052.386656	66771420.1791	0
7675000.0	49943.0	194088967.924	0.307149165913	174344.958496	0.339397491189	1.33436334133	50028.081285	30813.1256104	9249.12593416	90.2490740231	2542405.44174	66776268.5942	0
7700000.0	50131.0	196468415.74	0.307893512095	174345.556641	0.342094572261	1.33221077919	49849.4413733	30681.729126	9180.1365289	91.2330042866	1481258.16653	66781117.5223	0
7725000.0	50319.0	198866942.14	0.308628779454	174345.947266	0.344802450854	1.33008229733	49673.6511066	30552.5543213	9111.10149765	92.4775846045	70288.9622758	66785966.9633	0
7750000.0	50508.0	201284561.692	0.30936101813	174347.143555	0.347512104781	1.32795631886	49499.2674132	30424.6337891	9040.83838675	93.7635461435	989932.52846	66790816.9173	0
7775000.0	50697.0	203721352.514	0.310084405748	174348.168945	0.35023241071	1.32585525513	49327.6945786	30298.9257812	8970.23068363	94.8241565034	3125143.09141	66795667.3844	0
7800000.0	50886.0	206177392.036	0.310799277196	174349.072266	0.352963397745	1.3237786293	49158.8049972	30175.3417969	8899.35360522	96.1582093982	841982.701114	66800518.3645	0
7825000.0	51076.0	208652693.261	0.311511460065	174350.78125	0.35569575266	1.32170653343	48991.2744143	30052.9754639	8827.51473947	97.5343181736	243062.223067	66805369.8577	0
7850000.0	51266.0	211147332.148	0.312215107615	174352.416992	0.358438584954	1.31966114044	48826.4386758	29932.7148438	8755.58282925	98.9358778881	2270605.97967	66810221.8641	0
7875000.0	51457.0	213661323.409	0.312915357756	174354.736328	0.361182988854	1.31762206554	48663.0639442	29813.7481689	8682.84507558	100.38013214	5468478.95388	66815074.3836	0
7900000.0	51648.0	216194746.265	0.313606281122	174356.738281	0.363938335795	1.31561017036	48502.4710196	29696.9696045	8610.18217804	101.583715916	8794.73484375	66819927.4163	0
7925000.0	51839.0	218747677.886	0.314288109973	174358.47168	0.366704422049	1.31362593174	48344.6838793	29582.3638916	8537.63990381	102.806264573	5242296.98982	66824780.9623	0
7950000.0	52030.0	221320196.23	0.314960871163	174359.912109	0.369481131202	1.31166946888	48189.6354373	29469.8516846	8465.28125186	104.319848303	1871160.97603	66829635.0215	0
7975000.0	52222.0	223912311.172	0.315629915604	174362.011719	0.372258771677	1.30972194672	48036.0253045	29358.5113525	8392.42082595	105.87657513	4083.92596706	66834489.5941	0
8000000.0	52414.0	226524095.612	0.31629024019	174363.916016	0.375046394765	1.30780303478	47885.133361	29249.2095947	8319.87691597	107.45858009	2087949.72747	66839344.68	0
8025000.0	52607.0	229155556.752	0.316946890685	174366.430664	0.377834541723	1.30589437485	47735.6802876	29141.0522461	8246.96398355	109.08436505	5963418.03263	66844200.2792	0
8050000.0	52800.0	231806768.677	0.317594248765	174368.530273	0.380632991437	1.3040163517	47588.9821186	29034.9761963	8174.49258054	110.44910263	190086.813107	66849056.3919	0
8075000.0	52993.0	234477807.462	0.318232570025	174370.214844	0.38344177301	1.30216896534	47444.9932404	28930.9234619	8102.524586	111.831305048	4247622.58181	66853913.0181	0
8100000.0	53186.0	237168747.992	0.318861414278	174371.484375	0.386260799132	1.30034852028	47303.6765408	28828.9367676	8031.08438136	113.524207964	751337.241165	66858770.1578	0
8125000.0	53380.0	239879597.777	0.319485253176	174373.266602	0.389080611058	1.29853463173	47163.9082247	28728.2897949	7959.52245855	115.26068167	1037886.7762	66863627.811	0
8150000.0	53574.0	242610430.715	0.32009905409	174374.658203	0.391910376493	1.29674386978	47026.7746866	28629.7180176	7888.60685804	117.021348333	5073977.84698	66868485.9777	0
8175000.0	53769.0	245361252.91	0.3207070765	174376.574707	0.394740549382	1.29495573044	46891.207352	28532.5592041	7817.67929431	118.521254549	34848.4827125	66873344.6581	0
8200000.0	53963.0	248132206.331	0.321300134011	174377.148438	0.397590687498	1.29320669174	46759.3899949	28438.2720947	7748.16356301	120.017126974	4457545.20385	66878203.8521	0
8225000.0	54158.0	250923299.882	0.321886668649	174378.051758	0.400441756938	1.2914634943	46629.1651178	28345.3796387	7678.74323785	121.860598924	489831.328844	66883063.5599	0
8250000.0	54353.0	253734610.04	0.322462704594	174378.393555	0.403303129133	1.28974401951	46501.6388625	28254.6295166	7610.12035539	123.727019626	1923963.93409	66887923.7813	0
8275000.0	54549.0	256566142.255	0.323032147841	174379.052734	0.406164908782	1.28803169727	46375.8220776	28165.3625488	7541.68014171	125.636633463	7365197.14384	66892784.5165	0
8300000.0	54745.0	259417969.242	0.323590199091	174379.162598	0.409036700148	1.28634393215	46252.7554458	28078.2745361	7474.12623472	127.24393588	1179371.91719	66897645.7655	0
8325000.0	54941.0	262290161.888	0.324137280814	174378.735352	0.411917979363	1.28468251228	46132.4317414	27993.3166504	7407.46208809	128.86527724	1887938.9156	66902507.5283	0
8350000.0	55137.0	265182791.243	0.324672316825	174377.722168	0.414809212089	1.28304696083	46014.9970236	27910.6536865	7341.73109108	130.499530741	8425875.57135	66907369.805	0
8375000.0	55333.0	268095932.53	0.325193287579	174376.000977	0.417710631154	1.28143882751	45900.7543746	27830.5328369	7276.95887663	132.482984739	2050079.80033	66912232.5956	0
8400000.0	55530.0	271029592.365	0.325705891502	174374.389648	0.420612457674	1.27984058857	45788.4347486	27752.0568848	7212.5442951	134.508264429	999194.977114	66917095.9002	0
8425000.0	55727.0	273983842.89	0.326208696837	174372.180176	0.423524179496	1.27826714516	45678.6226893	27675.5157471	7149.14730755	136.553231933	7116646.8979	66921959.7188	0
8450000.0	55925.0	276958686.051	0.326708119915	174370.825195	0.426435290137	1.27669692039	45569.9430875	27599.9755859	7086.17530156	138.28987864	1419118.31689	66926824.0513	0
8475000.0	56122.0	279954255.664	0.327198532472	174368.798828	0.429365201853	1.27516150475	45463.8573799	27526.272583	7024.84542028	140.014575949	1256811.31688	66931688.898	0
8500000.0	56320.0	282970549.342	0.32768975389	174367.700195	0.432294182247	1.27362823486	45358.3311806	27453.0456543	6963.91635603	142.131565256	2108880.33352	66936554.2587	0
8525000.0	56518.0	286007633.07	0.328176572176	174366.638184	0.435232184827	1.27211511135	45254.8428952	27381.4147949	6903.50059241	143.914821353	700691.358747	66941420.1335	0
8550000.0	56716.0	289065575.638	0.328657447791	174365.612793	0.43817947153	1.27062225342	45153.4379961	27311.416626	6843.51880106	145.72055848	5785277.57646	66946286.5226	0
8575000.0	56914.0	292144443.999	0.329131598918	174364.611816	0.441135896835	1.26914870739	45053.8270028	27242.7703857	6783.99857917	147.921069871	146860.807391	66951153.4258	0
8600000.0	57113.0	295244237.648	0.329601732602	174364.428711	0.444091740064	1.26768052578	44954.9649362	27174.6917725	6724.39796497	150.176590244	4520637.04453	66956020.8433	0
8625000.0	57312.0	298365021.405	0.330063107206	174364.331055	0.447056489065	1.26623117924	44857.4091622	27107.4645996	6665.29901546	152.082091231	248063.148758	66960888.775	0
8650000.0	57511.0	301506862.341	0.330514783988	174364.27002	0.45003023115	1.26480126381	44760.9375317	27040.8325195	6606.73397876	154.009557146	2654348.82959	66965757.2211	0
8675000.0	57710.0	304669828.477	0.330955998983	174364.208984	0.453013257356	1.26339137554	44665.4500261	26974.7039795	6548.71228794	156.350634457	1511668.76829	66970626.1815	0
8700000.0	57910.0	307853919.208	0.331390590801	174364.880371	0.45599573059	1.26198744774	44570.3978812	26908.807373	6490.72978617	158.350571845	868802.44257	66975495.6564	0
8725000.0	58109.0	311059271.512	0.331812622522	174364.746094	0.458997441456	1.26061737537	44477.4942393	26844.3206787	6433.86108462	160.347247018	5458987.85386	66980365.6456	0
8750000.0	58309.0	314285882.506	0.332229783057	174365.393066	0.461998104583	1.25925266743	44385.418486	26780.4870605	6377.07052048	162.796742068	198675.27926	66985236.1493	0
8775000.0	58509.0	317533818.002	0.332639578148	174366.052246	0.465007731691	1.25790703297	44295.1552346	26718.0328369	6320.89227692	165.277672243	7611749.67068	66990107.1675	0
8800000.0	58710.0	320803070.393	0.333046312792	174367.553711	0.468015758088	1.25656569004	44206.1470435	26656.6833496	6264.84435762	167.397976261	2365922.24338	66994978.7003	0
8825000.0	58910.0	324093774.305	0.333443996281	174368.286133	0.471042469144	1.25525689125	44119.9148249	26597.4121094	6209.94112072	169.51348208	163219.441328	66999850.7476	0
8850000.0	59111.0	327405926.121	0.333838432318	174369.702148	0.474068307085	1.25395560265	44034.8730913	26539.1204834	6155.20815625	172.102689544	6251341.12497	67004723.3096	0
8875000.0	59312.0	330739591.596	0.334225599475	174371.057129	0.477102992591	1.25267374516	43951.6838405	26482.2235107	6101.14515887	174.289254457	1605202.40532	67009596.3862	0
8900000.0	59513.0	334094835.39	0.334604509622	174372.399902	0.480146409245	1.25141060352	43870.3382638	26426.7303467	6047.76949523	176.495248827	495573.55029	67014469.9774	0
8925000.0	59714.0	337471719.249	0.334974514951	174373.718262	0.483198324218	1.25016403198	43790.8096687	26372.6623535	5995.08458258	178.72041399	4171991.7779	67019344.0834	0
8950000.0	59915.0	340870306.482	0.335334588335	174375.036621	0.486258650199	1.24893343449	43713.0643744	26320.0012207	5943.1000628	180.964219042	9598320.35289	67024218.7042	0
8975000.0	60116.0	344290658.945	0.335684071993	174376.342773	0.489327358082	1.24771785736	43637.1755342	26268.8446045	5891.81859512	183.682068134	288877.288351	67029093.8397	0
9000000.0	60318.0	347732771.624	0.336024754753	174378.259277	0.492394785397	1.24650788307	43562.6722533	26218.8995361	5840.80005645	186.456157865	7293621.31499	67033969.4901	0
9025000.0	60520.0	351196709.96	0.336354368954	174380.029297	0.495471234899	1.24531626701	43490.2211215	26170.59021	5790.49667403	188.792271613	2933767.77126	67038845.6554	0
9050000.0	60722.0	354682538.739	0.336673387874	174381.665039	0.498556357343	1.24414265156	43419.7192716	26123.8250732	5740.94168215	191.144816539	239609.881948	67043722.3356	0
9075000.0	60924.0	358190323.905	0.336982372054	174383.14209	0.501650327351	1.24298632145	43351.0946692	26078.5522461	5692.129508	193.513412877	1370134.78559	67048599.5307	0
9100000.0	61126.0	361720127.695	0.337281834114	174384.521484	0.504752970301	1.24184775352	43284.2922227	26034.6893311	5644.05458927	195.897800135	4711982.13181	67053477.2408	0
9125000.0	61328.0	365272031.474	0.337572292297	174385.766602	0.507864344399	1.24072647095	43219.2521244	25992.2027588	5596.72981251	198.787794634	2505947.84268	67058355.466	0
9150000.0	61531.0	368845998.295	0.337856665073	174387.597656	0.510973797645	1.239610672	43155.3515316	25950.6866455	5549.7226345	201.23679218	231403.743104	67063234.2062	0
9175000.0	61733.0	372442183.927	0.3381305044	174388.476562	0.51410717424	1.23852443695	43093.6659751	25910.760498	5503.93207031	203.66705943	1110553.81878	67068113.4615	0
9200000.0	61936.0	376060572.505	0.338399327446	174390.063477	0.517233333085	1.23744273186	43032.9649862	25871.6674805	5458.44141106	206.652511973	7530251.8435	67072993.232	0
9225000.0	62139.0	379701235.36	0.33866130446	174391.540527	0.520367524587	1.23637712002	42973.7768528	25833.7036133	5413.7011977	208.633328922	7533089.53531	67077873.5177	0
9250000.0	62341.0	383364289.687	0.338914732115	174392.211914	0.52352034254	1.23533892632	42916.5080873	25797.076416	5370.12362239	211.105147352	11791035.4719	67082754.3186	0
9275000.0	62544.0	387049721.425	0.339164370559	174393.481445	0.526670599356	1.2343057394	42860.1547503	25761.1938477	5326.90267339	214.145773463	15451.5484954	67087635.6347	0
9300000.0	62747.0	390757595.366	0.339406329591	174394.482422	0.529829761945	1.23329210281	42805.4777357	25726.5472412	5284.44731907	217.208960711	11766666.2162	67092517.4662	0
9325000.0	62951.0	394487904.62	0.339641675661	174395.849609	0.532987236511	1.23228752613	42752.1194648	25692.9779053	5242.37062461	219.785041213	8023976.28105	67097399.813	0
9350000.0	63154.0	398240787.423	0.33986649741	174396.276855	0.536164036021	1.23131299019	42700.9639732	25660.9771729	5201.43414272	221.793180982	7037089.68994	67102282.6752	0
9375000.0	63357.0	402016308.598	0.340083537404	174396.362305	0.539349566679	1.23035633564	42651.4462397	25630.2124023	5161.08931703	224.90901646	2441321.7152	67107166.0528	0
9400000.0	63561.0	405814458.102	0.340294504602	174396.838379	0.542533292901	1.22940683365	42603.094437	25600.4089355	5120.91685948	227.52692933	676563.477922	67112049.9458	0
9425000.0	63764.0	409635374.307	0.340496031203	174396.313477	0.54573599482	1.22848403454	42556.6958513	25571.9924927	5081.63732004	230.131016047	107806.998611	67116934.3543	0
9450000.0	63968.0	413479044.315	0.340692151148	174396.166992	0.54893665947	1.22756719589	42511.3270031	25544.4168091	5042.5261935	232.783760728	1299277.53061	67121819.2784	0
9475000.0	64171.0	417345603.565	0.340879465419	174395.056152	0.552156066988	1.22667455673	42467.7401091	25518.1137085	5004.28748327	235.422020559	3067979.93597	67126704.718	0
9500000.0	64375.0	421235039.331	0.341061605378	174394.311523	0.555373204406	1.22578573227	42425.0433096	25492.565918	4966.20242761	238.694768584	7478451.10693	67131590.6732	0
9525000.0	64579.0	425147410.997	0.341237554661	174393.249512	0.558598141652	1.22491014004	42383.5926842	25467.956543	4928.62908127	240.814751118	7554711.29817	67136477.144	0
9550000.0	64782.0	429082853.061	0.34140557084	174391.223145	0.561841821764	1.22405648232	42343.6825426	25444.4198608	4891.90394134	243.503849852	10067469.5268	67141364.1306	0
9575000.0	64986.0	433041347.123	0.341569413169	174389.733887	0.56508241687	1.22320330143	42304.4690174	25421.5179443	4855.3298414	246.847879445	1860093.02541	67146251.6328	0
9600000.0	65190.0	437022951.755	0.341726257348	174388.439941	0.568330404349	1.22236132622	42266.5394378	25399.6170044	4819.24612574	249.610850723	746464.013492	67151139.6508	0
9625000.0	65394.0	441027730.783	0.341875136426	174387.17041	0.571587122977	1.22153306007	42230.1313418	25378.9260864	4783.65116547	252.390082103	77824.2056878	67156028.1846	0
9650000.0	65598.0	445055743.628	0.342016252504	174385.998535	0.574851874262	1.22071802616	42195.1773743	25359.3841553	4748.53807982	255.185758426	259113.089952	67160917.2343	0
9675000.0	65802.0	449107052.24	0.342149921121	174384.912109	0.578124832828	1.21991598606	42161.6131221	25340.927124	4713.91045645	257.997111156	919721.02304	67165806.7997	0
9700000.0	66006.0	453181716.773	0.342276487783	174383.959961	0.58140582405	1.21912670135	42129.3464081	25323.475647	4679.75114526	260.824643656	1721972.77271	67170696.8811	0
9725000.0	66210.0	457279795.537	0.342396299972	174383.093262	0.584694731515	1.21835029125	42098.3358901	25306.9793701	4646.06381589	264.313942015	12371746.6558	67175587.4784	0
9750000.0	66415.0	461401272.443	0.342510518124	174383.032227	0.587980670389	1.21757733822	42068.1789427	25291.2078857	4612.52782634	267.214574733	11178969.4901	67180478.5917	0
9775000.0	66619.0	465546280.644	0.342617591656	174382.446289	0.591285061091	1.21682488918	42039.4251776	25276.4129639	4579.75682642	269.435934804	4263927.56198	67185370.221	0
9800000.0	66823.0	469714878.291	0.342718627238	174382.019043	0.594597309828	1.21608412266	42011.6798427	25262.3474121	4547.43833944	272.325721843	5036730.30714	67190262.3664	0
9825000.0	67027.0	473907121.394	0.34281417451	174381.750488	0.59791712556	1.21535480022	41984.8781838	25248.9593506	4515.56110251	275.230870394	5739941.25147	67195155.0278	0
9850000.0	67231.0	478123066.583	0.342904280311	174381.665039	0.601244508289	1.21463668346	41958.961648	25236.1953735	4484.12886975	278.832353692	8102880.61242	67200048.2053	0
9875000.0	67436.0	482362693.478	0.342990338416	174382.409668	0.604568165727	1.2139210701	41933.5693992	25223.8464355	4452.83720752	281.810371488	7695355.90065	67204941.899	0
9900000.0	67640.0	486626135.013	0.343070097784	174382.678223	0.607910449617	1.21322464943	41909.2808829	25212.1948242	4422.26399253	284.071090159	7291729.85947	67209836.1089	0
9925000.0	67844.0	490913451.266	0.343143296939	174383.007812	0.611260882579	1.21254146099	41886.0528991	25201.3076782	4392.12733911	287.033987286	7563910.67479	67214730.8351	0
9950000.0	68048.0	495224704.796	0.343209955542	174383.361816	0.614619581029	1.21187126637	41863.8997156	25191.204834	4362.40680313	290.721533956	7304490.16033	67219626.0775	0
9975000.0	68253.0	499559879.473	0.343270993052	174384.411621	0.617975485511	1.21120607853	41842.580343	25181.7764282	4332.83980628	293.754829265	7484306.30505	67224521.8362	0
10000000.0	68457.0	503919110.662	0.343325054511	174384.912109	0.621350074653	1.21056115627	41822.5478928	25173.2086182	4303.95518547	296.03973609	7464480.73475	67229418.1112	0
10025000.0	68661.0	508302459.11	0.343373229636	174385.473633	0.624732871074	1.20992839336	41803.5403691	25165.385437	4275.48374879	299.055139255	7139261.94091	67234314.9026	0
10050000.0	68865.0	512709982.396	0.343415597815	174386.157227	0.628123350907	1.20930743217	41785.5469722	25158.2931519	4247.41050714	302.823893536	8958618.79578	67239212.2104	0
10075000.0	69070.0	517141660.316	0.343453110953	174387.548828	0.631510454696	1.20869123936	41768.3585884	25151.8478394	4219.47526879	305.909551366	9802756.43747	67244110.0347	0
10100000.0	69274.0	521597626.961	0.343484584442	174388.427734	0.63491606852	1.20809352398	41752.3707297	25146.2036133	4192.19782818	308.214611495	5363302.25591	67249008.3754	0
10125000.0	69478.0	526077938.095	0.343511084022	174389.428711	0.638328958303	1.20750701427	41737.3543849	25141.2612915	4165.30709473	311.279748226	4564546.9563	67253907.2326	0
10150000.0	69682.0	530582647.681	0.343532691802	174390.551758	0.64174918225	1.20693075657	41723.2798671	25137.008667	4138.79788028	314.356753055	3696999.23699	67258806.6064	0
10175000.0	69886.0	535111811.636	0.343549574771	174391.784668	0.645176740363	1.20636475086	41710.1320852	25133.4320068	4112.66960296	317.445038013	2791391.94379	67263706.4968	0
10200000.0	70090.0	539665481.953	0.343561731537	174393.164062	0.648611225188	1.20580887794	41697.9072374	25130.5282593	4086.91268245	320.544902623	1880492.60102	67268606.9038	0
10225000.0	70294.0	544243717.931	0.343567979098	174394.555664	0.652053684462	1.2052642107	41686.7795392	25128.453064	4061.53111811	323.654871003	1010468.71904	67273507.8275	0
10250000.0	70498.0	548846579.124	0.343567922813	174395.947266	0.655504059978	1.2047315836	41676.7432023	25127.1881104	4036.51547978	326.775054398	279620.100674	67278409.2678	0
10275000.0	70702.0	553474124.034	0.343562266229	174397.363281	0.658962060697	1.20421040058	41667.7393487	25126.6891479	4011.86093975	329.905328465	96407.8860479	67283311.2249	0
10300000.0	70906.0	558126411.728	0.3435511506	174398.76709	0.662428094074	1.20370066166	41659.7378713	25126.9271851	3987.57589017	333.044119059	859721.746763	67288213.6988	0
10325000.0	71110.0	562803500.274	0.343534914632	174400.170898	0.66590186907	1.20320105553	41652.6733337	25127.8640747	3963.63802834	336.192739565	2125623.29296	67293116.6894	0
10350000.0	71314.0	567505446.559	0.343513841114	174401.586914	0.669383211061	1.2027118206	41646.5103114	25129.4662476	3940.05151124	339.350262499	3849918.1946	67298020.1969	0
10375000.0	71518.0	572232308.686	0.343488213123	174403.027344	0.672872120049	1.20223295689	41641.2070821	25131.690979	3916.79886787	342.51752152	6027056.32593	67302924.2213	0
10400000.0	71722.0	576984142.788	0.343458482695	174404.467773	0.676368712448	1.20176374912	41636.7057691	25134.5001221	3893.88011215	344.846521601	9150271.06042	67307828.7626	0
10425000.0	71925.0	581761085.169	0.343424680079	174405.34668	0.679883931298	1.20130991936	41633.0852758	25137.8723145	3871.49926285	347.984912359	6505828.65319	67312733.8208	0
10450000.0	72129.0	586563111.97	0.343387369942	174406.835938	0.683395424858	1.20085942745	41630.0553529	25141.7236328	3849.20901531	352.035683152	15279525.6072	67317639.3961	0
10475000.0	72333.0	591390279.27	0.343346751319	174408.337402	0.686914194375	1.20041823387	41627.7247203	25146.0617065	3827.22779197	354.37036155	1939441.15522	67322545.4883	0
10500000.0	72536.0	596242721.985	0.343302967055	174409.25293	0.69045170676	1.19999229908	41626.1305599	25150.8331299	3805.75650243	357.537223582	391478.504632	67327452.0976	0
10525000.0	72740.0	601120418.139	0.343254755461	174410.754395	0.693985493854	1.19957149029	41625.2756287	25156.1889648	3784.3641189	360.754155317	407361.942404	67332359.224	0
10550000.0	72943.0	606023508.817	0.343201670945	174411.584473	0.697538896929	1.19916796684	41625.4084195	25162.1932983	3763.47625257	363.938510733	2182745.25776	67337266.8676	0
10575000.0	73147.0	610951974.498	0.343143858403	174412.902832	0.701088807546	1.19877004623	41626.3245319	25168.8247681	3742.65025626	367.174099795	4898118.1782	67342175.0283	0
10600000.0	73350.0	615905954.445	0.34308177163	174413.562012	0.704658101313	1.19838809967	41628.119313	25176.0162354	3722.31139818	369.466943833	10861456.3486	67347083.7062	0
10625000.0	73553.0	620885508.244	0.343015920215	174414.111328	0.70823536953	1.19801616669	41630.6512325	25183.7173462	3702.22940176	372.671876958	7013721.25865	67351992.9013	0
10650000.0	73756.0	625890694.845	0.342946420672	174414.611816	0.711820437573	1.19765293598	41633.8856417	25191.9219971	3682.40938417	375.885809305	3655552.95639	67356902.6137	0
10675000.0	73959.0	630921572.787	0.34287386606	174415.014648	0.715413189027	1.19729864597	41637.7627335	25200.5645752	3662.84025013	379.109402873	1055012.86842	67361812.8435	0
10700000.0	74162.0	635978199.026	0.342798428374	174415.332031	0.719013682101	1.19695270061	41642.2577081	25209.6221924	3643.51512302	382.342833227	202134.451633	67366723.5905	0
10725000.0	74365.0	641060630.865	0.342720503496	174415.551758	0.72262150934	1.19661390781	41647.285337	25219.0475464	3624.43521358	385.585688599	2350230.8246	67371634.855	0
10750000.0	74568.0	646168924.269	0.342640458723	174415.637207	0.726236787159	1.19628214836	41652.8335835	25228.8146973	3605.58189811	388.839397236	5803224.05435	67376546.6368	0
10775000.0	74771.0	651303134.813	0.342558800644	174415.649414	0.729859573767	1.19595754147	41658.8693364	25238.8946533	3586.96449155	392.102458651	10267052.1678	67381458.9361	0
10800000.0	74974.0	656463317.466	0.342475587523	174415.50293	0.733489519916	1.19563889503	41665.3048543	25249.2263794	3568.56859413	394.40231757	5854589.52651	67386371.7529	0
10825000.0	75176.0	661649610.328	0.342390877553	174414.672852	0.737138616387	1.19533240795	41672.2995609	25259.8587036	3550.5788981	397.635074484	2326407.73541	67391285.0872	0
10850000.0	75379.0	666861992.515	0.342302242562	174414.147949	0.740784045774	1.1950302124	41679.9549808	25271.0098267	3532.61783164	400.920453171	86583.3561426	67396198.939	0
10875000.0	75581.0	672100605.687	0.342211140556	174412.915039	0.744449091144	1.19474184513	41688.2890394	25282.5592041	3515.05250143	404.172216182	1651515.02615	67401113.3084	0
10900000.0	75784.0	677365427.032	0.342116849967	174411.938477	0.748110353015	1.19445729256	41697.2037846	25294.5617676	3497.50922914	407.477294126	5329266.62389	67406028.1955	0
10925000.0	75986.0	682656599.079	0.342020798478	174410.241699	0.751791347284	1.19418621063	41706.7001711	25306.8695068	3480.34773938	409.73447308	11420799.0705	67410943.6002	0
10950000.0	76188.0	687974178.494	0.341922152887	174408.691406	0.755479501095	1.19392228127	41716.776464	25319.5877075	3463.3807322	413.008048123	6277385.27543	67415859.5226	0
10975000.0	76390.0	693318223.674	0.3418210013	174407.299805	0.759175396524	1.19366562366	41727.4192371	25332.699585	3446.59861314	416.292333423	2193184.23903	67420775.9627	0
11000000.0	76592.0	698688789.738	0.341717821501	174406.079102	0.762878451496	1.19341659546	41738.5959161	25346.1624146	3430.00702571	419.586580266	19024.9153703	67425692.9206	0
11025000.0	76794.0	704085931.197	0.341612839802	174405.053711	0.766588782426	1.19317400455	41750.2434811	25359.942627	3413.5927547	422.891948904	2561732.45391	67430610.3963	0
11050000.0	76996.0	709509703.234	0.341506254225	174404.223633	0.77030621469	1.19293761253	41762.3230868	25374.0127563	3397.35774678	426.207929444	7157058.62827	67435528.3898	0
11075000.0	77198.0	714960160.137	0.341398345714	174403.564453	0.774030922912	1.1927074194	41774.824373	25388.3575439	3381.29276405	429.535217507	13224560.1181	67440446.9011	0
11100000.0	77400.0	720437355.75	0.341289394546	174403.112793	0.777762557846	1.19248342514	41787.6941342	25402.9251099	3365.39981772	431.801931703	4510119.70269	67445365.9304	0
11125000.0	77601.0	725941427.789	0.341179846827	174402.34375	0.781513284892	1.19226872921	41800.9005262	25417.6574707	3349.83902124	435.097961838	796263.780271	67450285.4775	0
11150000.0	77803.0	731472348.527	0.341066736165	174402.233887	0.785259588156	1.19205904007	41814.8116972	25432.9406738	3334.27329449	438.449910228	1130531.18452	67455205.5427	0
11175000.0	78004.0	737030261.002	0.340951316916	174401.77002	0.789025449194	1.19186139107	41829.3048717	25448.5717773	3319.03497865	440.670709713	19958597.4602	67460126.1258	0
11200000.0	78205.0	742615223.234	0.34083345536	174401.416016	0.792799051851	1.19167172909	41844.4096871	25464.6255493	3303.94973876	445.094681308	11528744.0392	67465047.227	0
11225000.0	78407.0	748227207.539	0.340712464721	174401.733398	0.796567939688	1.1914857626	41860.095799	25481.1416626	3288.85361884	448.479444295	19358775.5177	67469968.8462	0
11250000.0	78608.0	753866353.795	0.340590121783	174401.672363	0.800356501713	1.19131052494	41876.2302213	25497.8912354	3274.06731679	450.708307585	1440302.91384	67474890.9835	0
11275000.0	78809.0	759532720.162	0.340465987364	174401.782227	0.804152281489	1.19114124775	41892.795806	25514.9230957	3259.42980169	454.060710695	772900.074973	67479813.6389	0
11300000.0	79010.0	765226360.477	0.340340452106	174402.001953	0.80795539543	1.19097793102	41909.7465701	25532.1990967	3244.9325451	456.28674295	21573009.6707	67484736.8125	0
11325000.0	79210.0	770947419.737	0.340214485062	174401.855469	0.811778532807	1.19082331657	41926.9738651	25549.5819092	3230.73032946	459.606850088	13388086.5094	67489660.5043	0
11350000.0	79411.0	776695867.032	0.34008698428	174402.392578	0.815596547909	1.19066977501	41944.5499888	25567.2393799	3216.50904553	464.139193894	20179651.9902	67494584.7143	0
11375000.0	79612.0	782471756.19	0.339958835055	174403.088379	0.819421838969	1.19052064419	41962.3739922	25585.0234985	3202.44529663	466.370501259	1431901.63128	67499509.4425	0
11400000.0	79812.0	788275229.633	0.33983136058	174403.393555	0.823266454972	1.1903783083	41980.3009578	25602.7862549	3188.72661511	469.711939148	908306.865905	67504434.6891	0
11425000.0	80013.0	794106254.384	0.339703046221	174404.394531	0.827105948702	1.1902358532	41998.4577226	25620.7244873	3175.04229935	473.103026834	5707394.70307	67509360.454	0
11450000.0	80213.0	799964972.987	0.339574278878	174405.004883	0.830965000205	1.19010090828	42016.8653358	25638.760376	3161.69093841	475.261325316	13534938.2849	67514286.7372	0
11475000.0	80413.0	805851445.961	0.339443356481	174405.700684	0.834832026158	1.18997240067	42035.7548332	25657.119751	3148.50979794	478.602526513	6320599.56496	67519213.5388	0
11500000.0	80613.0	811765730.798	0.33931064097	174406.518555	0.838706619106	1.18984973431	42055.070508	25675.7537842	3135.50410036	481.945744953	1167606.65312	67524140.8588	0
11525000.0	80813.0	817707884.559	0.339176465803	174407.446289	0.842588837259	1.18973219395	42074.7712436	25694.6502686	3122.65840921	485.292802829	1389910.16201	67529068.6973	0
11550000.0	81013.0	823677965.693	0.339041163436	174408.47168	0.846478389576	1.18961966038	42094.8107588	25713.7542725	3109.9711963	488.643634468	6950019.91433	67533997.0543	0
11575000.0	81213.0	829676030.609	0.338905065302	174409.570312	0.850375799928	1.18951177597	42115.1301298	25733.026123	3097.44095582	490.767708113	12611154.3931	67538925.9297	0
11600000.0	81412.0	835702224.477	0.338769350009	174410.266113	0.854292651638	1.18941116333	42135.6111888	25752.3223877	3085.19831053	494.070317585	5304061.98943	67543855.3238	0
11625000.0	81612.0	841756515.244	0.338632595086	174411.572266	0.858204788528	1.1893119812	42156.3790721	25771.8353271	3072.95344431	498.67258306	36558361.0599	67548785.2363	0
11650000.0	81812.0	847838958.827	0.338496005165	174412.976074	0.862124259584	1.18921661377	42177.3156469	25791.4215088	3060.8546353	500.785453745	2489826.85398	67553715.6675	0
11675000.0	82011.0	853949699.525	0.338360699115	174413.964844	0.866063463036	1.18912756443	42198.2646019	25810.9161377	3049.02440189	502.839202286	20459483.0375	67558646.6173	0
11700000.0	82210.0	860088793.638	0.338226101228	174415.014648	0.870010058861	1.18904209137	42219.2891171	25830.4046631	3037.3199278	506.153861901	11451607.428	67563578.0858	0
11725000.0	82409.0	866256296.03	0.338092455216	174416.162109	0.873963697813	1.18896019459	42240.3660118	25849.8657227	3025.74011459	509.474368358	4349371.30183	67568510.073	0
11750000.0	82608.0	872452262.169	0.337959731721	174417.382812	0.877924845554	1.18888163567	42261.4828656	25869.2962646	3014.27725877	512.801409036	113640.80556	67573442.5789	0
11775000.0	82807.0	878676751.74	0.337826023992	174418.676758	0.881893443875	1.18880927563	42282.9408162	25888.9282227	3002.9369587	516.133736781	3344460.28319	67578375.6036	0
11800000.0	83006.0	884929820.584	0.337691443242	174420.019531	0.885869725607	1.18874359131	42304.7385013	25908.7463379	2991.70173291	519.473895861	10339538.3561	67583309.1471	0
11825000.0	83205.0	891211528.085	0.337556236181	174421.386719	0.889853748959	1.18868303299	42326.7985851	25928.7109375	2980.58053802	522.820011837	19686506.2875	67588243.2094	0
11850000.0	83404.0	897521933.47	0.337420675888	174422.77832	0.893845339306	1.18862736225	42349.0817433	25948.7915039	2969.55937202	524.852299592	3716340.20119	67593177.7906	0
11875000.0	83602.0	903861183.753	0.337286092364	174423.718262	0.897857302334	1.18857872486	42371.4208489	25968.8049316	2958.77062009	528.15603052	35562.9114181	67598112.8907	0
11900000.0	83801.0	910229244.923	0.337150776018	174425.195312	0.901863910258	1.18853139877	42394.00432	25988.9984131	2947.94661939	531.517830711	4351515.80731	67603048.5097	0
11925000.0	83999.0	916626266.539	0.337017003421	174426.196289	0.90589094907	1.18848967552	42416.5382858	26009.0545654	2937.34603986	533.490698743	19596632.973	67607984.6476	0
11950000.0	84197.0	923052306.11	0.336883986335	174427.22168	0.909925496671	1.18845081329	42439.1015785	26029.0771484	2926.83178185	536.811478193	10429933.2125	67612921.3046	0
11975000.0	84395.0	929507420.118	0.336752101618	174428.271484	0.913967494853	1.1884137392	42461.6284044	26049.0264893	2916.40639274	540.140694014	3414070.61399	67617858.4806	0
12000000.0	84593.0	935991666.215	0.336621616893	174429.321289	0.918017118238	1.18837845325	42484.0952177	26068.8751221	2906.06280887	543.479343958	121464.57256	67622796.1756	0
12025000.0	84791.0	942505100.666	0.336492879969	174430.395508	0.922073959373	1.18834412098	42506.4314231	26088.5772705	2895.79724321	546.828198269	4587281.1348	67627734.3898	0
12050000.0	84989.0	949047779.892	0.336365967877	174431.481934	0.926138134673	1.18831026554	42528.6010756	26108.102417	2885.60912762	550.187127442	12122629.9719	67632673.1231	0
12075000.0	85187.0	955619743.025	0.336240202724	174432.60498	0.930207199417	1.18827807903	42550.7465489	26127.5695801	2875.48842777	552.161470996	11550993.7536	67637612.3755	0
12100000.0	85384.0	962221159.849	0.336115285758	174433.154297	0.934299838264	1.18825149536	42572.9121685	26146.9665527	2865.56367949	555.482778072	4332676.02059	67642552.1472	0
12125000.0	85582.0	968851996.139	0.335989761787	174434.143066	0.93838700559	1.18822586536	42595.3109597	26166.5435791	2855.58853167	558.865277062	62863.3718322	67647492.4381	0
12150000.0	85779.0	975512405.357	0.335865514909	174434.643555	0.942495185882	1.1882058382	42617.6633254	26185.9863281	2845.79808303	562.208181115	3568795.31642	67652433.2482	0
12175000.0	85977.0	982202352.902	0.335741171764	174435.546875	0.9465974872	1.18818640709	42640.1767642	26205.5450439	2835.94778707	565.614755625	10748586.099	67657374.5777	0
12200000.0	86174.0	988921989.805	0.335618773669	174435.9375	0.950721267145	1.18817162514	42662.5345762	26224.8840332	2826.27742995	567.541117742	14392172.9243	67662316.4265	0
12225000.0	86371.0	995671378.019	0.335497538223	174436.218262	0.954852614086	1.18815910816	42684.8520416	26244.1345215	2816.66478851	570.911657428	6458325.90006	67667258.7946	0
12250000.0	86568.0	1002450574.8	0.33537775799	174436.450195	0.958991760854	1.18814897537	42707.0851862	26263.2507324	2807.10641579	574.294917366	1025404.50544	67672201.6822	0
12275000.0	86765.0	1009259640.78	0.335259697927	174436.59668	0.963138765655	1.18814063072	42729.190758	26282.2052002	2797.60198094	577.690860384	1713304.04696	67677145.0892	0
12300000.0	86962.0	1016098634.87	0.335143461608	174436.669922	0.967293395661	1.18813419342	42751.1447393	26300.9643555	2788.14503295	581.100899619	7634750.93976	67682089.0157	0
12325000.0	87159.0	1022967615.01	0.335029339701	174436.682129	0.971455709077	1.18812918663	42772.9142405	26319.5068359	2778.73530764	584.52502012	15866193.7402	67687033.4616	0
12350000.0	87356.0	1029866641.99	0.334917488429	174436.572266	0.975625880528	1.18812596798	42794.4560598	26337.7868652	2769.36950184	586.471488068	11259801.4112	67691978.4272	0
12375000.0	87552.0	1036795867.53	0.334808999084	174435.81543	0.979817006737	1.18812561035	42815.6231722	26355.657959	2760.15951308	589.864095084	4480283.7378	67696923.9123	0
12400000.0	87749.0	1043755260.3	0.334700660128	174435.498047	0.984002836049	1.18812739849	42836.9350556	26373.5870361	2750.88048023	593.323237467	234496.829217	67701869.917	0
12425000.0	87945.0	1050744975.02	0.3345938593	174434.49707	0.988209969364	1.18813633919	42858.1948524	26391.3299561	2741.75305195	596.745008746	2708613.50122	67706816.4413	0
12450000.0	88142.0	1057764977.26	0.334487126608	174433.874512	0.99241186399	1.18814706802	42879.6048923	26409.1400146	2732.55089855	600.235111423	8912501.70806	67711763.4853	0
12475000.0	88338.0	1064815424.51	0.334382248061	174432.60498	0.996635179035	1.18816280365	42900.8660686	26426.7181396	2723.49325869	602.152631463	20609009.756	67716711.0491	0
12500000.0	88534.0	1071896379.51	0.334278714046	174431.152344	1.00086664315	1.18818092346	42922.0387771	26444.1589355	2714.47160312	606.184134259	0.0	67721659.1325	0
