z	T	P	nabla_ad	S	rho	delta	cp	cv	opac	frad	fconv	ftot	dT
0.0	3900.0	96.7252465121	0.388318119291	175808.691406	3.8970404681e-06	1.00632119179	16559.6209812	10117.6010132	0.000529364003285	0.0	12998.1069011	65311815.0903	0
25000.0	3900.0	127.454408693	0.384812053488	174039.404297	5.13582865125e-06	1.00830566883	16759.6431368	10294.0338135	0.000631773533138	0.0	17352.7211483	65316507.3538	0
50000.0	3900.0	167.956873091	0.380311863954	172266.28418	6.76914790887e-06	1.01090669632	17022.1583743	10525.5889893	0.000752850091529	0.0	23621.6826156	65321200.1229	0
75000.0	3900.0	221.347734881	0.374586948243	170488.085938	8.92313689604e-06	1.01437067986	17368.3548817	10830.1399231	0.000895186155066	0.0	31208.9166874	65325893.3976	0
100000.0	3900.0	291.738932232	0.367374305825	168703.271484	1.17645466702e-05	1.01894235611	17822.5880593	11229.6386719	0.00106284065353	0.0	41197.6381524	65330587.1781	0
125000.0	3900.0	384.56227899	0.358405578212	166909.277344	1.5514276086e-05	1.0248516798	18417.2934558	11753.1570435	0.00126118367724	0.0	54229.0127662	65335281.4644	0
150000.0	3900.0	506.997532204	0.347416946738	165103.57666	2.0464975492e-05	1.03264427185	19196.153855	12437.6373291	0.00149689440123	0.0	71409.6631278	65339976.2566	0
175000.0	3900.0	668.544258952	0.334232763896	163281.860352	2.70054947293e-05	1.04293692112	20214.0133255	13330.4107666	0.001775334588	0.0	94063.8013601	65344671.5548	0
200000.0	3900.0	881.787676119	0.318768090906	161439.709473	3.56535672097e-05	1.05631768703	21539.744806	14491.6152954	0.00210510449578	0.0	123982.833579	65349367.3591	0
225000.0	3900.0	1163.42729487	0.301114415903	159570.385742	4.71004781843e-05	1.07366895676	23258.4794426	15994.5739746	0.00249866034216	27437475.0	160217.739883	65354063.6694	0
250000.0	3909.0	1534.60078126	0.284432697244	157728.442383	6.20716633648e-05	1.09309577942	25131.9445223	17623.7701416	0.00302504918921	0.0	216394.918069	65358760.4858	0
275000.0	3900.0	2026.69300874	0.260761167233	155722.216797	8.23600601052e-05	1.12562954426	28322.9801672	20398.223877	0.00354265745404	29512064.9357	268858.265384	65363457.8085	0
300000.0	3933.0	2671.3662857	0.250276483556	153990.771484	0.000107807693439	1.14455139637	30003.1575404	21833.2901001	0.00448998906304	22805437.4919	350606.511232	65368155.6374	0
325000.0	3930.0	3524.81035714	0.228012917404	151934.619141	0.000142839397199	1.18910431862	34237.9141027	25476.2786865	0.00532592310352	30885531.2714	414944.880374	65372853.9727	0
350000.0	3997.0	4630.03071656	0.228609152032	150447.644043	0.000184574616924	1.19234025478	34180.8918302	25380.0430298	0.00704187509141	27635380.7077	497942.537563	65377552.8144	0
375000.0	4023.0	6075.15726576	0.216367438534	148615.563965	0.000241270498691	1.22528731823	37039.2389792	27793.1335449	0.00869682990726	30967717.4188	475936.061283	65382252.1626	0
400000.0	4161.0	7894.14536881	0.237855585056	147773.876953	0.000302137465269	1.18147325516	32424.709134	23778.9596558	0.0128823792502	27448081.9494	454139.253786	65386952.0172	-1
425000.0	4268.0	10189.2131327	0.248540802654	146651.416016	0.00037990972146	1.16490697861	30537.6010453	22116.494751	0.0180755103661	30746023.1228	110070.429177	65391652.3785	0
450000.0	4608.0	12886.512703	0.312953905097	146927.722168	0.000441765394044	1.07615828514	22208.1358709	14927.243042	0.0326989687467	27379518.3411	4284.16106066	65396353.2465	-3
475000.0	4934.0	16040.0628653	0.350122058028	146836.05957	0.000512345877723	1.04075157642	19070.4109649	12223.4962463	0.0485965983513	29371808.3835	0.185338914854	65401054.6211	-1
500000.0	5612.0	19433.3833279	0.383715187964	147859.936523	0.000543974692846	1.01188075542	16810.2726333	10305.72052	0.0703886062166	26874710.5145	0.0532199295606	65405756.5026	-5
525000.0	5895.0	23331.494524	0.385507228794	147481.762695	0.000622089430635	1.00930154324	16675.0883471	10199.9542236	0.0970228586284	27057041.085	14.7562970943	65410458.8909	0
550000.0	6926.0	27249.020521	0.366317319248	149229.858398	0.000616797876773	1.01155018806	17527.370127	11012.9570007	0.327397834697	31548099.4055	42924.8032549	65415161.7861	-9
575000.0	9044.0	30638.5181197	0.213402778675	154639.733887	0.000524005372426	1.1419942379	33865.8028522	25502.2216797	3.7072397208	7346130.23317	14496364.9646	65419865.1883	-9
600000.0	10114.0	33941.3237682	0.153358318373	158792.76123	0.000507127651872	1.34113883972	56516.5284746	44835.0097656	10.5070961399	2159153.51752	21280943.423	65424569.0975	-1
625000.0	10887.0	37218.826758	0.128288539593	163042.810059	0.000500965256833	1.56187903881	81180.6104565	65070.0012207	20.1740623093	861247.255823	18467793.1968	65429273.5139	-4
650000.0	11228.0	40643.1960267	0.122009841065	164783.984375	0.000522422055838	1.66265237331	92386.2160833	73967.1203613	26.2252435495	524426.372977	14704189.7054	65433978.4373	-1
675000.0	11728.0	44109.0734233	0.114442927623	168325.98877	0.00052730644029	1.836591959	112188.038219	89326.4770508	36.8339806248	344281.13688	15215722.7323	65438683.868	-2
700000.0	11913.0	47774.9975476	0.113211242481	169079.992676	0.000557243254207	1.88450694084	117505.897833	93302.3620605	41.8245111783	223824.499121	8978711.22124	65443389.806	-1
725000.0	12239.0	51552.9104927	0.110580039646	171394.494629	0.000573322267883	1.99120676517	129954.810914	102580.59082	50.8547462285	175369.970433	9310944.43425	65448096.2513	-1
750000.0	12374.0	55558.3675444	0.110355860013	171743.481445	0.000607432752986	2.01782035828	132831.041329	104610.620117	55.5328229967	124707.933239	5309185.42856	65452803.204	-1
775000.0	12607.0	59729.5566439	0.109366952568	173218.579102	0.000631797547612	2.08259773254	140478.39531	110129.858398	63.2427299725	104338.720846	5295554.76292	65457510.6642	0
800000.0	12719.0	64152.5062234	0.109465141037	173383.26416	0.000669548285259	2.09905838966	142178.405361	111254.980469	67.8622978566	66557.2031657	953224.413584	65462218.6319	0
825000.0	12850.0	68822.7534131	0.10946333552	173770.471191	0.00070655505624	2.1222922802	144738.779512	112994.799805	73.2794376952	56761.9203724	629925.436406	65466927.1071	0
850000.0	12948.0	73777.0670342	0.109710708025	173756.37207	0.000749280104628	2.1316549778	145544.949396	113450.671387	77.9042713241	44085.830266	14554.5322843	65471636.09	0
875000.0	13046.0	79030.0094917	0.109970237299	173729.064941	0.000794123366177	2.1402361393	146247.834216	113825.756836	82.728424335	40271.3299869	4849.0197861	65476345.5805	0
900000.0	13145.0	84594.7399258	0.110234276854	173739.941406	0.000840831376081	2.1494281292	147049.447104	114273.046875	87.7862725477	36665.0963623	3806.65916885	65481055.5789	0
925000.0	13243.0	90486.1428902	0.110515857165	173756.298828	0.000889773616564	2.15825605392	147821.341406	114698.828125	93.0170587997	33266.9842889	12278.0785876	65485766.085	0
950000.0	13341.0	96719.0626841	0.110809511279	173772.729492	0.000940966515373	2.16666460037	148548.149852	115089.892578	98.4617467735	30382.2455969	11756.9074784	65490477.0989	0
975000.0	13439.0	103309.521209	0.111115338051	173764.929199	0.000994627043838	2.17423057556	149158.443822	115391.85791	104.131112721	27781.5525342	11782.3332684	65495188.6208	0
1000000.0	13537.0	110274.860917	0.111427001742	173738.903809	0.00105082506252	2.18105077744	149673.489431	115622.521973	110.031013156	25434.2054702	12196.5310276	65499900.6506	0
1025000.0	13635.0	117631.870456	0.111743943432	173737.231445	0.00110938822218	2.18799185753	150234.992873	115890.551758	116.160435439	23319.5447359	12419.4283591	65504613.1885	0
1050000.0	13733.0	125397.048247	0.112069711821	173752.722168	0.00117041281555	2.19491314888	150815.571557	116173.913574	122.526529651	21410.3359327	12616.1757716	65509326.2344	0
1075000.0	13831.0	133587.738979	0.112405337393	173771.923828	0.00123405425256	2.20150446892	151364.466908	116433.520508	129.137682991	19682.0315646	13034.2117061	65514039.7885	0
1100000.0	13929.0	142222.532695	0.112751065305	173775.817871	0.00130053786052	2.20746183395	151826.327576	116626.953125	136.005242991	18112.4661859	14066.0725457	65518753.8507	0
1125000.0	14027.0	151321.6083	0.113105184836	173749.829102	0.00137007441481	2.21263504028	152169.099237	116729.907227	143.139839746	16683.460251	16033.3328313	65523468.4212	0
1150000.0	14125.0	160905.427306	0.113466974793	173738.891602	0.00144245314004	2.21773672104	152524.316497	116843.835449	150.538502193	15385.530953	18263.4688434	65528183.5	0
1175000.0	14223.0	170993.388305	0.113837500468	173747.045898	0.00151766175804	2.22281718254	152900.172386	116974.719238	158.195958785	14279.3958083	3636.18559324	65532899.0871	0
1200000.0	14322.0	181603.694897	0.114214584118	173775.317383	0.00159560204338	2.22792625427	153294.696352	117118.29834	166.158986388	13202.8949513	4375.99384093	65537615.1826	0
1225000.0	14420.0	192759.082473	0.11460103751	173788.354492	0.00167698431142	2.23231458664	153599.082035	117197.021484	174.341188961	12158.0297269	26442.0777725	65542331.7865	0
1250000.0	14518.0	204482.237054	0.114992964937	173778.869629	0.00176184414613	2.23607397079	153809.856327	117205.67627	182.801125217	11263.4243537	31368.0458655	65547048.8989	0
1275000.0	14616.0	216797.568501	0.115392902789	173751.782227	0.00185028920896	2.23950743675	153967.202838	117174.353027	191.544723573	10497.4151186	11756.1701257	65551766.5199	0
1300000.0	14715.0	229726.735843	0.115799366325	173754.736328	0.00194170183931	2.2431435585	154177.087634	117182.348633	200.616979436	9746.24103572	15447.8940442	65556484.6494	0
1325000.0	14813.0	243294.568051	0.116213752194	173761.328125	0.00203680110644	2.24636125565	154352.607326	117168.762207	209.92211864	9057.92714328	20211.0706049	65561203.2876	0
1350000.0	14912.0	257522.815461	0.116633397691	173784.008789	0.00213514636016	2.24945402145	154527.573746	117154.516602	219.574700112	8427.60775361	25440.8583113	65565922.4345	0
1375000.0	15010.0	272438.844625	0.117057979633	173789.916992	0.00223763163376	2.25183582306	154614.214474	117078.186035	229.480059151	7847.20698641	32675.0977011	65570642.0901	0
1400000.0	15109.0	288067.039546	0.11748979756	173788.012695	0.00234384242503	2.25403523445	154670.335604	116977.832031	239.760913798	7350.31428803	9346.33596092	65575362.2545	0
1425000.0	15208.0	304435.757413	0.117929242859	173768.676758	0.00245423098022	2.25604081154	154689.076923	116849.865723	250.373671193	6855.16262493	15953.1578103	65580082.9277	0
1450000.0	15307.0	321573.010732	0.118374713878	173764.379883	0.00256846647062	2.25791120529	154711.525807	116726.843262	261.311548587	6399.45933959	24080.7314103	65584804.1097	0
1475000.0	15406.0	339505.741171	0.11882540787	173772.033691	0.00268667213277	2.2595334053	154720.532741	116596.020508	272.586857749	5979.37289452	33867.0238673	65589525.8007	0
1500000.0	15505.0	358261.907601	0.119280116757	173784.70459	0.00280904419014	2.26079154015	154695.799072	116442.260742	284.212284276	5591.38551532	45706.3165332	65594248.0007	0
1525000.0	15604.0	377870.380468	0.119741942557	173796.459961	0.00293575385513	2.26171445847	154635.909181	116264.257812	296.201938434	5258.88551825	15083.7052117	65598970.7096	0
1550000.0	15704.0	398358.479333	0.120213174042	173807.885742	0.00306660422211	2.26254844666	154564.091411	116076.5625	308.636210826	4925.15247386	25426.0333105	65603693.9276	0
1575000.0	15803.0	419761.912716	0.120687323478	173785.754395	0.00320289291267	2.2630341053	154425.810821	115841.772461	321.415080681	4614.27400199	40898.2690229	65608417.6547	0
1600000.0	15903.0	442111.683508	0.121165970095	173775.646973	0.00334339028996	2.26349544525	154294.550603	115612.109375	334.660028489	4348.27100468	10576.4246363	65613141.891	0
1625000.0	16003.0	465439.742727	0.121648089753	173776.623535	0.00348847197529	2.26369071007	154146.037001	115372.094727	348.297012225	4080.27632576	22509.6029076	65617866.6364	0
1650000.0	16103.0	489777.655446	0.122137134278	173786.767578	0.00363822846339	2.26360917091	153978.014622	115120.214844	362.335295714	3831.6878098	38367.8562847	65622591.891	0
1675000.0	16203.0	515157.819584	0.122635763213	173802.038574	0.00379281300411	2.26329278946	153790.869212	114856.225586	376.785473317	3600.81709135	58887.6242893	65627317.6548	0
1700000.0	16303.0	541614.462285	0.123141213299	173813.916016	0.00395253800889	2.26274251938	153575.588314	114572.924805	391.666555523	3402.87856395	19679.7671212	65632043.928	0
1725000.0	16404.0	569180.26688	0.123651751152	173821.203613	0.0041172102101	2.2621076107	153342.816375	114275.830078	407.067869638	3201.95943315	38944.5035049	65636770.7105	0
1750000.0	16504.0	597898.412662	0.124158027445	173795.898438	0.00428839484812	2.26122283936	153055.890995	113941.210938	422.87417779	3013.68684152	66850.0148256	65641498.0024	0
1775000.0	16605.0	627804.395755	0.124671223544	173785.498047	0.00446433750767	2.26023483276	152772.994967	113610.449219	439.208393798	2852.86163818	23734.0269817	65646225.8037	0
1800000.0	16706.0	658934.38403	0.125193597238	173787.390137	0.00464549111712	2.25901651382	152481.39799	113276.062012	456.003786212	2689.11310751	48640.1563775	65650954.1145	0
1825000.0	16807.0	691325.084257	0.125723728313	173797.277832	0.00483206895296	2.2575545311	152173.466686	112932.080078	473.262133308	2536.4566318	81448.9444851	65655682.9347	0
1850000.0	16908.0	725014.798848	0.126259782016	173809.655762	0.0050243397709	2.255849123	151842.363213	112573.022461	490.984402343	2405.83816721	31108.1309312	65660412.2645	0
1875000.0	17010.0	760039.111693	0.12680209019	173826.745605	0.00522191794516	2.25398850441	151495.792137	112202.758789	509.259874693	2283.56804829	252.428252357	65665142.1038	0
1900000.0	17112.0	796439.403086	0.12734847389	173833.959961	0.00542572888662	2.25194334984	151121.059732	111813.391113	528.028305153	2158.03031368	16294.2497173	65669872.4527	0
1925000.0	17214.0	834259.474018	0.127896950217	173823.181152	0.00563619050808	2.24984264374	150726.203488	111410.510254	547.309930155	2040.31359226	48276.7862205	65674603.3113	0
1950000.0	17316.0	873545.482461	0.128448118041	173807.470703	0.0058530890783	2.24765634537	150320.827724	111001.623535	567.098545097	1930.0545489	94259.4081151	65679334.6795	0
1975000.0	17418.0	914341.155263	0.129005064727	173801.086426	0.00607609126746	2.24525570869	149904.308318	110586.889648	587.383325475	1835.87525788	37319.4525087	65684066.5575	0
2000000.0	17521.0	956683.935645	0.129570568643	173809.570312	0.00630457498119	2.24266862869	149480.626493	110167.590332	608.254754258	1739.12002224	82098.5449804	65688798.9451	0
2025000.0	17623.0	1000622.35151	0.130140042753	173814.51416	0.0065402537075	2.23976016045	149025.819664	109729.602051	629.559786866	1648.17059234	143182.034914	65693531.8426	0
2050000.0	17726.0	1046195.30436	0.130721755566	173829.394531	0.00678168726154	2.23667836189	148559.686146	109283.92334	651.472636853	1578.37064198	2596.07274841	65698265.2498	0
2075000.0	17830.0	1093443.2532	0.131312819504	173848.303223	0.00702914530848	2.2334895134	148082.781168	108830.615234	674.008318408	1497.9487288	17129.6997927	65702999.1668	0
2100000.0	17933.0	1142421.193	0.131899861235	173847.338867	0.00728488339519	2.23022890091	147582.410513	108362.487793	696.989051229	1422.07002351	65099.1366932	65707733.5937	0
2125000.0	18037.0	1193175.56696	0.132486885412	173835.681152	0.00754761958888	2.2270731926	147080.452022	107892.199707	720.604566672	1350.81725583	136494.341272	65712468.5306	0
2150000.0	18140.0	1245765.84182	0.133073407413	173814.782715	0.00781859307608	2.22378635406	146561.810312	107412.792969	744.668570076	1289.8045361	65041.0373154	65717203.9773	0
2175000.0	18245.0	1300228.13642	0.13367866717	173819.006348	0.00809451739769	2.22031807899	146043.090333	106932.93457	769.429296534	1232.70330843	11170.777143	65721939.934	0
2200000.0	18349.0	1356617.50377	0.134286499877	173821.386719	0.00837854986457	2.21661758423	145503.199619	106441.19873	794.64898503	1172.95040068	65673.1218242	65726676.4007	0
2225000.0	18454.0	1414977.22863	0.134904970614	173834.838867	0.00866893060447	2.21273946762	144953.269224	105942.883301	820.519158669	1122.21725657	10218.9956471	65731413.3773	0
2250000.0	18559.0	1475358.91852	0.135527579285	173847.973633	0.00896694382391	2.20868349075	144386.219189	105434.094238	846.974379939	1069.07614507	69242.1518125	65736150.864	0
2275000.0	18664.0	1537815.07537	0.136156633314	173858.483887	0.00927275959839	2.20444297791	143800.356928	104913.647461	874.028228529	1018.91830331	164483.744174	65740888.8608	0
2300000.0	18769.0	1602400.90227	0.136788672188	173861.450195	0.00958682176133	2.20012640953	143202.584338	104386.108398	901.706603969	976.126956601	80927.3888359	65745627.3676	0
2325000.0	18875.0	1669167.10914	0.137424201826	173858.483887	0.00990848184301	2.19586896896	142605.656657	103859.057617	930.126673634	935.594966182	18494.5080693	65750366.3846	0
2350000.0	18981.0	1738175.1441	0.138055548552	173843.103027	0.0102390404209	2.19171619415	142011.241468	103334.82666	959.218135744	892.805467595	102205.259937	65755105.9117	0
2375000.0	19087.0	1809484.28779	0.138692466225	173833.276367	0.0105776198325	2.18740296364	141406.393674	102804.968262	988.945823301	856.391840505	31276.7204477	65759845.949	0
2400000.0	19194.0	1883140.95701	0.139344925654	173837.487793	0.0109228894871	2.18283772469	140787.121506	102265.917969	1019.40452637	818.14885907	131290.744174	65764586.4964	0
2425000.0	19300.0	1959209.35556	0.139999309734	173838.769531	0.0112776078822	2.17809319496	140151.032585	101717.834473	1050.4298947	781.821876898	280911.274645	65769327.5541	0
2450000.0	19407.0	2037738.74965	0.140665671324	173849.047852	0.0116395376608	2.17319083214	139504.660178	101162.8479	1082.21888759	754.576350956	1187.04572692	65774069.122	0
2475000.0	19515.0	2118779.78501	0.141341769282	173865.136719	0.0120089080156	2.16818857193	138850.355865	100602.209473	1114.79486024	725.272638292	41421.1625607	65778811.2002	0
2500000.0	19623.0	2202392.65693	0.142023407174	173877.856445	0.0123871959659	2.16307663918	138181.281391	100031.842041	1148.07657471	690.925400734	230655.723726	65783553.7886	0
2525000.0	19730.0	2288649.47638	0.142701950302	173876.879883	0.0127762323245	2.1579554081	137502.748529	99456.5734863	1181.99755215	664.44032324	130479.200969	65788296.8873	0
2550000.0	19839.0	2377597.68549	0.143390890655	173878.430176	0.0131723163577	2.15287971497	136828.563159	98883.2885742	1216.86063178	639.37613823	49075.3137459	65793040.4964	0
2575000.0	19947.0	2469316.93954	0.144065600672	173860.559082	0.0135800619319	2.14803123474	136168.135183	98321.8811035	1252.40817963	612.470538046	203464.997549	65797784.6158	0
2600000.0	20056.0	2563866.21219	0.14474837867	173852.111816	0.0139956173371	2.14308547974	135507.530072	97761.4868164	1288.73802353	589.757002242	103769.417506	65802529.2456	0
2625000.0	20165.0	2661307.88737	0.145441371125	173848.754883	0.0144201585499	2.13786315918	134826.332228	97188.6657715	1325.68789835	568.156288756	28167.9109537	65807274.3857	0
2650000.0	20275.0	2761693.81438	0.146151836919	173856.176758	0.0148522249219	2.13234162331	134123.757861	96601.6845703	1363.3603295	547.700894906	7639.19817044	65812020.0363	0
2675000.0	20385.0	2865087.3794	0.14687112933	173865.966797	0.0152935681399	2.12662172318	133405.306053	96005.2185059	1401.6923352	525.815832593	89183.0377686	65816766.1973	0
2700000.0	20495.0	2971553.90477	0.14759705897	173876.245117	0.015744495613	2.12077784538	132676.386119	95402.8320312	1440.70656385	507.308461574	19362.5861958	65821512.8687	0
2725000.0	20606.0	3081149.46674	0.148334417881	173891.137695	0.0162036485563	2.11483645439	131940.566361	94795.9228516	1480.52220248	487.512742808	190628.443654	65826260.0506	0
2750000.0	20716.0	3193955.09652	0.14906513013	173895.178223	0.0166748031916	2.10898208618	131208.611145	94193.6889648	1520.99057206	470.677886018	94371.8015252	65831007.7429	0
2775000.0	20828.0	3310020.36386	0.149807935431	173904.35791	0.0171532483364	2.10314774513	130480.517344	93593.4082031	1562.42099156	454.719397962	22473.8723328	65835755.9457	0
2800000.0	20939.0	3429432.62603	0.150535593668	173896.252441	0.0176447065314	2.09758925438	129771.506104	93008.2885742	1604.57820705	437.358625821	219916.481213	65840504.659	0
2825000.0	21051.0	3552259.08247	0.151262597721	173884.997559	0.0181457235158	2.09219551086	129078.236067	92434.5458984	1647.65942474	422.731710999	114980.411414	65845253.8829	0
2850000.0	21163.0	3678576.14353	0.151990092443	173876.318359	0.0186571032827	2.0868074894	128389.706218	91865.625	1691.54627119	408.720543903	32949.6290195	65850003.6173	0
2875000.0	21276.0	3808443.78999	0.152725530748	173876.037598	0.0191770923266	2.08135867119	127701.917005	91297.9736328	1736.34088159	395.36751752	7035.2914239	65854753.8622	0
2900000.0	21389.0	3941932.42716	0.153470569157	173878.369141	0.0197073350137	2.07569694519	126996.432012	90719.4030762	1781.95190007	380.887180325	145603.980317	65859504.6177	0
2925000.0	21502.0	4079112.80533	0.154227766502	173882.836914	0.0202478895517	2.06978058815	126268.784875	90126.751709	1828.39765587	368.682362969	56197.7181867	65864255.8838	0
2950000.0	21616.0	4220043.78016	0.155002587993	173893.896484	0.0207969933399	2.06361556053	125521.453067	89520.9899902	1875.77594264	357.042306367	2284.98273065	65869007.6605	0
2975000.0	21730.0	4364799.13188	0.15578406521	173904.003906	0.0213569001062	2.05734086037	124764.711168	88909.9914551	1924.0248721	344.354275283	225823.36888	65873759.9478	0
3000000.0	21844.0	4513455.10131	0.156568646269	173911.376953	0.0219280045712	2.05103683472	124005.692836	88298.6877441	1973.16170343	333.664917939	124992.576622	65878512.7458	0
3025000.0	21959.0	4666076.39569	0.157360957622	173919.519043	0.022508596885	2.04471945763	123247.167216	87688.2263184	2023.29348763	323.443595969	45598.9434968	65883266.0543	0
3050000.0	22074.0	4822744.43205	0.158148244674	173920.373535	0.0231011999858	2.03854608536	122501.329821	87087.7929688	2074.35957736	312.243007642	368989.257357	65888019.8735	0
3075000.0	22189.0	4983544.46395	0.158925670615	173911.291504	0.0237064268731	2.03260946274	121776.136601	86502.923584	2126.38764785	302.800773899	246582.418618	65892774.2033	0
3100000.0	22305.0	5148549.02857	0.159704672101	173903.051758	0.0243215727096	2.02676844597	121063.466481	85927.4169922	2179.4358837	295.030695998	138091.660382	65897529.0438	0
3125000.0	22422.0	5317825.37304	0.160490770766	173902.575684	0.024945824407	2.02090334892	120355.321252	85355.8105469	2233.44703782	285.131893287	48977.5081837	65902284.395	0
3150000.0	22538.0	5491468.84463	0.161265844355	173898.254395	0.0255839804595	2.01517319679	119661.902816	84796.4782715	2288.17607805	275.603571116	406096.121465	65907040.2569	0
3175000.0	22655.0	5669542.80088	0.162057769678	173900.842285	0.0262312714767	2.00921726227	118951.448969	84225.8056641	2343.72634776	268.827794419	55143.3027875	65911796.6295	0
3200000.0	22773.0	5852109.85208	0.162868527406	173909.716797	0.0268875883194	2.00300645828	118220.197289	83641.0766602	2400.08757655	260.129743896	161208.533571	65916553.5128	0
3225000.0	22890.0	6039266.08927	0.16367822709	173913.598633	0.0275579623121	1.99674916267	117483.921077	83054.5166016	2457.12152089	252.82265919	71372.8161765	65921310.9068	0
3250000.0	23009.0	6231060.52746	0.164510276558	173926.782227	0.0282353466901	1.9902806282	116732.461324	82457.208252	2515.03853368	245.891865499	11531.2052629	65926068.8116	0
3275000.0	23127.0	6427593.00441	0.1653351855	173932.739258	0.0289273921226	1.98389339447	115987.590845	81866.1437988	2573.64526912	238.170862323	392722.881569	65930827.2271	0
3300000.0	23246.0	6628932.65392	0.166167171233	173940.148926	0.0296294965665	1.97749996185	115244.450947	81276.7578125	2633.08857917	232.751887229	87500.1208167	65935586.1533	0
3325000.0	23366.0	6835150.09675	0.167002558768	173947.338867	0.0303419146803	1.97116625309	114509.002428	80693.2556152	2693.38136853	225.657896345	169576.396996	65940345.5903	0
3350000.0	23485.0	7046353.88834	0.167819364231	173942.687988	0.031070325349	1.9651196003	113798.680923	80128.90625	2754.42865931	219.70804385	77313.438938	65945105.5381	0
3375000.0	23606.0	7262602.89587	0.168640564468	173939.257812	0.031807256164	1.95918643475	113102.295449	79574.3041992	2816.42976224	214.042231921	11561.935555	65949865.9966	0
3400000.0	23726.0	7484009.69034	0.169444892871	173929.6875	0.0325597502524	1.9534842968	112429.639663	79038.1958008	2879.16255701	207.674762061	435821.536092	65954626.9659	0
3425000.0	23847.0	7710644.61034	0.170257358997	173926.5625	0.0333219722961	1.94771945477	111757.592265	78503.4790039	2942.72394522	203.267365358	114980.088936	65959388.4459	0
3450000.0	23969.0	7942573.57461	0.171087116597	173929.528809	0.0340936458088	1.94172465801	111068.732941	77957.8613281	3007.10408346	197.412417058	173782.171181	65964150.4368	0
3475000.0	24090.0	8179900.79645	0.171914797758	173928.90625	0.034880489693	1.93569290638	110377.509895	77412.322998	3072.21800595	192.533353024	77129.7810399	65968912.9385	0
3500000.0	24213.0	8422674.57183	0.172765198631	173937.95166	0.0356741584255	1.92943453789	109670.665934	76856.0424805	3138.23186676	187.894244544	13201.5135892	65973675.951	0
3525000.0	24335.0	8671001.53469	0.173608977144	173942.443848	0.0364833758795	1.92323422432	108969.625959	76305.3039551	3205.02015363	182.631087518	526331.284952	65978439.4743	0
3550000.0	24458.0	8924951.38286	0.174461633119	173950.585938	0.037302626879	1.91698253155	108267.075256	75754.0161133	3272.69080211	179.042335638	91167.7733147	65983203.5085	0
3575000.0	24582.0	9184594.3207	0.175320302108	173961.486816	0.0381320205634	1.91072916985	107567.372842	75205.2001953	3341.28394179	174.174970551	267346.060714	65987968.0534	0
3600000.0	24705.0	9450042.93041	0.176163933314	173965.50293	0.0389778797398	1.90468025208	106886.500531	74670.8740234	3410.73049717	170.130034957	152707.248774	65992733.1093	0
3625000.0	24830.0	9721350.90185	0.177016320448	173974.572754	0.0398314186896	1.89865124226	106211.672038	74140.814209	3481.19616607	166.270646584	59429.4736323	65997498.6759	0
3650000.0	24954.0	9998635.81271	0.177847053291	173974.609375	0.0407022052968	1.89292263985	105564.368455	73631.3415527	3552.59883691	162.493787915	240.058263496	66002264.7534	0
3675000.0	25080.0	10281954.8588	0.178682118497	173977.01416	0.0415812319261	1.88726353645	104927.224862	73129.1320801	3625.07596619	158.884746543	58875.5717873	66007031.3418	0
3700000.0	25205.0	10571429.6919	0.179502904578	173968.066406	0.042478008254	1.88175225258	104302.037688	72636.7553711	3698.51189245	154.733024246	352993.539307	66011798.441	0
3725000.0	25331.0	10867138.0736	0.180334119339	173962.62207	0.0433850073023	1.87611579895	103669.670368	72140.2709961	3772.76849025	151.355450799	208297.064526	66016566.051	0
3750000.0	25457.0	11169172.8488	0.181167856223	173958.569336	0.0443050885224	1.87041950226	103035.531175	71643.8537598	3847.77657626	148.087733172	89872.1339904	66021334.1719	0
3775000.0	25584.0	11477602.9701	0.182011423275	173959.631348	0.0452350141131	1.86461663246	102396.625658	71144.9707031	3923.55213808	144.952346159	10831.3531133	66026102.8037	0
3800000.0	25711.0	11792520.2466	0.182854129514	173961.584473	0.0461781892227	1.85881912708	101761.590593	70649.8901367	4000.07327869	141.916401571	35700.0920232	66030871.9463	0
3825000.0	25839.0	12113994.5231	0.183702905344	173967.980957	0.0471313360322	1.85298597813	101127.855197	70156.427002	4077.35703475	139.00132163	140341.369777	66035641.5998	0
3850000.0	25967.0	12442119.0041	0.184546653568	173974.536133	0.0480979579152	1.84723055363	100504.181465	69670.9289551	4155.37652588	135.646511921	302257.574316	66040411.7643	0
3875000.0	26095.0	12776988.9175	0.185383208911	173980.737305	0.0490783495479	1.84158957005	99893.6881039	69195.501709	4234.13571651	132.920098574	148448.59101	66045182.4396	0
3900000.0	26224.0	13118676.9746	0.186218933017	173989.941406	0.050069167628	1.83602666855	99294.204462	68728.2592773	4313.64876304	130.299189615	31244.9717524	66049953.6258	0
3925000.0	26353.0	13467281.1081	0.187045542155	173997.399902	0.0510741811013	1.8305927515	98708.6414176	68271.6125488	4393.9119792	127.261629211	767244.233118	66054725.3229	0
3950000.0	26482.0	13822900.9773	0.187868010296	174002.026367	0.0520936300745	1.82518959045	98127.4538961	67819.0551758	4474.93649675	124.801832113	525001.239742	66059497.5309	0
3975000.0	26612.0	14185612.997	0.188694042145	174006.945801	0.0531240802957	1.81976771355	97547.030427	67367.6696777	4556.70960144	122.905304418	355479.554507	66064270.2498	0
4000000.0	26743.0	14555493.7475	0.189522283024	174011.474609	0.0541655463167	1.8143556118	96969.4425716	66918.7866211	4639.22306859	120.155276943	135583.023938	66069043.4796	0
4025000.0	26873.0	14932671.8383	0.190334451569	174007.641602	0.0552258061361	1.80912649632	96407.2418198	66481.5551758	4722.50991349	117.466593087	1068558.28737	66073817.2203	0
4050000.0	27004.0	15317227.5586	0.19114592747	174001.843262	0.056297671108	1.80396568775	95852.237974	66049.6398926	4806.55309493	115.759388612	65054.8018208	66078591.472	0
4075000.0	27136.0	15709240.6365	0.191959502684	173997.77832	0.057380166254	1.79882776737	95302.1555008	65621.6003418	4891.28630318	113.683355451	240271.709691	66083366.2345	0
4100000.0	27268.0	16108809.7544	0.192768461872	173995.10498	0.0584763402003	1.79374980927	94760.5292132	65200.2746582	4976.67715618	111.246019895	262353.838743	66088141.5079	0
4125000.0	27400.0	16516031.2307	0.193571403057	173993.75	0.0595863166382	1.78875470161	94229.3589046	64786.9934082	5062.72487368	109.296699355	70848.5904917	66092917.2922	0
4150000.0	27533.0	16930975.1154	0.194375025778	173996.923828	0.060706261138	1.78379619122	93705.746851	64379.5043945	5149.3952658	107.421911804	23027.0101254	66097693.5875	0
4175000.0	27666.0	17353739.4775	0.195172469889	174000.305176	0.0618402846158	1.77887487411	93188.7930742	63977.7404785	5236.71562376	105.20360834	626010.251517	66102470.3936	0
4200000.0	27799.0	17784423.681	0.195964928838	174003.515625	0.0629886199022	1.77396714687	92676.1685533	63580.1208496	5324.69231741	103.438573595	319333.879199	66107247.7107	0
4225000.0	27933.0	18223099.9376	0.196760341695	174009.667969	0.0641472070129	1.76902067661	92163.9602206	63183.5693359	5413.27324538	101.739638077	85006.6463188	66112025.5387	0
4250000.0	28067.0	18669868.2109	0.1975505135	174015.209961	0.0653202005196	1.76411736012	91657.8430121	62792.1386719	5502.50004502	100.085935169	28687.414871	66116803.8777	0
4275000.0	28202.0	19124800.9794	0.198343024199	174023.120117	0.0665034967824	1.75920855999	91154.3202211	62403.0944824	5592.31945909	98.4934583376	244094.915855	66121582.7276	0
4300000.0	28337.0	19587999.186	0.199129439187	174029.907227	0.0677013595123	1.75437855721	90659.1562911	62020.501709	5682.83751733	96.583535155	308060.095556	66126362.0884	0
4325000.0	28472.0	20059565.2429	0.199909118007	174035.205078	0.0689139851602	1.74964547157	90173.6575734	61645.1721191	5774.09160064	95.076357085	55599.9765808	66131141.9601	0
4350000.0	28608.0	20539573.4679	0.20068912627	174041.772461	0.0701372191543	1.7449669838	89694.8168747	61274.7131348	5865.99301212	93.6228080622	74386.8556774	66135922.3428	0
4375000.0	28744.0	21028127.9247	0.201460651976	174046.044922	0.0713754998287	1.74042749405	89228.5956111	60913.3605957	5958.57201866	91.8669954425	572564.912089	66140703.2365	0
4400000.0	28880.0	21525335.7084	0.202222180651	174047.106934	0.0726292346371	1.73601198196	88773.9600861	60560.5895996	6051.81472791	90.4893510659	204156.733044	66145484.6411	0
4425000.0	29017.0	22031276.3934	0.202980234623	174046.984863	0.0738943490433	1.73162913322	88324.41857	60212.0056152	6145.62579262	89.1602142416	1331.37789778	66150266.5566	0
4450000.0	29154.0	22546060.2045	0.203728178889	174042.126465	0.0751754414523	1.7273452282	87884.1238475	59870.526123	6240.06883757	87.542711679	807896.482457	66155048.983	0
4475000.0	29291.0	23069797.4641	0.204469693587	174035.913086	0.0764715659898	1.72311520576	87450.221733	59534.185791	6335.02416375	86.2834262548	342669.714868	66159831.9205	0
4500000.0	29429.0	23602560.7323	0.205214577536	174033.544922	0.0777774839662	1.71885359287	87017.074064	59198.9318848	6430.34411938	85.072235224	31225.0657931	66164615.3688	0
4525000.0	29567.0	24144450.1127	0.205956049002	174031.945801	0.0790977210272	1.71462869644	86589.0746441	58867.8344727	6526.0664153	83.8931389955	170349.0346	66169399.328	0
4550000.0	29706.0	24695534.1934	0.206701695974	174034.057617	0.0804275769042	1.71039259434	86162.767797	58538.2141113	6622.04294586	82.46234356	464955.185264	66174183.7982	0
4575000.0	29844.0	25255945.1444	0.207437412746	174033.935547	0.0817765539978	1.70627117157	85746.5184109	58216.0583496	6718.43505955	81.3503286925	76840.1996873	66178968.7794	0
4600000.0	29984.0	25825719.2792	0.208184688625	174040.17334	0.083130405983	1.70210587978	85329.5388149	57893.359375	6814.87582323	80.2962778979	121911.143902	66183754.2715	0
4625000.0	30123.0	26404990.6	0.208919592408	174043.737793	0.0845035974635	1.69806432724	84923.4636355	57578.7719727	6911.66122793	78.9735351273	564948.126425	66188540.2745	0
4650000.0	30263.0	26993830.6269	0.209653226506	174049.609375	0.0858868879732	1.69401907921	84520.3374348	57266.8884277	7008.53599056	77.9794453347	111864.927692	66193326.7885	0
4675000.0	30403.0	27592343.6719	0.21037957871	174054.833984	0.0872851524036	1.69002425671	84123.3611836	56959.954834	7105.55140922	77.0118984456	118265.302866	66198113.8135	0
4700000.0	30544.0	28200600.8648	0.211106603624	174061.962891	0.0886934503797	1.68602752686	83728.6945712	56655.1208496	7202.54153114	75.8135936428	589348.739241	66202901.3494	0
4725000.0	30684.0	28818741.1413	0.211821724688	174065.380859	0.0901218008948	1.68213784695	83343.1850422	56357.2509766	7299.73340081	74.9011561321	95984.7036811	66207689.3963	0
4750000.0	30826.0	29446802.2333	0.2125462954	174072.949219	0.091555302788	1.67820000648	82956.3543786	56058.6791992	7396.63673908	74.0389951166	157792.179565	66212477.9542	0
4775000.0	30967.0	30084924.1392	0.21326083194	174076.35498	0.0930090391194	1.6743786335	82578.5490909	55766.7358398	7493.64157775	72.929983422	556888.476971	66217267.023	0
4800000.0	31109.0	30733179.4094	0.213979643103	174080.700684	0.0944730709307	1.67057693005	82203.1395441	55476.4892578	7590.40167875	72.1180628288	68087.6054069	66222056.6029	0
4825000.0	31251.0	31391675.4856	0.214696546329	174082.995605	0.0959525204962	1.66685533524	81833.7928198	55190.4724121	7687.0184444	71.0781536285	1269321.69133	66226846.6937	0
4850000.0	31393.0	32060522.607	0.215407582311	174082.592773	0.0974478025455	1.66322052479	81471.6403908	54909.6618652	7783.46336975	70.3135031083	525940.816501	66231637.2954	0
4875000.0	31536.0	32739797.6199	0.216115771124	174081.420898	0.0989540130831	1.65962636471	81114.1213656	54632.3669434	7879.50901887	69.5814759681	36672.0874037	66236428.4082	0
4900000.0	31679.0	33429613.929	0.216815495529	174076.672363	0.10047647811	1.65611803532	80763.9722769	54360.559082	7975.34742251	68.8688173758	305453.977136	66241220.032	0
4925000.0	31823.0	34130046.4921	0.217517487004	174073.999023	0.102008591057	1.6526017189	80415.1976533	54090.045166	8071.22597214	67.946853331	432379.649252	66246012.1667	0
4950000.0	31966.0	34841236.5412	0.218210914645	174069.396973	0.103560712887	1.64915800095	80072.9185141	53824.5361328	8167.60249346	67.0343664613	2052441.33273	66250804.8124	0
4975000.0	32110.0	35563250.672	0.21891024005	174067.919922	0.105122147943	1.64568650723	79730.3177493	53559.0698242	8263.98648159	66.6154992012	467365.99869	66255597.9691	0
5000000.0	32255.0	36296153.6989	0.219616753083	174069.482422	0.106692627014	1.64218747616	79387.1680039	53293.4082031	8360.26858766	65.9895017799	1317376.7476	66260391.6367	0
5025000.0	32400.0	37040047.3899	0.220325225631	174071.557617	0.108277614345	1.63870894909	79046.1914785	53029.4189453	8456.58604578	65.1537818495	43873.9434978	66265185.8153	0
5050000.0	32545.0	37795033.7977	0.22103655998	174074.072266	0.109877131763	1.63525235653	78707.2797635	52766.9555664	8552.8580319	64.3387471483	980350.590645	66269980.505	0
5075000.0	32690.0	38561217.9499	0.221745257168	174076.5625	0.11149160855	1.63182663918	78372.3075723	52507.6599121	8649.00090165	63.7631815416	248588.222202	66274775.7056	0
5100000.0	32836.0	39338666.7618	0.222456554902	174081.25	0.113115449494	1.62838828564	78038.5093674	52249.5849609	8744.71697634	63.2129793989	96988.3748091	66279571.4172	0
5125000.0	32982.0	40127485.8774	0.223165139811	174085.546875	0.114754351671	1.62498497963	77708.3693017	51994.4091797	8840.13335613	62.4634812393	901559.724736	66284367.6398	0
5150000.0	33128.0	40927781.2189	0.223872182839	174089.379883	0.116408366011	1.62161612511	77381.375115	51741.6625977	8935.17803762	61.9449947841	177779.422663	66289164.3734	0
5175000.0	33275.0	41739619.649	0.224585235485	174094.946289	0.118071759061	1.61823773384	77054.2036457	51488.8671875	9029.46981508	61.4516559451	170309.470052	66293961.618	0
5200000.0	33422.0	42563107.254	0.225298923789	174099.780273	0.119750256999	1.61489510536	76729.3608922	51237.713623	9123.19387359	60.7661370019	841154.226603	66298759.3737	0
5225000.0	33569.0	43398350.5188	0.226014361272	174103.759766	0.121443968965	1.61158835888	76406.4143763	50987.7929688	9216.24121648	60.3042325095	143312.47529	66303557.6404	0
5250000.0	33717.0	44245416.2446	0.226739014631	174108.935547	0.123146994156	1.60827410221	76082.2240505	50736.7492676	9308.23420245	59.8670312848	199014.046706	66308356.4181	0
5275000.0	33865.0	45104411.6747	0.227465319747	174112.768555	0.124865371617	1.60499989986	75760.0725472	50486.9476318	9399.34955954	59.2441519554	903043.800128	66313155.7068	0
5300000.0	34013.0	45975447.1399	0.228188670171	174114.794922	0.126599465148	1.6017729044	75441.4337373	50239.6514893	9489.53329653	58.837592384	182282.876816	66317955.5066	0
5325000.0	34162.0	46858592.0087	0.228915661335	174116.97998	0.128343308461	1.59855139256	75123.5413642	49992.855835	9578.34201578	58.4551675693	163842.359863	66322755.8174	0
5350000.0	34311.0	47753957.2341	0.229639956778	174116.870117	0.130103013362	1.59537947178	74809.2497514	49748.6083984	9665.99705147	57.8925566443	1038915.86439	66327556.6393	0
5375000.0	34460.0	48661654.9174	0.230361612959	174114.221191	0.131878725369	1.59225749969	74498.5811121	49506.9458008	9752.40885944	57.5401139897	253044.294717	66332357.9722	0
5400000.0	34610.0	49581755.9726	0.23108743717	174111.035156	0.133664390887	1.5891456604	74188.7938596	49265.8721924	9837.11948761	57.2114208829	111044.979747	66337159.8162	0
5425000.0	34760.0	50514371.4646	0.231814390375	174107.177734	0.135465117637	1.58605885506	73880.867277	49026.1871338	9920.31100469	56.7084978591	1243016.06225	66341962.1712	0
5450000.0	34910.0	51459606.993	0.232545054972	174103.820801	0.137280396302	1.58298051357	73573.6174811	48787.0819092	10001.8886663	56.411266902	393137.224681	66346765.0373	0
5475000.0	35061.0	52417522.6859	0.233286646014	174103.063965	0.139103984111	1.579870224	73264.2080623	48546.496582	10081.3142106	56.1388447126	20971.9284618	66351568.4145	0
5500000.0	35212.0	53388222.7623	0.234029978663	174102.478027	0.140942371218	1.57677531242	72956.1305041	48306.9854736	10158.9051327	55.6968835566	1652837.34592	66356372.3027	0
5525000.0	35363.0	54371811.8631	0.234774541537	174102.001953	0.142795586726	1.57369542122	72649.4554038	48068.6187744	10234.5420947	55.4558136036	708369.134473	66361176.702	0
5550000.0	35515.0	55368351.1206	0.235527190019	174103.601074	0.144657227793	1.57058990002	72341.3917383	47829.3701172	10307.7426372	55.2389846956	84834.0171314	66365981.6124	0
5575000.0	35667.0	56377944.5351	0.236281698126	174105.200195	0.146533624502	1.56749892235	72034.5756239	47591.1437988	10379.4608048	55.0335908813	265643.392936	66370787.0339	0
5600000.0	35820.0	57400651.8096	0.237045101655	174108.71582	0.148418272147	1.56438243389	71726.2203593	47351.9012451	10449.4978472	54.8473602704	1022015.89217	66375592.9664	0
5625000.0	35973.0	58436576.2044	0.237811269782	174112.060547	0.150317515363	1.56128025055	71418.9147447	47113.5009766	10518.2288447	54.4928531039	450499.906116	66380399.4101	0
5650000.0	36126.0	59485821.8713	0.238580561064	174115.161133	0.152231543325	1.5581921339	71112.5427501	46875.8361816	10585.6218895	54.3272012493	639.946444074	66385206.3649	0
5675000.0	36280.0	60548446.88	0.239360282107	174119.873047	0.154153633048	1.5550801754	70804.3810598	46636.9018555	10651.1543663	54.1804315357	421303.70036	66390013.8308	0
5700000.0	36434.0	61624556.1692	0.240142751484	174124.023438	0.15609053662	1.55198633671	70497.2431015	46398.7304688	10715.2217586	53.8683772453	1222202.96507	66394821.8079	0
5725000.0	36588.0	62714256.2487	0.240927115008	174127.392578	0.158042530529	1.54891312122	70191.4080054	46161.5356445	10777.8283201	53.7414779582	460790.14262	66399630.2961	0
5750000.0	36743.0	63817607.1015	0.241719739533	174131.799316	0.160002848133	1.54582321644	69884.4510383	45923.5839844	10838.3965893	53.6331286593	13960.9382848	66404439.2955	0
5775000.0	36898.0	64934715.0911	0.242513445974	174135.229492	0.161978212418	1.54275560379	69579.2123683	45686.9659424	10897.3667562	53.5341671759	335466.545022	66409248.8061	0
5800000.0	37054.0	66065639.7656	0.24331483795	174139.477539	0.163961798535	1.53967404366	69273.2362278	45449.8931885	10954.1798815	53.4536905611	1024291.50068	66414058.8278	0
5825000.0	37210.0	67210487.0285	0.244116713089	174142.529297	0.165960460436	1.53661739826	68969.3464731	45214.4195557	11009.3187175	53.211913929	765707.49513	66418869.3608	0
5850000.0	37366.0	68369363.4423	0.244918999817	174144.287109	0.167974198121	1.53358602524	68667.6615859	44980.6549072	11062.7429061	53.1507162398	181601.844591	66423680.405	0
5875000.0	37523.0	69542328.524	0.245728333681	174146.447754	0.16999617219	1.5305441618	68365.6793641	44746.7773438	11113.8147002	53.1080512489	81667.998997	66428491.9604	0
5900000.0	37680.0	70729490.5642	0.246537904131	174146.850586	0.172033498529	1.52752816677	68065.7662118	44514.4683838	11163.0874887	52.9060492812	2336035.38678	66433304.027	0
5925000.0	37837.0	71930960.0533	0.247347371078	174145.251465	0.174086497282	1.52454102039	67768.0379301	44283.795166	11210.5229879	52.882262742	1434349.6913	66438116.6049	0
5950000.0	37995.0	73146798.2221	0.248162611528	174143.29834	0.176147965249	1.52154898643	67470.2319354	44053.1341553	11255.4780407	53.0441365581	2250677.3418	66442929.6941	0
5975000.0	38154.0	74377065.551	0.248982977661	174140.942383	0.178217858775	1.51855683327	67172.748717	43822.7630615	11297.8964288	52.8896909462	173723.388886	66447743.2946	0
6000000.0	38312.0	75621919.7931	0.249796734749	174136.169434	0.18030955107	1.51562130451	66879.5991029	43595.6268311	11338.905915	52.736851998	3653825.55773	66452557.4063	0
6025000.0	38471.0	76881415.4068	0.250619602195	174133.325195	0.182408344699	1.51265990734	66585.0613351	43367.6300049	11377.2407765	52.9358400245	539156.862667	66457372.0294	0
6050000.0	38631.0	78155602.578	0.251451180011	174132.409668	0.184513934073	1.50967514515	66289.3329913	43138.9099121	11412.8102625	52.9878642769	1204528.63744	66462187.1638	0
6075000.0	38791.0	79444580.7469	0.252284136761	174131.689453	0.186633507838	1.50670647621	65995.0854069	42911.3830566	11446.228582	52.8848434343	1033273.88006	66467002.8095	0
6100000.0	38951.0	80748451.6569	0.253120125158	174130.908203	0.188767444342	1.50374782085	65701.6155373	42684.5001221	11477.4636072	52.9575883249	442317.687477	66471818.9666	0
6125000.0	39112.0	82067266.2986	0.253966393248	174131.70166	0.190908307559	1.50076174736	65406.231022	42456.3171387	11505.8147529	53.0498415383	63093.1594681	66476635.635	0
6150000.0	39273.0	83401126.1387	0.254814964221	174132.312012	0.193063446204	1.49778807163	65111.8271953	42228.9459229	11531.9312929	53.1524155681	131915.048343	66481452.8148	0
6175000.0	39435.0	84750081.3709	0.255672357372	174134.387207	0.195225395146	1.49479198456	64816.1775264	42000.8209229	11555.0491518	53.2749179502	536927.134648	66486270.5059	0
6200000.0	39597.0	86114231.8193	0.256530628846	174136.230469	0.197401415789	1.49181103706	64522.0801686	41773.9959717	11575.8618006	53.408080159	1094672.02066	66491088.7085	0
6225000.0	39760.0	87493625.8513	0.257396293197	174139.440918	0.199583970243	1.48881268501	64227.3779498	41546.9329834	11593.6183023	53.5614620393	1749352.87103	66495907.4224	0
6250000.0	39923.0	88888362.9696	0.258261363231	174142.333984	0.201780465432	1.48583340645	63934.8216245	41321.6583252	11609.0437465	53.5613963591	920892.902584	66500726.6478	0
6275000.0	40086.0	90298542.999	0.259125895909	174144.86084	0.203991119633	1.48287439346	63644.4727488	41098.1994629	11622.2436076	53.7359628139	433163.288978	66505546.3847	0
6300000.0	40250.0	91724215.7116	0.259999104884	174148.339844	0.206208438613	1.47989416122	63352.9073608	40874.0447998	11632.5460859	53.9300265061	101390.139355	66510366.633	0
6325000.0	40414.0	93165482.7588	0.260873351125	174151.147461	0.208440091228	1.47692835331	63062.7117717	40651.0498047	11640.7230696	54.1340536133	48937.0211091	66515187.3927	0
6350000.0	40579.0	94622392.7229	0.261755032022	174154.760742	0.210678335861	1.47394645214	62771.9062898	40427.8106689	11646.0028306	54.3577587739	321108.234147	66520008.664	0
6375000.0	40744.0	96095046.4307	0.262636032192	174157.678223	0.21293075406	1.4709842205	62483.2249328	40206.3110352	11649.2383463	54.5912968816	723766.898119	66524830.4468	0
6400000.0	40910.0	97583490.7818	0.263522635136	174161.352539	0.215189560549	1.46801245213	62194.6931292	39985.1165771	11649.6476455	54.8444752048	1206326.79962	66529652.7412	0
6425000.0	41076.0	99087825.872	0.264406726665	174164.233398	0.217462336877	1.46506786346	61909.0666175	39766.229248	11648.048902	54.9421480479	1823577.7643	66534475.5471	0
6450000.0	41242.0	100608151.442	0.265287256053	174166.28418	0.219749228563	1.46215498447	61626.7452158	39549.9206543	11644.4940831	55.2148319996	1262858.81883	66539298.8646	0
6475000.0	41409.0	102144514.751	0.266172487324	174168.823242	0.222042493988	1.45923566818	61344.8653913	39334.1461182	11638.2182579	55.5070890482	786561.702699	66544122.6937	0
6500000.0	41576.0	103697018.555	0.267056487395	174170.166016	0.224350136705	1.45633935928	61065.185084	39120.1324463	11630.0685723	55.8090533742	390028.427855	66548947.0344	0
6525000.0	41744.0	105265710.43	0.267945488736	174171.655273	0.226664327784	1.45343744755	60785.7130875	38906.4453125	11619.2579788	56.2977277763	4767926.46671	66553771.8868	0
6550000.0	41913.0	106850636.861	0.268838550372	174173.242188	0.228984630667	1.45053386688	60506.796734	38693.3288574	11605.8066519	56.4722159616	19784.326168	66558597.2508	0
6575000.0	42081.0	108451953.278	0.269720135162	174171.99707	0.231327168876	1.44769752026	60233.4569491	38484.375	11591.441795	56.8134425169	256094.504235	66563423.1266	0
6600000.0	42251.0	110069649.48	0.270610977751	174172.131348	0.233667698922	1.44483590126	59959.0568155	38274.7924805	11573.6505047	57.1849810201	607640.538854	66568249.514	0
6625000.0	42420.0	111703880.363	0.271488287495	174169.226074	0.236030260567	1.44205021858	59690.89406	38069.8059082	11555.0237779	57.3869988204	3015480.22741	66573076.4131	0
6650000.0	42590.0	113354690.468	0.272366599392	174166.369629	0.238398701185	1.43927443027	59424.2970685	37866.0644531	11533.9319957	57.9477235106	1711118.51362	66577903.824	0
6675000.0	42761.0	115022123.654	0.27325114677	174164.501953	0.240772365942	1.43648791313	59157.2765734	37662.1337891	11510.3382211	58.3600010447	2367939.58513	66582731.7467	0
6700000.0	42932.0	116706275.336	0.274134685407	174162.426758	0.243159360252	1.43372058868	58892.0928162	37459.6466064	11485.1784849	58.6112628466	1164762.6925	66587560.1812	0
6725000.0	43103.0	118407240.357	0.27501667094	174160.241699	0.245559524046	1.43097221851	58628.8989822	37258.7432861	11458.4758548	59.043668057	682731.635999	66592389.1274	0
6750000.0	43275.0	120125055.505	0.27590356968	174159.326172	0.247964577284	1.42821133137	58365.7318654	37058.0963135	11429.4130904	59.4971892759	303872.859393	66597218.5856	0
6775000.0	43447.0	121859813.536	0.276787329893	174158.337402	0.250382581726	1.42546987534	58105.0494075	36859.487915	11398.8970448	59.9614165377	39009.8351919	66602048.5555	0
6800000.0	43620.0	123611549.553	0.277674398528	174158.666992	0.252805097261	1.4227180481	57844.9668201	36661.618042	11366.0911249	60.6219427654	6701308.44027	66606879.0374	0
6825000.0	43794.0	125380297.495	0.278564063165	174160.302734	0.255232065683	1.41995751858	57585.7446528	36464.6942139	11331.0280282	60.9549696319	415703.039436	66611710.0311	0
6850000.0	43967.0	127166207.561	0.279443323154	174160.424805	0.257680338109	1.41724252701	57331.0150752	36271.3104248	11295.5273953	61.2861770821	3855970.22237	66616541.5368	0
6875000.0	44141.0	128969316.725	0.280327008432	174161.535645	0.260133558186	1.41451442242	57076.3788328	36078.2745361	11257.8757565	61.9925425667	1456016.67945	66621373.5545	0
6900000.0	44316.0	130789660.286	0.28121449036	174163.623047	0.262591231149	1.41177582741	56822.0621849	35885.7330322	11218.0953855	62.5447281504	2097135.30766	66626206.0841	0
6925000.0	44491.0	132627330.057	0.282098027676	174165.405273	0.265061797109	1.40906047821	56570.4241638	35695.3460693	11177.1301239	62.9285105403	1750613.61425	66631039.1256	0
6950000.0	44666.0	134482417.3	0.282977091851	174166.894531	0.267545052338	1.40637159348	56321.6994368	35507.2601318	11135.0184471	63.5024948386	1136602.16507	66635872.6793	0
6975000.0	44842.0	136354953.907	0.283857924855	174169.335938	0.270032411208	1.40368437767	56074.0713833	35320.1446533	11090.5079864	64.2839636222	4659371.43929	66640706.7449	0
7000000.0	45019.0	138244969.92	0.284739657924	174172.705078	0.272523669992	1.40100300312	55827.858046	35134.2163086	11043.3014307	64.9124483107	5697475.35625	66645541.3226	0
7025000.0	45196.0	140152556.363	0.285616227165	174175.598145	0.275027588941	1.39835584164	55584.7190635	34950.6134033	10994.4125084	65.3725347115	10850.4572218	66650376.4125	0
7050000.0	45373.0	142077805.92	0.2864877994	174177.880859	0.277544546407	1.39574038982	55344.4283352	34769.1833496	10943.9254562	66.0321390037	316946.388029	66655212.0144	0
7075000.0	45551.0	144020751.708	0.287360966493	174180.79834	0.280065636616	1.39312803745	55105.0822383	34588.5925293	10891.0870187	66.719539983	830415.186786	66660048.1286	0
7100000.0	45729.0	145981484.427	0.288228102883	174183.154297	0.2825994452	1.39054536819	54868.8014499	34410.4003906	10836.8734828	67.2341865029	3517785.33121	66664884.7549	0
7125000.0	45907.0	147960094.437	0.289088632465	174184.960938	0.285145855742	1.38799130917	54635.6824164	34234.6954346	10781.4026612	67.9521145354	2548116.23556	66669721.8934	0
7150000.0	46086.0	149956610.837	0.289949104278	174187.390137	0.287696020678	1.38543725014	54403.9475858	34060.2752686	10723.86065	68.8901023119	3457217.97692	66674559.5442	0
7175000.0	46266.0	151971061.292	0.290808523608	174190.454102	0.290249678073	1.38288247585	54173.7741025	33887.298584	10664.3422497	69.6663234347	4655130.39404	66679397.7073	0
7200000.0	46446.0	154003535.982	0.291660640099	174192.797852	0.292815821012	1.38035094738	53946.8472064	33716.9952393	10603.8617751	70.2634078483	275472.775595	66684236.3826	0
7225000.0	46626.0	156054126.479	0.29250619822	174194.238281	0.295394740533	1.37784361839	53722.9617546	33549.1668701	10542.5319831	71.0696776758	38092.4540218	66689075.5703	0
7250000.0	46807.0	158122863.144	0.293350866899	174195.996094	0.297977589071	1.3753361702	53500.4477647	33382.635498	10479.5316386	71.904466329	540395.213597	66693915.2704	0
7275000.0	46988.0	160209834.695	0.294188108788	174196.911621	0.300572748529	1.37285804749	53281.1645408	33218.6523438	10415.8555921	72.7550768942	1395480.16413	66698755.4829	0
7300000.0	47170.0	162315068.591	0.295023814026	174198.046875	0.303171458654	1.37038826942	53063.5067438	33056.036377	10350.6911229	73.6345609644	2520793.45003	66703596.2078	0
7325000.0	47352.0	164438651.605	0.295851133196	174198.303223	0.30578210135	1.3679536581	52849.2889039	32896.0693359	10285.0308983	74.3257079468	1624155.47149	66708437.4452	0
7350000.0	47534.0	166580669.189	0.296669507245	174197.65625	0.30840470572	1.36555922031	52638.7048421	32738.8092041	10218.9456604	75.2348770762	608841.996244	66713279.195	0
7375000.0	47717.0	168741147.865	0.297485542782	174197.021484	0.311030598823	1.36317718029	52429.7530135	32582.8735352	10151.6352929	76.1731136055	5589.64821095	66718121.4574	0
7400000.0	47900.0	170920177.38	0.298293138745	174195.19043	0.313668977469	1.36083185673	52224.1618118	32429.4830322	10084.0818056	77.1267493674	580939.709099	66722964.2324	0
7425000.0	48084.0	173117783.762	0.299098263416	174193.164062	0.316310586641	1.35849738121	52020.229853	32277.4627686	10015.4931992	78.1095017748	1743047.13951	66727807.5199	0
7450000.0	48268.0	175334054.125	0.299895651885	174190.539551	0.318964011967	1.35619211197	51819.320766	32127.7893066	9946.7922716	79.1079073708	3356128.08302	66732651.32	0
7475000.0	48453.0	177569010.211	0.300692345203	174189.013672	0.321619852912	1.35388636589	51619.5215528	31979.1717529	9877.20690759	80.1358948171	5337361.93527	66737495.6328	0
7500000.0	48638.0	179822733.356	0.301481992141	174187.487793	0.324286811519	1.35160315037	51422.5264437	31832.8094482	9807.64529461	80.9608694542	66142.5821123	66742340.4583	0
7525000.0	48823.0	182095305.955	0.302264339184	174186.035156	0.326965237036	1.34934294224	51228.3785271	31688.7420654	9738.18865497	82.0177557979	590716.111968	66747185.7964	0
7550000.0	49009.0	184386749.711	0.303045392678	174185.498047	0.329646281898	1.34708154202	51035.4597182	31545.8953857	9668.06678075	83.104203499	2010406.95061	66752031.6474	0
7575000.0	49195.0	186697149.22	0.303818828738	174184.765625	0.332339055603	1.34484386444	50845.2695441	31405.2520752	9598.20744687	83.9797683977	2083807.70178	66756878.0111	0
7600000.0	49381.0	189026587.533	0.304584543825	174183.935547	0.335043296218	1.3426296711	50657.825627	31266.809082	9528.62273383	85.093768949	565050.42201	66761724.8876	0
7625000.0	49568.0	191375081.878	0.305348570826	174184.04541	0.337749544997	1.34041690826	50471.6498298	31129.5043945	9458.5870129	86.2372910993	156860.564649	66766572.2769	0
7650000.0	49755.0	193742710.527	0.306104443528	174184.082031	0.340466503985	1.33822846413	50288.2433411	30994.3634033	9388.94235224	87.3958372385	1510165.77708	66771420.1791	0
7675000.0	49943.0	196129486.388	0.306858006153	174185.107422	0.343184918165	1.3360427618	50106.2143837	30860.4003906	9318.95098086	88.5843196462	3657205.55846	66776268.5942	0
7700000.0	50131.0	198535485.56	0.307602902728	174186.108398	0.345913635101	1.33388268948	49927.0633004	30728.62854	9249.47121581	89.549406884	730154.009951	66781117.5223	0
7725000.0	50319.0	200960787.513	0.308338821131	174186.901855	0.348653527908	1.33174681664	49750.8029188	30599.130249	9179.94502219	90.7702564697	188473.130305	66785966.9633	0
7750000.0	50508.0	203405407.689	0.309071618803	174188.464355	0.351395050529	1.3296135664	49575.9454231	30470.8770752	9109.18100736	92.0317530577	1845156.6559	66790816.9173	0
7775000.0	50697.0	205869425.131	0.309795596997	174189.831543	0.354147399776	1.32750475407	49403.8605721	30344.8150635	9038.07925142	93.0719323463	2118117.72254	66795667.3844	0
7800000.0	50886.0	208352917.567	0.310511181775	174191.040039	0.356910604751	1.32542109489	49234.5205862	30220.9228516	8966.7054568	94.3804722449	245356.45139	66800518.3645	0
7825000.0	51076.0	210855899.787	0.311223613764	174193.041992	0.359675323125	1.32334256172	49066.5644705	30098.2543945	8894.36196452	95.7302385444	858046.356029	66805369.8577	0
7850000.0	51266.0	213378447.979	0.311927885477	174194.897461	0.36245060619	1.32129085064	48901.2939856	29977.6824951	8821.91440106	97.1050814422	3382755.11516	66810221.8641	0
7875000.0	51457.0	215920577.257	0.31262873385	174197.436523	0.365227489965	1.31924629211	48737.4934491	29858.3984375	8748.67362043	98.5215938698	6952381.79528	66815074.3836	0
7900000.0	51648.0	218482367.628	0.313320052434	174199.621582	0.368015491404	1.31722903252	48576.521266	29741.3330078	8675.49793411	99.7019676713	418396.7516	66819927.4163	0
7925000.0	51839.0	221063898.576	0.31400232842	174201.477051	0.370814377675	1.3152397871	48418.3320844	29626.4129639	8602.44314374	100.900933525	4008072.12623	66824780.9623	0
7950000.0	52030.0	223665248.009	0.314675730431	174203.039551	0.373624003259	1.31327879429	48262.8953262	29513.5925293	8529.57272836	102.385523959	1015725.54848	66829635.0215	0
7975000.0	52222.0	226286426.618	0.315345246064	174205.212402	0.376434647478	1.31132686138	48108.9356431	29401.9775391	8456.20537027	103.912301955	405776.671791	66834489.5941	0
8000000.0	52414.0	228927508.171	0.316006093036	174207.128906	0.379255478038	1.3094035387	47957.6685069	29292.3828125	8383.14692533	105.463955013	3197883.00012	66839344.68	0
8025000.0	52607.0	231588499.335	0.316663236523	174209.667969	0.382076716051	1.3074901104	47807.8559622	29183.9538574	8309.71600812	107.058587878	7527998.17783	66844200.2792	0
8050000.0	52800.0	234269476.811	0.317311307644	174211.71875	0.384908460546	1.30560863018	47660.8025813	29077.5878906	8236.74742396	108.396739167	797414.345293	66849056.3919	0
8075000.0	52993.0	236970516.638	0.317950105767	174213.305664	0.387750740629	1.30375730991	47516.4799678	28973.2788086	8164.25823158	109.752344401	3077397.48859	66853913.0181	0
8100000.0	53186.0	239691695.443	0.318579526923	174214.428711	0.390603410779	1.30193293095	47374.8231861	28871.0327148	8092.30925951	111.412726227	167454.739945	66858770.1578	0
8125000.0	53380.0	242433020.906	0.319203987006	174216.015625	0.393456808524	1.30011498928	47234.6852385	28770.098877	8020.24581456	113.115740078	1955768.18684	66863627.811	0
8150000.0	53574.0	245194567.728	0.319818511193	174217.175293	0.396320421714	1.29832053185	47097.2386867	28671.2921143	7948.82410734	114.842551969	6567987.24544	66868485.9777	0
8175000.0	53769.0	247976342.797	0.320426984995	174218.811035	0.39918452967	1.29652869701	46961.3561255	28573.8952637	7877.39836709	116.313284796	511042.556105	66873344.6581	0
8200000.0	53963.0	250778489.35	0.321020382016	174219.055176	0.402068777476	1.29477667809	46829.2155502	28479.3457031	7807.38589536	117.780180287	3255548.17993	66878203.8521	0
8225000.0	54158.0	253601017.877	0.321607596321	174219.555664	0.404954014812	1.29303002357	46698.7022494	28386.2365723	7737.47743974	119.588028853	28123.4957997	66883063.5599	0
8250000.0	54353.0	256444005.328	0.322183870389	174219.482422	0.407849816838	1.29130721092	46570.8846259	28295.2667236	7668.37176301	121.418325059	3033505.44967	66887923.7813	0
8275000.0	54549.0	259307457.982	0.32275384339	174219.616699	0.410746055422	1.28959214687	46444.7642527	28205.7525635	7599.44939531	123.290970196	9080968.28684	66892784.5165	0
8300000.0	54745.0	262191449.079	0.323312527668	174219.165039	0.41365227662	1.28790152073	46321.4043666	28118.4326172	7531.41110216	124.867100081	2143124.19832	66897645.7655	0
8325000.0	54941.0	265096051.143	0.323860245515	174218.115234	0.416568480432	1.28623723984	46200.7812779	28033.2366943	7464.28518596	126.456590475	1006447.54148	66902507.5283	0
8350000.0	55137.0	268021335.778	0.324396072663	174216.430664	0.419494492235	1.28459978104	46083.0629646	27950.3234863	7398.08245349	128.059082393	6943600.30355	66907369.805	0
8375000.0	55333.0	270967380.097	0.324917691935	174213.977051	0.422430981416	1.28298926353	45968.5414717	27869.9768066	7332.85333647	130.004023096	1142508.27293	66912232.5956	0
8400000.0	55530.0	273934190.397	0.325431875922	174212.158203	0.425367645221	1.2813860178	45855.7507015	27791.1224365	7267.97590497	131.99019239	1904177.0513	66917095.9002	0
8425000.0	55727.0	276921836.954	0.325936722348	174210.351562	0.428313680459	1.27980291843	45745.3274023	27714.163208	7204.12332262	133.995851932	8772186.67789	66921959.7188	0
8450000.0	55925.0	279930319.078	0.326438259465	174209.448242	0.431259162724	1.27822375298	45636.0191813	27638.1713867	7140.69059057	135.699071095	2395932.95176	66926824.0513	0
8475000.0	56122.0	282959772.473	0.326930919531	174207.836914	0.434223707998	1.27667927742	45529.3056518	27564.0289307	7078.9122039	137.390532825	540862.810128	66931688.898	0
8500000.0	56320.0	286010194.129	0.327424174284	174207.189941	0.437187205534	1.27513730526	45423.1637254	27490.3533936	7017.53731343	139.46694944	3180399.03032	66936554.2587	0
8525000.0	56518.0	289081652.096	0.327912971919	174206.567383	0.440159928985	1.27361559868	45319.0965377	27418.3166504	6956.69454952	141.215528179	161165.331807	66941420.1335	0
8550000.0	56716.0	292174215.129	0.328395980205	174205.92041	0.443142140284	1.27211380005	45217.0703391	27347.8790283	6896.27329229	142.986423802	4577463.46842	66946286.5226	0
8575000.0	56914.0	295287951.749	0.328872213159	174205.310059	0.446133606602	1.270632267	45116.8495864	27278.7841797	6836.32427204	145.14450311	92376.1630652	66951153.4258	0
8600000.0	57113.0	298422860.744	0.329344398524	174205.505371	0.449124432635	1.26915574074	45017.3975385	27210.2844238	6776.28627224	147.356709968	5817184.44253	66956020.8433	0
8625000.0	57312.0	301579009.339	0.329807931078	174205.749512	0.452124339063	1.2676987648	44919.2613963	27142.6269531	6716.76078899	149.225261163	809478.755215	66960888.775	0
8650000.0	57511.0	304756463.933	0.330261717772	174206.066895	0.455133267678	1.26626121998	44822.2356093	27075.5981445	6657.76551024	151.115532184	1780842.24562	66965757.2211	0
8675000.0	57710.0	307955293.995	0.330704916533	174206.311035	0.45815174235	1.26484322548	44726.1901226	27009.0789795	6599.32463312	153.411400619	2383005.57079	66970626.1815	0
8700000.0	57910.0	311175499.314	0.331141515394	174207.287598	0.461169576738	1.26343178749	44630.5765679	26942.7764893	6540.915553	155.37271353	320780.748906	66975495.6564	0
8725000.0	58109.0	314417218.681	0.331565533597	174207.470703	0.464206852484	1.26205432415	44537.1257024	26877.8991699	6483.64986003	157.330293159	4394673.73726	66980365.6456	0
8750000.0	58309.0	317680449.501	0.331984700366	174208.410645	0.467243196908	1.2606818676	44444.511611	26813.6962891	6426.44098695	159.73261893	686288.783666	66985236.1493	0
8775000.0	58509.0	320965258.011	0.332396498567	174209.350586	0.47028856352	1.25932872295	44353.7094031	26750.8605957	6369.85579388	162.165599669	9004364.68276	66990107.1675	0
8800000.0	58710.0	324271636.304	0.332805147267	174211.05957	0.473332445836	1.25797986984	44264.1688963	26689.1357422	6313.40143801	164.244670065	3284555.21823	66994978.7003	0
8825000.0	58910.0	327599720.811	0.333205060537	174212.04834	0.476395216538	1.2566639185	44177.4243528	26629.5013428	6258.09327461	166.319192743	35889.6653592	66999850.7476	0
8850000.0	59111.0	330949507.995	0.333601584501	174213.671875	0.479456968606	1.25535547733	44091.8726733	26570.8435059	6202.95634008	168.858514601	7473594.12152	67004723.3096	0
8875000.0	59312.0	334321065.028	0.33399064894	174215.209961	0.482527771965	1.2540667057	44008.153097	26513.5528564	6148.50771033	171.002348301	2367045.50365	67009596.3862	0
8900000.0	59513.0	337714456.887	0.334371718508	174216.711426	0.485607422888	1.25279653072	43926.2908019	26457.6843262	6094.74446404	173.165398289	122548.979831	67014469.9774	0
8925000.0	59714.0	341129747.227	0.334743746855	174218.151855	0.488695746753	1.25154340267	43846.2711505	26403.2623291	6041.67686471	175.347203159	3345613.11022	67019344.0834	0
8950000.0	59915.0	344566998.72	0.335105947803	174219.580078	0.491792568937	1.25030612946	43768.0370107	26350.2441406	5989.3146384	177.54727241	8567851.99321	67024218.7042	0
8975000.0	60116.0	348026275.008	0.33545736945	174220.983887	0.494897889439	1.24908459187	43691.6468872	26298.7060547	5937.653955	180.212594787	24043.8092998	67029093.8397	0
9000000.0	60318.0	351507570.783	0.335800280406	174222.949219	0.49800198758	1.24786841869	43616.6671053	26248.4161377	5886.25790654	182.93304042	8415664.25538	67033969.4901	0
9025000.0	60520.0	355010952.636	0.336132094025	174224.780273	0.501115107909	1.24667060375	43543.7423146	26199.7619629	5835.59505845	185.223390876	3721571.09647	67038845.6554	0
9050000.0	60722.0	358536486.904	0.336453282187	174226.416016	0.504237192217	1.24549102783	43472.7591584	26152.6397705	5785.67952488	187.529963608	602349.126349	67043722.3356	0
9075000.0	60924.0	362084238.624	0.336764485082	174227.893066	0.507368182298	1.24432897568	43403.6519975	26107.0068359	5736.50586395	189.852479983	897907.561608	67048599.5307	0
9100000.0	61126.0	365654273.702	0.337066160231	174229.248047	0.510507961735	1.24318480492	43336.3795207	26062.7990723	5688.07488458	192.190458566	4029207.21254	67053477.2408	0
9125000.0	61328.0	369246656.837	0.337358933219	174230.419922	0.513656530529	1.24205768108	43270.8554952	26019.9523926	5640.39958122	195.024464818	3149366.24285	67058355.466	0
9150000.0	61531.0	372861378.791	0.337645664546	174232.141113	0.516803236678	1.24093663692	43206.4832202	25978.0761719	5593.05018261	197.425548701	530780.678116	67063234.2062	0
9175000.0	61733.0	376498599.513	0.337922020437	174233.007812	0.519968976732	1.23984360695	43144.2605027	25937.7593994	5546.88385359	199.811747271	708002.229021	67068113.4615	0
9200000.0	61936.0	380158270.044	0.338193320642	174234.423828	0.523132679518	1.23875629902	43083.0978516	25898.324585	5501.05631245	202.739282685	8437815.04114	67072993.232	0
9225000.0	62139.0	383840473.416	0.338457627878	174235.705566	0.526304647792	1.23768544197	43023.4372419	25860.0097656	5455.99076703	204.680902126	6877360.56661	67077873.5177	0
9250000.0	62341.0	387545352.478	0.338713376545	174236.010742	0.529500772245	1.23664343357	42965.7614906	25823.0621338	5412.13220455	207.100750855	11199061.7759	67082754.3186	0
9275000.0	62544.0	391272883.742	0.338965485082	174237.011719	0.532688980456	1.23560535908	42908.9360166	25786.807251	5368.59083675	210.082233413	51407.0882991	67087635.6347	0
9300000.0	62747.0	395023127.902	0.339210150528	174237.70752	0.535886210855	1.2345867157	42853.7691921	25751.7822266	5325.82661832	213.085576777	12541090.77	67092517.4662	0
9325000.0	62951.0	398796077.861	0.339448026618	174238.73291	0.539081869647	1.23357748985	42799.9436112	25717.8497314	5283.43784976	215.611207626	8625798.35266	67097399.813	0
9350000.0	63154.0	402591872.882	0.339675617909	174238.757324	0.542297028005	1.23259806633	42748.3145052	25685.4797363	5242.19795035	217.579679561	6702539.71158	67102282.6752	0
9375000.0	63357.0	406410579.929	0.339895306219	174238.40332	0.545521208551	1.23163664341	42698.3073563	25654.3304443	5201.55978529	220.634458635	2734082.16561	67107166.0528	0
9400000.0	63561.0	410252188.972	0.340109073524	174238.415527	0.548743410036	1.23068237305	42649.4702512	25624.1485596	5161.08365037	223.201294375	832216.005012	67112049.9458	0
9425000.0	63764.0	414116839.392	0.340313611071	174237.37793	0.551984936465	1.22975516319	42602.5685297	25595.3231812	5121.51288471	225.754244463	53905.0208103	67116934.3543	0
9450000.0	63968.0	418004519.636	0.340512589366	174236.694336	0.555224367417	1.22883331776	42556.676677	25567.3461914	5082.1115933	228.354914707	1210228.45994	67121819.2784	0
9475000.0	64171.0	421915366.998	0.340703110214	174234.960938	0.558482948691	1.22793614864	42512.5737212	25540.6341553	5043.58931022	230.941269339	3018716.59558	67126704.718	0
9500000.0	64375.0	425849369.111	0.340888497147	174233.569336	0.56173914345	1.22704255581	42469.3472682	25514.6682739	5005.22713066	234.149784869	7610908.76525	67131590.6732	0
9525000.0	64579.0	429806585.373	0.341067651403	174232.006836	0.565003138036	1.22616231441	42427.3752939	25489.6453857	4967.38034667	236.227488847	7675354.74328	67136477.144	0
9550000.0	64782.0	433787149.728	0.341238887251	174229.980469	0.568285759073	1.22530114651	42386.8827338	25465.6890869	4930.37728261	238.864103778	10296958.4916	67141364.1306	0
9575000.0	64986.0	437791042.941	0.341405487472	174228.833008	0.571564945858	1.22444021702	42347.0994246	25442.3721313	4893.52628422	242.143280774	1788000.33107	67146251.6328	0
9600000.0	65190.0	441818322.366	0.34156535205	174227.880859	0.574851757847	1.2235904932	42308.6018984	25420.072937	4857.16936715	244.852389509	658412.168456	67151139.6508	0
9625000.0	65394.0	445869052.609	0.341717041971	174226.940918	0.578147242777	1.22275400162	42271.6309717	25398.9929199	4821.31018651	247.577225312	28018.5362885	67156028.1846	0
9650000.0	65598.0	449943294.268	0.341861008932	174226.098633	0.581450934988	1.22193109989	42236.1238298	25379.0649414	4785.93643934	250.318132626	376045.42666	67160917.2343	0
9675000.0	65802.0	454041109.398	0.341997735183	174225.32959	0.584763125516	1.22112202644	42202.017253	25360.2111816	4751.04652991	253.074585223	1133906.04645	67165806.7997	0
9700000.0	66006.0	458162559.048	0.342127175295	174224.67041	0.588083232287	1.22032511234	42169.2211588	25342.3904419	4716.62846981	255.846980007	2028823.13778	67170696.8811	0
9725000.0	66210.0	462307702.743	0.342249843208	174224.121094	0.591411429923	1.21954107285	42137.6509412	25325.4943848	4682.68596068	259.268452948	11913375.6365	67175587.4784	0
9750000.0	66415.0	466476524.494	0.342367009771	174224.328613	0.594736717176	1.21876108646	42106.9609794	25309.3399048	4648.89583554	262.112434286	10652677.289	67180478.5917	0
9775000.0	66619.0	470669158.723	0.342476957764	174224.035645	0.598080689088	1.21800136566	42077.6661871	25294.1574097	4615.87658495	264.290087053	4862937.90744	67185370.221	0
9800000.0	66823.0	474885663.481	0.342580820426	174223.864746	0.601432519034	1.21725344658	42049.3903405	25279.7134399	4583.31327215	267.123424379	5732549.87076	67190262.3664	0
9825000.0	67027.0	479126096.728	0.34267914656	174223.88916	0.604792032391	1.2165170908	42022.0754377	25265.9561157	4551.19454838	269.971797382	6531302.07433	67195155.0278	0
9850000.0	67231.0	483390516.541	0.342772122666	174224.060059	0.608159229159	1.21579170227	41995.6280728	25252.8152466	4519.52916258	273.502863615	7351093.7531	67200048.2053	0
9875000.0	67436.0	487678900.75	0.342861029221	174225.024414	0.611522875261	1.21506893635	41969.7153041	25240.09552	4487.9953936	276.422859742	6885695.21904	67204941.899	0
9900000.0	67640.0	491991384.053	0.342943700722	174225.524902	0.614905089606	1.21436595917	41944.9155746	25228.0715942	4457.19546365	278.638769672	8370267.48619	67209836.1089	0
9925000.0	67844.0	496328028.607	0.343019651213	174226.074219	0.618295685854	1.21367621422	41921.1983758	25216.8289185	4426.82562122	281.543963364	8727309.0832	67214730.8351	0
9950000.0	68048.0	500688898.498	0.343089040122	174226.635742	0.621694780421	1.21299910545	41898.5405768	25206.3644409	4396.88477254	285.159241013	6312959.20285	67219626.0775	0
9975000.0	68253.0	505073975.13	0.3431529263	174227.905273	0.625090789981	1.21232771873	41876.7321917	25196.5774536	4367.09368481	288.133189192	6420119.20438	67224521.8362	0
10000000.0	68457.0	509483398.312	0.34320973087	174228.588867	0.628506124485	1.21167635918	41856.2015709	25187.6434326	4337.9902384	290.372858184	8843602.36243	67229418.1112	0
10025000.0	68661.0	513917227.98	0.343260710938	174229.321289	0.631929375231	1.21103751659	41836.7150552	25179.4677734	4309.29838515	293.329523677	8569178.1562	67234314.9026	0
10050000.0	68865.0	518375522.891	0.343305917505	174230.175781	0.635360658634	1.21041059494	41818.2512589	25172.026062	4281.01251405	297.024653383	7616585.9093	67239212.2104	0
10075000.0	69070.0	522858262.693	0.34334627351	174231.677246	0.638788565993	1.20978820324	41800.5799284	25165.2282715	4252.87028355	300.049396201	8344378.8161	67244110.0347	0
10100000.0	69274.0	527365582.412	0.343380651043	174232.69043	0.642235041596	1.20918476582	41784.1207483	25159.2300415	4225.38159507	302.309208582	6877964.54399	67249008.3754	0
10125000.0	69478.0	531897539.522	0.343409918129	174233.789062	0.64568920061	1.20859193802	41768.6098145	25153.9276123	4198.28722437	305.314035428	6072985.96242	67253907.2326	0
10150000.0	69682.0	536454189.314	0.343434297118	174235.009766	0.649150577374	1.20801007748	41754.0647654	25149.3255615	4171.57727529	308.33057698	5173032.29951	67258806.6064	0
10175000.0	69886.0	541035586.948	0.343454095291	174236.315918	0.652619404718	1.20743846893	41740.4369637	25145.3842163	4145.24661259	311.358488577	4210112.96063	67263706.4968	0
10200000.0	70090.0	545641786.004	0.343469057925	174237.731934	0.656095391605	1.20687639713	41727.7422692	25142.1447754	4119.29923648	314.396980166	3202364.58419	67268606.9038	0
10225000.0	70294.0	550272848.071	0.343478114889	174239.18457	0.659579236526	1.20632588863	41716.1180203	25139.7018433	4093.71653708	317.446499762	2175761.12577	67273507.8275	0
10250000.0	70498.0	554928832.009	0.343481012093	174240.600586	0.663071288727	1.20578742027	41705.5939703	25138.0813599	4068.51606462	320.504879299	1193246.30271	67278409.2678	0
10275000.0	70702.0	559609797.1	0.343478311785	174241.992188	0.666571315378	1.20526003838	41696.0962772	25137.2207642	4043.67494852	323.573356516	368099.917362	67283311.2249	0
10300000.0	70906.0	564315804.353	0.343470126734	174243.359375	0.670079141855	1.20474386215	41687.5836716	25137.097168	4019.19731879	326.651040684	61532.2976174	67288213.6988	0
10325000.0	71110.0	569046911.763	0.343456907717	174244.726562	0.673594768159	1.20423781872	41680.0039488	25137.6678467	3995.07840285	329.737650063	825395.546918	67293116.6894	0
10350000.0	71314.0	573803177.922	0.343438824624	174246.081543	0.677118368912	1.20374262333	41673.3436246	25138.9053345	3971.30915308	332.833178492	2132717.5139	67298020.1969	0
10375000.0	71518.0	578584661.841	0.343416300759	174247.436523	0.680649653077	1.2032572031	41667.5109597	25140.7516479	3947.88504315	335.937489031	3916917.03157	67302924.2213	0
10400000.0	71722.0	583391419.787	0.343389590892	174248.779297	0.68418844603	1.20278167725	41662.4924928	25143.182373	3924.78869904	338.220493696	12180487.9627	67307828.7626	0
10425000.0	71925.0	588223590.699	0.343358949951	174249.523926	0.687746447511	1.20232188702	41658.3322928	25146.1593628	3902.23876548	341.296769654	9333759.31425	67312733.8208	0
10450000.0	72129.0	593081150.259	0.343324773483	174250.854492	0.691300490871	1.20186543465	41654.7923726	25149.6383667	3879.7800542	345.267958432	12027401.0171	67317639.3961	0
10475000.0	72333.0	597964155.374	0.343287372663	174252.160645	0.694861984812	1.20141839981	41651.9147411	25153.5675049	3857.62848795	347.556360923	4095641.34459	67322545.4883	0
10500000.0	72536.0	602872743.32	0.343246749601	174252.905273	0.698442745488	1.20098638535	41649.7873989	25157.9421997	3835.99928148	350.660010082	1966950.71883	67327452.0976	0
10525000.0	72740.0	607806892.177	0.343201727111	174254.162598	0.702019431628	1.20055937767	41648.38466	25162.8982544	3814.44527768	353.813279197	368315.793297	67332359.224	0
10550000.0	72943.0	612766744.919	0.343151859464	174254.736328	0.705616199411	1.20015013218	41647.9693822	25168.4906006	3793.39137785	356.935240544	452254.246306	67337266.8676	0
10575000.0	73147.0	617752282.134	0.343097403479	174255.79834	0.709209416527	1.19974637032	41648.3272889	25174.7024536	3772.41226567	360.106264165	2333462.43335	67342175.0283	0
10600000.0	73350.0	622763644.212	0.343038700205	174256.12793	0.712822424248	1.1993585825	41649.5355974	25181.4468384	3751.91578997	362.35336932	15184029.2102	67347083.7062	0
10625000.0	73553.0	627800892.893	0.342976258834	174256.396484	0.71644334821	1.19898033142	41651.4922326	25188.7191772	3731.68227129	365.494666503	10926483.4809	67351992.9013	0
10650000.0	73756.0	632864087.268	0.342910391844	174256.518555	0.72007230483	1.1986117363	41654.1295413	25196.4569092	3711.71272732	368.64469489	7027013.12077	67356902.6137	0
10675000.0	73959.0	637953286.903	0.342841411456	174256.567383	0.723709061276	1.19825136662	41657.4031358	25204.6417236	3691.99597616	371.804162093	3642525.94611	67361812.8435	0
10700000.0	74162.0	643068550.416	0.342769629576	174256.420898	0.727353733964	1.19789922237	41661.2838081	25213.2415771	3672.52508814	374.973210495	1035304.27704	67366723.5905	0
10725000.0	74365.0	648209935.267	0.342695497737	174256.176758	0.731005857233	1.19755470753	41665.6967628	25222.1878052	3653.29727406	378.151878686	217134.356672	67371634.855	0
10750000.0	74568.0	653377498.415	0.342619326871	174255.79834	0.734665547498	1.19721758366	41670.6427996	25231.4880371	3634.30579702	381.340322332	2380902.40372	67376546.6368	0
10775000.0	74771.0	658571297.469	0.342541623263	174255.273438	0.73833274655	1.19688725471	41676.0224806	25241.0583496	3615.54404444	384.538798501	5823943.97562	67381458.9361	0
10800000.0	74974.0	663791387.016	0.342462612717	174254.577637	0.742007337976	1.19656276703	41681.788598	25250.8682251	3597.00947431	386.792138432	10688726.3554	67386371.7529	0
10825000.0	75176.0	669037908.653	0.342381905783	174253.149414	0.745701428968	1.19625067711	41688.1285093	25260.9985352	3578.88426241	389.960292094	6278184.29519	67391285.0872	0
10850000.0	75379.0	674310840.253	0.342297605298	174252.050781	0.749391678255	1.19594311714	41695.1180151	25271.6201782	3560.78782876	393.180098271	2597989.16381	67396198.939	0
10875000.0	75581.0	679610327.125	0.342210414616	174250.231934	0.753102067392	1.19564926624	41702.8183317	25282.673645	3543.09020843	396.366759641	198738.916908	67401113.3084	0
10900000.0	75784.0	684936342.741	0.342119556817	174249.169922	0.756807916332	1.19535923004	41711.1847599	25294.2596436	3525.41087354	399.606498078	1446264.3583	67406028.1955	0
10925000.0	75986.0	690289029.366	0.342026013947	174247.692871	0.760533264838	1.1950814724	41720.2269662	25306.262207	3508.11632846	401.818812782	18281129.5777	67410943.6002	0
10950000.0	76188.0	695668445.186	0.341929901951	174246.350098	0.764266413171	1.1948120594	41729.8670426	25318.6645508	3491.01394691	405.02802835	12188099.581	67415859.5226	0
10975000.0	76390.0	701074646.35	0.341831308778	174245.227051	0.768006895669	1.19454991817	41740.0877109	25331.4727783	3474.10555749	408.24710843	6841685.60973	67420775.9627	0
11000000.0	76592.0	706507689.101	0.341730461506	174244.226074	0.771754886955	1.19429516792	41750.8412348	25344.6365356	3457.38155434	411.476700018	2549062.17451	67425692.9206	0
11025000.0	76794.0	711967628.88	0.341627809388	174243.444824	0.775510037784	1.19404661655	41762.0677251	25358.1314087	3440.84006063	414.716844698	24968.3185661	67430610.3963	0
11050000.0	76996.0	717454522.639	0.341523466963	174242.834473	0.779272755608	1.1938046217	41773.7411875	25371.9146729	3424.47922478	417.967178344	2285060.53777	67435528.3898	0
11075000.0	77198.0	722968424.243	0.341417770883	174242.407227	0.783042516559	1.19356918335	41785.8318208	25385.9634399	3408.28973569	421.228758145	6813332.66007	67440446.9011	0
11100000.0	77400.0	728509387.875	0.341311029235	174242.199707	0.786819378845	1.19333958626	41798.3010126	25400.2548218	3392.27362121	423.450214037	10599998.1131	67445365.9304	0
11125000.0	77601.0	734077554.759	0.341203604879	174241.61377	0.790615798905	1.19311952591	41811.1283355	25414.7247314	3376.5922741	426.680936895	5132422.13676	67450285.4775	0
11150000.0	77803.0	739672896.499	0.341092669804	174241.748047	0.794407445937	1.19290423393	41824.6216092	25429.7134399	3360.90223278	429.967116177	1076812.81451	67455205.5427	0
11175000.0	78004.0	745295556.33	0.340979367447	174241.442871	0.798219058197	1.19270157814	41838.7433147	25445.0805664	3345.54221721	432.143931015	29708457.3851	67460126.1258	0
11200000.0	78205.0	750945595.157	0.34086334248	174241.28418	0.802038586698	1.19250631332	41853.4469874	25460.8596802	3330.34015669	436.480756832	5018501.19151	67465047.227	0
11225000.0	78407.0	756622983.07	0.340744268352	174241.821289	0.805853283964	1.19231498241	41868.7491586	25477.1026611	3315.12345596	439.798985368	11249506.0781	67469968.8462	0
11250000.0	78608.0	762327864.309	0.340623811273	174241.918945	0.809687771834	1.19213438034	41884.4919816	25493.5775757	3300.2262948	441.982774976	6718968.36122	67474890.9835	0
11275000.0	78809.0	768060296.456	0.340501614911	174242.1875	0.813529826701	1.19196021557	41900.684748	25510.3469849	3285.47182962	445.269171017	1767097.49192	67479813.6389	0
11300000.0	79010.0	773820335.124	0.340377931702	174242.602539	0.817379448563	1.19179153442	41917.2508729	25527.3574829	3270.85515232	447.451412553	32348991.3616	67484736.8125	0
11325000.0	79210.0	779608126.052	0.340253869073	174242.590332	0.82124909386	1.19163167477	41934.0999752	25544.4747925	3256.54305579	450.705685058	22880196.5841	67489660.5043	0
11350000.0	79411.0	785423637.777	0.340128104012	174243.286133	0.825113500468	1.19147312641	41951.305696	25561.8713379	3242.20458756	455.149731215	11372890.2127	67494584.7143	0
11375000.0	79612.0	791266925.988	0.340001853095	174244.116211	0.828985357657	1.19131851196	41968.7435671	25579.3914795	3228.03203264	457.336255691	7190383.01061	67499509.4425	0
11400000.0	79812.0	797138134.913	0.339876108984	174244.567871	0.832876889035	1.19117128849	41986.3119821	25596.9055176	3214.20727135	460.611328779	1899781.90339	67504434.6891	0
11425000.0	80013.0	803037230.874	0.339749604707	174245.703125	0.836763239931	1.19102370739	42004.0887241	25614.5751953	3200.41360618	463.935585341	590732.638293	67509360.454	0
11450000.0	80213.0	808964360.269	0.339622562065	174246.411133	0.840669556055	1.19088423252	42022.1401351	25632.3577881	3186.9520573	466.051350464	23784840.9587	67514286.7372	0
11475000.0	80413.0	814919581.22	0.339493416053	174247.20459	0.844583613798	1.19075024128	42040.6514243	25650.4608154	3173.66908737	469.326248818	14795111.0124	67519213.5388	0
11500000.0	80613.0	820902952.367	0.339362501074	174248.095703	0.848505529575	1.19062244892	42059.6112531	25668.8537598	3160.55946313	472.6035193	7219406.36989	67524140.8588	0
11525000.0	80813.0	826914533.702	0.339230123134	174249.108887	0.852435245179	1.19049978256	42078.9439671	25687.4969482	3147.61112391	475.884501743	1656227.42311	67529068.6973	0
11550000.0	81013.0	832954383.774	0.339096587338	174250.170898	0.856372644193	1.19038188457	42098.603565	25706.3415527	3134.82597121	479.168505784	965496.637878	67533997.0543	0
11575000.0	81213.0	839022558.911	0.338962252654	174251.342773	0.860317493789	1.19026899338	42118.548852	25725.3540039	3122.19558951	481.250338617	23420951.051	67538925.9297	0
11600000.0	81412.0	845119207.16	0.338828325449	174252.099609	0.864282483235	1.19016313553	42138.65118	25744.3908691	3109.85168696	484.488118007	14076396.9111	67543855.3237	0
11625000.0	81612.0	851244296.067	0.33869343739	174253.442383	0.868242466822	1.1900588274	42159.0589005	25763.659668	3097.51237471	488.99940599	23883117.6183	67548785.2363	0
11650000.0	81812.0	857397881.88	0.338558547374	174254.858398	0.872209726367	1.18995809555	42179.6108691	25782.9864502	3085.31348492	491.070735155	983588.0379	67553715.6675	0
11675000.0	82011.0	863580111.652	0.338424993545	174255.834961	0.876197358593	1.18986439705	42200.2009514	25802.2277832	3073.38871781	493.083322638	33610787.3578	67558646.6173	0
11700000.0	82210.0	869791042.34	0.338292145311	174256.884766	0.880192266777	1.18977415562	42220.8644727	25821.4691162	3061.59407645	496.331924942	22775545.3423	67563578.0858	0
11725000.0	82409.0	876030729.741	0.338160219245	174258.02002	0.884194509126	1.18968713284	42241.5620622	25840.6707764	3049.91836912	499.587227855	13393104.3743	67568510.073	0
11750000.0	82608.0	882299230.491	0.338029131583	174259.216309	0.888204202056	1.18960404396	42262.3289906	25859.8571777	3038.36391526	502.848470719	5801828.01276	67573442.5789	0
11775000.0	82807.0	888596604.452	0.337897083879	174260.424805	0.892221811228	1.18952727318	42283.4169037	25879.2297363	3026.92967304	506.115234223	687808.65422	67578375.6036	0
11800000.0	83006.0	894922908.908	0.337764160102	174261.71875	0.89624687098	1.18945646286	42304.8469392	25898.7976074	3015.60799162	509.388743509	2237817.86453	67583309.1471	0
11825000.0	83205.0	901278204.648	0.337630661404	174262.988281	0.900279963389	1.18939125538	42326.5342332	25918.5028076	3004.39463016	512.669093683	8712834.09117	67588243.2094	0
11850000.0	83404.0	907662550.677	0.337496779368	174264.306641	0.90432073921	1.18933129311	42348.4460707	25938.3178711	2993.28869431	514.659982566	13139429.5513	67593177.7906	0
11875000.0	83602.0	914076095.825	0.33736381753	174265.136719	0.908382004127	1.18927800655	42370.4135949	25958.0780029	2982.41373101	517.898254959	5408789.05202	67598112.8907	0
11900000.0	83801.0	920518807.962	0.337230201222	174266.479492	0.912438088562	1.18922615051	42392.6250363	25978.0090332	2971.50323728	521.193328423	404403.657793	67603048.5097	0
11925000.0	83999.0	926990837.45	0.337098045343	174267.333984	0.91651477851	1.18918013573	42414.7847368	25997.7996826	2960.81795004	523.126484567	34486693.1599	67607984.6476	0
11950000.0	84197.0	933492241.896	0.336966723935	174268.188477	0.920599326491	1.18913674355	42436.9687369	26017.5567627	2950.22291332	526.380637347	23159010.43	67612921.3046	0
11975000.0	84395.0	940023080.47	0.336836532727	174269.042969	0.924691208638	1.18909537792	42459.1190331	26037.2406006	2939.71097721	529.644329848	13402405.5785	67617858.4806	0
12000000.0	84593.0	946583411.936	0.336707739518	174269.921875	0.928790774196	1.18905568123	42481.1982325	26056.8145752	2929.28473925	532.916708224	5600176.53475	67622796.1756	0
12025000.0	84791.0	953173291.846	0.336580611313	174270.76416	0.932898023166	1.18901705742	42503.1561194	26076.2481689	2918.93393805	536.199457597	539813.045075	67627734.3898	0
12050000.0	84989.0	959792778.936	0.336455414346	174271.606445	0.937012489885	1.18897891045	42524.9417837	26095.501709	2908.66442197	539.491611954	2470726.90733	67632673.1231	0
12075000.0	85187.0	966441912.272	0.336331335325	174272.44873	0.941132195294	1.18894255161	42546.7059673	26114.6911621	2898.45967788	541.426521942	25581049.0202	67637612.3755	0
12100000.0	85384.0	973120864.385	0.336208129331	174272.705078	0.945275591221	1.18891167641	42568.4823856	26133.8165283	2888.45881573	544.68110898	15651293.1027	67642552.1472	0
12125000.0	85582.0	979829602.23	0.336084313388	174273.413086	0.949413632043	1.1888821125	42590.4971579	26153.1097412	2878.40080861	547.996784763	7365775.15276	67647492.4381	0
12150000.0	85779.0	986568280.021	0.335961880302	174273.571777	0.953572918661	1.1888576746	42612.4425881	26172.265625	2868.53214758	551.27304032	1520781.06877	67652433.2482	0
12175000.0	85977.0	993336863.281	0.335839267478	174274.133301	0.957726500928	1.18883383274	42634.5504644	26191.5313721	2858.60316112	554.611581423	1285767.41952	67657374.5777	0
12200000.0	86174.0	1000135507.1	0.335718544496	174274.133301	0.96190162003	1.18881523609	42656.5181695	26210.5865479	2848.85242305	556.499427532	30356837.3321	67662316.4265	0
12225000.0	86371.0	1006964272.42	0.335599062919	174274.035645	0.96608477179	1.188798666	42678.4313456	26229.5440674	2839.16300029	559.802526032	19785530.2081	67667258.7946	0
12250000.0	86568.0	1013823219.17	0.335480981191	174273.852539	0.97027560696	1.18878424168	42700.2630943	26248.3703613	2829.52827972	563.118212206	10830534.0324	67672201.6822	0
12275000.0	86765.0	1020712406.82	0.335364591408	174273.55957	0.974474591203	1.18877148628	42721.9558405	26267.0288086	2819.94483167	566.446835659	3901801.46012	67677145.0892	0
12300000.0	86962.0	1027631896.1	0.335250104508	174273.181152	0.978681026027	1.18876111507	42743.5154357	26285.4980469	2810.40927072	569.789436389	16589.6393157	67682089.0157	0
12325000.0	87159.0	1034581750.23	0.335137543455	174272.644043	0.982895726338	1.18875205517	42764.8756556	26303.7445068	2800.92440572	573.144930356	3578824.91202	67687033.4616	0
12350000.0	87356.0	1041562025.48	0.335027359383	174272.009277	0.987118110061	1.18874442577	42786.0240467	26321.7407227	2791.48381093	575.051694546	27594166.4895	67691978.4272	0
12375000.0	87552.0	1048572878.63	0.334920376735	174270.751953	0.991362030618	1.18874025345	42806.7969366	26339.3280029	2782.20027744	578.376242016	17962006.3155	67696923.9123	0
12400000.0	87749.0	1055614277.54	0.334813596023	174269.824219	0.995600479655	1.18873822689	42827.7130248	26356.9641113	2772.84714852	581.76608853	9719758.44422	67701869.917	0
12425000.0	87945.0	1062686379.02	0.334708352419	174268.237305	0.999860698357	1.18874287605	42848.5653602	26374.4140625	2763.64380041	585.119802874	3410854.99507	67706816.4413	0
12450000.0	88142.0	1069789150.78	0.334602774561	174267.126465	1.00411544554	1.18874979019	42869.6344776	26391.9830322	2754.36515085	588.540618904	15591.766604	67711763.4853	0
12475000.0	88338.0	1076922748.0	0.334498677135	174265.661621	1.00839114748	1.18876206875	42890.6400786	26409.3902588	2745.23218872	590.419916575	40914470.6224	67716711.0491	0
12500000.0	88534.0	1084087231.73	0.33439536428	174264.306641	1.01267499849	1.18877708912	42911.6648289	26426.7486572	2736.13251394	594.829968959	0.0	67721659.1325	0
