z	T	P	nabla_ad	S	rho	delta	cp	cv	opac	frad	fconv	ftot	dT
0.0	3900.0	114.509768263	0.3862794709	174732.348633	4.61394789042e-06	1.00747215748	16675.6750663	10219.9043274	0.000589961238551	0.0	15505.3503389	65311815.0903	0
25000.0	3900.0	150.892863287	0.382189475334	172963.452148	6.08093930765e-06	1.00980901718	16911.3817517	10427.9937744	0.000703480222199	0.0	21398.0740498	65316507.3538	0
50000.0	3900.0	198.850436501	0.376972750728	171189.562988	8.01539190576e-06	1.01290094852	17222.6606412	10702.0362854	0.000837169534532	0.0	28107.1965839	65321200.1229	0
75000.0	3900.0	262.073547797	0.370365883315	169409.643555	1.05668434003e-05	1.01703631878	17631.6121716	11061.5287781	0.000994418245645	0.0	37013.4915749	65325893.3976	0
100000.0	3900.0	345.436422172	0.362116298076	167621.057129	1.39333575788e-05	1.02236032486	18167.0465659	11532.9940796	0.00118011143203	0.0	48724.4789139	65330587.1781	0
125000.0	3900.0	455.380216064	0.351937188212	165821.911621	1.83771540208e-05	1.02934968472	18868.5312755	12149.8970032	0.0014004912762	0.0	64165.9960053	65335281.4644	0
150000.0	3900.0	600.423387867	0.339623469568	164007.958984	2.42463347178e-05	1.03861665726	19786.115715	12955.21698	0.001661655542	0.0	84510.7260375	65339976.2566	0
175000.0	3900.0	791.845198267	0.325045959593	162175.512695	3.20039603707e-05	1.05071020126	20983.3001885	14004.3136597	0.00197018075723	0.0	111360.405381	65344671.5548	0
200000.0	3900.0	1044.60226914	0.308220951803	160318.164062	4.22675014988e-05	1.06634879112	22537.072225	15364.4927979	0.002337224899	29054745.6952	144221.110049	65349367.3591	0
225000.0	3908.0	1377.72032931	0.291835204241	158477.355957	5.57043016158e-05	1.08420884609	24268.0041875	16871.9924927	0.00282154678633	20671430.7261	189951.778709	65354063.6694	0
250000.0	3909.0	1817.78972661	0.271940256838	156559.216309	7.36145295832e-05	1.10950124264	26728.1297129	19011.227417	0.00336561136701	30621689.6492	243310.795331	65358760.4858	0
275000.0	3929.0	2396.10023522	0.257346656224	154737.109375	9.67078790381e-05	1.13235187531	28854.3107927	20843.4356689	0.00416157349948	26434129.1771	314970.719283	65363457.8085	0
300000.0	3938.0	3158.43208283	0.239003147615	152820.43457	0.000127511356141	1.1660643816	32023.642683	23570.3125	0.00503624758192	32210656.5689	383110.89647	65368155.6374	0
325000.0	3985.0	4151.2014687	0.233107386356	151171.057129	0.000165836468113	1.1814289093	33234.4024356	24579.133606	0.00645566955004	31462024.8135	454929.934154	65372853.9727	0
350000.0	4026.0	5443.2515361	0.225434184654	149479.56543	0.000215613795262	1.20180535316	34891.0437381	25964.5507812	0.00815421575367	31878014.5926	482608.174532	65377552.8144	0
375000.0	4126.0	7088.75715597	0.235758604284	148300.45166	0.000273637652981	1.1840736866	32813.9501698	24131.4620972	0.0113510632803	31481773.6894	435097.755875	65382252.1626	-1
400000.0	4255.0	9154.30894744	0.253242158273	147343.066406	0.000341993427355	1.15498077869	29725.4984945	21433.5647583	0.0165591170181	31534725.0393	233722.915964	65386952.0172	-1
425000.0	4507.0	11641.3162616	0.298948204812	147137.82959	0.000408484936543	1.09156477451	23639.5134815	16165.8447266	0.0275554861452	31251805.4231	6049.73405219	65391652.3785	-3
450000.0	4888.0	14519.1681911	0.349107306426	147313.574219	0.000468040980195	1.04127657413	19143.0270693	12289.3531799	0.0438988912343	29843420.269	0.00695960426766	65396353.2465	-2
475000.0	5370.0	17743.4032466	0.378121734835	147706.542969	0.000519096033713	1.01691293716	17165.5974553	10602.3132324	0.0604515506764	30024309.3626	0.0834012499507	65401054.6211	-7
500000.0	5892.0	21303.9659274	0.385978528671	148061.291504	0.000568276959712	1.00869715214	16643.1232218	10174.8001099	0.0903694781835	26330972.8413	0.971825971736	65405756.5026	0
525000.0	6458.0	25162.3785936	0.380615808804	148549.157715	0.000610864901773	1.0077419281	16832.120161	10370.3285217	0.17728236692	41416741.0986	3743.54615313	65410458.8909	-12
550000.0	8615.0	28473.7788612	0.244103471885	153655.944824	0.000513506961397	1.09507703781	28315.3111697	20645.5505371	2.32589136845	11906405.718	7833838.34551	65415161.7861	-15
575000.0	10126.0	31532.7339926	0.150407720973	159514.892578	0.000469676223247	1.35648238659	58374.7280481	46412.5518799	10.4232288143	2775020.98969	27458594.6539	65419865.1883	-2
600000.0	10786.0	34615.5403848	0.129268940657	163049.79248	0.000471493081022	1.54479670525	79438.019706	63702.3742676	18.3939255836	975644.446268	15936446.7234	65424569.0975	-6
625000.0	11240.0	37784.3469974	0.120193276496	165717.944336	0.000483409337448	1.6884547472	95569.8847291	76535.5163574	25.9729035089	616516.137631	16639142.2147	65429273.5139	-1
650000.0	11690.0	41013.0906239	0.113713147844	168901.11084	0.000491320690799	1.8461792469	113592.306346	90477.331543	35.3736851092	367211.92553	13108860.3556	65433978.4373	-3
675000.0	11900.0	44414.2863683	0.112157841762	169943.664551	0.000516982709087	1.90549683571	120311.911314	95518.4082031	40.7460027844	243443.214335	8342664.67603	65438683.868	-1
700000.0	12195.0	47935.3461615	0.109937066247	172001.928711	0.000534377022632	2.00109434128	131521.174162	103853.198242	48.7586799068	184023.938249	7555451.95676	65443389.806	-1
725000.0	12337.0	51663.5732118	0.109653286484	172443.164062	0.000565476454994	2.0310857296	134829.745436	106201.89209	53.4567789423	130778.568677	4199075.11977	65448096.2513	-1
750000.0	12543.0	55562.8404267	0.108900170343	173631.225586	0.000590821173319	2.08582782745	141252.586831	110814.672852	60.1992834568	105733.27118	3520650.16068	65452803.204	-1
775000.0	12653.0	59701.2659829	0.109017806719	173748.852539	0.000626689484307	2.10097384453	142778.805443	111810.168457	64.5613029005	62685.4181888	66649.4329608	65457510.6642	0
800000.0	12751.0	64097.6088826	0.10923119521	173759.985352	0.000665411050704	2.11183333397	143782.915021	112422.766113	68.802057091	53957.0108887	8092.93205979	65462218.6319	0
825000.0	12850.0	68763.5492141	0.109452640765	173784.179688	0.000705901811671	2.12262892723	144785.490262	113030.078125	73.2610151855	48887.6016278	6373.34051082	65466927.1071	0
850000.0	12948.0	73713.254632	0.109699907497	173770.922852	0.000748580191612	2.13200139999	145593.753057	113487.512207	77.8844295855	44138.2917113	14215.6256479	65471636.09	0
875000.0	13046.0	78961.2712773	0.109959639296	173743.408203	0.000793378603703	2.14057588577	146295.615776	113861.71875	82.7071268916	40319.5133734	4604.1001886	65476345.5805	0
900000.0	13145.0	84520.7600345	0.110223940734	173754.162598	0.000840038694605	2.14976429939	147096.465346	114308.288574	87.7633357595	36709.2858606	3573.23801492	65481055.5789	0
925000.0	13243.0	90406.5872126	0.110505747674	173770.556641	0.000888930458132	2.15859007835	147868.167454	114733.837891	92.9924490063	33307.3505413	11925.1987696	65485766.085	0
950000.0	13341.0	96633.5714674	0.110799406534	173787.341309	0.000940068275668	2.16700196266	148595.638591	115125.317383	98.4352641511	30419.4577027	11387.6393654	65490477.0989	0
975000.0	13439.0	103217.702921	0.11110524809	173780.358887	0.000993667867988	2.17457509041	149207.673244	115428.57666	104.102533743	27816.0038927	11384.3687266	65495188.6208	0
1000000.0	13537.0	110176.298694	0.111417068198	173754.23584	0.00104980676952	2.18139147758	149722.062954	115658.654785	110.000452611	25465.9492113	11779.4576012	65499900.6506	0
1025000.0	13635.0	117526.152699	0.111734215236	173752.392578	0.00110830842459	2.18832778931	150282.728182	115925.939941	116.127853719	23348.813478	11986.6052625	65504613.1885	0
1050000.0	13733.0	125283.742893	0.112060154361	173767.84668	0.00116926776172	2.19524598122	150862.873218	116208.886719	122.491557103	21437.4217383	12164.4223724	65509326.2344	0
1075000.0	13831.0	133466.385038	0.112395831033	173787.304688	0.00123283882658	2.20183849335	151412.352789	116468.920898	129.100256445	19707.147108	12552.4830448	65514039.7885	0
1100000.0	13929.0	142092.629748	0.112741742817	173791.85791	0.00129924546854	2.20779776573	151875.052308	116662.939453	135.965154316	18135.8287954	13541.9617383	65518753.8507	0
1125000.0	14027.0	151182.612767	0.113095840295	173766.28418	0.00136870266942	2.21297192574	152218.097684	116765.979004	143.096783957	16705.2056467	15451.8140921	65523468.4212	0
1150000.0	14125.0	160756.800476	0.113457914114	173755.078125	0.00144100295074	2.2180685997	152572.58348	116879.296875	150.492559983	15405.7161718	17641.104243	65528183.5	0
1175000.0	14223.0	170834.579556	0.113828578227	173763.146973	0.00151612834998	2.22314453125	152947.661121	117009.49707	158.14724553	14298.2408051	3264.07326045	65532899.0871	0
1200000.0	14322.0	181434.12457	0.114205751937	173791.503906	0.0015939806417	2.22825145721	153342.125681	117153.00293	166.106909184	13220.4685057	3962.06237128	65537615.1826	0
1225000.0	14420.0	192578.12347	0.11459234583	173804.882812	0.00167526786754	2.232640028	153646.728253	117231.787109	174.285494835	12174.3757485	25636.6558435	65542331.7865	0
1250000.0	14518.0	204289.217431	0.114984339796	173796.240234	0.00176002322405	2.23640179634	153858.503133	117241.137695	182.741825629	11278.73626	30453.5976536	65547048.8989	0
1275000.0	14616.0	216591.773064	0.115384522274	173769.140625	0.00184836733297	2.23982906342	154015.203534	117209.301758	191.481746656	10511.786122	11084.4897288	65551766.5199	0
1300000.0	14715.0	229507.462838	0.115790990601	173771.887207	0.00193967593987	2.24346017838	154224.227748	117216.577148	200.550028821	9759.67755633	14681.3256413	65556484.6494	0
1325000.0	14813.0	243061.089036	0.116205561105	173778.393555	0.00203466606763	2.24667453766	154399.27104	117202.563477	209.850910639	9070.50873087	19344.5814113	65561203.2876	0
1350000.0	14912.0	257274.363777	0.116625302998	173801.184082	0.0021328951334	2.24976348877	154573.941212	117188.07373	219.499012838	8439.41198004	24462.126035	65565922.4345	0
1375000.0	15010.0	272174.60008	0.117050034956	173807.470703	0.0022352560336	2.2521443367	154660.846003	117111.901855	229.399824082	7858.29445534	31557.98023	65570642.0901	0
1400000.0	15109.0	287786.116641	0.117481925789	173806.359863	0.00234132994592	2.25434327126	154717.654131	117012.023926	239.675505218	7360.82400566	8570.79766488	65575362.2545	0
1425000.0	15208.0	304137.221183	0.117921603842	173787.133789	0.00245158526013	2.25634288788	154735.828913	116883.618164	250.282833289	6865.05133521	14990.4098314	65580082.9277	0
1450000.0	15307.0	321255.940311	0.118367217468	173782.617188	0.00256568682744	2.25820827484	154757.371368	116759.851074	261.215451699	6408.74926605	22942.9187716	65584804.1097	0
1475000.0	15406.0	339169.198932	0.118818042762	173790.136719	0.00268375129053	2.25982761383	154765.810345	116628.527832	272.484968906	5988.11877202	32547.4490603	65589525.8007	0
1500000.0	15505.0	357904.904279	0.119272871546	173802.832031	0.0028059748729	2.26108336449	154740.616754	116474.328613	284.104334379	5599.62851415	44191.2710031	65594248.0007	0
1525000.0	15604.0	377491.868972	0.119734805202	173814.892578	0.00293252605843	2.26200270653	154680.740951	116296.350098	296.087646599	5266.70611099	14006.3822792	65598970.7096	0
1550000.0	15704.0	397957.338929	0.120206256004	173826.89209	0.00306320430354	2.26283168793	154608.959834	116108.679199	308.515088704	4932.55475673	24068.3056691	65603693.9276	0
1575000.0	15803.0	419336.921974	0.120680572987	173805.34668	0.00319931223203	2.26331210136	154470.891715	115874.09668	321.285945119	4621.29501912	39212.4714758	65608417.6547	0
1600000.0	15903.0	441661.635885	0.121159389946	173794.995117	0.00333963862431	2.2637693882	154338.405992	115643.347168	334.523551362	4354.93171962	9499.42675156	65613141.891	0
1625000.0	16003.0	464963.436218	0.121641598249	173795.800781	0.00348454159393	2.26395964622	154189.303945	115402.91748	348.152680274	4086.57211299	21071.6289762	65617866.6364	0
1650000.0	16103.0	489273.845226	0.122130789625	173805.883789	0.00363411072613	2.26387524605	154020.715031	115150.549316	362.182760415	3837.64498294	36589.6552219	65622591.891	0
1675000.0	16203.0	514625.192523	0.12262956743	173821.264648	0.00378849813387	2.2635538578	153833.120677	114886.206055	376.624373691	3606.46019412	56756.8956848	65627317.6548	0
1700000.0	16303.0	541051.616995	0.123135183237	173833.47168	0.00394801190851	2.26300048828	153617.739337	114602.807617	391.495224665	3408.27062571	18162.140781	65632043.928	0
1725000.0	16404.0	568585.718886	0.123645977169	173841.40625	0.00411245719079	2.26235556602	153384.666781	114305.554199	406.885557537	3207.09648568	36929.0093595	65636770.7105	0
1750000.0	16504.0	597270.551545	0.12415245598	173816.564941	0.00428340763392	2.26146578789	153097.483768	113970.715332	422.681305909	3018.57247068	64310.9782401	65641498.0024	0
1775000.0	16605.0	627141.657697	0.12466582825	173805.883789	0.00445912610303	2.26047372818	152813.71186	113639.233398	439.004938851	2857.51948454	21928.0755526	65646225.8037	0
1800000.0	16706.0	658235.212216	0.125188231368	173807.592773	0.00464004870082	2.25924992561	152521.359935	113304.296875	455.789298264	2693.53417066	46264.413716	65650954.1145	0
1825000.0	16807.0	690587.846106	0.125718542998	173817.407227	0.00482638279209	2.25778508186	152212.984671	112959.94873	473.037190454	2540.65251556	78537.4620884	65655682.9347	0
1850000.0	16908.0	724237.796405	0.12625471961	173829.858398	0.00501839804201	2.25607466698	151881.464877	112600.622559	490.748072519	2409.8466061	28959.4520699	65660412.2645	0
1875000.0	17010.0	759220.550055	0.126797252526	173847.216797	0.0052157065511	2.25420928001	151534.336519	112229.870605	509.0119538	2287.40111958	19.8297779882	65665142.1038	0
1900000.0	17112.0	795577.380883	0.127343911483	173854.956055	0.00541922781849	2.25215411186	151159.294944	111840.368652	527.767480755	2161.6869365	14449.6732444	65669872.4527	0
1925000.0	17214.0	833351.947826	0.127892785193	173845.007324	0.00562937930226	2.25004339218	150763.763607	111436.950684	547.036578298	2043.80301696	45464.1183313	65674603.3113	0
1950000.0	17316.0	872590.368284	0.12844404291	173829.016113	0.0058459918364	2.24785399437	150357.568161	111027.392578	566.811887036	1933.37498983	90641.8545737	65679334.6795	0
1975000.0	17418.0	913336.445816	0.12900113669	173822.424316	0.00606869753028	2.245449543	149940.31941	110612.109375	587.083513147	1839.05066686	34653.7496256	65684066.5575	0
2000000.0	17521.0	955627.563313	0.129566710157	173830.761719	0.00629687201581	2.24285697937	149516.184145	110192.553711	607.941285001	1742.14531767	78500.1079453	65688798.9451	0
2025000.0	17623.0	999512.163577	0.130136327936	173835.681152	0.00653222923575	2.23994636536	149060.879496	109754.125977	629.232228953	1651.05431428	138707.666681	65693531.8426	0
2050000.0	17726.0	1045029.0322	0.130718243753	173850.708008	0.0067733249125	2.23686003685	148594.341272	109308.14209	651.130103177	1581.15064206	3865.9253071	65698265.2498	0
2075000.0	17830.0	1092218.53018	0.131309547178	173869.86084	0.00702042598277	2.23366546631	148116.902275	108854.394531	673.649497991	1500.60804748	14868.600523	65702999.1668	0
2100000.0	17933.0	1141135.50155	0.13189693288	173869.506836	0.0072757839007	2.23039126396	147615.611944	108385.656738	696.613407478	1424.61634235	61364.6295855	65707733.5937	0
2125000.0	18037.0	1191826.24054	0.132484382885	173858.483887	0.00753812219045	2.22722220421	147112.879567	107914.868164	720.209869177	1353.26039442	131488.276614	65712468.5306	0
2150000.0	18140.0	1244350.1801	0.133071043111	173837.329102	0.00780872233008	2.22393274307	146593.690191	107435.070801	744.257423318	1292.14835663	61121.8021163	65717203.9773	0
2175000.0	18245.0	1298743.55304	0.133676434687	173841.345215	0.00808426193544	2.22046065331	146074.302412	106954.711914	768.999412881	1234.95705654	9025.41042054	65721939.934	0
2200000.0	18349.0	1355061.31083	0.13428438462	173843.566895	0.00836789604364	2.21675801277	145533.81326	106462.475586	794.201087014	1175.10611515	61596.5484678	65726676.4007	0
2225000.0	18454.0	1413346.65256	0.134902992031	173856.982422	0.00865786296345	2.21287560463	144983.337311	105963.757324	820.050826621	1124.29354406	8057.78640712	65731413.3773	0
2250000.0	18559.0	1473651.05287	0.135525775076	173870.166016	0.00895544508239	2.20881462097	144415.635706	105454.47998	846.485836156	1071.06663544	64898.6556203	65736150.864	0
2275000.0	18664.0	1536026.89701	0.136155121707	173880.957031	0.00926080520003	2.20456767082	143829.333351	104933.740234	873.516886634	1020.83081103	158452.993472	65740888.8608	0
2300000.0	18769.0	1600529.20897	0.136787539082	173884.375	0.00957438533078	2.20024013519	143230.701595	104405.627441	901.172142932	977.974541256	76084.2140489	65745627.3676	0
2325000.0	18875.0	1667208.5248	0.137423625491	173882.080078	0.0098955406429	2.19596624374	142632.705059	103877.893066	929.568222989	937.381325867	15537.513878	65750366.3846	0
2350000.0	18981.0	1736126.19631	0.138055221378	173866.73584	0.0102256035461	2.19180607796	142037.377887	103352.954102	958.63537696	894.522105336	96699.3188282	65755105.9117	0
2375000.0	19087.0	1807341.57825	0.138692191058	173856.713867	0.0105636954686	2.18749141693	141432.127973	102822.802734	988.33903553	858.047151758	27578.3415136	65759845.949	0
2400000.0	19194.0	1880901.1032	0.139344796032	173860.742188	0.0109084639917	2.18292284012	140812.284501	102283.331299	1018.77233861	819.739154313	125098.950626	65764586.4964	0
2425000.0	19300.0	1956868.84302	0.139999263004	173861.914062	0.0112626612463	2.17817544937	140175.740717	101734.918213	1049.77155078	783.350384958	272652.038565	65769327.5541	0
2450000.0	19407.0	2035293.94529	0.140665803416	173872.167969	0.0116240535135	2.17326927185	139528.833784	101179.534912	1081.53468289	756.059504523	152.968156913	65774069.122	0
2475000.0	19515.0	2116226.91096	0.141342131271	173888.317871	0.011992864529	2.16826081276	138873.843173	100618.4021	1114.0814977	726.707897546	45875.9371697	65778811.2002	0
2500000.0	19623.0	2199727.77824	0.142024099682	173901.269531	0.0123705658552	2.16314125061	138204.119532	100047.601318	1147.33435666	692.301796794	222505.057575	65783553.7886	0
2525000.0	19730.0	2285868.48309	0.14270309612	173900.708008	0.012758982848	2.1580080986	137524.716772	99471.7712402	1181.22302908	665.774871541	123663.848744	65788296.8873	0
2550000.0	19839.0	2374696.25523	0.143392635828	173902.880859	0.0131544147735	2.15291619301	136849.374416	98897.7172852	1216.05525301	640.670280025	44121.1389041	65793040.4964	0
2575000.0	19947.0	2466290.56337	0.144067738392	173885.15625	0.0135615246109	2.14805936813	136187.968954	98335.5773926	1251.57102868	613.717956658	195210.500217	65797784.6158	0
2600000.0	20056.0	2560710.54803	0.144750586656	173876.513672	0.0139764524647	2.1431119442	135526.993577	97774.9389648	1287.86810432	590.96460302	97149.8238808	65802529.2456	0
2625000.0	20165.0	2658018.57334	0.145443680999	173872.949219	0.0144003570313	2.13788938522	134845.367349	97201.751709	1324.78576456	569.324971208	23939.0250515	65807274.3857	0
2650000.0	20275.0	2758266.43199	0.146154271274	173880.200195	0.0148317649291	2.13236427307	134142.260979	96614.3981934	1362.42508008	548.832925565	10632.9376827	65812020.0363	0
2675000.0	20385.0	2861517.33556	0.146873762571	173889.941406	0.015272429664	2.12664151192	133423.431399	96017.6818848	1400.7200249	526.909111481	82672.4019562	65816766.1973	0
2700000.0	20495.0	2967836.41731	0.14759987413	173900.244141	0.0157226531883	2.1207921505	132693.942321	95414.9108887	1439.69928693	508.368659496	15505.6467615	65821512.8687	0
2725000.0	20606.0	3077279.60417	0.148337534039	173915.258789	0.0161810767167	2.11484336853	131957.459044	94807.5561523	1479.47571741	488.538116005	181848.237247	65826260.0506	0
2750000.0	20716.0	3189927.73884	0.149068647925	173919.53125	0.0166514673765	2.10898041725	131224.703997	94204.7546387	1519.90546973	471.674007503	87404.5457542	65831007.7429	0
2775000.0	20828.0	3305830.20598	0.149812055575	173929.125977	0.017129117623	2.10313200951	130495.408453	93603.6621094	1561.29604655	455.688081714	18231.7931711	65835755.9457	0
2800000.0	20939.0	3425074.07161	0.150540413116	173921.630859	0.0176197354449	2.09755706787	129785.107164	93017.6696777	1603.40706445	438.298363642	210279.297496	65840504.659	0
2825000.0	21051.0	3547726.36678	0.151267736606	173910.437012	0.0181199466169	2.09215736389	129091.165201	92443.4448242	1646.44599181	423.64507365	107236.727206	65845253.8829	0
2850000.0	21163.0	3673863.78475	0.151995291894	173901.513672	0.0186305387615	2.08676815033	128402.323966	91874.3164062	1690.28938218	409.607677254	27931.5895532	65850003.6173	0
2875000.0	21276.0	3803546.22454	0.152730802886	173901.025391	0.0191497038031	2.08131742477	127714.180862	91306.4147949	1735.03546829	396.230878614	10356.5495615	65854753.8622	0
2900000.0	21389.0	3936843.96428	0.153475937786	173903.24707	0.0196791079361	2.07565450668	127008.478537	90727.6977539	1780.60437542	381.722173621	136885.506488	65859504.6177	0
2925000.0	21502.0	4073827.57202	0.154233301668	173907.592773	0.0202188002731	2.06973552704	126280.508595	90134.8388672	1826.99695483	369.495859057	49892.3037127	65864255.8838	0
2950000.0	21616.0	4214555.76511	0.155008350775	173918.640137	0.0207670163945	2.06356596947	125532.633023	89528.704834	1874.32659835	357.834178302	479.325096888	65869007.6605	0
2975000.0	21730.0	4359102.14297	0.155790106136	173928.833008	0.0213260100281	2.05728626251	124775.316391	88917.2912598	1922.5234716	345.122376035	215314.488821	65873759.9478	0
3000000.0	21844.0	4507542.68151	0.156575110588	173936.401367	0.0218961577048	2.05097413063	124015.560118	88305.4992676	1971.60680606	334.413742694	116370.941701	65878512.7458	0
3025000.0	21959.0	4659941.95009	0.157367889027	173944.824219	0.0224757677643	2.04464626312	123256.123	87694.4030762	2021.68576685	324.17362253	39495.4817888	65883266.0543	0
3050000.0	22074.0	4816381.0408	0.158155889681	173946.118164	0.0230673431361	2.03845953941	122509.219177	87093.2617188	2072.69307325	312.952719754	356166.84111	65888019.8735	0
3075000.0	22189.0	4976944.89681	0.158934161843	173937.609863	0.0236714895436	2.03250718117	121782.685992	86507.4584961	2124.6606829	303.494170489	235418.502707	65892774.2033	0
3100000.0	22305.0	5141706.06099	0.159713283268	173929.174805	0.0242856476689	2.02666497231	121069.622894	85931.6589355	2177.64670735	295.709884937	147084.768759	65897529.0438	0
3125000.0	22422.0	5310732.04488	0.160499442349	173928.479004	0.0249088880082	2.02079916	120361.308901	85359.9731445	2231.59882053	285.791201345	42599.2387032	65902284.395	0
3150000.0	22538.0	5484118.09179	0.161274562693	173923.986816	0.0255460072367	2.01506853104	119667.757387	84800.5737305	2286.2675101	276.243660804	392471.027629	65907040.2569	0
3175000.0	22655.0	5661927.38323	0.162066586379	173926.416016	0.0261922286882	2.00911140442	118957.039579	84229.7119141	2341.75858952	269.454746075	62106.457969	65911796.6295	0
3200000.0	22773.0	5844222.4062	0.162877495798	173935.205078	0.0268474614131	2.00289916992	118225.475111	83644.7509766	2398.05670041	260.739169517	151191.578832	65916553.5128	0
3225000.0	22890.0	6031098.99219	0.163687387088	173939.038086	0.0275167149084	1.99663877487	117488.905698	83058.0200195	2455.0208203	253.41829734	63784.3840881	65921310.9068	0
3250000.0	23009.0	6222605.95833	0.164519710614	173952.233887	0.028192960599	1.99016499519	116736.91521	82460.357666	2512.8745221	246.473619255	7599.24522848	65926068.8116	0
3275000.0	23127.0	6418842.95788	0.165344975131	173958.325195	0.0288838200504	1.98377168179	115991.525785	81868.9575195	2571.41106743	238.737399722	378674.583748	65930827.2271	0
3300000.0	23246.0	6619878.85476	0.166177388835	173965.917969	0.0295846984955	1.9773696661	115247.656987	81279.083252	2630.78544328	233.308399872	95874.0296772	65935586.1533	0
3325000.0	23366.0	6825784.05735	0.16701338479	173973.4375	0.0302958542306	1.97102594376	114511.35133	80694.9951172	2691.00776739	226.200320399	159054.056356	65940345.5903	0
3350000.0	23485.0	7036666.76819	0.167830887384	173969.20166	0.0310229588649	1.96496653557	113800.00692	80129.9743652	2751.97708637	220.23952224	69350.9924255	65945105.5381	0
3375000.0	23606.0	7252585.5874	0.168652756758	173966.162109	0.0317585690937	1.95902204514	113102.691328	79574.7436523	2813.89828891	214.563221113	7582.68635131	65949865.9966	0
3400000.0	23726.0	7473653.16147	0.169457092203	173956.359863	0.0325098080793	1.95332026482	112429.925584	79038.5620117	2876.55574788	208.182285252	421035.874689	65954626.9659	0
3425000.0	23847.0	7699940.03915	0.170269551183	173953.051758	0.0332707459165	1.94755601883	111757.784558	78503.7841797	2940.043447	203.765940914	124253.150113	65959388.4459	0
3450000.0	23969.0	7931512.05611	0.171099358118	173955.834961	0.0340411061188	1.94156169891	111068.848995	77958.1237793	3004.34515007	197.898673598	162868.098244	65964150.4368	0
3475000.0	24090.0	8168473.24444	0.171927115729	173955.102539	0.0348266257788	1.93552923203	110377.461195	77412.4816895	3069.38585211	193.009058204	68904.8929627	65968912.9385	0
3500000.0	24213.0	8410871.71473	0.172777624538	173964.038086	0.0356189266313	1.92926955223	109670.447686	76856.1035156	3135.3147602	188.360687555	8817.03613155	65973675.951	0
3525000.0	24335.0	8658813.84573	0.173621567849	173968.481445	0.0364267471014	1.92306685448	108969.183234	76305.2307129	3202.02338633	183.086194377	509702.592073	65978439.4743	0
3550000.0	24458.0	8912369.10406	0.174474405869	173976.611328	0.0372445756511	1.91681194305	108266.326642	75753.7536621	3269.61281165	179.490211732	100199.829384	65983203.5085	0
3575000.0	24582.0	9171607.4982	0.175333376808	173987.573242	0.0380725032301	1.91055369377	107566.212658	75204.6813965	3338.11578309	174.612817259	254122.275025	65987968.0534	0
3600000.0	24705.0	9436641.33927	0.176177341355	173991.748047	0.0389168562833	1.90449953079	106884.885637	74670.0561523	3407.47778382	170.559464378	141795.415284	65992733.1093	0
3625000.0	24830.0	9707524.0772	0.177030157438	174000.976562	0.039768863644	1.89846241474	106209.448681	74139.6118164	3477.85334039	166.692251126	51607.9693772	65997498.6759	0
3650000.0	24954.0	9984372.93498	0.177861457917	174001.367188	0.0406380568165	1.8927257061	105561.494809	73629.7058105	3549.16406559	162.907794289	949.573589512	66002264.7534	0
3675000.0	25080.0	10267244.8179	0.178697176423	174004.138184	0.0415154427174	1.88705575466	104923.564732	73126.9836426	3621.54328733	159.291761683	66855.5691152	66007031.3418	0
3700000.0	25205.0	10556261.0726	0.179518423872	173995.495605	0.0424105746788	1.8815369606	104297.775425	72634.2041016	3694.88330838	155.131250714	338230.665773	66011798.441	0
3725000.0	25331.0	10851499.6935	0.180349612096	173989.868164	0.0433160057582	1.87590229511	103665.437782	72137.7563477	3769.04636222	151.746266484	195965.748898	66016566.051	0
3750000.0	25457.0	11153053.7196	0.181183304732	173985.583496	0.0442344826297	1.87020671368	103031.288875	71641.3452148	3843.96356488	148.471236612	80588.248689	66021334.1719	0
3775000.0	25584.0	11460992.0034	0.182026842196	173986.499023	0.0451628002338	1.86440551281	102392.404355	71142.4743652	3919.64251769	145.328933243	6525.9322901	66026102.8037	0
3800000.0	25711.0	11775406.0711	0.18286961182	173988.305664	0.0461043091491	1.85860824585	101757.325997	70647.3876953	3996.06547125	142.286377686	42853.0735764	66030871.9463	0
3825000.0	25839.0	12096365.5941	0.183718386871	173994.604492	0.0470557642984	1.85277485847	101123.529053	70153.894043	4073.24943278	139.364957009	151505.779731	66035641.5998	0
3850000.0	25967.0	12423963.6409	0.184562277641	174001.074219	0.0480206872453	1.84701836109	100499.721636	69668.3166504	4151.16753659	136.002539615	287477.546595	66040411.7643	0
3875000.0	26095.0	12758295.0464	0.185398909399	174007.250977	0.0489993180963	1.84137630463	99889.1010162	69192.8100586	4229.82373096	133.270207171	136791.311918	66045182.4396	0
3900000.0	26224.0	13099432.444	0.186234791928	174016.479492	0.0499883353768	1.83581101894	99289.4252972	68725.4638672	4309.23687701	130.643505032	24469.1570965	66049953.6258	0
3925000.0	26353.0	13447473.3453	0.187061625604	174023.974609	0.0509915262228	1.83037376404	98703.6126465	68268.6645508	4389.38908579	127.59925924	745767.535345	66054725.3229	0
3950000.0	26482.0	13802517.2897	0.187884286003	174028.747559	0.0520091198268	1.82496666908	98122.1394999	67815.9423828	4470.30565927	125.134117747	506142.350368	66059497.5309	0
3975000.0	26612.0	14164640.2498	0.188710648088	174033.825684	0.0530376455572	1.81953966618	97541.3498852	67364.3188477	4551.96915256	123.233804478	371248.14718	66064270.2498	0
4000000.0	26743.0	14533918.5988	0.189539274897	174038.623047	0.0540771725355	1.81412136555	96963.3543255	66915.1916504	4634.36624892	120.477765235	123812.372458	66069043.4796	0
4025000.0	26873.0	14910480.5312	0.190351779447	174035.119629	0.0551353914489	1.80888426304	96400.6578504	66477.6733398	4717.53482248	117.783305518	1043118.64547	66073817.2203	0
4050000.0	27004.0	15294406.1592	0.191163751927	174029.760742	0.0562052227906	1.80371522903	95845.1352689	66045.4345703	4801.46310664	116.07271105	74602.5191343	66078591.472	0
4075000.0	27136.0	15685774.9634	0.191977198021	174025.512695	0.0572857679799	1.79857909679	95295.1381159	65617.4743652	4886.08512617	113.991902347	254944.918766	66083366.2345	0
4100000.0	27268.0	16084686.3164	0.192786040839	174022.65625	0.0583799774176	1.79350233078	94753.5807465	65196.2097168	4971.36334488	111.548749461	246539.716989	66088141.5079	0
4125000.0	27400.0	16491236.2723	0.193588824983	174021.118164	0.0594879602431	1.78850972652	94222.5335298	64783.013916	5057.291422	109.595028998	60713.9898867	66092917.2922	0
4150000.0	27533.0	16905494.7261	0.194392448517	174024.157715	0.0606058783887	1.78355205059	93698.994768	64375.604248	5143.84620618	107.71591306	30494.947281	66097693.5875	0
4175000.0	27666.0	17327559.5308	0.195189872381	174027.453613	0.0617378464085	1.77863192558	93182.0924637	63973.8830566	5231.04949257	105.492309668	603442.852212	66102470.3936	0
4200000.0	27799.0	17757529.8162	0.195982179904	174030.554199	0.0628840789432	1.7737249136	92669.4977433	63576.2939453	5318.91347549	103.723103712	301130.127333	66107247.7107	0
4225000.0	27933.0	18195477.4792	0.196777585383	174036.621094	0.0640405487502	1.76877868176	92157.2961442	63179.7607422	5407.36858195	102.020364693	73475.9805623	66112025.5387	0
4250000.0	28067.0	18641502.3459	0.197567765684	174042.138672	0.0652113594697	1.76387476921	91651.1414476	62788.3239746	5496.47391559	100.362897286	37342.9278434	66116803.8777	0
4275000.0	28202.0	19095676.5936	0.198360302515	174050.073242	0.0663924656692	1.75896513462	91147.542326	62399.2431641	5586.16429588	98.7668807454	261167.919095	66121582.7276	0
4300000.0	28337.0	19558100.9424	0.199146741328	174056.884766	0.0675880874041	1.75413346291	90652.3228775	62016.6381836	5676.55779525	96.8524263746	288752.727923	66126362.0884	0
4325000.0	28472.0	20028877.5069	0.199926555911	174062.280273	0.0687984429533	1.74939823151	90166.7092117	61641.2597656	5767.68570903	95.3418053112	44999.7998478	66131141.9601	0
4350000.0	28608.0	20508080.2642	0.200706642899	174068.994141	0.0700193486409	1.74471688271	89687.7157204	61270.7214355	5859.45942944	93.8849823476	86879.1324269	66135922.3428	0
4375000.0	28744.0	20995813.0801	0.201478400333	174073.474121	0.0712552355253	1.7401740551	89221.2768903	60909.2285156	5951.90264607	92.1251630049	547177.507078	66140703.2365	0
4400000.0	28880.0	21492182.5988	0.202240102453	174074.780273	0.0725065474398	1.73575377464	88766.3838245	60556.3232422	6045.00780373	90.7445337815	186225.364002	66145484.6411	0
4425000.0	29017.0	21997268.0104	0.202998467894	174074.938965	0.0737692025723	1.73136544228	88316.5461571	60207.5805664	6138.68639205	89.4124319672	5878.86499051	66150266.5566	0
4450000.0	29154.0	22511179.2318	0.203746546785	174070.446777	0.0750477920519	1.72707676888	87876.0296945	59865.9790039	6232.98857771	87.7912256223	777433.459661	66155048.983	0
4475000.0	29291.0	23034026.6185	0.204487876415	174064.086914	0.0763415009715	1.72284889221	87442.2636398	59529.7424316	6327.81532029	86.528893818	319739.06791	66159831.9205	0
4500000.0	29429.0	23565883.3286	0.205232692245	174061.535645	0.0776450106059	1.71858990192	87009.2570887	59194.5922852	6423.00565143	85.3147437774	21470.7264501	66164615.3688	0
4525000.0	29567.0	24106849.354	0.205973971177	174059.790039	0.0789627811173	1.71436750889	86581.395513	58863.5925293	6518.59007808	84.1328880302	189019.557366	66169399.328	0
4550000.0	29706.0	24656992.9082	0.206719503641	174061.767578	0.0802901922725	1.71013319492	86155.2376915	58534.0942383	6614.43486966	82.6984573578	438180.791282	66174183.7982	0
4575000.0	29844.0	25216445.9076	0.207455019058	174061.535645	0.0816366227809	1.70601260662	85739.0042485	58211.9567871	6710.68676601	81.5838589021	62332.0207743	66178968.7794	0
4600000.0	29984.0	25785244.6218	0.208202256662	174067.700195	0.0829879427329	1.70184791088	85322.0920747	57889.3249512	6807.00135805	80.5271681162	139707.287211	66183754.2715	0
4625000.0	30123.0	26363522.7142	0.208937118172	174071.166992	0.0843585512484	1.69780755043	84916.0886344	57574.7924805	6903.64460925	79.201185304	534567.903564	66188540.2745	0
4650000.0	30263.0	26951351.5005	0.209670665951	174076.989746	0.0857392442413	1.69376301765	84512.9802559	57262.9150391	7000.37626534	78.2047769513	94524.5887574	66193326.7885	0
4675000.0	30403.0	27548835.0126	0.210396970343	174082.189941	0.0871348311193	1.68976819515	84116.0185766	56956.0119629	7097.26314828	77.2348465629	136926.425056	66198113.8135	0
4700000.0	30544.0	28156044.11	0.211124009402	174089.331055	0.0885404297151	1.68577158451	83721.3818792	56651.2084961	7194.10854081	76.0336419339	556744.051216	66202901.3494	0
4725000.0	30684.0	28773117.2782	0.211839184398	174092.773438	0.0899660517462	1.68188118935	83335.8417027	56353.3325195	7291.1545932	75.119106577	78720.4057906	66207689.3963	0
4750000.0	30826.0	29400092.2307	0.212563853223	174100.427246	0.0913967742235	1.67794263363	82948.9758685	56054.7485352	7387.91160198	74.2550083043	179170.399344	66212477.9542	0
4775000.0	30967.0	30037108.5346	0.213278399566	174103.955078	0.0928476874833	1.67411983013	82571.1027974	55762.7746582	7484.78557693	73.1431626116	523391.617722	66217267.023	0
4800000.0	31109.0	30684238.4831	0.21399732936	174108.422852	0.0943088234635	1.67031562328	82195.5836785	55472.4853516	7581.39803033	72.3294594355	51987.4110169	66222056.6029	0
4825000.0	31251.0	31341589.0841	0.214714439232	174110.925293	0.0957853480941	1.66659116745	81826.0799943	55186.3708496	7677.8664703	71.2870776518	1222667.83804	66226846.6937	0
4850000.0	31393.0	32009270.2786	0.215425859481	174110.81543	0.0972776470007	1.66295349598	81463.7340526	54905.4382324	7774.17096352	70.5206858642	491879.025868	66231637.2954	0
4875000.0	31536.0	32687358.5758	0.216134391425	174109.936523	0.0987808598438	1.6593542099	81105.9855473	54628.0334473	7870.06738299	69.7870680076	23657.8976921	66236428.4082	0
4900000.0	31679.0	33375966.9617	0.216834371123	174105.395508	0.100300254417	1.65584290028	80755.6432368	54356.1035156	7965.76470982	69.0728111065	333957.276818	66241220.032	0
4925000.0	31823.0	34075170.8079	0.21753625938	174102.587891	0.101829486084	1.65232884884	80406.9877071	54085.6750488	8061.50150375	68.1484705426	399746.444292	66246012.1667	0
4950000.0	31966.0	34785111.5989	0.218229602526	174097.839355	0.103378653876	1.64888644218	80064.7755875	53820.2209473	8157.73503698	67.2336463636	1994325.55993	66250804.8124	0
4975000.0	32110.0	35505855.9002	0.218928865072	174096.240234	0.104937105789	1.64541709423	79722.2625413	53554.8034668	8253.97539394	66.8139056011	500969.547097	66255597.9691	0
5000000.0	32255.0	36237468.1988	0.21963536051	174097.680664	0.106504565338	1.64191961288	79379.1807721	53289.1906738	8350.12252658	66.1863475723	1363989.87289	66260391.6367	0
5025000.0	32400.0	36980050.168	0.220343791252	174099.633789	0.10808648949	1.63844251633	79038.2428372	53025.2258301	8446.30454598	65.3484410779	60548.6940647	66265185.8153	0
5050000.0	32545.0	37733703.625	0.221055129177	174102.050781	0.10968294373	1.63498699665	78699.387987	52762.8051758	8542.43134708	64.5313249546	934194.546974	66269980.505	0
5075000.0	32690.0	38498533.1471	0.221763804933	174104.467773	0.111294299131	1.63156211376	78364.4407755	52503.527832	8638.45701023	63.9541906276	219985.129336	66274775.7056	0
5100000.0	32836.0	39274605.5462	0.222475174652	174109.082031	0.112914989586	1.62812459469	78030.6529976	52245.4589844	8734.02762978	63.4027045289	118720.704189	66279571.4172	0
5125000.0	32982.0	40062026.1987	0.22318383087	174113.342285	0.114550697617	1.62472116947	77700.5193956	51990.2954102	8829.29829208	62.6513216799	855621.632778	66284367.6398	0
5150000.0	33128.0	40860900.6954	0.223891040331	174117.163086	0.116201495985	1.62135219574	77373.4952148	51737.5305176	8924.19708515	62.1316307169	152075.319689	66289164.3734	0
5175000.0	33275.0	41671295.8202	0.22460411708	174122.729492	0.117861600302	1.61797320843	77046.2873903	51484.7167969	9018.36308025	61.6370471494	196806.238951	66293961.618	0
5200000.0	33422.0	42493316.909	0.225318022416	174127.600098	0.119536780403	1.6146299839	76721.3676337	51233.5144043	9111.94183948	60.9498292323	795578.025172	66298759.3737	0
5225000.0	33569.0	43327070.718	0.226033678841	174131.616211	0.12122715998	1.61132216454	76398.3554522	50983.5479736	9204.8542099	60.4868174468	119129.354437	66303557.6404	0
5250000.0	33717.0	44172623.4901	0.226758578871	174136.889648	0.122926809127	1.60800635815	76074.0490854	50732.434082	9296.70291292	60.048654274	226791.686694	66308356.4181	0
5275000.0	33865.0	45030082.2772	0.22748520694	174140.820312	0.12464170868	1.60472989082	75751.7480855	50482.5408936	9387.69508656	59.424143828	856275.124565	66313155.7068	0
5300000.0	34013.0	45899556.9513	0.228208982055	174142.980957	0.126372338855	1.60150122643	75432.9267494	50235.1104736	9477.72537795	59.0167750734	156213.680034	66317955.5066	0
5325000.0	34162.0	46781116.5988	0.228936452742	174145.361328	0.128112631501	1.59827685356	75114.8341091	49988.1866455	9566.40258461	58.6335075753	189445.806586	66322755.8174	0
5350000.0	34311.0	47674871.9223	0.229661206923	174145.483398	0.12986875663	1.5951012373	74800.2880272	49743.7805176	9653.92715881	58.0694941509	991197.382317	66327556.6393	0
5375000.0	34460.0	48580934.5932	0.230383477747	174143.115234	0.131640830659	1.59197616577	74489.340981	49501.9134521	9740.20967598	57.7162942917	224830.427459	66332357.9722	0
5400000.0	34610.0	49499374.904	0.231109974808	174140.185547	0.133422814542	1.58886003494	74179.2450096	49260.6414795	9824.78197888	57.3869818567	132493.509543	66337159.8162	0
5425000.0	34760.0	50430304.5233	0.23183704441	174136.193848	0.135220005177	1.58577442169	73871.3302787	49020.9533691	9907.86915891	56.8826340048	1194366.78519	66341962.1712	0
5450000.0	34910.0	51373829.5117	0.232567800466	174132.714844	0.137031805934	1.58269715309	73564.0914315	48781.8603516	9989.32257181	56.584694415	361489.53032	66346765.0373	0
5475000.0	35061.0	52330009.7072	0.233309510862	174131.811523	0.13885179942	1.57958769798	73254.6973012	48541.2811279	10068.6262181	56.3116768358	33756.6040428	66351568.4145	0
5500000.0	35212.0	53298949.4141	0.234052989461	174131.103516	0.140686548548	1.57649374008	72946.6177645	48301.7608643	10146.086067	55.8686602274	1599901.1534	66356372.3027	0
5525000.0	35363.0	54280753.0202	0.234797646417	174130.529785	0.142536140629	1.57341468334	72639.9246006	48063.369751	10221.6388091	55.6268870501	669779.288109	66361176.702	0
5550000.0	35515.0	55275481.0943	0.235550469741	174132.043457	0.144394100062	1.5703099966	72331.8649373	47824.1241455	10294.724457	55.4096257473	66949.7720348	66365981.6124	0
5575000.0	35667.0	56283237.8376	0.23630510062	174133.532715	0.146266815136	1.56721973419	72025.0300028	47585.8734131	10366.3406662	55.203759397	292338.264137	66370787.0339	0
5600000.0	35820.0	57304082.3293	0.237068762819	174136.987305	0.148147664731	1.56410336494	71716.6395237	47346.6064453	10436.2662612	55.0172098533	1062070.52363	66375592.9664	0
5625000.0	35973.0	58338117.8484	0.237835138099	174140.258789	0.150043197209	1.5610011816	71409.2758822	47108.1604004	10504.8986948	54.6617551858	419100.056939	66380399.4101	0
5650000.0	36126.0	59385448.0526	0.238604638356	174143.29834	0.151953383465	1.55791306496	71102.8537395	46870.4620361	10572.194722	54.4957747958	2693.75958093	66385206.3649	0
5675000.0	36280.0	60446130.968	0.239384653668	174148.010254	0.153871602379	1.55480074883	70794.6202187	46631.4727783	10637.6207157	54.3487957196	450571.288965	66390013.8308	0
5700000.0	36434.0	61520271.2977	0.240167420175	174152.124023	0.155804664246	1.55170679092	70487.3971278	46393.2342529	10701.6067023	54.0358751008	1179023.43141	66394821.8079	0
5725000.0	36588.0	62607975.2177	0.240952111223	174155.505371	0.157752729137	1.54863297939	70181.4643573	46155.9661865	10764.1218956	53.908761407	431108.385399	66399630.2961	0
5750000.0	36743.0	63709302.4465	0.241745179164	174159.912109	0.159709088621	1.54554188251	69874.3699079	45917.9199219	10824.5893688	53.8003154355	6152.47037755	66404439.2955	0
5775000.0	36898.0	64824359.1031	0.242539277355	174163.40332	0.161680480232	1.54247331619	69568.9922005	45681.1950684	10883.4724629	53.7012193411	359663.526724	66409248.8061	0
5800000.0	37054.0	65953204.2813	0.243341150938	174167.700195	0.163660006365	1.53938984871	69262.8455096	45444.0002441	10940.2011388	53.6206860993	1056969.00931	66414058.8278	0
5825000.0	37210.0	67095943.7935	0.244143654564	174170.849609	0.165654564626	1.53633117676	68958.7561965	45208.3892822	10995.2454669	53.378408242	735039.714427	66418869.3608	0
5850000.0	37366.0	68252683.8976	0.244946490605	174172.717285	0.167664242326	1.53329777718	68656.8473128	44974.4628906	11048.5771014	53.3172469089	164464.451176	66423680.405	0
5875000.0	37523.0	69423483.779	0.24575649605	174175.024414	0.169682025444	1.53025329113	68354.6463578	44740.4266357	11099.5713113	53.2746511233	94068.0016962	66428491.9604	0
5900000.0	37680.0	70608451.4708	0.246566861159	174175.57373	0.171715175384	1.52723443508	68054.4581534	44507.9284668	11148.7687113	53.0722009274	2298217.81599	66433304.027	0
5925000.0	37837.0	71807696.7851	0.247377102184	174174.157715	0.173763866769	1.52424383163	67756.4212882	44277.0385742	11196.1310726	53.0485531986	1405725.99382	66438116.6049	0
5950000.0	37995.0	73021280.9135	0.248193302651	174172.460938	0.175821056473	1.5212482214	67458.3044854	44046.1547852	11241.0160705	53.2111330045	2272221.80691	66442929.6941	0
5975000.0	38154.0	74249264.5387	0.249014522538	174170.3125	0.17788662808	1.51825261116	67160.4881601	43815.5456543	11283.3551786	53.0564609651	164199.052238	66447743.2946	0
6000000.0	38312.0	75491804.9883	0.249828575458	174165.405273	0.179974129423	1.51531779766	66867.3556679	43588.4246826	11324.3118825	52.9032292716	3623729.31071	66452557.4063	0
6025000.0	38471.0	76748957.4252	0.250651548187	174162.451172	0.182068732101	1.51235711575	66572.8067763	43360.4125977	11362.5974042	53.1029286858	549935.198115	66457372.0294	0
6050000.0	38631.0	78020771.9689	0.251483368525	174161.413574	0.184170130524	1.50937306881	66277.037811	43131.6589355	11398.1085949	53.1552536441	1216049.68808	66462187.1638	0
6075000.0	38791.0	79307348.0232	0.252316584432	174160.571289	0.186285469681	1.5064047575	65982.7904039	42904.1320801	11431.4713145	53.0520468335	1019823.36444	66467002.8095	0
6100000.0	38951.0	80608786.8855	0.25315283408	174159.667969	0.188415113371	1.50344669819	65689.3039851	42677.2277832	11462.6660694	53.1251100848	433853.483492	66471818.9666	0
6125000.0	39112.0	81925139.7541	0.253999352028	174160.375977	0.190551712876	1.50046157837	65393.8962661	42449.0203857	11490.9680462	53.2177883553	59652.4515696	66476635.635	0
6150000.0	39273.0	83256507.8111	0.254848205571	174160.888672	0.192702515051	1.49748802185	65099.4724661	42221.6369629	11517.0508863	53.3207731486	135189.864025	66481452.8148	0
6175000.0	39435.0	84602940.4012	0.255705807223	174162.890625	0.194860069314	1.4944922924	64803.7942286	41993.4875488	11540.1262441	53.4438190256	540795.634549	66486270.5059	0
6200000.0	39597.0	85964537.7527	0.256564397829	174164.660645	0.197031680727	1.49151170254	64509.6627889	41766.6290283	11560.9120143	53.57749511	1097145.62855	66491088.7085	0
6225000.0	39760.0	87341347.9952	0.257430353688	174167.797852	0.199209811399	1.48851311207	64214.8957756	41539.5263672	11578.6455841	53.7314541123	1749562.59764	66495907.4224	0
6250000.0	39923.0	88733470.227	0.258295796223	174170.654297	0.201401911909	1.48553395271	63922.2801597	41314.1998291	11594.0256473	53.7315800928	918557.665679	66500726.6478	0
6275000.0	40086.0	90141004.142	0.259160655912	174173.120117	0.203608040465	1.48257529736	63631.8861327	41090.6982422	11607.2211766	53.9067421812	432979.663778	66505546.3847	0
6300000.0	40250.0	91563999.2014	0.26003424466	174176.5625	0.205820862902	1.47959446907	63340.2247778	40866.4733887	11617.4975828	54.1015694566	102558.46857	66510366.633	0
6325000.0	40414.0	93002556.6163	0.260908922389	174179.345703	0.208047931665	1.47662854195	63049.9835158	40643.4448242	11625.6384594	54.3064664351	47055.7765918	66515187.3927	0
6350000.0	40579.0	94456725.4488	0.26179104023	174182.958984	0.2102816361	1.4736456871	62759.0623297	40420.1263428	11630.9369191	54.530849693	315446.979254	66520008.664	0
6375000.0	40744.0	95926605.7295	0.262672497064	174185.864258	0.212529441342	1.47068345547	62470.298777	40198.5534668	11634.1427015	54.7653475035	713662.28328	66524830.4468	0
6400000.0	40910.0	97412244.4181	0.263559677865	174189.550781	0.214783533011	1.467710495	62181.6380633	39977.2735596	11634.5514704	55.0194502482	1191051.37863	66529652.7412	0
6425000.0	41076.0	98913741.2569	0.264444251796	174192.480469	0.217051725485	1.46476531029	61895.9103832	39758.3007812	11632.9420261	55.1175702594	1838711.55621	66534475.5471	0
6450000.0	41242.0	100431195.934	0.265325333665	174194.580078	0.219333887799	1.46185064316	61613.4504202	39541.9067383	11629.3918176	55.391228715	1279903.86386	66539298.8646	0
6475000.0	41409.0	101964655.208	0.266211208114	174197.20459	0.221622336539	1.45893037319	61331.4239234	39326.0192871	11623.1113701	55.684601758	804320.631376	66544122.6937	0
6500000.0	41576.0	103514221.247	0.267095823011	174198.620605	0.223925278988	1.45603275299	61051.5990277	39111.8988037	11614.9595104	55.9876766672	407337.230645	66548947.0344	0
6525000.0	41744.0	105079942.119	0.267985463385	174200.231934	0.226234580623	1.45312869549	60771.928762	38898.0773926	11604.1502204	56.4781037074	4712686.59927	66553771.8868	0
6550000.0	41913.0	106661863.626	0.268879326294	174201.953125	0.22855005227	1.45022332668	60492.8457989	38684.8358154	11590.7163834	56.6532580381	11861.2038027	66558597.2508	0
6575000.0	42081.0	108260140.505	0.269761682121	174200.817871	0.230887671933	1.4473849535	60219.304082	38475.7354736	11576.3574939	56.9957578005	233418.830247	66563423.1266	0
6600000.0	42251.0	109874763.242	0.270653410902	174201.123047	0.233223341638	1.44452106953	59944.7097367	38266.0217285	11558.5893559	57.3685903103	572487.112835	66568249.514	0
6625000.0	42420.0	111505885.744	0.2715315236	174198.4375	0.235580911976	1.44173252583	59676.3405503	38060.8947754	11539.9868686	57.5713785743	3074015.38482	66573076.4131	0
6650000.0	42590.0	113153552.731	0.272410504957	174195.629883	0.237944419496	1.43895542622	59409.6214379	37857.0800781	11518.9098866	58.1340722759	1650173.61273	66577903.824	0
6675000.0	42761.0	114817808.687	0.273295088695	174193.652344	0.240313340328	1.436170578	59142.6473857	37653.1646729	11495.3594625	58.5476651207	2297063.75868	66582731.7467	0
6700000.0	42932.0	116498749.328	0.27417891198	174191.491699	0.242695401539	1.43340432644	58877.5018514	37450.6988525	11470.2198737	58.799892085	1217291.17978	66587560.1812	0
6725000.0	43103.0	118196468.956	0.275061020232	174189.18457	0.245090748649	1.43065643311	58614.3331715	37249.8321533	11443.5520218	59.233746204	729159.878441	66592389.1274	0
6750000.0	43275.0	119911004.613	0.27594809657	174188.134766	0.247490912443	1.42789661884	58351.1947549	37049.1943359	11414.5271096	59.6887993474	341346.519927	66597218.5856	0
6775000.0	43447.0	121642448.892	0.276832087701	174187.04834	0.249903969234	1.42515671253	58090.5573241	36850.6011963	11384.0508089	60.154600782	59987.3254564	66602048.5555	0
6800000.0	43620.0	123390836.419	0.277719296596	174187.29248	0.252321566222	1.42240607738	57830.5220879	36652.7587891	11351.2751531	60.8173912546	6576394.44847	66606879.0374	0
6825000.0	43794.0	125156200.808	0.278609138382	174188.830566	0.254743616097	1.41964626312	57571.3485199	36455.8807373	11316.257762	61.1515582099	369957.76076	66611710.0311	0
6850000.0	43967.0	126938692.712	0.279488497157	174188.867188	0.257186882664	1.41693246365	57316.637515	36262.5	11280.803405	61.4839104681	3946751.37092	66616541.5368	0
6875000.0	44141.0	128738348.965	0.280372374908	174189.916992	0.259635067778	1.41420519352	57062.0301395	36069.4793701	11243.1885014	62.1927039923	1380720.09102	66621373.5545	0
6900000.0	44316.0	130555204.206	0.281260087982	174191.931152	0.262087734882	1.41146707535	56807.7317459	35876.9561768	11203.4723296	62.7466745051	2008101.3469	66626206.0841	0
6925000.0	44491.0	132389350.408	0.282143874336	174193.640137	0.264553207671	1.40875256062	56556.1318227	35686.5966797	11162.5482112	63.1318503505	1830551.81818	66631039.1256	0
6950000.0	44666.0	134240878.228	0.283022957342	174195.068359	0.267031398835	1.40606439114	56307.412311	35498.5076904	11120.4792644	63.7078307093	1207815.11446	66635872.6793	0
6975000.0	44842.0	136109819.892	0.283904076348	174197.436523	0.269513664534	1.40337765217	56059.8156048	35311.4196777	11076.0269218	64.4919024129	4529634.47716	66640706.7449	0
7000000.0	45019.0	137996204.86	0.284786135275	174200.78125	0.27199977194	1.40069639683	55813.5853528	35125.4821777	11028.8820044	65.1225075726	5552660.40368	66645541.3226	0
7025000.0	45196.0	139900124.194	0.285662854949	174203.637695	0.274498568615	1.3980499506	55570.4506119	34941.8731689	10980.0448616	65.5842286083	104.316963475	66650376.4125	0
7050000.0	45373.0	141821670.734	0.286534712216	174205.908203	0.277010287391	1.39543449879	55330.1449401	34760.4370117	10929.6357869	66.2459911494	264110.357457	66655212.0144	0
7075000.0	45551.0	143760877.036	0.287408146039	174208.80127	0.279526255326	1.39282238483	55090.8222976	34579.8706055	10876.8543991	66.9357563309	753091.133691	66660048.1286	0
7100000.0	45729.0	145717832.991	0.288275607246	174211.157227	0.28205482522	1.39023983479	54854.5293103	34401.663208	10822.6998273	67.4522305183	3639796.05035	66664884.7549	0
7125000.0	45907.0	147692629.657	0.289136500658	174212.963867	0.284595938865	1.38768625259	54621.4149946	34225.9613037	10767.3015565	68.172580132	2663020.86103	66669721.8934	0
7150000.0	46086.0	149685295.683	0.289997117524	174215.405273	0.287140836008	1.38513207436	54389.6536429	34051.5197754	10709.8230461	69.1137711916	3316512.50819	66674559.5442	0
7175000.0	46266.0	151695858.48	0.290856882434	174218.493652	0.289689138299	1.38257658482	54159.4700606	33878.5614014	10650.3708622	69.8926923075	4493708.07753	66679397.7073	0
7200000.0	46446.0	153724408.047	0.291709445068	174220.849609	0.292249926133	1.38004553318	53932.5080845	33708.215332	10589.9696232	70.4918131542	338875.643389	66684236.3826	0
7225000.0	46626.0	155771035.746	0.292555143764	174222.363281	0.294823519653	1.37753772736	53708.6228643	33540.3991699	10528.7086194	71.3008649164	10717.4776793	66689075.5703	0
7250000.0	46807.0	157835771.871	0.29340038289	174224.182129	0.297400925774	1.37502992153	53486.0458025	33373.815918	10465.7908809	72.1384777335	459403.669364	66693915.2704	0
7275000.0	46988.0	159918705.309	0.294237887208	174225.134277	0.299990817439	1.37255167961	53266.7374094	33209.8205566	10402.1869053	72.9919964645	1278007.21092	66698755.4829	0
7300000.0	47170.0	162019863.041	0.295073958719	174226.367188	0.302583968733	1.37008094788	53049.049433	33047.1984863	10337.1079512	73.8744732813	2372477.73266	66703596.2078	0
7325000.0	47352.0	164139330.74	0.295901643045	174226.733398	0.305189139908	1.36764585972	52834.805029	32887.2192383	10271.5226145	74.5680548025	1750730.90574	66708437.4452	0
7350000.0	47534.0	166277194.707	0.296720485862	174226.220703	0.307806243654	1.36525094509	52624.1801531	32729.9346924	10205.5129673	75.4803730064	705735.134972	66713279.195	0
7375000.0	47717.0	168433481.266	0.297536886686	174225.695801	0.310426694341	1.36286854744	52415.1902843	32573.9685059	10138.2799471	76.4218403538	36056.2554219	66718121.4574	0
7400000.0	47900.0	170608279.199	0.298344889151	174223.986816	0.313059485052	1.36052262783	52209.557542	32420.5566406	10070.8153322	77.378704988	482897.32176	66722964.2324	0
7425000.0	48084.0	172801615.076	0.299150421601	174222.143555	0.315695535392	1.35818719864	52005.5532396	32268.4844971	10002.2949958	78.3649456287	1593541.2758	66727807.5199	0
7450000.0	48268.0	175013575.731	0.299947745367	174219.470215	0.318343460094	1.35588312149	51804.7411751	32118.8934326	9933.68460078	79.366701396	3165869.15187	66732651.32	0
7475000.0	48453.0	177244183.844	0.300744392391	174217.822266	0.320993829519	1.35357904434	51605.0337461	31970.3308105	9864.19093488	80.3981280778	5110127.53346	66737495.6328	0
7500000.0	48638.0	179493520.583	0.301533836165	174216.235352	0.323655403918	1.35129725933	51408.154089	31824.0570068	9794.71023452	81.2259399586	122542.600324	66742340.4583	0
7525000.0	48823.0	181761667.867	0.302316147586	174214.672852	0.326328270603	1.34903883934	51214.1140464	31680.0628662	9725.34519952	82.2863732908	487163.700487	66747185.7964	0
7550000.0	49009.0	184048647.579	0.303096899718	174214.025879	0.329003843945	1.34677910805	51021.2647456	31537.2558594	9655.3158073	83.376442215	1850280.41345	66752031.6474	0
7575000.0	49195.0	186354544.384	0.3038703789	174213.208008	0.331691087922	1.34454238415	50831.1544128	31396.673584	9585.52756012	84.2551319661	2243662.31654	66756878.0111	0
7600000.0	49381.0	188679440.941	0.304636066543	174212.304688	0.334389740601	1.34232997894	50643.8166201	31258.3007812	9516.04522145	85.3727720401	672908.491023	66761724.8876	0
7625000.0	49568.0	191023354.278	0.305399885392	174212.329102	0.337090401445	1.34011876583	50457.7282917	31121.0571289	9446.08120286	86.5203128311	93007.5824436	66766572.2769	0
7650000.0	49755.0	193386363.125	0.30615569962	174212.29248	0.339801888913	1.3379317522	50274.4281749	30985.9954834	9376.53891896	87.6826085781	1360916.36722	66771420.1791	0
7675000.0	49943.0	195768479.627	0.30690915562	174213.244629	0.342514627846	1.3357475996	50092.493578	30852.0935059	9306.62979266	88.8751839973	3451799.00265	66776268.5942	0
7700000.0	50131.0	198169780.147	0.307654007482	174214.172363	0.34523778595	1.33358836174	49913.4066934	30720.3735352	9237.2317492	89.8435983776	849691.260225	66781117.5223	0
7725000.0	50319.0	200590343.375	0.308389785259	174214.868164	0.34797200351	1.33145368099	49737.2270241	30590.9362793	9167.79755691	91.0685430265	118168.109803	66785966.9633	0
7750000.0	50508.0	203030185.378	0.309122506526	174216.381836	0.350707821781	1.32932150364	49562.455931	30462.7502441	9097.11719308	92.3343774254	1682312.81159	66790816.9173	0
7775000.0	50697.0	205489384.051	0.309846448748	174217.700195	0.353454524884	1.32721424103	49390.4571717	30336.7431641	9026.09969102	93.3781491882	2286553.2938	66795667.3844	0
7800000.0	50886.0	207968017.899	0.310561739849	174218.847656	0.356212025508	1.32513165474	49221.2163774	30212.9241943	8954.81066709	94.691177577	331892.649042	66800518.3645	0
7825000.0	51076.0	210466100.956	0.311274242417	174220.825195	0.358970981324	1.32305407524	49053.2947389	30090.2740479	8882.56314212	96.0454813396	732562.233731	66805369.8577	0
7850000.0	51266.0	212983709.293	0.311978418668	174222.644043	0.361740472727	1.32100379467	48888.0999893	29969.7540283	8810.20201079	97.4250547311	3176869.82254	66810221.8641	0
7875000.0	51457.0	215520858.633	0.312679074817	174225.134277	0.364511681255	1.31896018982	48724.387561	29850.5371094	8737.05846808	98.8462983661	6683502.55278	66815074.3836	0
7900000.0	51648.0	218077628.509	0.313370405588	174227.294922	0.367293891031	1.31694352627	48563.461496	29733.5083008	8663.96090791	100.03087125	320523.796617	66819927.4163	0
7925000.0	51839.0	220654097.646	0.314052713005	174229.150391	0.370086927433	1.31495511532	48405.3577693	29618.6553955	8591.00326873	101.233891313	4218406.5182	66824780.9623	0
7950000.0	52030.0	223250344.348	0.314725835437	174230.688477	0.372890732251	1.31299495697	48249.9789081	29505.8807373	8518.22040671	102.723578564	1152853.53344	66829635.0215	0
7975000.0	52222.0	225866378.962	0.315395398509	174232.861328	0.3756955266	1.31104385853	48096.0853919	29394.317627	8444.93215155	104.255719192	307743.211195	66834489.5941	0
8000000.0	52414.0	228502275.119	0.316056193943	174234.753418	0.378510507289	1.30912125111	47944.8655021	29284.7564697	8371.98029507	105.812471098	2989824.38041	66839344.68	0
8025000.0	52607.0	231158039.637	0.316713211224	174237.29248	0.381325866329	1.30720889568	47795.1584316	29176.4099121	8298.64719029	107.412468574	7242789.69553	66844200.2792	0
8050000.0	52800.0	233833748.987	0.31736115094	174239.355469	0.384151702747	1.3053278923	47648.1513051	29070.0805664	8225.74870807	108.755498489	671049.314546	66849056.3919	0
8075000.0	52993.0	236529478.716	0.317999836538	174240.991211	0.386988074752	1.30347681046	47503.8920374	28965.8325195	8153.35631216	110.115681392	3274608.36876	66853913.0181	0
8100000.0	53186.0	239245305.199	0.318629164337	174242.126465	0.389834778616	1.30165350437	47362.2719197	28863.6047363	8081.50341518	111.781661842	249209.646134	66858770.1578	0
8125000.0	53380.0	241981237.049	0.319253551914	174243.75	0.392682151869	1.29983615875	47222.197	28762.7197266	8009.52740407	113.490558082	1780473.85816	66863627.811	0
8150000.0	53574.0	244737347.722	0.319867779264	174244.946289	0.395539856981	1.29804217815	47084.7863786	28663.9434814	7938.20114618	115.22317057	6297225.06166	66868485.9777	0
8175000.0	53769.0	247513644.318	0.320476440729	174246.655273	0.398397853132	1.29625082016	46948.974658	28566.6046143	7866.85358569	116.699171981	402254.880301	66873344.6581	0
8200000.0	53963.0	250310269.401	0.321069677021	174246.972656	0.401276047342	1.29449951649	46816.8970735	28472.1008301	7796.94339423	118.170913214	3457622.37387	66878203.8521	0
8225000.0	54158.0	253127234.218	0.321656775837	174247.53418	0.404155347496	1.29275369644	46686.4338369	28379.0252686	7727.11147415	119.985096545	80232.5370119	66883063.5599	0
8250000.0	54353.0	255964614.115	0.32223305303	174247.53418	0.407044950407	1.29103124142	46558.6694754	28288.1011963	7658.08997062	121.82174965	2825721.99364	66887923.7813	0
8275000.0	54549.0	258822416.606	0.322802802717	174247.766113	0.409935018979	1.289316535	46432.6104655	28198.638916	7589.2516817	123.700889795	8772976.563	66892784.5165	0
8300000.0	54745.0	261700714.548	0.323361507073	174247.412109	0.412835273892	1.2876265049	46309.2801724	28111.3372803	7521.30468925	125.282329156	1958932.98451	66897645.7655	0
8325000.0	54941.0	264599580.352	0.323909115867	174246.520996	0.415745249484	1.28596270084	46188.7211781	28026.1932373	7454.24429605	126.877666067	1148566.20479	66902507.5283	0
8350000.0	55137.0	267519085.149	0.324444653127	174244.934082	0.418665178586	1.28432536125	46071.0650935	27943.3410645	7388.13061891	128.485586115	7196844.10524	66907369.805	0
8375000.0	55333.0	270459305.383	0.324966252524	174242.602539	0.421595468652	1.28271555901	45956.5804725	27863.0157471	7322.98120717	130.43726956	1289934.39407	66912232.5956	0
8400000.0	55530.0	273420247.412	0.325480211477	174240.673828	0.424525962444	1.28111374378	45843.918324	27784.2681885	7258.19111936	132.430170711	1729882.52429	66917095.9002	0
8425000.0	55727.0	276401983.189	0.325984574602	174238.830566	0.427466031397	1.27953195572	45733.585007	27707.3730469	7194.41660177	134.442706625	8470953.69467	66921959.7188	0
8450000.0	55925.0	279404511.331	0.326485776247	174237.854004	0.430405401858	1.27795517445	45624.408249	27631.4605713	7131.06150836	136.15184463	2210803.35857	66926824.0513	0
8475000.0	56122.0	282427967.654	0.326977993575	174236.169434	0.43336377712	1.27641189098	45517.7684467	27557.3669434	7069.36642864	137.849045875	652181.078554	66931688.898	0
8500000.0	56320.0	285472348.808	0.327471032547	174235.424805	0.436321191955	1.27487158775	45411.7640249	27483.795166	7008.06660645	139.932614327	2978925.03248	66936554.2587	0
8525000.0	56518.0	288537722.73	0.327959303466	174234.716797	0.439287803601	1.27335119247	45307.7689461	27411.8041992	6947.30595454	141.687103372	237034.021185	66941420.1335	0
8550000.0	56716.0	291624158.098	0.328441959687	174234.020996	0.442263786681	1.27185082436	45205.8574635	27341.4550781	6886.95867885	143.464173824	4783252.83257	66946286.5226	0
8575000.0	56914.0	294731723.107	0.328917861816	174233.337402	0.445249082986	1.27037096024	45105.758701	27272.4487305	6827.08313429	145.629702359	41025.9978232	66951153.4258	0
8600000.0	57113.0	297860416.699	0.329389686876	174233.47168	0.448233593488	1.26889586449	45006.402592	27204.0130615	6767.12629206	147.84943159	5581532.63045	66956020.8433	0
8625000.0	57312.0	301010305.104	0.329852802256	174233.654785	0.451227242593	1.26743984222	44908.3603559	27136.4349365	6707.67390882	149.724496983	696502.72106	66960888.775	0
8650000.0	57511.0	304181455.964	0.330306270316	174233.886719	0.454230001196	1.26600372791	44811.4432504	27069.4885254	6648.7584428	151.621158617	1926159.9675	66965757.2211	0
8675000.0	57710.0	307373938.544	0.330749171432	174234.106445	0.457242218545	1.26458752155	44715.4923814	27003.0212402	6590.38939241	153.924967752	2219299.94145	66970626.1815	0
8700000.0	57910.0	310587751.241	0.331185338065	174235.03418	0.460253853817	1.26317739487	44619.9769035	26936.7889404	6532.05939601	155.892916932	404134.727541	66975495.6564	0
8725000.0	58109.0	313823033.754	0.331609022875	174235.15625	0.463284843136	1.26180112362	44526.6235069	26871.9848633	6474.85702041	157.857484416	4577311.6179	66980365.6456	0
8750000.0	58309.0	317079782.898	0.332027879138	174236.035156	0.466314901132	1.26042997837	44434.110098	26807.8521729	6417.72573148	160.267947893	585924.351784	66985236.1493	0
8775000.0	58509.0	320358064.812	0.332439283898	174236.938477	0.469353894005	1.25907790661	44343.3816331	26745.0683594	6361.2102924	162.709373285	8752613.60318	66990107.1675	0
8800000.0	58710.0	323657872.019	0.332847773732	174238.623047	0.47239131527	1.25773048401	44253.9500593	26683.4228516	6304.8256369	164.795739718	3113530.84829	66994978.7003	0
8825000.0	58910.0	326979339.834	0.333247154058	174239.562988	0.475447741337	1.25641596317	44167.2929059	26623.8494873	6249.59260128	166.877312252	7088.58247105	66999850.7476	0
8850000.0	59111.0	330322465.59	0.333643300548	174241.149902	0.478503177874	1.2551087141	44081.8117992	26565.234375	6194.53056193	169.425235433	7252250.64501	67004723.3096	0
8875000.0	59312.0	333687315.902	0.334032036718	174242.675781	0.481567520183	1.25382101536	43998.192606	26508.026123	6140.14240915	171.576766513	2225868.45976	67009596.3862	0
8900000.0	59513.0	337073955.074	0.334412667533	174244.116211	0.484640826471	1.25255227089	43916.4367306	26452.2369385	6086.45231	173.74715989	175495.783715	67014469.9774	0
8925000.0	59714.0	340482447.028	0.334784386226	174245.556641	0.487722689286	1.25130009651	43836.4907379	26397.8637695	6033.45028688	175.93660105	3487014.92627	67019344.0834	0
8950000.0	59915.0	343912854.515	0.335146273474	174246.972656	0.490813050419	1.25006401539	43758.3405036	26344.9066162	5981.15279191	178.144368056	8748201.04811	67024218.7042	0
8975000.0	60116.0	347365240.594	0.335497377207	174248.364258	0.493911851663	1.24884343147	43682.028817	26293.4295654	5929.56250832	180.818776358	55873.3447708	67029093.8397	0
9000000.0	60318.0	350839600.519	0.335839885967	174250.32959	0.497009488754	1.24762845039	43607.1534909	26243.2159424	5878.23004498	183.548676375	8212218.7206	67033969.4901	0
9025000.0	60520.0	354335999.855	0.33617123902	174252.13623	0.500116031617	1.24643146992	43534.2884363	26194.6075439	5827.62989396	185.847077402	3579051.63134	67038845.6554	0
9050000.0	60722.0	357854505.346	0.33649204311	174253.78418	0.50323153846	1.24525308609	43463.3950221	26147.5524902	5777.77614772	188.161755417	531406.593968	67043722.3356	0
9075000.0	60924.0	361395182.778	0.336802885021	174255.273438	0.506356125697	1.24409210682	43394.3731547	26101.9775391	5728.66965919	190.492155973	976838.513937	67048599.5307	0
9100000.0	61126.0	364958096.871	0.337104222595	174256.616211	0.509489327669	1.24294888973	43327.1919357	26057.8399658	5680.3048377	192.838131014	4148750.41292	67053477.2408	0
9125000.0	61328.0	368543311.64	0.337396600344	174257.788086	0.512631202582	1.24182283878	43261.7469337	26015.0512695	5632.68847549	195.682059632	3031703.54032	67058355.466	0
9150000.0	61531.0	372150817.796	0.337682797621	174259.545898	0.515771447681	1.24070250988	43197.4548999	25973.2421875	5585.40380921	198.091308684	472145.411728	67063234.2062	0
9175000.0	61733.0	375780752.255	0.33795888755	174260.449219	0.518930435646	1.23961043358	43135.3171664	25932.989502	5539.2884313	200.486161062	769765.769955	67068113.4615	0
9200000.0	61936.0	379433096.698	0.33822964693	174261.914062	0.522087444551	1.23852443695	43074.2524235	25893.6157227	5493.52364242	203.423723732	8288568.56662	67072993.232	0
9225000.0	62139.0	383107954.761	0.338493655843	174263.232422	0.525252660736	1.23745441437	43014.6640953	25855.3588867	5448.51980586	205.372060044	6980301.76886	67077873.5177	0
9250000.0	62341.0	386805416.72	0.338748884447	174263.574219	0.528442033101	1.23641312122	42957.0721564	25818.4783936	5404.71536534	207.80045116	11302086.8113	67082754.3186	0
9275000.0	62544.0	390525495.064	0.339000662272	174264.624023	0.531623605639	1.2353758812	42900.3103687	25782.2723389	5361.23366706	210.792110229	32522.5971478	67087635.6347	0
9300000.0	62747.0	394268238.322	0.33924463767	174265.380859	0.534814083949	1.23435795307	42845.2378149	25747.3236084	5318.51637411	213.806214498	12405639.9192	67092517.4662	0
9325000.0	62951.0	398033638.862	0.339482095034	174266.479492	0.538002816029	1.2333496809	42791.4978092	25713.4552002	5276.17999546	216.340838794	8522578.22965	67097399.813	0
9350000.0	63154.0	401821837.091	0.339709291801	174266.577148	0.541211280506	1.23237085342	42739.950532	25681.1553955	5235.00249507	218.315836539	6760818.24103	67102282.6752	0
9375000.0	63357.0	405632898.379	0.339928527791	174266.320801	0.544428476132	1.23141026497	42690.0416944	25650.0854492	5194.41440681	221.381409583	2683101.60704	67107166.0528	0
9400000.0	63561.0	409466813.93	0.34014175763	174266.394043	0.547643983737	1.23045742512	42641.2897499	25619.9554443	5153.99387393	223.957033204	804658.636372	67112049.9458	0
9425000.0	63764.0	413323721.428	0.340345726922	174265.478516	0.550878699869	1.2295306921	42594.4787822	25591.2139893	5114.47185112	226.519005902	62207.9535009	67116934.3543	0
9450000.0	63968.0	417203609.942	0.340544300393	174264.880371	0.554111145902	1.22860980034	42548.6795839	25563.3041382	5075.11915616	229.128941466	1225296.34499	67121819.2784	0
9475000.0	64171.0	421106617.159	0.340734164727	174263.28125	0.557362742256	1.22771298885	42504.6458588	25536.6531372	5036.64434556	231.724504876	3024534.26158	67126704.718	0
9500000.0	64375.0	425032728.822	0.340919169811	174262.011719	0.560611952096	1.22682058811	42461.5287008	25510.7635498	4998.33499028	234.944092174	7587779.53819	67131590.6732	0
9525000.0	64579.0	428982005.989	0.341097551871	174260.437012	0.563869252801	1.22594130039	42419.6362743	25485.8047485	4960.53487441	237.029165269	7651838.7977	67136477.144	0
9550000.0	64782.0	432954581.465	0.341268484545	174258.349609	0.567144947127	1.22508203983	42379.267486	25461.9293213	4923.58280372	239.674871215	10260517.9809	67141364.1306	0
9575000.0	64986.0	436950438.088	0.341434585582	174257.141113	0.570417381823	1.22422254086	42339.5801283	25438.684082	4886.78258914	242.965250687	1797762.90301	67146251.6328	0
9600000.0	65190.0	440969631.893	0.341593837553	174256.12793	0.573697383516	1.22337317467	42301.1687832	25416.4627075	4850.47577499	245.683646088	672079.413918	67151139.6508	0
9625000.0	65394.0	445012226.196	0.341745162954	174255.151367	0.576985883527	1.22253859043	42264.3153169	25395.4620361	4814.65543876	248.418436106	34716.9226983	67156028.1846	0
9650000.0	65598.0	449078284.583	0.34188859625	174254.23584	0.580282823648	1.22171735764	42228.8976513	25375.5813599	4779.33051719	251.168706503	356665.333689	67160917.2343	0
9675000.0	65802.0	453167867.257	0.342024703092	174253.417969	0.583587912843	1.22090899944	42194.8833468	25356.8084717	4744.48876553	253.93472007	1096077.49923	67165806.7997	0
9700000.0	66006.0	457281034.361	0.342153549569	174252.697754	0.586901092902	1.22011399269	42162.1726305	25339.0350342	4710.11821191	256.7166487	1973289.84338	67170696.8811	0
9725000.0	66210.0	461417846.358	0.342275761565	174252.099609	0.590222422034	1.2193312645	42130.7090001	25322.2167969	4676.21741858	260.150116051	11991223.2449	67175587.4784	0
9750000.0	66415.0	465578286.203	0.342392386868	174252.246094	0.593540782575	1.21855247021	42100.1218557	25306.1386108	4642.47397026	263.003875525	10742402.3749	67180478.5917	0
9775000.0	66619.0	469762488.641	0.34250176383	174251.904297	0.596877653152	1.21779370308	42070.9151448	25291.0263062	4609.49527057	265.189393156	4754577.51649	67185370.221	0
9800000.0	66823.0	473970512.364	0.342605193776	174251.708984	0.600222556386	1.21704721451	42042.7367765	25276.6494751	4576.9769756	268.032453946	5609382.38418	67190262.3664	0
9825000.0	67027.0	478202414.815	0.342703057884	174251.660156	0.603574968409	1.21631169319	42015.488971	25262.9455566	4544.90265503	270.890673843	6390678.31945	67195155.0278	0
9850000.0	67231.0	482458253.33	0.34279557069	174251.794434	0.60693512205	1.21558773518	41989.1334031	25249.8641968	4513.27113493	274.434481821	7479181.62766	67200048.2053	0
9875000.0	67436.0	486738006.25	0.342884040918	174252.722168	0.610291608609	1.21486651897	41963.3340833	25237.2192383	4481.78595042	277.364296511	7023139.16855	67204941.899	0
9900000.0	67640.0	491041807.686	0.342966162634	174253.186035	0.613666779827	1.21416437626	41938.6162776	25225.2624512	4451.02863424	279.587859614	8179098.26337	67209836.1089	0
9925000.0	67844.0	495369719.508	0.343041590001	174253.69873	0.617050332949	1.21347594261	41914.9857529	25214.0838623	4420.70081053	282.503047341	8520740.60785	67214730.8351	0
9950000.0	68048.0	499721805.368	0.343110482566	174254.223633	0.620442151558	1.21280014515	41892.4198997	25203.6819458	4390.79656611	286.131152772	6484019.96448	67219626.0775	0
9975000.0	68253.0	504098047.849	0.343173871323	174255.432129	0.623831059784	1.2121297121	41870.6897417	25193.9483643	4361.04194077	289.115674494	6603468.6511	67224521.8362	0
10000000.0	68457.0	508498584.449	0.343230149167	174256.103516	0.627239234746	1.21147954464	41850.2482654	25185.0845337	4331.97406842	291.363428814	8594662.08409	67229418.1112	0
10025000.0	68661.0	512923477.002	0.343280713867	174256.811523	0.630655442365	1.21084189415	41830.8543192	25176.9729614	4303.32673153	294.329924097	8314677.72159	67234314.9026	0
10050000.0	68865.0	517372783.004	0.343325391746	174257.617188	0.634079333395	1.21021580696	41812.4588915	25169.5846558	4275.08005786	298.037879359	7847378.44785	67239212.2104	0
10075000.0	69070.0	521846482.701	0.34336519014	174259.130859	0.637499964796	1.20959496498	41794.8888986	25162.852478	4246.96749975	301.073772872	8597749.59297	67244110.0347	0
10100000.0	69274.0	526344710.963	0.343399093505	174260.107422	0.640939222649	1.20899200439	41778.4923088	25156.9107056	4219.52159712	303.341092826	6601214.24327	67249008.3754	0
10125000.0	69478.0	530867524.805	0.343427941938	174261.193848	0.644386047497	1.20840036869	41763.0748905	25151.6738892	4192.46019928	306.356685975	5797457.59421	67253907.2326	0
10150000.0	69682.0	535414979.038	0.343451789136	174262.402344	0.647840264719	1.20781970024	41748.6142885	25147.1298218	4165.79189622	309.383272294	4902209.68472	67258806.6064	0
10175000.0	69886.0	539987128.953	0.343471026789	174263.696289	0.651301641483	1.20724856853	41735.0702659	25143.2662964	4139.49320538	312.422080001	3944436.80707	67263706.4968	0
10200000.0	70090.0	544584028.922	0.343485540831	174265.112305	0.65477041062	1.20668780804	41722.4519042	25140.0741577	4113.57732647	315.471393273	2953526.49846	67268606.9038	0
10225000.0	70294.0	549205738.549	0.343494092313	174266.552734	0.658246921375	1.20613837242	41710.9191255	25137.6998901	4088.03465118	318.53112897	1949981.86994	67273507.8275	0
10250000.0	70498.0	553852317.473	0.343496567822	174267.96875	0.661731581204	1.20560133457	41700.4998719	25136.1465454	4062.86469494	321.600475835	1004764.97517	67278409.2678	0
10275000.0	70702.0	558523825.391	0.343493192137	174269.360352	0.665224099066	1.20507478714	41691.0814454	25135.3561401	4038.05808437	324.679655521	239099.060288	67283311.2249	0
10300000.0	70906.0	563220321.951	0.343484584442	174270.751953	0.66872453317	1.20455944538	41682.6522766	25135.2935791	4013.61445528	327.768010652	154234.172835	67288213.6988	0
10325000.0	71110.0	567941866.423	0.343470745522	174272.119141	0.672232825309	1.20405483246	41675.1720091	25135.9283447	3989.52466137	330.865649618	1024968.98216	67293116.6894	0
10350000.0	71314.0	572688515.996	0.343452182868	174273.510742	0.675748859067	1.20356047153	41668.5871834	25137.2253418	3965.78845432	333.971986293	2411209.98875	67298020.1969	0
10375000.0	71518.0	577460329.082	0.343429122971	174274.87793	0.679272576235	1.20307648182	41662.854762	25139.1387939	3942.39257874	337.08749931	4268000.06773	67302924.2213	0
10400000.0	71722.0	582257363.048	0.343401848799	174276.23291	0.682803918608	1.20260190964	41657.922876	25141.633606	3919.32406398	339.378836598	11622783.2399	67307828.7626	0
10425000.0	71925.0	587079756.098	0.343370671573	174277.001953	0.686354527716	1.20214307308	41653.8592801	25144.6853638	3896.80552757	342.465744226	8811897.64681	67312733.8208	0
10450000.0	72129.0	591927484.167	0.343335902572	174278.344727	0.68990100408	1.2016876936	41650.4164655	25148.2345581	3874.38234032	346.450342147	12582639.4857	67317639.3961	0
10475000.0	72333.0	596800603.13	0.343297853062	174279.711914	0.693454989232	1.20124173164	41647.6386666	25152.2369385	3852.26159227	348.746731636	3676001.94774	67322545.4883	0
10500000.0	72536.0	601699250.474	0.343256749961	174280.493164	0.697027891874	1.20081043243	41645.5931366	25156.6772461	3830.65406546	351.862090036	1632294.07384	67327452.0976	0
10525000.0	72740.0	606623404.104	0.343211106992	174281.787109	0.700597011019	1.20038485527	41644.2895156	25161.7019653	3809.13009577	355.026331689	185063.332391	67332359.224	0
10550000.0	72943.0	611573207.613	0.343160703175	174282.434082	0.704186211806	1.19997668266	41643.9856446	25167.376709	3788.10969236	358.158745516	692462.050834	67337266.8676	0
10575000.0	73147.0	616548640.197	0.343105542708	174283.520508	0.707771687303	1.19957387447	41644.4322566	25173.6557007	3767.15565403	361.341270211	2743877.17725	67342175.0283	0
10600000.0	73350.0	621549843.098	0.343046387731	174283.92334	0.711376953404	1.19918692112	41645.7424463	25180.480957	3746.68362513	363.596694413	14384249.5186	67347083.7062	0
10625000.0	73553.0	626576876.65	0.34298329848	174284.228516	0.714990193956	1.19880998135	41647.8055074	25187.8326416	3726.48241426	366.748542337	10191759.6606	67351992.9013	0
10650000.0	73756.0	631629800.264	0.342916699847	174284.448242	0.718611176126	1.19844198227	41650.5396606	25195.652771	3706.53662692	369.910099438	6372012.61067	67356902.6137	0
10675000.0	73959.0	636708673.284	0.342847156426	174284.521484	0.722240132745	1.19808292389	41653.9329921	25203.9245605	3686.84332339	373.081038537	3108927.86232	67361812.8435	0
10700000.0	74162.0	641813554.492	0.342774783869	174284.49707	0.725876947399	1.19773185253	41657.9148538	25212.5946045	3667.40363614	376.260795823	688932.709604	67366723.5905	0
10725000.0	74365.0	646944501.011	0.342699949783	174284.326172	0.729521212634	1.19738864899	41662.4515024	25221.6369629	3648.19863028	379.451025947	478660.999924	67371634.855	0
10750000.0	74568.0	652101570.283	0.342623077235	174284.033203	0.733173219487	1.19705212116	41667.4867221	25231.0119629	3629.23365828	382.6505544	2913745.20283	67376546.6368	0
10775000.0	74771.0	657284818.795	0.342544644567	174283.618164	0.73683244409	1.1967227459	41672.9842336	25240.675354	3610.49412595	385.86071881	6553856.13009	67381458.9361	0
10800000.0	74974.0	662494301.8	0.342464737833	174283.032227	0.74049923569	1.1963994503	41678.8956563	25250.5996704	3591.98544351	388.121979536	9754444.83487	67386371.7529	0
10825000.0	75176.0	667730159.515	0.34238341502	174281.726074	0.744185294025	1.19608819485	41685.3302735	25260.7955933	3573.88554753	391.301301534	5482224.51932	67391285.0872	0
10850000.0	75379.0	672992370.06	0.342298331608	174280.700684	0.747867743485	1.19578194618	41692.4690456	25271.5362549	3555.81048548	394.532769924	2001082.99448	67396198.939	0
10875000.0	75581.0	678281078.462	0.342210610061	174278.930664	0.751569925342	1.19548869133	41700.2229788	25282.6339722	3538.13760325	397.730744794	5682.84203054	67401113.3084	0
10900000.0	75784.0	683596259.706	0.342119249852	174277.807617	0.755267974455	1.19519996643	41708.6932952	25294.2901611	3520.47911556	400.982210444	2008703.22553	67406028.1955	0
10925000.0	75986.0	688938055.288	0.342025400354	174276.281738	0.75898563955	1.19492352009	41717.8169572	25306.3415527	3503.20876411	403.202196197	17001932.0936	67410943.6002	0
10950000.0	76188.0	694306523.127	0.341928759081	174274.926758	0.76271063881	1.19465494156	41727.5255454	25318.8018799	3486.13413501	406.422308591	11053613.0155	67415859.5226	0
10975000.0	76390.0	699701719.234	0.341829665111	174273.730469	0.766443263274	1.19439411163	41737.8282291	25331.6635132	3469.24938049	409.652600403	5901120.84264	67420775.9627	0
11000000.0	76592.0	705123700.481	0.341728401177	174272.705078	0.77018328011	1.19413983822	41748.6465484	25344.8791504	3452.54496374	412.893948249	1880858.52108	67425692.9206	0
11025000.0	76794.0	710572522.333	0.341625360741	174271.887207	0.773930747528	1.19389247894	41759.9452068	25358.4213257	3436.03038284	416.144815613	131730.167596	67430610.3963	0
11050000.0	76996.0	716048240.177	0.341520658304	174271.21582	0.777685199864	1.19365179539	41771.697507	25372.2518921	3419.68866182	419.407126576	3008113.13201	67435528.3898	0
11075000.0	77198.0	721550909.642	0.341414630469	174270.776367	0.781447044574	1.19341719151	41783.8581228	25386.3540649	3403.52182049	422.680070778	7836518.66409	67440446.9011	0
11100000.0	77400.0	727080583.209	0.341307418634	174270.495605	0.785215874203	1.19318807125	41796.3859775	25400.6958008	3387.52439186	424.909829532	9405515.57825	67445365.9304	0
11125000.0	77601.0	732637401.48	0.341199607966	174269.897461	0.78900414519	1.19296896458	41809.2841606	25415.2145386	3371.86499886	428.151912199	4196327.94673	67450285.4775	0
11150000.0	77803.0	738221337.326	0.341088342634	174269.98291	0.792787759565	1.19275486469	41822.8496018	25430.2474976	3356.20060877	431.449111966	553316.63831	67455205.5427	0
11175000.0	78004.0	743832534.377	0.340974655079	174269.65332	0.796591397375	1.19255280495	41837.0344796	25445.664978	3340.86208059	433.633540335	27899270.0546	67460126.1258	0
11200000.0	78205.0	749471051.419	0.340858273211	174269.482422	0.800402602181	1.19235885143	41851.8163897	25461.4929199	3325.68128649	437.985608168	6036051.61052	67465047.227	0
11225000.0	78407.0	755136860.473	0.340738898132	174269.946289	0.804209383205	1.19216835499	41867.1805158	25477.7832031	3310.48587267	441.315351065	12569466.3058	67469968.8462	0
11250000.0	78608.0	760830103.07	0.34061808525	174270.043945	0.808035605587	1.19198858738	41882.9966295	25494.3115234	3295.60593296	443.507400354	5610044.82757	67474890.9835	0
11275000.0	78809.0	766550838.131	0.340495533654	174270.275879	0.811869627796	1.19181525707	41899.2467712	25511.1206055	3280.87212423	446.805239051	1084583.26202	67479813.6389	0
11300000.0	79010.0	772299120.709	0.340371578647	174270.666504	0.815710867755	1.19164788723	41915.8970617	25528.1829834	3266.27591048	448.99529822	30345536.8303	67484736.8125	0
11325000.0	79210.0	778075096.857	0.340247189433	174270.617676	0.819572072942	1.19148874283	41932.8023317	25545.3445435	3251.98385109	452.261097635	21082778.5455	67489660.5043	0
11350000.0	79411.0	783878734.561	0.340121125919	174271.289062	0.823428388685	1.19133126736	41950.0711707	25562.7807617	3237.66901173	456.720089716	12802266.6584	67494584.7143	0
11375000.0	79612.0	789710089.262	0.339994494337	174272.094727	0.827292213216	1.19117760658	41967.5777999	25580.3512573	3223.51274375	458.914731487	5975369.8706	67499509.4425	0
11400000.0	79812.0	795569305.826	0.339868425189	174272.521973	0.831175362691	1.19103109837	41985.2192353	25597.9156494	3209.7038132	462.201857008	1150243.26972	67504434.6891	0
11425000.0	80013.0	801456349.512	0.33974156888	174273.632812	0.835053506307	1.19088423252	42003.0561042	25615.6311035	3195.93298347	465.537230575	1222391.79972	67509360.454	0
11450000.0	80213.0	807371366.597	0.339614257259	174274.34082	0.838951324113	1.19074547291	42021.1712105	25633.4625244	3182.49028094	467.660587959	21839336.649	67514286.7372	0
11475000.0	80413.0	813314416.046	0.339484815307	174275.12207	0.842857174575	1.19061279297	42039.7530656	25651.6082764	3169.22590735	470.946910154	13135658.332	67519213.5388	0
11500000.0	80613.0	819285556.081	0.339353550025	174276.000977	0.846770708449	1.19048583508	42058.7732455	25670.0439453	3156.13117146	474.236222701	5919030.80176	67524140.8588	0
11525000.0	80813.0	825284845.559	0.339220877281	174276.977539	0.850691983942	1.19036388397	42078.1627193	25688.7237549	3143.2044254	477.528243311	901849.338543	67529068.6973	0
11550000.0	81013.0	831312342.882	0.339087047215	174278.051758	0.854620768223	1.19024729729	42097.8982683	25707.6171875	3130.433735	480.824435011	1741114.45872	67533997.0543	0
11575000.0	81213.0	837368105.277	0.338952391389	174279.223633	0.858557177708	1.19013500214	42117.911244	25726.6815186	3117.82104985	482.913670526	21354083.8051	67538925.9297	0
11600000.0	81412.0	843452278.525	0.338818143536	174279.943848	0.862513727043	1.19003021717	42138.0854106	25745.7672119	3105.49785218	486.162291233	12331866.4429	67543855.3237	0
11625000.0	81612.0	849564832.471	0.338682880708	174281.286621	0.866465270519	1.18992674351	42158.5515397	25765.0756836	3093.17581513	490.689358477	25990253.2971	67548785.2363	0
11650000.0	81812.0	855705822.329	0.338547725837	174282.714844	0.870423973538	1.18982708454	42179.1787815	25784.4512939	3080.99400395	492.768092853	342676.105055	67553715.6675	0
11675000.0	82011.0	861875394.734	0.338413798278	174283.666992	0.874403049238	1.18973398209	42199.8179398	25803.7322998	3069.08593168	494.787858709	31128609.6486	67558646.6173	0
11700000.0	82210.0	868073606.481	0.338280658717	174284.741211	0.878389575519	1.18964457512	42220.5460884	25823.0163574	3057.30444618	498.048351875	20593954.533	67563578.0858	0
11725000.0	82409.0	874300512.704	0.338148496251	174285.864258	0.882383086719	1.18955862522	42241.3232262	25842.2729492	3045.6484418	501.314665485	11566964.3576	67568510.073	0
11750000.0	82608.0	880556170.495	0.338017063547	174287.072754	0.88638428133	1.1894762516	42262.1444968	25861.4990234	3034.11349566	504.586792377	4436846.03495	67573442.5789	0
11775000.0	82807.0	886840639.268	0.337884753077	174288.317871	0.890393101145	1.18940031528	42283.3082498	25880.9204102	3022.69193021	507.865724418	122416.830419	67578375.6036	0
11800000.0	83006.0	893153976.009	0.337751485427	174289.599609	0.894409604371	1.18933022022	42304.7921856	25900.5279541	3011.38279292	511.151292227	3368882.82442	67583309.1471	0
11825000.0	83205.0	899496242.5	0.337617616277	174290.905762	0.8984337328	1.18926608562	42326.5593743	25920.2880859	3000.18843669	514.442826697	10440512.3296	67588243.2094	0
11850000.0	83404.0	905867496.303	0.337483500192	174292.236328	0.902465777472	1.1892067194	42348.5310185	25940.1489258	2989.0947674	516.441425121	11201981.3256	67593177.7906	0
11875000.0	83602.0	912267887.164	0.337350223215	174293.09082	0.906518427655	1.1891541481	42370.5693973	25959.954834	2978.23504112	519.691069377	3991062.88428	67598112.8907	0
11900000.0	83801.0	918697381.29	0.337216319444	174294.458008	0.910565839149	1.18910312653	42392.8354666	25979.9255371	2967.33983419	522.997751467	3201.95009785	67603048.5097	0
11925000.0	83999.0	925156129.244	0.337083903538	174295.349121	0.914633623324	1.18905806541	42415.0800997	25999.7741699	2956.67276452	524.937334374	31651233.8817	67607984.6476	0
11950000.0	84197.0	931644188.479	0.336952241245	174296.240234	0.918709207326	1.18901526928	42437.3204144	26019.5739746	2946.08932631	528.203665343	20663803.9759	67612921.3046	0
11975000.0	84395.0	938161619.368	0.336821709597	174297.119141	0.922792591155	1.18897461891	42459.5372128	26039.3066406	2935.59534173	531.478133467	11330467.4558	67617858.4806	0
12000000.0	84593.0	944708478.472	0.336692684473	174298.034668	0.926883192733	1.18893587589	42481.6900579	26058.9294434	2925.18048892	534.762744385	4076930.63885	67622796.1756	0
12025000.0	84791.0	951284822.531	0.33656521654	174298.925781	0.930981361307	1.18889820576	42503.7202117	26078.4118652	2914.8505911	538.056056406	13023.2290699	67627734.3898	0
12050000.0	84989.0	957890710.026	0.336439707179	174299.816895	0.935087096877	1.18886089325	42525.577397	26097.7142334	2904.5922521	541.360365162	3809027.88381	67632673.1231	0
12075000.0	85187.0	964526178.953	0.336315316136	174300.708008	0.939197721891	1.18882501125	42547.4042551	26116.9555664	2894.40497272	543.301736833	22831279.588	67637612.3755	0
12100000.0	85384.0	971191402.437	0.336191798509	174301.037598	0.94333209563	1.18879497051	42569.2528063	26136.1236572	2884.41176702	546.569089168	13315775.0807	67642552.1472	0
12125000.0	85582.0	977886345.818	0.336067671463	174301.782227	0.947461114265	1.18876600266	42591.3332669	26155.4718018	2874.37100821	549.895952539	5567807.92759	67647492.4381	0
12150000.0	85779.0	984611164.18	0.3359449007	174301.989746	0.951611378696	1.18874251842	42613.3570396	26174.6826172	2864.51616344	553.183834754	551707.265332	67652433.2482	0
12175000.0	85977.0	991365823.363	0.335821977611	174302.648926	0.955755996983	1.18871951103	42635.5346868	26193.9941406	2854.60107769	556.534192236	2489784.80122	67657374.5777	0
12200000.0	86174.0	998150479.127	0.33570099837	174302.685547	0.95992203569	1.1887011528	42657.5637486	26213.104248	2844.86711433	558.428254753	27247972.9859	67662316.4265	0
12225000.0	86371.0	1004965189.89	0.335581153387	174302.685547	0.964095990639	1.18868541718	42679.5558767	26232.1136475	2835.19124628	561.743144356	17080040.3401	67667258.7946	0
12250000.0	86568.0	1011810015.22	0.335462789124	174302.575684	0.968277570792	1.18867170811	42701.4508201	26250.9918213	2825.56690153	565.071311507	8626809.40101	67672201.6822	0
12275000.0	86765.0	1018685015.81	0.335346090219	174302.380371	0.972467125393	1.18866014481	42723.2363202	26269.708252	2815.99687044	568.411937448	2379688.67763	67677145.0892	0
12300000.0	86962.0	1025590251.74	0.33523124084	174302.062988	0.976664596237	1.18865025043	42744.8583062	26288.2293701	2806.47774079	571.765681221	507631.090736	67682089.0157	0
12325000.0	87159.0	1032525783.88	0.335118505023	174301.623535	0.980869983323	1.18864190578	42766.2943563	26306.52771	2797.00614433	575.133182386	5314456.73099	67687033.4616	0
12350000.0	87356.0	1039491672.54	0.335007958858	174301.098633	0.985083170235	1.18863523006	42787.510858	26324.5727539	2787.57875616	577.046850851	24351860.843	67691978.4272	0
12375000.0	87552.0	1046488070.98	0.33490072119	174299.926758	0.989317661151	1.18863153458	42808.3581639	26342.2180176	2778.30820956	580.383332323	15148951.2802	67696923.9123	0
12400000.0	87749.0	1053514947.92	0.334793659049	174299.121094	0.993546796963	1.18863022327	42829.3453713	26359.9060059	2768.96512468	583.785919854	7443455.05549	67701869.917	0
12425000.0	87945.0	1060572461.2	0.334688080789	174297.644043	0.997797818854	1.1886357069	42850.2738204	26377.4078369	2759.7776915	587.150873959	1869678.9617	67706816.4413	0
12450000.0	88142.0	1067660576.76	0.334582462337	174296.533203	1.00204301998	1.18864297867	42871.3716314	26394.9951172	2750.51202201	590.584016872	734140.771175	67711763.4853	0
12475000.0	88338.0	1074779450.9	0.334478324202	174295.056152	1.00630964153	1.18865597248	42892.4056477	26412.4176025	2741.39484607	592.469339418	36999828.9505	67716711.0491	0
12500000.0	88534.0	1081929145.54	0.33437499726	174293.664551	1.01058429573	1.18867146969	42913.4476513	26429.7851562	2732.30789101	596.814393466	9.01276332975e-13	67721659.1325	0
