z	T	P	nabla_ad	S	rho	delta	cp	cv	opac	frad	fconv	ftot	dT
0.0	3900.0	102.746964425	0.387625137286	175434.960938	4.1397676398e-06	1.00671041012	16599.0409008	10152.3338318	0.000550334592209	0.0	13843.0497549	65311815.0903	0
25000.0	3900.0	135.390378095	0.383918126835	173662.121582	5.45580691735e-06	1.00881397724	16810.9481486	10339.3714905	0.000656587620689	0.0	18494.6098011	65316507.3538	0
50000.0	3900.0	178.416801478	0.379172824916	171885.375977	7.19106285629e-06	1.01157915592	17090.0743441	10585.3752136	0.000782072702525	0.0	25201.888123	65321200.1229	0
75000.0	3900.0	235.136281628	0.37314387942	170103.637695	9.47957801145e-06	1.01527643204	17457.5693777	10908.5319519	0.000929551893101	0.0	33208.746638	65325893.3976	0
100000.0	3900.0	309.918568907	0.365571771119	168314.794922	1.2498695412e-05	1.02010273933	17939.3949187	11332.509613	0.00110341598729	0.0	43727.6147471	65330587.1781	0
125000.0	3900.0	408.536950089	0.356180325257	166516.650391	1.64832698601e-05	1.02637517452	18570.3464795	11887.7677917	0.00130932814048	0.0	57601.0723294	65335281.4644	0
150000.0	3900.0	538.62375942	0.344723790563	164706.079102	2.174467717e-05	1.03466546535	19396.3199228	12613.3255005	0.00155395840635	0.0	75845.1465922	65339976.2566	0
175000.0	3900.0	710.280006177	0.331042408084	162878.857422	2.86967924978e-05	1.04557561874	20475.2060138	13559.3032837	0.00184272838487	0.0	99917.0985414	65344671.5548	0
200000.0	3900.0	936.891881111	0.315083739792	161030.01709	3.78909703613e-05	1.05973005295	21878.701212	14788.3468628	0.00218526326466	0.0	131718.833856	65349367.3591	0
225000.0	3900.0	1236.22883524	0.29698689196	159152.783203	5.00639991685e-05	1.07814455032	23697.435563	16377.4703979	0.0025948076935	24856842.8454	170234.956749	65354063.6694	0
250000.0	3909.0	1630.78967258	0.279997628804	157301.831055	6.59893188981e-05	1.0986995697	25677.682503	18098.4451294	0.00314297493517	0.0	230112.824239	65358760.4858	0
275000.0	3900.0	2154.01660692	0.256078774232	155282.299805	8.75825776347e-05	1.13310825825	29044.9441652	21023.1613159	0.00368261154629	32259567.2582	281846.903145	65363457.8085	0
300000.0	3938.0	2838.50477327	0.247217210258	153591.186523	0.000114458657663	1.15030860901	30529.8561889	22284.6405029	0.00470710806098	20567709.271	373019.510961	65368155.6374	0
325000.0	3930.0	3746.11063211	0.223407439855	151480.126953	0.000151934273163	1.19998633862	35259.7561222	26351.3000488	0.00553699146738	32293871.7023	425232.335064	65372853.9727	0
350000.0	4012.0	4915.82253085	0.22877903685	150121.850586	0.000195253107904	1.19283497334	34145.7351087	25339.2028809	0.0074829860554	26198492.9145	520258.050309	65377552.8144	0
375000.0	4028.0	6449.0710506	0.213492979624	148196.679688	0.000255982598674	1.23380744457	37780.5588192	28417.8222656	0.00910087604993	32068370.9213	443695.499833	65382252.1626	0
400000.0	4201.0	8358.02901078	0.24465904386	147632.104492	0.000316647913223	1.16921782494	31182.95687	22701.5167236	0.0142634203247	25814958.627	461028.914834	65386952.0172	0
425000.0	4287.0	10774.9880749	0.249792569275	146383.081055	0.000399850819122	1.16337478161	30329.5287589	21929.5272827	0.019349053149	32051644.5374	16032.5325126	65391652.3785	-1
450000.0	4721.0	13549.4069894	0.329276838317	147083.349609	0.00045307928076	1.05952203274	20726.6130894	13651.1810303	0.0372135211216	25629324.5119	21850.0181059	65396353.2465	0
475000.0	4966.0	16841.1430457	0.351626418392	146638.15918	0.000534422895271	1.03957736492	18960.7662753	12128.1669617	0.0513513878745	31625870.2835	1.26302609998	65401054.6211	-1
500000.0	5892.0	20220.5077777	0.386225582487	148401.403809	0.000539353493423	1.00836193562	16625.9621829	10161.3639832	0.0868767508576	24739509.8383	0.0383891137236	65405756.5026	0
525000.0	5903.0	24269.8282433	0.385331774724	147256.311035	0.000646135617899	1.00949513912	16686.3217127	10208.9675903	0.100634275764	34514812.4087	169.96684774	65410458.8909	-1
550000.0	7688.0	27905.6411014	0.321259158841	151034.814453	0.00056812996263	1.03126263618	20294.5616972	13515.8721924	0.815917049872	22978518.2237	864421.390921	65415161.7861	-7
575000.0	9763.0	31056.7104041	0.167447071557	157681.567383	0.000484875727125	1.2696813345	48567.898572	38148.1658936	7.51225927969	4043550.20981	25938061.5534	65419865.1883	-6
600000.0	10304.0	34315.7473903	0.145556207206	159831.762695	0.000499838279211	1.39184570312	62207.2942597	49580.6091309	12.4228463889	1465457.69121	14731821.9408	65424569.0975	-3
625000.0	11141.0	37504.7408201	0.122172952671	164968.75	0.000486751616791	1.65264034271	91488.5583235	73311.4135742	24.2378750939	786640.574681	23187789.4934	65429273.5139	-2
650000.0	11413.0	40856.1805175	0.118309696427	166343.603516	0.000510765687523	1.73408603668	100550.240373	80382.9162598	29.7316762216	405319.244605	11064778.6362	65433978.4373	-3
675000.0	11827.0	44285.7675156	0.113106063254	169231.713867	0.000521508184192	1.87546443939	116755.620405	92816.7663574	39.0293291537	314624.038285	14172571.8666	65438683.868	0
700000.0	12054.0	47880.733808	0.111452678507	170513.208008	0.00054602014643	1.94278609753	124455.069854	98559.5336914	45.2661087893	201971.060868	8232473.90854	65443389.806	-2
725000.0	12297.0	51630.1478729	0.110023304153	172007.983398	0.000568817029034	2.01474404335	132823.407338	104714.257812	52.3923747183	155525.053878	7084712.02643	65448096.2513	-1
750000.0	12467.0	55578.4210335	0.109525786152	172766.186523	0.000598478777647	2.05529713631	137444.637884	108018.334961	58.0936847175	115313.236132	4508925.41995	65452803.204	-1
775000.0	12640.0	59727.4515667	0.109118343977	173593.530273	0.000628336579211	2.09566640854	142111.351313	111322.717285	64.1937832364	85700.3694538	2375735.35074	65457510.6642	0
800000.0	12751.0	64125.8713303	0.109236748308	173753.112793	0.000665725735871	2.11166357994	143759.324669	112404.89502	68.8107827197	57483.147392	125361.713355	65462218.6319	0
825000.0	12850.0	68794.0282577	0.109458204976	173777.124023	0.000706238097337	2.12245416641	144761.357535	113011.889648	73.2704269807	48858.0463151	6499.53927964	65466927.1071	0
850000.0	12948.0	73746.1062001	0.109705462444	173763.427734	0.000748940578887	2.13182330132	145568.621227	113468.530273	77.8946063977	44111.2887121	14389.8689836	65471636.09	0
875000.0	13046.0	78996.6593355	0.109965082194	173735.998535	0.00079376195572	2.14040207863	146271.122107	113843.273926	82.718115506	40294.6872037	4729.40878498	65476345.5805	0
900000.0	13145.0	84558.8465299	0.110229236015	173746.826172	0.000840446944039	2.14959096909	147072.195236	114290.087891	87.7751407107	36686.5195592	3692.77843491	65481055.5789	0
925000.0	13243.0	90447.5448635	0.110510941951	173763.208008	0.000889364628165	2.15841794014	147844.134922	114715.893555	93.0051104933	33286.5583914	12106.48386	65485766.085	0
950000.0	13341.0	96677.5843789	0.110804640164	173779.821777	0.00094053069688	2.16682863235	148571.236661	115107.116699	98.4488828957	30400.2957251	11577.8998829	65490477.0989	0
975000.0	13439.0	103264.972065	0.1111105342	173772.412109	0.000994161837298	2.17439627647	149182.260578	115409.655762	104.117222358	27798.2606844	11591.0718198	65495188.6208	0
1000000.0	13537.0	110227.036929	0.111422159066	173746.362305	0.00105033109321	2.181214571	149697.0631	115640.100098	110.016154597	25449.6038507	11993.3624403	65499900.6506	0
1025000.0	13635.0	117580.574473	0.111739192241	173744.592285	0.0011088645806	2.18815469742	150258.088121	115907.666016	116.144749165	23333.7079537	12208.764836	65504613.1885	0
1050000.0	13733.0	125342.070357	0.112065016725	173760.058594	0.00116985734167	2.19507455826	150838.550416	116190.917969	122.509647425	21423.4538437	12395.1864658	65509326.2344	0
1075000.0	13831.0	133528.854337	0.112400746668	173779.394531	0.00123346455894	2.20166730881	151387.701654	116450.671387	129.119535432	19694.2087354	12800.4823602	65514039.7885	0
1100000.0	13929.0	142159.500427	0.112746555404	173783.59375	0.00129991099129	2.20762300491	151849.680596	116644.189453	135.985906382	18123.7775002	13811.8840618	65518753.8507	0
1125000.0	14027.0	151254.165092	0.113100622165	173757.824707	0.00136940889206	2.21279835701	152192.826577	116747.363281	143.118938785	16694.0059127	15749.6109576	65523468.4212	0
1150000.0	14125.0	160833.310012	0.113462530214	173746.75293	0.00144174964589	2.21789765358	152547.73586	116861.047363	150.516190375	15395.320034	17959.4549404	65528183.5	0
1175000.0	14223.0	170916.294766	0.113833175107	173754.858398	0.00151691733663	2.2229757309	152923.152904	116991.552734	158.172338364	14288.5368055	3453.98653964	65532899.0871	0
1200000.0	14322.0	181521.377194	0.114210292254	173783.166504	0.00159481464834	2.22808337212	153317.757167	117135.217285	166.133629773	13211.4296348	4172.81700254	65537615.1826	0
1225000.0	14420.0	192671.236152	0.114596841794	173796.362305	0.00167615166902	2.23247241974	153622.199309	117213.891602	174.314200925	12165.952621	26052.874483	65542331.7865	0
1250000.0	14518.0	204388.536652	0.114988778303	173787.29248	0.00176096000359	2.23623156548	153833.287547	117222.753906	182.772225552	11270.8613417	30922.4527125	65547048.8989	0
1275000.0	14616.0	216697.665767	0.115388852055	173760.217285	0.0018493560674	2.23966383934	153990.491824	117191.296387	191.514126191	10504.3898401	11428.7434393	65551766.5199	0
1300000.0	14715.0	229620.29153	0.115795299791	173763.049316	0.00194071844817	2.24329781532	154199.911262	117198.88916	200.584382266	9752.76427625	15074.3173857	65556484.6494	0
1325000.0	14813.0	243181.241125	0.116209849692	173769.433594	0.00203578679248	2.24650979042	154374.839273	117184.899902	209.888355201	9063.89799931	19850.3127478	65561203.2876	0
1350000.0	14912.0	257402.223372	0.116629453982	173792.333984	0.0021340533749	2.24960398674	154550.048105	117170.788574	219.538058428	8433.33138886	24962.639427	65565922.4345	0
1375000.0	15010.0	272310.586772	0.117054137829	173798.425293	0.00223647862185	2.25198578835	154636.929823	117094.616699	229.441260669	7852.58024329	32132.3229432	65570642.0901	0
1400000.0	15109.0	287930.683232	0.117485953687	173796.936035	0.00234262302001	2.25418305397	154693.257784	116994.445801	239.71945591	7355.41219517	8966.46724946	65575362.2545	0
1425000.0	15208.0	304290.850636	0.117925516062	173777.636719	0.0024529467737	2.2561879158	154711.762207	116866.235352	250.329691087	6859.95655633	15482.4765953	65580082.9277	0
1450000.0	15307.0	321419.107354	0.118371039049	173773.242188	0.00256711768998	2.25805616379	154733.796551	116742.858887	261.264930011	6403.96413974	23525.2658452	65584804.1097	0
1475000.0	15406.0	339342.385941	0.118821866579	173780.822754	0.00268525423053	2.2596757412	154742.58409	116611.877441	272.537329926	5983.6173961	33226.3063352	65589525.8007	0
1500000.0	15505.0	358088.619793	0.119276561881	173793.493652	0.00280755421045	2.26093244553	154717.63998	116457.946777	284.160020173	5595.38182567	44965.3710879	65594248.0007	0
1525000.0	15604.0	377686.654533	0.119738524177	173805.407715	0.0029341872505	2.26185393333	154657.582552	116279.760742	296.146331491	5262.68129268	14560.4472392	65598970.7096	0
1550000.0	15704.0	398163.769533	0.12020981139	173817.114258	0.00306495394398	2.26268553734	154585.830585	116092.126465	308.577083739	4928.74857448	24763.6819813	65603693.9276	0
1575000.0	15803.0	419555.624778	0.120684087037	173795.263672	0.00320115555041	2.26316905022	154447.592961	115857.36084	321.352446981	4617.678146	40082.735212	65608417.6547	0
1600000.0	15903.0	441893.231562	0.121162777933	173785.03418	0.00334156902682	2.26362895966	154315.789353	115627.209473	334.593527968	4351.50564357	10048.5842386	65613141.891	0
1625000.0	16003.0	465208.546376	0.121644872138	173785.9375	0.00348656340066	2.26382040977	154166.884012	115386.92627	348.227037212	4083.3302701	21800.6972027	65617866.6364	0
1650000.0	16103.0	489533.107639	0.122134075675	173796.020508	0.00363623007615	2.26373744011	153998.656394	115134.887695	362.261505952	3834.57452904	37504.3372858	65622591.891	0
1675000.0	16203.0	514899.285754	0.122632751296	173811.376953	0.00379071798307	2.26341986656	153811.501519	114870.88623	376.70749994	3603.55289216	57847.6318419	65627317.6548	0
1700000.0	16303.0	541341.2621	0.123138292188	173823.413086	0.00395034066969	2.26286673546	153595.881005	114587.29248	391.583137912	3405.49668935	18937.5957865	65632043.928	0
1725000.0	16404.0	568891.678056	0.123648951578	173831.005859	0.00411490327679	2.26222848892	153363.097343	114290.209961	406.978937602	3204.45462041	37962.6511762	65636770.7105	0
1750000.0	16504.0	597593.648401	0.124155307802	173805.932617	0.00428597422797	2.26134037971	153076.188225	113955.651855	422.78086416	3016.05444123	65612.422961	65641498.0024	0
1775000.0	16605.0	627482.695379	0.124668614772	173795.397949	0.00446180729341	2.26035141945	152792.767398	113624.401855	439.110029399	2855.11887479	22851.1446554	65646225.8037	0
1800000.0	16706.0	658595.002402	0.125190981506	173797.192383	0.00464284948976	2.25912976265	152500.81072	113289.782715	455.899658105	2691.25767025	47481.3334266	65650954.1145	0
1825000.0	16807.0	690967.226504	0.12572121097	173807.055664	0.00482930863654	2.25766658783	152192.582772	112945.532227	473.153285017	2538.49025132	80030.5198713	65655682.9347	0
1850000.0	16908.0	724637.642458	0.126257334375	173819.470215	0.0050214557632	2.25595903397	151861.393384	112586.450195	490.869861138	2407.78163771	30060.3187596	65660412.2645	0
1875000.0	17010.0	759641.785087	0.126799751812	173836.669922	0.00521890206073	2.25409674644	151514.58593	112215.966797	509.139672487	2285.4271067	69.85177836	65665142.1038	0
1900000.0	17112.0	796020.974886	0.127346246776	173844.140625	0.00542257339475	2.25204610825	151139.762507	111826.611328	527.901934129	2159.80300739	15388.989337	65669872.4527	0
1925000.0	17214.0	833818.957915	0.12789489107	173833.764648	0.00563288449484	2.24994063377	150744.534111	111423.4375	547.177442586	2042.00538806	46900.0188182	65674603.3113	0
1950000.0	17316.0	873081.862473	0.128446135512	173817.932129	0.00584964391237	2.24775195122	150338.623214	111014.111328	566.960022291	1931.66309984	92496.5972675	65679334.6795	0
1975000.0	17418.0	913853.461609	0.129003176065	173811.437988	0.00607250285611	2.24535012245	149921.785024	110599.121094	587.237591117	1837.41600494	36021.6758588	65684066.5575	0
2000000.0	17521.0	956171.166923	0.129568679397	173819.873047	0.00630083695796	2.24276185036	149497.938016	110179.711914	608.102840029	1740.58648839	80346.4560716	65688798.9451	0
2025000.0	17623.0	1000083.45698	0.13013821762	173824.780273	0.00653635834169	2.23985099792	149042.779995	109741.430664	629.400823972	1649.56933918	140998.580465	65693531.8426	0
2050000.0	17726.0	1045629.19054	0.13072004445	173839.733887	0.00677762682244	2.23676538467	148576.433274	109295.64209	651.306710781	1579.71857979	3193.47725158	65698265.2498	0
2075000.0	17830.0	1092848.76268	0.131311216208	173858.764648	0.00702491252014	2.23357510567	148099.377251	108842.1875	673.833693265	1499.23973216	16016.5350307	65702999.1668	0
2100000.0	17933.0	1141797.10902	0.131898500737	173858.081055	0.00728046506993	2.23030781746	147598.585989	108373.803711	696.80655947	1423.30570322	63284.5875327	65707733.5937	0
2125000.0	18037.0	1192520.59801	0.132485646691	173846.728516	0.00754300981498	2.22714495659	147096.192636	107903.222656	720.413518737	1352.00122826	134052.444352	65712468.5306	0
2150000.0	18140.0	1245078.66431	0.133072275915	173825.708008	0.0078138009485	2.22385835648	146577.319763	107423.620605	744.469098758	1290.94135976	63129.6069801	65717203.9773	0
2175000.0	18245.0	1299507.50374	0.133677576482	173829.846191	0.0080895388237	2.22038650513	146058.209151	106943.505859	769.220658941	1233.79651036	10108.9796709	65721939.934	0
2200000.0	18349.0	1355862.11617	0.134285468036	173832.15332	0.0083733784777	2.21668505669	145517.985049	106451.477051	794.431764387	1173.99572988	63683.0091539	65726676.4007	0
2225000.0	18454.0	1414185.73657	0.134904016027	173845.581055	0.00866355730977	2.2128059864	144967.811793	105952.954102	820.292164361	1123.22401273	9147.75636091	65731413.3773	0
2250000.0	18559.0	1474529.90672	0.135526694691	173858.740234	0.00896136225492	2.20874786377	144400.600744	105444.067383	846.737277819	1070.04156487	67120.7003531	65736150.864	0
2275000.0	18664.0	1536947.0845	0.136155908446	173869.40918	0.0092669561127	2.20450401306	143814.427004	104923.388672	873.780674822	1019.8452608	161547.107629	65740888.8608	0
2300000.0	18769.0	1601492.38199	0.13678813686	173872.583008	0.0095807845355	2.2001812458	143216.241961	104395.605469	901.447251816	977.023067199	78566.3583232	65745627.3676	0
2325000.0	18875.0	1668216.40273	0.137423958684	173869.946289	0.00990219905361	2.19591617584	142618.813182	103868.225098	929.856084363	936.461018495	17041.5909449	65750366.3846	0
2350000.0	18981.0	1737180.57416	0.138055394053	173854.589844	0.0102325193438	2.19175982475	142023.973875	103343.664551	958.935924664	893.637359727	99526.9148866	65755105.9117	0
2375000.0	19087.0	1808444.21353	0.138692383675	173844.65332	0.0105708604679	2.18744540215	141418.886324	102813.635254	988.651609554	857.194463727	29471.5849044	65759845.949	0
2400000.0	19194.0	1882053.7311	0.139344851584	173848.779297	0.0109158854684	2.18287825584	140799.296539	102274.359131	1019.0978943	818.920139665	128262.105923	65764586.4964	0
2425000.0	19300.0	1958073.27385	0.13999927235	173850.0	0.011270352843	2.17813324928	140163.035343	101726.135254	1050.11047141	782.563125541	276887.055597	65769327.5541	0
2450000.0	19407.0	2036552.05133	0.14066573737	173860.27832	0.0116320215966	2.17322897911	139516.396034	101170.953369	1081.8874219	755.295257039	605.761887358	65774069.122	0
2475000.0	19515.0	2117540.62216	0.14134194075	173876.428223	0.0120011191029	2.16822361946	138861.695436	100610.009766	1114.4485226	725.968891069	43569.0060929	65778811.2002	0
2500000.0	19623.0	2201099.14122	0.142023743809	173889.18457	0.0123791232909	2.16310787201	138192.406617	100039.532471	1147.71611686	691.593104292	226686.233866	65783553.7886	0
2525000.0	19730.0	2287299.58221	0.142702503788	173888.439941	0.0127678576973	2.15798091888	137513.387046	99463.9282227	1181.62125476	665.087874997	127148.834658	65788296.8873	0
2550000.0	19839.0	2376189.31892	0.143391753432	173890.283203	0.0131636261358	2.15289831161	136838.700028	98890.2954102	1216.46922856	640.00409204	46651.6555112	65793040.4964	0
2575000.0	19947.0	2467847.92472	0.144066639834	173872.497559	0.0135710615723	2.14804506302	136177.867702	98328.6132812	1252.00259326	613.075271414	199435.606325	65797784.6158	0
2600000.0	20056.0	2562334.44936	0.144749437696	173863.977051	0.0139863168442	2.14309763908	135516.97848	97768.0419922	1288.31642834	590.342296849	100542.83758	65802529.2456	0
2625000.0	20165.0	2659711.25448	0.145442460489	173860.510254	0.0144105451909	2.13787674904	134835.586082	97195.0134277	1325.24985025	568.72323281	26075.7581669	65807274.3857	0
2650000.0	20275.0	2760030.17227	0.146153018437	173867.822266	0.0148422950588	2.13235211372	134132.815117	96607.9406738	1362.90684043	548.249682464	9048.36752539	65812020.0363	0
2675000.0	20385.0	2863354.4891	0.146872404794	173877.587891	0.0152833072207	2.12663078308	133414.101281	96011.2854004	1401.21994197	526.34624254	86001.2807777	65816766.1973	0
2700000.0	20495.0	2969749.44517	0.147598430179	173887.866211	0.0157338945428	2.1207845211	132684.864383	95408.6608887	1440.21785959	507.82253147	17459.1428285	65821512.8687	0
2725000.0	20606.0	3079271.03974	0.148335928729	173902.832031	0.0161926909641	2.11483979225	131948.824672	94801.6296387	1480.01511731	488.009788063	186344.682031	65826260.0506	0
2750000.0	20716.0	3192000.22427	0.149066836028	173906.994629	0.0166634781635	2.10898184776	131216.460746	94199.0844727	1520.46461807	471.160699592	90976.2190641	65831007.7429	0
2775000.0	20828.0	3307986.45649	0.149809925913	173916.357422	0.0171415340446	2.10313987732	130487.751066	93598.4008789	1561.87556642	455.189048854	20373.8735769	65835755.9457	0
2800000.0	20939.0	3427316.96398	0.150537927712	173908.581543	0.0176325793291	2.09757351875	129778.156723	93012.8845215	1604.00925956	437.81466831	215191.010238	65840504.659	0
2825000.0	21051.0	3550058.89125	0.151265096201	173897.338867	0.0181332143256	2.09217691422	129084.462912	92438.8244629	1647.06977637	423.174773972	111214.188931	65845253.8829	0
2850000.0	21163.0	3676288.75617	0.151992603998	173888.537598	0.0186442048289	2.08678889275	128395.844613	91869.8486328	1690.93534728	409.151075616	30467.1661614	65850003.6173	0
2875000.0	21276.0	3806066.49037	0.152728088913	173888.183594	0.019163799152	2.08133912086	127707.941229	91302.1240234	1735.70806232	395.786014891	8591.33600062	65854753.8622	0
2900000.0	21389.0	3939462.44708	0.153473152341	173890.429688	0.0196936325665	2.07567596436	127002.275331	90723.4375	1781.29854601	381.291995239	141336.607907	65859504.6177	0
2925000.0	21502.0	4076547.29347	0.154230454637	173894.848633	0.020233766918	2.0697581768	126274.470011	90130.6884766	1827.71723863	369.077041293	53100.9957521	65864255.8838	0
2950000.0	21616.0	4217379.84821	0.155005371947	173905.883789	0.0207824414247	2.06359124184	125526.835639	89524.7009277	1875.07583535	357.425712422	1296.45382481	65869007.6605	0
2975000.0	21730.0	4362033.72885	0.155786981461	173916.064453	0.0213419043575	2.0573143959	124769.861708	88913.5375977	1923.29830975	344.7264113	220688.081055	65873759.9478	0
3000000.0	21844.0	4510585.12304	0.156571779001	173923.510742	0.0219125467993	2.05100679398	124010.448078	88301.9592285	1972.40575759	334.028266143	120786.072362	65878512.7458	0
3025000.0	21959.0	4663098.62861	0.15736431107	173931.787109	0.0224926588999	2.0446844101	123251.559362	87691.2597656	2022.51389433	323.797545726	42591.4799913	65883266.0543	0
3050000.0	22074.0	4819655.51404	0.158151965708	173932.873535	0.0230847599596	2.03850364685	122505.108892	87090.4174805	2073.55120113	312.587189373	362729.336993	65888019.8735	0
3075000.0	22189.0	4980340.88522	0.158929801695	173924.072266	0.0236894629779	2.03255915642	121779.3222	86505.1391602	2125.54966124	303.137070956	241130.416886	65892774.2033	0
3100000.0	22305.0	5145227.27234	0.159708843779	173915.722656	0.0243041395152	2.02671861649	121066.46781	85929.4799805	2178.56742343	295.360014393	142412.402344	65897529.0438	0
3125000.0	22422.0	5314382.07185	0.160494983613	173915.112305	0.0249278946285	2.02085351944	120358.222587	85357.8125	2232.54970146	285.451665336	45848.5159576	65902284.395	0
3150000.0	22538.0	5487900.55945	0.161270097992	173910.72998	0.0255655468209	2.01512241364	119664.759402	84798.4802246	2287.24670787	275.914356698	399485.20366	65907040.2569	0
3175000.0	22655.0	5665846.00512	0.162062052671	173913.28125	0.0262123139692	2.00916552544	118954.121145	84227.6733398	2342.7718429	269.131824992	58498.9685048	65911796.6295	0
3200000.0	22773.0	5848281.00645	0.162872866011	173922.070312	0.0268681087618	2.00295448303	118222.744472	83642.8405762	2399.1022157	260.425257812	156310.562859	65916553.5128	0
3225000.0	22890.0	6035301.47306	0.163682660043	173925.952148	0.0275379316008	1.9966956377	117486.332877	83056.2072754	2456.10465452	253.11130764	67625.7865032	65921310.9068	0
3250000.0	23009.0	6226956.34923	0.164514845035	173939.111328	0.0282147775579	1.99022471905	116734.65244	82458.7585449	2513.98941789	246.173813766	9563.77757021	65926068.8116	0
3275000.0	23127.0	6423345.36272	0.165339917227	173945.166016	0.0289062409138	1.98383438587	115989.514399	81867.5170898	2572.56040801	238.445647455	385870.548216	65930827.2271	0
3300000.0	23246.0	6624537.53298	0.166172121873	173952.661133	0.0296077505482	1.97743678093	115246.001238	81277.8808594	2631.9728815	233.021572993	91532.2211367	65935586.1533	0
3325000.0	23366.0	6830603.40638	0.167007825306	173960.009766	0.0303195556626	1.971098423	114510.125858	80694.0795898	2692.23421154	225.92053013	164456.169655	65940345.5903	0
3350000.0	23485.0	7041651.33602	0.167824951017	173955.566406	0.031047329685	1.96504497528	113799.292726	80129.4006348	2753.23736355	219.965909547	73405.6882431	65945105.5381	0
3375000.0	23606.0	7257740.01185	0.168646477305	173952.331543	0.0317836238537	1.95910692215	113102.488071	79574.5178223	2815.19928697	214.295004053	9565.18627882	65949865.9966	0
3400000.0	23726.0	7478982.12008	0.169450821171	173942.626953	0.0325354994857	1.9534047842	112429.790023	79038.3789062	2877.89519485	207.921078799	428600.655805	65954626.9659	0
3425000.0	23847.0	7705448.02214	0.170263247522	173939.416504	0.033297106711	1.94764065742	111757.688158	78503.6193848	2941.42214521	203.509189431	119459.58325	65959388.4459	0
3450000.0	23969.0	7937203.65813	0.171093076617	173942.321777	0.0340681399393	1.94164574146	111068.794458	77957.9833984	3005.76720259	197.648083485	168473.710346	65964150.4368	0
3475000.0	24090.0	8174353.1769	0.171920787398	173941.625977	0.0348543362634	1.93561339378	110377.496787	77412.4084473	3070.84543379	192.763944048	73094.1732245	65968912.9385	0
3500000.0	24213.0	8416944.74386	0.172771219208	173950.634766	0.0356473465217	1.92935478687	109670.564297	76856.0668945	3136.81602524	188.120440121	10999.5605115	65973675.951	0
3525000.0	24335.0	8665084.87297	0.173615099793	173955.065918	0.0364558836736	1.92315292358	108969.411467	76305.2734375	3203.56362783	182.851911051	518251.112378	65978439.4743	0
3550000.0	24458.0	8918843.15638	0.174467816058	173963.208008	0.0372744470951	1.91689991951	108266.720121	75753.8879395	3271.19634	179.259551302	95518.4890842	65983203.5085	0
3575000.0	24582.0	9178289.66824	0.175326663321	173974.145508	0.0381031277357	1.91064417362	107566.826893	75204.9560547	3339.74715615	174.387251331	260923.100235	65987968.0534	0
3600000.0	24705.0	9443536.92123	0.17617044469	173978.24707	0.0389482520404	1.90459251404	106885.733051	74670.4833984	3409.15428415	170.338170829	147372.848759	65992733.1093	0
3625000.0	24830.0	9714638.43683	0.177023029474	173987.402344	0.0398010488425	1.89855909348	106210.576416	74140.2282715	3479.5759272	166.474999744	55581.6404794	65997498.6759	0
3650000.0	24954.0	9991711.65187	0.177853976271	173987.585449	0.0406710605603	1.89282763004	105562.998175	73630.5541992	3550.93366903	162.694478886	146.999209326	66002264.7534	0
3675000.0	25080.0	10274813.6178	0.178689472051	173990.185547	0.0415492941102	1.88716292381	104925.46082	73128.0944824	3623.36091373	159.082139974	62671.3785776	66007031.3418	0
3700000.0	25205.0	10564065.7755	0.179510479502	173981.384277	0.0424452664447	1.88164818287	104299.977515	72635.5102539	3696.7539791	154.926020374	345834.218414	66011798.441	0
3725000.0	25331.0	10859546.1384	0.180341609499	173975.854492	0.0433515124314	1.87601220608	103667.619407	72139.050293	3770.96286143	151.544921901	202268.945016	66016566.051	0
3750000.0	25457.0	11161347.5226	0.181175321891	173971.679688	0.044270818762	1.87031638622	103033.467719	71642.6269531	3845.92660359	148.273655446	85325.2153151	66021334.1719	0
3775000.0	25584.0	11469538.8785	0.182018895438	173972.65625	0.0451999585493	1.86451411247	102394.588482	71143.7683105	3921.65712162	145.134864259	8651.91242882	66026102.8037	0
3800000.0	25711.0	11784211.8728	0.182861591307	173974.536133	0.0461423260276	1.85871696472	101759.532429	70648.6877441	3998.13252411	142.095645171	39139.2075006	66030871.9463	0
3825000.0	25839.0	12105436.198	0.183710404386	173980.895996	0.0470946433779	1.85288369656	101125.761255	70155.2001953	4075.36088531	139.177758332	145752.645873	66035641.5998	0
3850000.0	25967.0	12433305.0889	0.184554189173	173987.402344	0.0480604358017	1.8471275568	100502.02575	69669.6716309	4153.3330601	135.819205945	294955.375039	66040411.7643	0
3875000.0	26095.0	12767913.5674	0.185390812991	173993.62793	0.0490399761475	1.84148609638	99891.4717145	69194.2016602	4232.04422655	133.089848464	142717.812828	66045182.4396	0
3900000.0	26224.0	13109334.2349	0.186226556202	174002.807617	0.0500299356645	1.83592200279	99291.9139588	68726.9226074	4311.50379531	130.466240818	27868.9935329	66049953.6258	0
3925000.0	26353.0	13457664.9379	0.187053316589	174010.302734	0.051034054195	1.83048665524	98706.21439	68270.1904297	4391.71745663	127.425334208	756747.027772	66054725.3229	0
3950000.0	26482.0	13813005.1985	0.187875937408	174014.990234	0.0520526009495	1.82508134842	98124.8801006	67817.5476074	4472.6867743	124.963027664	515861.774553	66059497.5309	0
3975000.0	26612.0	14175431.1974	0.188702107039	174019.995117	0.0530821052962	1.81965696812	97544.272447	67366.0461426	4554.40876739	123.06463196	363155.359801	66064270.2498	0
4000000.0	26743.0	14545019.4603	0.189530538775	174024.658203	0.0541226472706	1.81424212456	96966.5081351	66917.0532227	4636.86529747	120.311660648	129855.824879	66069043.4796	0
4025000.0	26873.0	14921898.4259	0.190342847335	174020.959473	0.0551819175598	1.80900895596	96404.0620354	66479.6813965	4720.09426646	117.620184169	1056207.82474	66073817.2203	0
4050000.0	27004.0	15306148.3024	0.191154621487	174015.405273	0.0562527857255	1.8038443327	95848.7852285	66047.5891113	4804.08390895	115.911300746	69604.7369681	66078591.472	0
4075000.0	27136.0	15697848.5268	0.191968112719	174011.218262	0.057334334997	1.79870724678	95298.7644673	65619.6105957	4888.76285338	113.832957578	247334.571281	66083366.2345	0
4100000.0	27268.0	16097098.2799	0.192776949703	174008.483887	0.0584295630688	1.79363000393	94757.1544264	65198.2910156	4974.10419126	111.392670979	254607.643184	66088141.5079	0
4125000.0	27400.0	16503993.7295	0.193579943876	174007.03125	0.0595385645283	1.78863596916	94226.0433862	64785.0524902	5060.09075437	109.441301265	65937.661787	66092917.2922	0
4150000.0	27533.0	16918604.7987	0.194383475506	174010.131836	0.0606575194979	1.78367781639	93702.4615872	64377.5939941	5146.69909955	107.564550801	26580.9588855	66097693.5875	0
4175000.0	27666.0	17341029.4847	0.195180898266	174013.476562	0.0617905534455	1.77875709534	93185.5746373	63975.8972168	5233.96799086	105.343552153	615004.717877	66102470.3936	0
4200000.0	27799.0	17771367.0669	0.195973297607	174016.650391	0.0629378700978	1.7738493681	92672.9308125	63578.2714844	5321.88683792	103.576553571	310471.387272	66107247.7107	0
4225000.0	27933.0	18209689.5078	0.196768723153	174022.741699	0.0640954240225	1.76890325546	92160.7345894	63181.7260742	5410.40921345	101.875733989	79352.362508	66112025.5387	0
4250000.0	28067.0	18656096.7902	0.197558850749	174028.271484	0.0652673552395	1.76399946213	91654.5687801	62790.2709961	5499.57069043	100.220326236	32825.0240238	66116803.8777	0
4275000.0	28202.0	19110661.2436	0.198351409716	174036.181641	0.0664495964884	1.75909054279	91151.0479311	62401.2390137	5589.33001381	98.6260726851	252306.623493	66121582.7276	0
4300000.0	28337.0	19573483.7034	0.199137815695	174042.993164	0.0676463678246	1.75425946712	90655.8332018	62018.6218262	5679.78721212	96.7139626395	298617.903034	66126362.0884	0
4325000.0	28472.0	20044666.4781	0.199917560241	174048.339844	0.0688578948029	1.74952566624	90170.2812626	61643.2617188	5770.98597782	95.2050109838	50359.7552752	66131141.9601	0
4350000.0	28608.0	20524283.5944	0.200697615307	174054.968262	0.0700799937476	1.74484586716	89691.3913345	61272.7905273	5862.81864826	93.7499904026	80376.4541556	66135922.3428	0
4375000.0	28744.0	21012439.1205	0.201469303184	174059.350586	0.0713171102689	1.74030423164	89225.0671656	60911.3830566	5955.33447853	91.9921930257	560271.013938	66140703.2365	0
4400000.0	28880.0	21509239.8836	0.202230897388	174060.534668	0.0725696663721	1.73588681221	88770.2813607	60558.5144043	6048.50660209	90.6131607758	195403.487795	66145484.6411	0
4425000.0	29017.0	22014765.2711	0.202989036483	174060.571289	0.0738335875212	1.73150062561	88320.5831602	60209.8571777	6142.25964256	89.2824916394	3290.38508954	66150266.5566	0
4450000.0	29154.0	22529125.4381	0.203737105114	174055.871582	0.0751134575694	1.72721505165	87880.1760446	59868.2922363	6236.63726297	87.6631604551	793036.952367	66155048.983	0
4475000.0	29291.0	23052430.6039	0.204478505475	174049.572754	0.0764084252296	1.72298574448	87446.3436286	59532.019043	6331.52646726	86.402431858	331488.496071	66159831.9205	0
4500000.0	29429.0	23584753.7241	0.205223353332	174047.131348	0.0777131645009	1.7187256813	87013.2835984	59196.8261719	6426.77968211	85.1898674754	26323.8536196	66164615.3688	0
4525000.0	29567.0	24126194.8169	0.205964706278	174045.458984	0.0790322010289	1.71450197697	86585.3475878	58865.7714844	6522.43459497	84.0094409356	179408.535438	66169399.328	0
4550000.0	29706.0	24676822.2003	0.206710314176	174047.485352	0.0803608854767	1.71026670933	86159.1213861	58536.2304688	6618.35044697	82.5768244184	451902.705832	66174183.7982	0
4575000.0	29844.0	25236768.0245	0.207445948766	174047.32666	0.0817085892777	1.70614588261	85742.8786016	58214.0686035	6714.66669442	81.4636883347	69590.2741756	66178968.7794	0
4600000.0	29984.0	25806068.5877	0.208193224253	174053.515625	0.083061226178	1.70198118687	85325.9447615	57891.40625	6811.05336455	80.4082557701	130474.327187	66183754.2715	0
4625000.0	30123.0	26384857.667	0.208928042706	174057.03125	0.0844331734697	1.69793963432	84919.8965873	57576.8554688	6907.76931348	79.0839370322	549999.29737	66188540.2745	0
4650000.0	30263.0	26973206.7216	0.209661694336	174062.915039	0.0858152052388	1.6938945055	84516.7635565	57264.9658203	7004.57414504	78.0887254072	103335.540865	66193326.7885	0
4675000.0	30403.0	27571219.9322	0.210387978678	174068.115234	0.0872121599969	1.68990015984	84119.8069413	56958.0444336	7101.52692481	77.1200334238	127296.786514	66198113.8135	0
4700000.0	30544.0	28178968.2223	0.211115061751	174075.268555	0.0886191555765	1.68590331078	83725.1586224	56653.2287598	7198.44630569	75.9203195897	573469.637298	66202901.3494	0
4725000.0	30684.0	28796590.3296	0.21183021882	174078.674316	0.0900461745914	1.68201315403	83339.6312379	56355.3588867	7295.56689347	75.0068747892	87468.4232745	66207689.3963	0
4750000.0	30826.0	29424124.0165	0.212554804657	174086.303711	0.0914783304324	1.67807519436	82952.781492	56056.7810059	7392.39868861	74.1437756955	168086.951067	66212477.9542	0
4775000.0	30967.0	30061709.1588	0.213269376819	174089.746094	0.0929306988837	1.67425358295	82574.9542521	55764.8193359	7489.34794643	73.0333090187	540586.690049	66217267.023	0
4800000.0	31109.0	30709417.9798	0.213988267518	174094.152832	0.0943933264352	1.67044997215	82199.4590985	55474.5422363	7586.03594847	72.2205276327	60144.7408498	66222056.6029	0
4825000.0	31251.0	31367357.892	0.214705250612	174096.557617	0.0958713353612	1.66672706604	81830.0487293	55188.482666	7682.58027326	71.1794396714	1246533.08462	66226846.6937	0
4850000.0	31393.0	32035638.9359	0.215416344345	174096.313477	0.0973651840468	1.66309118271	81467.8093292	54907.611084	7778.9524333	70.4139757989	509026.940543	66231637.2954	0
4875000.0	31536.0	32714337.7036	0.216124769051	174095.263672	0.098869917565	1.65949416161	81110.1435331	54630.2429199	7874.9251261	69.6811966294	30028.5495169	66236428.4082	0
4900000.0	31679.0	33403567.6466	0.216824641487	174090.600586	0.100390912849	1.65598452091	80759.9153399	54358.3862305	7970.6902729	68.9677889692	319234.634637	66241220.032	0
4925000.0	31823.0	34103403.6216	0.217526624595	174087.866211	0.101921628811	1.65246927738	80411.221591	54087.9272461	8066.50397821	68.0446362608	416486.044144	66246012.1667	0
4950000.0	31966.0	34813987.2039	0.218219997055	174083.203125	0.103472324554	1.64902615547	80068.9558047	53822.4304199	8162.8061905	67.1310503998	2024263.78858	66250804.8124	0
4975000.0	32110.0	35535384.7256	0.218919312211	174081.640625	0.105032289866	1.64555585384	79726.42515	53557.0129395	8259.12451039	66.7117393127	483577.084124	66255597.9691	0
5000000.0	32255.0	36267660.9466	0.219625768896	174083.178711	0.106601321022	1.64205753803	79383.2875724	53291.3574219	8355.34997059	66.084902893	1339964.14972	66260391.6367	0
5025000.0	32400.0	37010917.6669	0.22033425341	174085.180664	0.108184809505	1.6385794878	79042.3357287	53027.3925781	8451.59220301	65.2482039474	51743.250263	66265185.8153	0
5050000.0	32545.0	37765257.0161	0.22104562285	174087.634277	0.109782842628	1.63512349129	78703.4609921	52764.9536133	8547.79795279	64.4321253502	957986.54756	66269980.505	0
5075000.0	32690.0	38530783.399	0.221754214109	174090.112305	0.111395791464	1.63169813156	78368.4891873	52505.657959	8643.88394208	63.8558060898	234391.771056	66274775.7056	0
5100000.0	32836.0	39307563.9358	0.222465592997	174094.750977	0.113018119009	1.62826037407	78034.6989952	52247.5891113	8739.53379315	63.304940224	107356.186024	66279571.4172	0
5125000.0	32982.0	40095704.0454	0.223174235577	174099.023438	0.114655471407	1.62485694885	77704.5632046	51992.4133301	8834.87421693	62.5545652292	879242.129948	66284367.6398	0
5150000.0	33128.0	40895309.5801	0.223881336333	174102.856445	0.116307914141	1.62148797512	77377.5592713	51739.6606445	8929.85255017	62.035468914	165100.073072	66289164.3734	0
5175000.0	33275.0	41706447.0974	0.224594399277	174108.422852	0.117969728308	1.61810946465	77050.364336	51486.8530273	9024.07822039	61.5415519541	182980.752288	66293961.618	0
5200000.0	33422.0	42529222.6073	0.225308145916	174113.305664	0.119646603707	1.61476635933	76725.4939037	51235.6872559	9117.72629346	60.8552513391	818746.865342	66298759.3737	0
5225000.0	33569.0	43363742.6556	0.226023739502	174117.285156	0.121338671306	1.61145913601	76402.4925065	50985.7269287	9210.70775959	60.3928245224	131291.846768	66303557.6404	0
5250000.0	33717.0	44210073.7967	0.22674850213	174122.509766	0.123040066683	1.60814404488	76078.2524869	50734.6557617	9302.63529881	59.9551214971	212444.017974	66308356.4181	0
5275000.0	33865.0	45068323.3074	0.227474966822	174126.391602	0.124756770674	1.60486865044	75756.0194905	50484.8083496	9393.68553612	59.3314770651	880186.909736	66313155.7068	0
5300000.0	34013.0	45938600.8887	0.228198552519	174128.466797	0.126489176182	1.6016408205	75437.2982605	50237.4481201	9483.8045158	58.9244666876	169468.993113	66317955.5066	0
5325000.0	34162.0	46820976.0771	0.228925756691	174130.737305	0.128231302369	1.59841811657	75119.3136055	49990.5883789	9572.54911144	58.5416318659	176122.842807	66322755.8174	0
5350000.0	34311.0	47715559.5055	0.229650292156	174130.737305	0.12998926104	1.59524452686	74804.9119565	49746.2768555	9660.12992121	57.9784099655	1015662.03605	66327556.6393	0
5375000.0	34460.0	48622463.3301	0.230372215851	174128.271484	0.131763226818	1.59212088585	74494.1041979	49504.510498	9746.48927838	57.625529351	239223.417833	66332357.9722	0
5400000.0	34610.0	49541758.0973	0.23109833618	174125.183105	0.133547073347	1.58900737762	74184.1725368	49263.3331299	9831.13769414	57.2965206784	121452.120549	66337159.8162	0
5425000.0	34760.0	50473554.9702	0.231825332439	174121.252441	0.135346112074	1.58592069149	73876.2257662	49023.638916	9914.26773835	56.7929570489	1219140.79682	66341962.1712	0
5450000.0	34910.0	51417960.0178	0.232556091913	174117.84668	0.137159688165	1.58284330368	73569.0127682	48784.5581055	9995.78472945	56.4953898648	377618.937359	66346765.0373	0
5475000.0	35061.0	52375033.1333	0.233297779415	174117.004395	0.138981544296	1.57973337173	73259.6123312	48543.9788818	10075.161802	56.2226133009	26871.2324759	66351568.4145	0
5500000.0	35212.0	53344878.3699	0.23404115701	174116.381836	0.140818141517	1.57663881779	72951.5247077	48304.4555664	10152.6830776	55.780183178	1626978.67053	66356372.3027	0
5525000.0	35363.0	54327600.6454	0.234785738556	174115.856934	0.142669625347	1.57355892658	72644.8239937	48066.0736084	10228.273714	55.5387909162	689544.400992	66361176.702	0
5550000.0	35515.0	55323260.5897	0.235538511855	174117.407227	0.144529476529	1.57045412064	72336.7732844	47826.8280029	10301.4294232	55.3216941123	76038.3562997	66365981.6124	0
5575000.0	35667.0	56331962.2492	0.236293065994	174118.95752	0.146404083353	1.5673635006	72029.9427098	47588.5864258	10373.0922761	55.1161032643	278446.518458	66370787.0339	0
5600000.0	35820.0	57353764.9264	0.237056569896	174122.424316	0.148286897456	1.56424677372	71721.5658537	47349.331665	10443.0748798	54.9297157723	1041351.00258	66375592.9664	0
5625000.0	35973.0	58388772.146	0.237822812279	174125.732422	0.150184321683	1.56114470959	71414.2387917	47110.9130859	10511.7520891	54.5747863108	435023.659698	66380399.4101	0
5650000.0	36126.0	59437087.5801	0.238592259795	174128.808594	0.152096501552	1.55805695057	71107.8457672	46873.2269287	10579.1036356	54.4089398015	403.814598193	66385206.3649	0
5675000.0	36280.0	60498769.6278	0.239372084755	174133.544922	0.15401665587	1.55494451523	70799.6459091	46634.2712402	10644.5840725	54.2620899982	435713.512883	66390013.8308	0
5700000.0	36434.0	61573922.9268	0.240154768931	174137.658691	0.155951711349	1.55185067654	70492.4662689	46396.0632324	10708.6119441	53.9496093295	1201230.51933	66394821.8079	0
5725000.0	36588.0	62662653.7478	0.240939294132	174141.040039	0.157901813509	1.54877710342	70186.5856738	46158.8348389	10771.1680597	53.8226308372	446431.273729	66399630.2961	0
5750000.0	36743.0	63765022.1514	0.241732026792	174145.446777	0.159860181157	1.54568660259	69879.5705646	45920.8465576	10831.6870074	53.7142456271	9803.05589635	66404439.2955	0
5775000.0	36898.0	64881134.338	0.242525982341	174148.913574	0.161833682796	1.54261898994	69574.2597788	45684.161377	10890.6326258	53.6151091655	346992.204242	66409248.8061	0
5800000.0	37054.0	66011049.2278	0.243327598474	174153.173828	0.1638152753	1.53953635693	69268.2113338	45447.0428467	10947.3986231	53.5346427567	1040089.12206	66414058.8278	0
5825000.0	37210.0	67154872.9015	0.244129785214	174156.286621	0.165811929037	1.53647840023	68964.2098167	45211.4959717	11002.4791645	53.2926883712	750723.238119	66418869.3608	0
5850000.0	37366.0	68312712.1225	0.244932358253	174158.081055	0.167823702213	1.53344619274	68662.4213444	44977.6550293	11055.8701633	53.2314492496	173260.702294	66423680.405	0
5875000.0	37523.0	69484625.7906	0.245742010917	174160.327148	0.169843639014	1.53040289879	68360.3277252	44743.6981201	11106.898034	53.1888485289	87595.9323529	66428491.9604	0
5900000.0	37680.0	70670722.2814	0.24655201947	174160.803223	0.171878942638	1.52738583088	68060.2853159	44511.2945557	11156.1279088	52.9866574318	2318083.67826	66433304.027	0
5925000.0	37837.0	71871111.6837	0.247361783499	174159.265137	0.17392981681	1.52439689636	67762.4041111	44280.5175781	11203.5338345	52.9629199599	1420133.76777	66438116.6049	0
5950000.0	37995.0	73085855.388	0.248177442175	174157.458496	0.175989218405	1.52140319347	67464.4456511	44049.7436523	11248.4608602	53.1251043691	2261675.94664	66442929.6941	0
5975000.0	38154.0	74315013.7196	0.248998261294	174155.200195	0.178057001904	1.51840937138	67166.804517	43819.2626953	11290.8404059	52.9705539374	168907.427386	66447743.2946	0
6000000.0	38312.0	75558744.4781	0.24981214821	174150.366211	0.180146686034	1.51547372341	66873.6614841	43592.1386719	11331.8242799	52.8175165652	3638906.70473	66452557.4063	0
6025000.0	38471.0	76817102.3023	0.250635087421	174147.473145	0.182243442396	1.51251292229	66579.1077843	43364.1235352	11370.1351997	53.0168501294	544468.546589	66457372.0294	0
6050000.0	38631.0	78090137.3193	0.251466768173	174146.508789	0.18434697995	1.50952875614	66283.373279	43135.3942871	11405.669948	53.0690549586	1210430.15062	66462187.1638	0
6075000.0	38791.0	79377949.0814	0.252299919431	174145.703125	0.186464516446	1.50655984879	65989.1272269	42907.8735352	11439.0548	52.9659683354	1026916.21892	66467002.8095	0
6100000.0	38951.0	80680639.0599	0.25313596677	174144.873047	0.188596372027	1.50360178947	65695.642973	42680.97229	11470.282843	53.0388084017	438097.220622	66471818.9666	0
6125000.0	39112.0	81998258.3666	0.253982387108	174145.605469	0.19073515432	1.50061619282	65400.2543939	42452.7832031	11498.616251	53.1312423083	61393.9646686	66476635.635	0
6150000.0	39273.0	83330908.1916	0.254831080625	174146.166992	0.192888197489	1.4976426363	65105.8415434	42225.3997803	11524.7037978	53.2340710292	133530.401925	66481452.8148	0
6175000.0	39435.0	84678638.6319	0.255688566831	174148.205566	0.195048021851	1.49464654922	64810.1663083	41997.2625732	11547.8071679	53.3568059554	538834.016855	66486270.5059	0
6200000.0	39597.0	86041549.4148	0.256547010086	174150.036621	0.197221903363	1.49166560173	64516.0607524	41770.4315186	11568.6194745	53.4901580786	1095807.61321	66491088.7085	0
6225000.0	39760.0	87419688.9306	0.257412753589	174153.198242	0.199402318685	1.48866736889	64221.3288732	41543.3441162	11586.3521457	53.6438761037	1749700.89496	66495907.4224	0
6250000.0	39923.0	88813156.3926	0.258278061688	174156.079102	0.201596674742	1.48568820953	63928.7476418	41318.0450439	11601.7551839	53.6439064716	919818.266883	66500726.6478	0
6275000.0	40086.0	90222051.7445	0.259142770397	174158.569336	0.203805102501	1.48272907734	63638.3684278	41094.5678711	11614.9595104	53.8187389665	433039.915295	66505546.3847	0
6300000.0	40250.0	91646424.371	0.260016157773	174162.036133	0.206020282349	1.4797488451	63346.7628164	40870.3765869	11625.2300037	54.01325093	102060.909663	66510366.633	0
6325000.0	40414.0	93086375.6925	0.260890583801	174164.819336	0.208249693969	1.47678291798	63056.5407759	40647.3632812	11633.3890716	54.2177057148	48034.9626964	66515187.3927	0
6350000.0	40579.0	94541954.7292	0.261772479409	174168.457031	0.210485741263	1.47380030155	62765.6738881	40424.0875244	11638.678285	54.4417363188	318339.882494	66520008.664	0
6375000.0	40744.0	96013261.8016	0.262653695913	174171.350098	0.212735918467	1.47083806992	62476.9556328	40202.5543213	11641.9117658	54.6756819748	718868.038228	66524830.4468	0
6400000.0	40910.0	97500343.9072	0.263540583911	174175.048828	0.21499239665	1.46786594391	62188.3658761	39981.3171387	11642.3080248	54.9293787618	1199173.40829	66529652.7412	0
6425000.0	41076.0	99003300.8779	0.264424962782	174177.941895	0.217263004743	1.46492099762	61902.6797206	39762.3779297	11640.7230696	55.0271641341	1831449.03607	66534475.5471	0
6450000.0	41242.0	100522232.383	0.26530574809	174180.029297	0.219547568122	1.46200716496	61620.2806568	39546.0235596	11637.1577093	55.3003892036	1271287.5041	66539298.8646	0
6475000.0	41409.0	102057185.747	0.26619127192	174182.60498	0.221838519792	1.45908737183	61338.3297662	39330.1971436	11630.8730679	55.5932125942	795361.212668	66544122.6937	0
6500000.0	41576.0	103608262.864	0.267075550031	174183.959961	0.224143877858	1.45619058609	61058.5845338	39116.1346436	11622.7285258	55.8956865351	398460.652296	66548947.0344	0
6525000.0	41744.0	105175512.267	0.267964901059	174185.522461	0.226455624215	1.45328760147	60779.0361677	38902.3956299	11611.924755	56.3851984788	4741372.94151	66553771.8868	0
6550000.0	41913.0	106758979.652	0.268858368062	174187.182617	0.228773686104	1.45038318634	60500.0186686	38689.1998291	11598.4819176	56.5599836177	15610.2850504	66558597.2508	0
6575000.0	42081.0	108358820.217	0.269740291211	174186.010742	0.231113779591	1.44754600525	60226.5999184	38480.1849365	11584.113408	56.9018735704	244968.48423	66563423.1266	0
6600000.0	42251.0	109975024.131	0.270631616412	174186.206055	0.233451864915	1.44468319416	59952.0896827	38270.5291748	11566.346065	57.2739975833	590671.943463	66568249.514	0
6625000.0	42420.0	111607745.516	0.271509218377	174183.398438	0.23581206915	1.44189596176	59683.8474788	38065.5029297	11547.743773	57.4763094398	3043359.20758	66573076.4131	0
6650000.0	42590.0	113257029.594	0.272387895892	174180.578613	0.23817809415	1.4391194582	59417.1647642	37861.7004395	11526.627312	58.0381530629	1681722.17598	66577903.824	0
6675000.0	42761.0	114922919.978	0.273272474999	174178.637695	0.240549517912	1.43633413315	59150.1965736	37657.7941895	11503.0737395	58.4509564251	2333078.53328	66582731.7467	0
6700000.0	42932.0	116605512.399	0.274156098031	174176.525879	0.242934096605	1.43356704712	58884.9862919	37455.2825928	11477.9172801	58.7027241334	1189968.67052	66587560.1812	0
6725000.0	43103.0	118304901.487	0.275038257645	174174.279785	0.245331902988	1.43081879616	58621.8120032	37254.4067383	11451.231532	59.1358363739	705485.705205	66592389.1274	0
6750000.0	43275.0	120021124.056	0.275925186933	174173.303223	0.247734540608	1.42805874348	58358.6659754	37053.7628174	11422.1871418	59.5901103506	321722.896145	66597218.5856	0
6775000.0	43447.0	121754273.02	0.276809031055	174172.277832	0.250150158536	1.42531776428	58098.030502	36855.19104	11391.6903892	60.0550970403	48710.396432	66602048.5555	0
6800000.0	43620.0	123504383.286	0.277696220632	174172.558594	0.252570374869	1.4225666523	57837.9497874	36657.30896	11358.9052099	60.7166673665	6639366.90969	66606879.0374	0
6825000.0	43794.0	125271488.151	0.278585932815	174174.133301	0.254994869465	1.41980624199	57578.7535179	36460.4187012	11323.864281	61.0502673834	393408.115878	66611710.0311	0
6850000.0	43967.0	127055738.549	0.279465293846	174174.243164	0.257440726273	1.41709208488	57324.0508262	36267.0410156	11288.3736983	61.3820935066	3900354.07714	66616541.5368	0
6875000.0	44141.0	128857171.171	0.280348912179	174175.292969	0.259891501628	1.4143640995	57069.4088172	36074.005127	11250.745905	62.0896035603	1420153.18973	66621373.5545	0
6900000.0	44316.0	130675820.867	0.281236589594	174177.355957	0.262346758973	1.41162610054	56815.1244245	35881.4880371	11211.0030369	62.6426156537	2053916.51041	66626206.0841	0
6925000.0	44491.0	132511779.946	0.282120228047	174179.101562	0.264814763796	1.40891110897	56563.4869785	35691.0980225	11170.0514103	63.0271300241	1788223.6835	66631039.1256	0
6950000.0	44666.0	134365138.794	0.282999430803	174180.554199	0.267295632511	1.40622234344	56314.7671289	35503.0151367	11127.9664038	63.6020310219	1171490.98597	66635872.6793	0
6975000.0	44842.0	136235929.775	0.283880364673	174182.983398	0.26978054666	1.40353500843	56067.1212967	35315.8905029	11083.4841325	64.3847547491	4595526.54685	66640706.7449	0
7000000.0	45019.0	138124182.659	0.284762314704	174186.328125	0.272269244306	1.40085422993	55820.9351384	35129.977417	11036.3074737	65.0142815514	5626301.12485	66645541.3226	0
7025000.0	45196.0	140029988.46	0.285638887495	174189.18457	0.274770718534	1.39820706844	55577.7997596	34946.3867188	10987.43745	65.4751871319	3713.73799472	66650376.4125	0
7050000.0	45373.0	141953440.102	0.286510578674	174191.479492	0.277285114862	1.39559173584	55337.4942834	34764.9383545	10936.9944361	66.135804736	290900.15237	66655212.0144	0
7075000.0	45551.0	143894570.298	0.287383865148	174194.384766	0.27980376035	1.3929797411	55098.1599441	34584.3597412	10884.1894623	66.824305941	792361.041769	66660048.1286	0
7100000.0	45729.0	145853469.084	0.288251159759	174196.728516	0.282335007796	1.39039707184	54861.8730261	34406.1584473	10830.010261	67.3398063496	3577002.65379	66664884.7549	0
7125000.0	45907.0	147830227.408	0.289111887014	174198.547363	0.284878886305	1.3878428936	54628.7537422	34230.4626465	10774.5509102	68.0590473072	2604409.04624	66669721.8934	0
7150000.0	46086.0	149824874.234	0.289972437331	174200.98877	0.287426431896	1.38528931141	54397.0318428	34056.0455322	10717.0572347	68.9984910198	3388430.77363	66674559.5442	0
7175000.0	46266.0	151837437.376	0.290831894361	174204.064941	0.289977499051	1.3827341795	54166.8166512	33883.0383301	10657.5648925	69.7760575038	4577640.32638	66679397.7073	0
7200000.0	46446.0	153868006.08	0.291684432002	174206.420898	0.292540993541	1.38020277023	53939.8957245	33712.7380371	10597.1228541	70.3741406406	305984.767558	66684236.3826	0
7225000.0	46626.0	155916672.013	0.292529903854	174207.885742	0.295117381029	1.3776948452	53716.0048586	33544.9188232	10535.8204702	71.181786181	23497.1076774	66689075.5703	0
7250000.0	46807.0	157983465.85	0.293374894329	174209.667969	0.297697552014	1.37518775463	53493.4735001	33378.3630371	10472.8602326	72.0179527268	500690.676341	66693915.2704	0
7275000.0	46988.0	160068476.725	0.294212335484	174210.60791	0.300290179439	1.37270963192	53274.1725879	33214.3676758	10409.2247231	72.8699284031	1337487.81979	66698755.4829	0
7300000.0	47170.0	162171731.442	0.295048220075	174211.791992	0.302886153804	1.3702391386	53056.4880877	33051.7456055	10344.1017384	73.7508721033	2448085.54013	66703596.2078	0
7325000.0	47352.0	164293316.138	0.295875655452	174212.109375	0.305494148051	1.36780416965	52842.2666559	32891.7785645	10278.4720286	74.4432392413	1685056.23916	66708437.4452	0
7350000.0	47534.0	166433317.113	0.296694186347	174211.547852	0.308114133077	1.36540913582	52631.6105245	32734.4696045	10212.428934	75.3538826403	655040.561077	66713279.195	0
7375000.0	47717.0	168591760.489	0.297510526669	174210.961914	0.310737348627	1.36302733421	52422.6894108	32578.5552979	10145.1503521	76.293736989	18304.4306102	66718121.4574	0
7400000.0	47900.0	170768735.477	0.298318237253	174209.16748	0.313372991513	1.36068189144	52217.0772878	32425.1525879	10077.6400184	77.2489440589	532881.386666	66722964.2324	0
7425000.0	48084.0	172964268.421	0.299123540265	174207.23877	0.316011952236	1.35834693909	52013.1151881	32273.1079102	10009.0842374	78.2333779339	1670089.51531	66727807.5199	0
7450000.0	48268.0	175178446.113	0.299921020802	174204.589844	0.318662729114	1.35604250431	51812.2531555	32123.4741211	9940.43818601	79.2333155671	3261941.93615	66732651.32	0
7475000.0	48453.0	177411291.046	0.300717633488	174203.00293	0.321315863403	1.35373735428	51612.4998975	31974.887085	9870.88643583	80.2630702554	5226392.45886	66737495.6328	0
7500000.0	48638.0	179662884.445	0.30150721836	174201.416016	0.323980231769	1.35145485401	51415.5354281	31828.5430908	9801.36933565	81.0893715147	92350.7586787	66742340.4583	0
7525000.0	48823.0	181933308.0	0.302289522211	174199.938965	0.326655979734	1.34919548035	51221.4732149	31684.5428467	9731.95714165	82.1479719206	539170.903477	66747185.7964	0
7550000.0	49009.0	184222584.371	0.303070289942	174199.34082	0.329334347043	1.34693479538	51028.5638857	31541.696167	9661.88013875	83.2361803444	1932936.60044	66752031.6474	0
7575000.0	49195.0	186530797.479	0.303843787222	174198.583984	0.332024414092	1.34469783306	50838.4368783	31401.0986328	9592.04444484	84.1133605925	2160268.82584	66756878.0111	0
7600000.0	49381.0	188858030.453	0.304609517668	174197.705078	0.334725889843	1.34248423576	50651.007803	31262.6617432	9522.52532274	85.2289982057	616077.63853	66761724.8876	0
7625000.0	49568.0	191204300.151	0.305373514488	174197.753906	0.337429402862	1.34027194977	50464.8891505	31125.4089355	9452.51366105	86.3745713094	124610.13685	66766572.2769	0
7650000.0	49755.0	193569685.759	0.306129287406	174197.766113	0.340143800713	1.3380844593	50281.5356289	30990.3015137	9382.92402123	87.534861966	1437221.15567	66771420.1791	0
7675000.0	49943.0	195954199.497	0.306882882693	174198.76709	0.342859450029	1.33589947224	50099.5477945	30856.3598633	9312.96728921	88.7253810888	3556301.55939	66776268.5942	0
7700000.0	50131.0	198357916.984	0.307627629443	174199.731445	0.345585518517	1.33374011517	49920.4539561	30724.6368408	9243.53213706	89.692020857	787250.843339	66781117.5223	0
7725000.0	50319.0	200780917.87	0.308363643635	174200.488281	0.348322617356	1.33160448074	49744.2030311	30595.1477051	9174.04051345	90.9149654628	152538.050897	66785966.9633	0
7750000.0	50508.0	203223218.041	0.309096308873	174202.001953	0.351061346009	1.32947170734	49569.3943118	30466.9281006	9103.33200885	92.1784223664	1765585.33335	66790816.9173	0
7775000.0	50697.0	205684895.625	0.309820196907	174203.356934	0.353810959496	1.32736372948	49397.3718265	30340.9118652	9032.26599024	93.2203938587	2198527.99647	66795667.3844	0
7800000.0	50886.0	208166029.103	0.310535665553	174204.528809	0.356571428711	1.32528078556	49228.0513876	30217.0257568	8960.92826427	94.5311541866	286157.509364	66800518.3645	0
7825000.0	51076.0	210666632.039	0.311248186929	174206.518555	0.359333324013	1.32320261002	49060.1274185	30094.3847656	8888.63138245	95.883127666	796219.881655	66805369.8577	0
7850000.0	51266.0	213186781.768	0.311952407575	174208.349609	0.362105842214	1.32115161419	48894.896843	29973.840332	8816.23049651	97.2602001374	3281696.60318	66810221.8641	0
7875000.0	51457.0	215726492.505	0.312653109905	174210.876465	0.364879902918	1.31910717487	48731.1230944	29854.5776367	8743.02730497	98.679132829	6822392.22539	66815074.3836	0
7900000.0	51648.0	218285844.98	0.313344489601	174213.061523	0.367665139493	1.31709051132	48570.190336	29737.5396729	8669.90836478	99.8613147304	369604.806314	66819927.4163	0
7925000.0	51839.0	220864917.866	0.314026825111	174214.916992	0.370461202692	1.31510150433	48412.026475	29622.6409912	8596.89120412	101.062351019	4110961.25979	66824780.9623	0
7950000.0	52030.0	223463789.451	0.314700096189	174216.455078	0.373267976101	1.31314098835	48256.6247218	29509.8480225	8524.05845959	102.549477448	1082219.07159	66829635.0215	0
7975000.0	52222.0	226082469.998	0.31536954963	174218.62793	0.376075797249	1.31118941307	48102.7025898	29398.2635498	8450.73853264	104.078740401	357030.112053	66834489.5941	0
8000000.0	52414.0	228721033.535	0.316030427139	174220.532227	0.378893717425	1.30926668644	47951.463063	29288.6871338	8377.72731912	105.632940476	3096269.29227	66839344.68	0
8025000.0	52607.0	231379487.232	0.316687480652	174223.071289	0.38171216147	1.30735373497	47801.6944784	29180.2947998	8304.34387415	107.230157328	7388691.70022	66844200.2792	0
8050000.0	52800.0	234057906.565	0.317335459039	174225.134277	0.384540995583	1.30547249317	47654.6715759	29073.9471436	8231.40438782	108.570750386	735471.657082	66849056.3919	0
8075000.0	52993.0	236756367.922	0.317974282188	174226.721191	0.387380365282	1.3036210537	47510.3465974	28969.6502686	8158.96221794	109.928587675	3172697.77761	66853913.0181	0
8100000.0	53186.0	239474947.556	0.318603653953	174227.868652	0.390230270568	1.30179703236	47368.72388	28867.4255371	8087.06879718	111.59152471	206361.602645	66858770.1578	0
8125000.0	53380.0	242213653.921	0.319228038642	174229.47998	0.393080699723	1.29997956753	47228.6099687	28766.506958	8015.04321929	113.297465976	1869608.73329	66863627.811	0
8150000.0	53574.0	244972560.941	0.319842362849	174230.664062	0.395941431634	1.29818546772	47091.2007635	28667.7276611	7943.6678421	115.027093886	6436579.96317	66868485.9777	0
8175000.0	53769.0	247751675.602	0.320450927498	174232.348633	0.398802483687	1.29639387131	46955.3258134	28570.3308105	7872.27979105	116.500410579	457845.289257	66873344.6581	0
8200000.0	53963.0	250551141.108	0.321044265841	174232.617188	0.401683879318	1.29464197159	46823.2469047	28475.8422852	7802.31281203	117.969692973	3352971.38753	66878203.8521	0
8225000.0	54158.0	253370968.191	0.321631394961	174233.129883	0.404566177167	1.29289591312	46692.7540659	28382.7453613	7732.44129162	119.78063449	50914.3372035	66883063.5599	0
8250000.0	54353.0	256211232.425	0.322207754396	174233.081055	0.407458952395	1.29117310047	46564.9529024	28291.7877197	7663.3805942	121.613954158	2932224.03296	66887923.7813	0
8275000.0	54549.0	259071941.279	0.322777563583	174233.300781	0.410352251492	1.28945815563	46438.8819694	28202.3162842	7594.49474806	123.4898014	8931503.59492	66892784.5165	0
8300000.0	54745.0	261953168.158	0.323336354981	174232.885742	0.413255678723	1.28776776791	46315.5316525	28115.0054932	7526.50907794	125.068338093	2051254.974	66897645.7655	0
8325000.0	54941.0	264854984.032	0.323884128619	174231.90918	0.416168710217	1.28610408306	46194.9094275	28029.800415	7459.41047222	126.660782814	1076032.47504	66902507.5283	0
8350000.0	55137.0	267777462.617	0.324419633375	174230.26123	0.419091724325	1.28446638584	46077.2341948	27946.9360352	7393.25097488	128.265920364	7064906.05511	66907369.805	0
8375000.0	55333.0	270720678.506	0.324941177437	174227.880859	0.422025244916	1.28285622597	45962.7016364	27866.5679932	7328.05641124	130.214191489	1212304.75165	66912232.5956	0
8400000.0	55530.0	273684639.534	0.325455259043	174226.000977	0.424958881922	1.28125369549	45850.0097274	27787.802124	7263.22939527	132.203490676	1820244.05514	66917095.9002	0
8425000.0	55727.0	276669415.746	0.325959924756	174224.169922	0.427902094088	1.27967119217	45739.6301339	27710.8764648	7199.41060858	134.212536258	8625694.27059	66921959.7188	0
8450000.0	55925.0	279675007.055	0.326461304647	174223.242188	0.430844607763	1.2780932188	45630.3677884	27634.8999023	7136.01937226	135.918553272	2305501.08189	66926824.0513	0
8475000.0	56122.0	282701548.238	0.326953703001	174221.582031	0.433806038927	1.27654957771	45523.7052072	27560.7879639	7074.27363183	137.612985767	592906.976382	66931688.898	0
8500000.0	56320.0	285749036.845	0.327446847612	174220.898438	0.436766655184	1.27500808239	45417.6092894	27487.1612549	7012.94665817	139.69262083	3083321.14269	66936554.2587	0
8525000.0	56518.0	288817540.369	0.327935482237	174220.202637	0.439736410044	1.27348721027	45313.5922498	27415.1489258	6952.1284294	141.444374601	196786.413027	66941420.1335	0
8550000.0	56716.0	291907128.168	0.328418325448	174219.555664	0.442715652753	1.2719861269	45211.6087229	27344.744873	6891.75439733	143.218014864	4677764.88096	66946286.5226	0
8575000.0	56914.0	295017868.171	0.328894365359	174218.896484	0.445704092272	1.27050542831	45111.4714952	27275.7110596	6831.83715857	145.379797369	65773.6806349	66951153.4258	0
8600000.0	57113.0	298149759.461	0.329366381606	174219.067383	0.448691949714	1.26902973652	45012.0543072	27207.2357178	6771.83856552	147.595619778	5701148.99971	66956020.8433	0
8625000.0	57312.0	301302868.716	0.329829612967	174219.287109	0.45168880024	1.26757371426	44913.9986275	27139.6331787	6712.35215263	149.467255772	754312.502298	66960888.775	0
8650000.0	57511.0	304477261.951	0.330283329326	174219.555664	0.454694731161	1.26613628864	44816.9953757	27072.6287842	6653.38829107	151.360791386	1851411.25026	66965757.2211	0
8675000.0	57710.0	307673009.842	0.330726403585	174219.812012	0.457710149931	1.2647190094	44720.9967773	27006.1401367	6594.99307755	153.660266801	2302415.04295	66970626.1815	0
8700000.0	57910.0	310890111.589	0.331162771601	174220.751953	0.460724928416	1.26330828667	44625.4348045	26939.8742676	6536.62233502	155.624811084	360394.129641	66975495.6564	0
8725000.0	58109.0	314128705.485	0.331586660779	174220.898438	0.463759119157	1.26193130016	44532.0248288	26875.0274658	6479.38000097	157.58596619	4483066.44705	66980365.6456	0
8750000.0	58309.0	317388788.822	0.332005644478	174221.801758	0.46679249499	1.26055955887	44439.4645662	26810.8612061	6422.20880325	159.992209623	636642.018069	66985236.1493	0
8775000.0	58509.0	320670427.543	0.332417310253	174222.729492	0.469834834803	1.25920677185	44348.6941881	26748.0529785	6365.6608748	162.429175192	8878924.69722	66990107.1675	0
8800000.0	58710.0	323973615.155	0.332825851695	174224.438477	0.472875486594	1.2578587532	44259.2075086	26686.3647461	6309.23677012	164.511907648	3200524.47457	66994978.7003	0
8825000.0	58910.0	327298486.965	0.333225550017	174225.390625	0.475935114082	1.2565433979	44172.4944642	26626.751709	6253.96509103	166.58987096	19974.0374369	66999850.7476	0
8850000.0	59111.0	330645039.764	0.333621804335	174227.001953	0.478993868455	1.255235672	44086.9844596	26568.1152344	6198.87133396	169.133154123	7365822.00506	67004723.3096	0
8875000.0	59312.0	334013339.948	0.334010756374	174228.540039	0.482061528601	1.25394761562	44003.3206107	26510.8673096	6144.45181543	171.280725666	2297523.48642	67009596.3862	0
8900000.0	59513.0	337403452.437	0.334391578599	174230.01709	0.485138065415	1.25267779827	43921.5118603	26455.0476074	6090.71734699	173.447536833	147394.554965	67014469.9774	0
8925000.0	59714.0	340815442.0	0.334763490853	174231.445312	0.488223158754	1.25142526627	43841.5192466	26400.6347656	6037.68481221	175.632984852	3413334.17123	67019344.0834	0
8950000.0	59915.0	344249370.914	0.33512544001	174232.885742	0.49131695414	1.25018882751	43763.3299693	26347.6501465	5985.35061269	177.836846644	8653773.61941	67024218.7042	0
8975000.0	60116.0	347705301.356	0.335476848896	174234.265137	0.494419189636	1.24896752834	43686.97953	26296.1456299	5933.73063588	180.50634777	38870.2593922	67029093.8397	0
9000000.0	60318.0	351183229.097	0.335819477047	174236.254883	0.497520086356	1.24775195122	43612.0634414	26245.904541	5882.35563031	183.231703449	8316728.62766	67033969.4901	0
9025000.0	60520.0	354683220.629	0.336150978394	174238.049316	0.500630005263	1.24655485153	43539.1629693	26197.2625732	5831.73277199	185.525659535	3653767.67864	67038845.6554	0
9050000.0	60722.0	358205341.299	0.336472121687	174239.697266	0.50374888815	1.24537563324	43468.2151496	26150.1708984	5781.84392678	187.836269413	567163.954832	67043722.3356	0
9075000.0	60924.0	361749657.799	0.336783143114	174241.162109	0.506876735017	1.24421417713	43399.1620324	26104.574585	5732.69657111	190.162829811	936081.501801	67048599.5307	0
9100000.0	61126.0	365316234.489	0.337084634981	174242.529297	0.51001337124	1.24307012558	43331.9201688	26060.3942871	5684.29775204	192.504668747	4087573.40847	67053477.2408	0
9125000.0	61328.0	368905136.673	0.337377222977	174243.701172	0.513158622198	1.24194359779	43266.4339131	26017.5750732	5636.65410719	195.343410092	3092232.99583	67058355.466	0
9150000.0	61531.0	372516354.408	0.337663686387	174245.43457	0.516302243341	1.24082314968	43202.1031619	25975.7293701	5589.33615066	197.748434054	501893.014609	67063234.2062	0
9175000.0	61733.0	376150013.025	0.337939881195	174246.313477	0.519464723766	1.23973047733	43139.9308476	25935.4522705	5543.20047812	200.138608687	737947.384937	67068113.4615	0
9200000.0	61936.0	379806112.068	0.338210937371	174247.753906	0.522625050507	1.23864364624	43078.8038889	25896.0449219	5497.39733258	203.071275727	8366027.04843	67072993.232	0
9225000.0	62139.0	383484754.484	0.338475190211	174249.072266	0.525793700945	1.23757350445	43019.1693476	25857.7392578	5452.36774858	205.015943074	6927852.35097	67077873.5177	0
9250000.0	62341.0	387186042.203	0.338730637161	174249.401855	0.528986623976	1.23653173447	42961.5349382	25820.8251953	5408.53237178	207.440019249	11249497.4635	67082754.3186	0
9275000.0	62544.0	390909933.133	0.338982908385	174250.549316	0.532166217454	1.23549294472	42904.6930987	25784.5703125	5364.97873132	210.430185592	54921.4031764	67087635.6347	0
9300000.0	62747.0	394656530.658	0.3392269954	174251.269531	0.535360130016	1.23447442055	42849.5817374	25749.5941162	5322.237442	213.438809476	12565809.2567	67092517.4662	0
9325000.0	62951.0	398425814.511	0.33946456543	174252.209473	0.538557884283	1.23346710205	42795.8361894	25715.7012939	5279.91781979	215.964868858	8574817.78602	67097399.813	0
9350000.0	63154.0	402217920.674	0.339691931306	174252.246094	0.541769724805	1.23248791695	42744.2441204	25683.3679199	5238.70539598	217.936647148	6729850.60408	67102282.6752	0
9375000.0	63357.0	406032914.42	0.33991150299	174251.977539	0.544990529306	1.23152685165	42694.2969956	25652.2705078	5198.08859835	220.996778357	2708120.46322	67107166.0528	0
9400000.0	63561.0	409870787.77	0.340124932116	174252.01416	0.548209412955	1.23057317734	42645.4991086	25622.1099854	5157.63947461	223.567904035	819350.45934	67112049.9458	0
9425000.0	63764.0	413731677.745	0.340329157368	174251.037598	0.551447621547	1.22964596748	42598.6359869	25593.3288574	5118.10073539	226.124866098	57457.8752633	67116934.3543	0
9450000.0	63968.0	417615573.843	0.34052796032	174250.366211	0.554683734663	1.22872447968	42552.790417	25565.385437	5078.71454219	228.730375977	1217215.89326	67121819.2784	0
9475000.0	64171.0	421522613.758	0.340718000174	174248.730469	0.557938881684	1.22782766819	42508.7367541	25538.7130737	5040.21800868	231.321091433	3017775.56546	67126704.718	0
9500000.0	64375.0	425452783.913	0.340903320193	174247.363281	0.561191816814	1.22693514824	42465.5669829	25512.7853394	5001.88147167	234.534920473	7600009.43358	67131590.6732	0
9525000.0	64579.0	429406144.067	0.341082184928	174245.788574	0.564452435356	1.22605478764	42423.6118382	25487.7761841	4964.05453539	236.616383783	7663834.16597	67136477.144	0
9550000.0	64782.0	433382828.803	0.34125318549	174243.75	0.567731680349	1.22519481182	42383.1810749	25463.8595581	4927.076246	239.257413687	10276563.2335	67141364.1306	0
9575000.0	64986.0	437382818.727	0.341419688508	174242.590332	0.571007665712	1.22433459759	42343.4558985	25440.586853	4890.24992047	242.541991914	1791326.98162	67146251.6328	0
9600000.0	65190.0	441406170.96	0.341579121305	174241.589355	0.574291043449	1.22348511219	42304.9978146	25418.321228	4853.91734545	245.255659492	666328.350636	67151139.6508	0
9625000.0	65394.0	445452950.288	0.341730684246	174240.625	0.577583326958	1.2226498127	42268.0839595	25397.2717285	4818.08217362	247.984977489	31028.0230295	67156028.1846	0
9650000.0	65598.0	449523217.101	0.341874467643	174239.746094	0.580883584917	1.22182762623	42232.6286032	25377.3788452	4782.72685901	250.730765742	366869.172507	67160917.2343	0
9675000.0	65802.0	453617033.817	0.342010702675	174238.964844	0.584192341194	1.22101867199	42198.552325	25358.5571289	4747.86034771	253.491849991	1113463.58939	67165806.7997	0
9700000.0	66006.0	457734461.293	0.342140040967	174238.28125	0.587509130128	1.22022294998	42165.8022066	25340.7577515	4713.47054449	256.268568106	2002800.55277	67170696.8811	0
9725000.0	66210.0	461875559.027	0.342262327099	174237.70752	0.590834009927	1.21943926811	42134.2750679	25323.8967896	4679.54562295	259.695994355	11953796.7033	67175587.4784	0
9750000.0	66415.0	466040310.367	0.34237936247	174237.890625	0.594155746512	1.21865952015	42103.6296856	25307.7835083	4645.77815839	262.544799856	10698092.204	67180478.5917	0
9775000.0	66619.0	470228849.812	0.34248901077	174237.561035	0.597496458795	1.21790075302	42074.3839301	25292.6223755	4612.78105142	264.726041678	4810692.59834	67185370.221	0
9800000.0	66823.0	474441236.389	0.342592684861	174237.37793	0.600844854489	1.21715331078	42046.1630942	25278.2272339	4580.23957647	267.564123951	5672682.9052	67190262.3664	0
9825000.0	67027.0	478677527.041	0.342690793814	174237.37793	0.60420105001	1.21641731262	42018.8747289	25264.4943237	4548.1423924	270.41721196	6464964.09713	67195155.0278	0
9850000.0	67231.0	482937779.605	0.342783468083	174237.512207	0.607564812526	1.21569263935	41992.480903	25251.3870239	4516.48832444	273.954770428	7413244.87571	67200048.2053	0
9875000.0	67436.0	487221972.067	0.342872212352	174238.476562	0.610924849752	1.21497046947	41966.6156497	25238.7008667	4484.98069638	276.87943283	6953005.26677	67204941.899	0
9900000.0	67640.0	491530239.076	0.342954580781	174238.94043	0.614303688053	1.21426832676	41941.865372	25226.7089844	4454.20145551	279.099033936	8276220.26051	67209836.1089	0
9925000.0	67844.0	495862642.912	0.343030255546	174239.477539	0.617690850049	1.21357882023	41918.1721477	25215.4922485	4423.85201325	282.009080444	8624904.31112	67214730.8351	0
9950000.0	68048.0	500219246.102	0.343099480349	174240.039062	0.621086452156	1.21290266514	41895.5738595	25205.0628662	4393.93127657	285.630407582	6394994.80567	67219626.0775	0
9975000.0	68253.0	504600032.211	0.343163033498	174241.259766	0.624479027465	1.21223139763	41873.7930556	25195.300293	4364.15540859	288.609637894	6510245.96392	67224521.8362	0
10000000.0	68457.0	509005140.299	0.343219644816	174241.943359	0.627890927717	1.21158099174	41853.3218237	25186.4074707	4335.07154361	290.853052833	8723421.26543	67229418.1112	0
10025000.0	68661.0	513434629.614	0.343270431172	174242.675781	0.631310744211	1.21094226837	41833.8607303	25178.2546997	4306.39899487	293.814646673	8446271.46323	67234314.9026	0
10050000.0	68865.0	517888558.272	0.343315387387	174243.493652	0.634738360532	1.21031618118	41815.4377306	25170.8389282	4278.13685234	297.515705279	7728371.91866	67239212.2104	0
10075000.0	69070.0	522366907.583	0.343355408323	174244.995117	0.638162659016	1.20969450474	41797.8182074	25164.074707	4250.00419301	300.546227103	8470136.24152	67244110.0347	0
10100000.0	69274.0	526869811.35	0.343389647119	174245.996094	0.641605700366	1.20909142494	41781.3851628	25158.0978394	4222.53402967	302.809808382	6743790.47108	67249008.3754	0
10125000.0	69478.0	531397327.912	0.343418606437	174247.094727	0.645056250505	1.2084993124	41765.9376397	25152.8411865	4195.45791839	305.819717208	5935952.08218	67253907.2326	0
10150000.0	69682.0	535949511.402	0.343442817927	174248.291016	0.648514193017	1.20791769028	41751.4053894	25148.2437134	4168.76596966	308.841274566	5041157.7297	67258806.6064	0
10175000.0	69886.0	540526417.946	0.343462307703	174249.609375	0.651979411487	1.20734632015	41737.8247371	25144.3511963	4142.45305169	311.874301011	4079880.29218	67263706.4968	0
10200000.0	70090.0	545128101.285	0.34347704603	174251.025391	0.655451847706	1.20678472519	41725.1574641	25141.12854	4116.51864225	314.918240279	3079581.7987	67268606.9038	0
10225000.0	70294.0	549754621.389	0.343485822123	174252.46582	0.658932258375	1.20623481274	41713.5898837	25138.7298584	4090.95770329	317.972474991	2064702.03997	67273507.8275	0
10250000.0	70498.0	554406038.021	0.343488578809	174253.881836	0.662420643494	1.20569694042	41703.1082804	25137.1337891	4065.76974986	321.036391582	1100419.85867	67278409.2678	0
10275000.0	70702.0	559082410.743	0.343485597089	174255.273438	0.665916944854	1.20516991615	41693.6556302	25136.3143921	4040.94540191	324.110099	303239.574034	67283311.2249	0
10300000.0	70906.0	563783799.415	0.343477102285	174256.652832	0.669421337079	1.20465409756	41685.18888	25136.2213135	4016.48870492	327.192524598	103182.953613	67288213.6988	0
10325000.0	71110.0	568510262.437	0.343463657726	174258.032227	0.672933412716	1.2041490078	41677.6565483	25136.8209839	3992.38165971	330.284662042	919552.946313	67293116.6894	0
10350000.0	71314.0	573261857.974	0.343445320819	174259.399414	0.676453346387	1.20365428925	41671.0322298	25138.0859375	3968.62845457	333.385428007	2265569.9841	67298020.1969	0
10375000.0	71518.0	578038644.813	0.343422543032	174260.754395	0.679980788846	1.20316922665	41665.2375136	25139.9612427	3945.21582461	336.495443626	4086878.05774	67302924.2213	0
10400000.0	71722.0	582840680.153	0.343395579164	174262.109375	0.683516031131	1.20269453526	41660.264864	25142.4224854	3922.13940259	338.781904393	11909435.2669	67307828.7626	0
10425000.0	71925.0	587668102.431	0.343364656061	174262.866211	0.687070540152	1.20223522186	41656.1645448	25145.4467773	3899.60040901	341.863659853	9080755.48094	67312733.8208	0
10450000.0	72129.0	592520887.171	0.343330169315	174264.196777	0.690620858222	1.20177924633	41652.6648383	25148.9501953	3877.15688237	345.841561124	12295854.2837	67317639.3961	0
10475000.0	72333.0	597399091.349	0.343292486344	174265.539551	0.69417868508	1.20133280754	41649.84441	25152.9205322	3855.02452574	348.133466261	3890616.69643	67322545.4883	0
10500000.0	72536.0	602302852.281	0.343251553072	174266.333008	0.697755487636	1.20090103149	41647.7540166	25157.3303223	3833.40571042	351.242874525	1799513.69651	67327452.0976	0
10525000.0	72740.0	607232146.969	0.343206304654	174267.565918	0.701328739524	1.20047485828	41646.3969193	25162.3123169	3811.86627958	354.401341947	274887.713156	67332359.224	0
10550000.0	72943.0	612187118.409	0.343156182999	174268.17627	0.704921607394	1.20006597042	41646.0357664	25167.9504395	3790.82661457	357.528675402	565067.955132	67337266.8676	0
10575000.0	73147.0	617167747.835	0.343101388846	174269.238281	0.708511215635	1.19966268539	41646.4261815	25174.1851807	3769.86168665	360.705007668	2528980.53512	67342175.0283	0
10600000.0	73350.0	622174176.353	0.343042431698	174269.628906	0.712120439857	1.19927513599	41647.6940056	25180.9783936	3749.37495223	362.956363044	14793850.1911	67347083.7062	0
10625000.0	73553.0	627206464.2	0.342979680458	174269.897461	0.715737638529	1.19889760017	41649.6960572	25188.28125	3729.15923038	366.102567251	10567832.9089	67351992.9013	0
10650000.0	73756.0	632264670.072	0.342913475727	174270.080566	0.719362753443	1.19852900505	41652.3855968	25196.0723877	3709.19911553	369.258377397	6707504.29918	67356902.6137	0
10675000.0	73959.0	637348854.529	0.342844185832	174270.117188	0.722995784599	1.19816970825	41655.7250313	25204.296875	3689.49571677	372.423177138	3380715.68822	67361812.8435	0
10700000.0	74162.0	642459076.438	0.342772150678	174270.043945	0.726636499166	1.19781792164	41659.6492187	25212.928772	3670.03801465	375.597690852	861247.080638	67366723.5905	0
10725000.0	74365.0	647595392.715	0.342697737746	174269.848633	0.730284838937	1.19747412205	41664.1278499	25221.9238281	3650.82322185	378.78174729	334792.928914	67371634.855	0
10750000.0	74568.0	652757859.186	0.342621202043	174269.519043	0.733940803912	1.1971373558	41669.0968642	25231.2408447	3631.84061843	381.975981325	2633953.09877	67376546.6368	0
10775000.0	74771.0	657946534.348	0.342543105934	174269.030762	0.737604161259	1.19680726528	41674.5460203	25240.8737183	3613.09555912	385.179483138	6173920.91152	67381458.9361	0
10800000.0	74974.0	663161472.877	0.342463703234	174268.395996	0.741274969187	1.19648361206	41680.398197	25250.7476807	3594.56959411	387.43708505	10234186.3806	67386371.7529	0
10825000.0	75176.0	668402814.912	0.342382688348	174267.016602	0.74496504385	1.19617176056	41686.7800846	25260.9085083	3576.45667669	390.610715489	5887531.62507	67391285.0872	0
10850000.0	75379.0	673670539.492	0.342297884648	174265.966797	0.748651567847	1.19586479664	41693.8299882	25271.5805054	3558.372518	393.83593474	2299777.99048	67396198.939	0
10875000.0	75581.0	678964790.759	0.342210526299	174264.172363	0.752357998863	1.19557118416	41701.5609183	25282.661438	3540.68301458	397.02850246	83395.8982904	67401113.3084	0
10900000.0	75784.0	684285544.564	0.342119445193	174263.061523	0.756059947889	1.19528186321	41709.9815134	25294.2810059	3523.01569111	400.273775985	1711912.50366	67406028.1955	0
10925000.0	75986.0	689632941.691	0.342025707151	174261.560059	0.759781803936	1.19500517845	41719.0526909	25306.288147	3505.73674519	402.489242657	17658454.6446	67410943.6002	0
10950000.0	76188.0	695007040.398	0.341929316577	174260.217285	0.76351093594	1.19473564625	41728.7307407	25318.7316895	3488.64213394	405.704432345	11632726.0469	67415859.5226	0
10975000.0	76390.0	700407897.116	0.34183052873	174259.04541	0.767247402109	1.19447386265	41738.9810984	25331.5643311	3471.749044	408.928609307	6377931.58007	67420775.9627	0
11000000.0	76592.0	705835568.381	0.341729487023	174258.056641	0.770991668105	1.19421947002	41749.7601782	25344.7463989	3455.03638487	412.163602237	2216982.17992	67425692.9206	0
11025000.0	76794.0	711290109.177	0.34162658506	174257.23877	0.774743093643	1.19397175312	41761.0291951	25358.2626343	3438.50233606	415.409618242	23503.730115	67430610.3963	0
11050000.0	76996.0	716771574.646	0.34152210434	174256.640625	0.778501736932	1.19373071194	41772.7561047	25372.0779419	3422.15261584	418.665571526	2628233.31202	67435528.3898	0
11075000.0	77198.0	722280020.966	0.341416242356	174256.188965	0.782267656177	1.19349551201	41784.8866203	25386.1633301	3405.97412598	421.932661536	7304810.72847	67440446.9011	0
11100000.0	77400.0	727815501.007	0.341309279473	174255.932617	0.786040676758	1.19326603413	41797.3767669	25400.4760742	3389.96889293	424.157885926	10014677.3346	67445365.9304	0
11125000.0	77601.0	733378157.096	0.341201661924	174255.34668	0.789833022282	1.19304668903	41810.2219489	25414.9459839	3374.29819981	427.394179669	4668794.02718	67450285.4775	0
11150000.0	77803.0	738967959.671	0.341090533944	174255.444336	0.793620827608	1.19283163548	41823.7608712	25429.9743652	3358.62250601	430.685426844	807462.588872	67455205.5427	0
11175000.0	78004.0	744585052.941	0.340977066686	174255.126953	0.797428423539	1.1926292181	41837.9161937	25445.3704834	3343.26923848	432.866484989	28820272.9972	67460126.1258	0
11200000.0	78205.0	750229495.955	0.340860849378	174254.968262	0.801244110335	1.19243466854	41852.6595697	25461.1724854	3328.07750632	437.210593978	5505451.23381	67465047.227	0
11225000.0	78407.0	755901260.176	0.340741666265	174255.46875	0.805054965895	1.19224405289	41867.9946656	25477.4353027	3312.8711439	440.534405367	11883573.2013	67469968.8462	0
11250000.0	78608.0	761600489.688	0.340621045054	174255.578613	0.808885437436	1.19206368923	41883.7643639	25493.9331055	3297.98410395	442.721965798	6173068.32267	67474890.9835	0
11275000.0	78809.0	767327240.672	0.340498712466	174255.810547	0.812723650597	1.19188964367	41899.9809514	25510.7208252	3283.23605817	446.01436681	1423765.7878	67479813.6389	0
11300000.0	79010.0	773081571.261	0.340374810389	174256.201172	0.816569197923	1.19172167778	41916.5853969	25527.7557373	3268.63291637	448.199910959	31370658.6065	67484736.8125	0
11325000.0	79210.0	778863624.318	0.340250612025	174256.213379	0.820434652269	1.19156253338	41933.4764523	25544.9005127	3254.33054356	451.459822599	22000314.2571	67489660.5043	0
11350000.0	79411.0	784673370.205	0.340124739046	174256.884766	0.824295158964	1.19140434265	41950.7095882	25562.3123169	3240.00181695	455.911342056	12058560.6142	67494584.7143	0
11375000.0	79612.0	790510862.707	0.339998352822	174257.702637	0.828162999824	1.19125008583	41968.1752899	25579.8553467	3225.83889094	458.101622778	6592245.4252	67499509.4425	0
11400000.0	79812.0	796376247.611	0.339872390976	174258.154297	0.832050573081	1.19110298157	41985.7713918	25597.3922729	3212.02352227	461.382230984	1520702.69288	67504434.6891	0
11425000.0	80013.0	802269489.829	0.339745751866	174259.25293	0.835932733025	1.19095611572	42003.586695	25615.0878906	3198.23571706	464.712747776	879096.019881	67509360.454	0
11450000.0	80213.0	808190735.716	0.339618492109	174259.936523	0.839835032821	1.19081687927	42021.6701476	25632.8918457	3184.78682555	466.831621952	22829343.4	67514286.7372	0
11475000.0	80413.0	814140045.306	0.339489239279	174260.766602	0.843745307066	1.1906837225	42040.2231174	25651.0192871	3171.51288014	470.111946399	13983481.8491	67519213.5388	0
11500000.0	80613.0	820117476.274	0.339358190234	174261.645508	0.847663031891	1.19055616856	42059.2061005	25669.430542	3158.40869484	473.395389643	6578627.46203	67524140.8588	0
11525000.0	80813.0	826123088.556	0.339225623605	174262.646484	0.851588672958	1.19043385983	42078.5655902	25688.092041	3145.4726206	476.681442796	1271042.02694	67529068.6973	0
11550000.0	81013.0	832156938.544	0.339091981695	174263.720703	0.855521764606	1.19031655788	42098.2517799	25706.9488525	3132.6961542	479.971169157	1323477.22046	67533997.0543	0
11575000.0	81213.0	838219085.718	0.338957486304	174264.892578	0.859462656081	1.19020402431	42118.2402201	25725.9979248	3120.07092793	482.057040218	22411665.6299	67538925.9297	0
11600000.0	81412.0	844309674.714	0.338823426011	174265.612793	0.863423454575	1.19009852409	42138.3716592	25745.0592041	3107.73883761	485.299855335	13220964.8354	67543855.3238	0
11625000.0	81612.0	850428675.984	0.338688295711	174266.943359	0.867379363626	1.18999481201	42158.8094234	25764.3432617	3095.40790875	489.818780054	24900360.4946	67548785.2363	0
11650000.0	81812.0	856576145.33	0.338553300482	174268.371582	0.871342490427	1.189894557	42179.4003686	25783.6975098	3083.21730694	491.893686643	645190.674741	67553715.6675	0
11675000.0	82011.0	862752228.068	0.338419586958	174269.335938	0.875325989909	1.18980109692	42200.0174685	25802.9602051	3071.30064159	493.909741593	32400100.0705	67558646.6173	0
11700000.0	82210.0	868956981.823	0.338286579263	174270.410156	0.879316823557	1.18971133232	42220.7043577	25822.2137451	3059.51065435	497.164391964	21708140.4225	67563578.0858	0
11725000.0	82409.0	875190461.752	0.338154521223	174271.533203	0.88331499137	1.18962478638	42241.4436551	25841.4459229	3047.84623877	500.424658541	12498405.1297	67568510.073	0
11750000.0	82608.0	881452725.721	0.33802330177	174272.729492	0.887320376933	1.18954205513	42262.2382044	25860.6536865	3036.29963507	503.691549063	5124954.61024	67573442.5789	0
11775000.0	82807.0	887743831.837	0.337891095298	174273.974609	0.891333562322	1.18946564198	42283.3655045	25880.0506592	3024.87316133	506.964031925	374661.905859	67578375.6036	0
11800000.0	83006.0	894063838.64	0.337758013038	174275.231934	0.895354547538	1.18939518929	42304.8190269	25899.6368408	3013.55917192	510.24306957	2768442.68295	67583309.1471	0
11825000.0	83205.0	900412806.632	0.337624356133	174276.550293	0.89938333258	1.18933033943	42326.5395602	25919.3664551	3002.35013241	513.529651933	9537865.05485	67588243.2094	0
11850000.0	83404.0	906790793.641	0.337490343318	174277.880859	0.903419801034	1.189270854	42348.4864393	25939.2059326	2991.25175419	515.524044163	12184654.612	67593177.7906	0
11875000.0	83602.0	913197950.703	0.337357250878	174278.686523	0.907476875	1.18921780586	42370.4842581	25958.9874268	2980.38419132	518.767836106	4702372.78613	67598112.8907	0
11900000.0	83801.0	919634243.066	0.33722344998	174280.065918	0.911528768484	1.18916654587	42392.7324904	25978.9398193	2969.48438258	522.067954543	140437.180803	67603048.5097	0
11925000.0	83999.0	926099821.773	0.337091218116	174280.932617	0.915601267479	1.18912065029	42414.9262978	25998.7609863	2958.80310633	524.00500346	33104002.827	67607984.6476	0
11950000.0	84197.0	932594746.399	0.336959685463	174281.787109	0.919681275263	1.18907773495	42437.1360198	26018.5333252	2948.21527956	527.264890045	21932132.2479	67612921.3046	0
11975000.0	84395.0	939119073.507	0.336829391494	174282.678223	0.923769141082	1.18903696537	42459.3244433	26038.2385254	2937.71049685	530.534028249	12384355.7459	67617858.4806	0
12000000.0	84593.0	945672861.891	0.336700414543	174283.569336	0.927864399273	1.1889975071	42481.4364204	26057.8399658	2927.29135396	533.812029821	4840218.47345	67622796.1756	0
12025000.0	84791.0	952256167.555	0.336573129817	174284.423828	0.931967282668	1.1889591217	42503.4240088	26077.2949219	2916.95079921	537.099859663	223426.085241	67627734.3898	0
12050000.0	84989.0	958869049.527	0.336447830462	174285.290527	0.936077500228	1.18892145157	42525.2492447	26096.5759277	2906.68506887	540.398218889	3094411.3135	67632673.1231	0
12075000.0	85187.0	965511547.309	0.336323568255	174286.181641	0.940192607231	1.18888521194	42547.0386195	26115.7897949	2896.49044935	542.336066261	24230477.578	67637612.3755	0
12100000.0	85384.0	972183832.274	0.336200233207	174286.474609	0.944331695791	1.18885493279	42568.8554012	26134.9365234	2886.49638184	545.596219355	14502291.4397	67642552.1472	0
12125000.0	85582.0	978885870.566	0.336076261507	174287.194824	0.948465371039	1.18882572651	42590.905685	26154.2602539	2876.44520818	548.917600934	6472467.39454	67647492.4381	0
12150000.0	85779.0	985617818.142	0.335953645922	174287.353516	0.952620175667	1.18880176544	42612.8863723	26173.4405518	2866.58010458	552.200157964	1009493.1515	67652433.2482	0
12175000.0	85977.0	992379638.771	0.335830850882	174287.976074	0.956769566983	1.18877840042	42635.0289049	26192.7276611	2856.65787482	555.544337542	1838008.81645	67657374.5777	0
12200000.0	86174.0	999171488.181	0.335709972729	174288.000488	0.960940204095	1.18875980377	42657.0245487	26211.807251	2846.91689794	557.434926643	28828243.8748	67662316.4265	0
12225000.0	86371.0	1005993427.19	0.335590362998	174287.95166	0.965118815657	1.18874371052	42678.9793059	26230.7922363	2837.23405823	560.743786467	18452342.753	67667258.7946	0
12250000.0	86568.0	1012845515.81	0.335472126398	174287.792969	0.969305227045	1.18872976303	42700.8436766	26249.6429443	2827.60277895	564.065802888	9737607.04801	67672201.6822	0
12275000.0	86765.0	1019727813.38	0.335355608692	174287.548828	0.973499612883	1.18871748447	42722.581769	26268.3319092	2818.02894653	567.399637159	3130747.72028	67677145.0892	0
12300000.0	86962.0	1026640381.48	0.335240913564	174287.182617	0.977701740339	1.18870723248	42744.1648223	26286.8225098	2808.49986409	570.747918019	145148.673747	67682089.0157	0
12325000.0	87159.0	1033583278.2	0.335128331904	174286.730957	0.981911784038	1.18869864941	42765.5691876	26305.0994873	2799.02144316	574.109313348	4393981.12281	67687033.4616	0
12350000.0	87356.0	1040556565.63	0.335017939813	174286.132812	0.986129743978	1.18869149685	42786.7484781	26323.1170654	2789.58726236	576.019400906	26000131.1342	67691978.4272	0
12375000.0	87552.0	1047560399.4	0.334910829468	174284.924316	0.990369124338	1.18868744373	42807.5525013	26340.7287598	2780.31003615	579.349713157	16574295.5668	67696923.9123	0
12400000.0	87749.0	1054594745.19	0.334803867766	174284.04541	0.994603033178	1.18868613243	42828.5085996	26358.3862305	2770.96021939	582.746077916	8585209.51244	67701869.917	0
12425000.0	87945.0	1061659762.44	0.334698496735	174282.519531	0.998858828098	1.18869078159	42849.3925478	26375.869751	2761.76616648	586.104889438	2623284.55944	67706816.4413	0
12450000.0	88142.0	1068755415.87	0.334592925093	174281.408691	1.00310891867	1.18869805336	42870.4747751	26393.4417725	2752.49382089	589.531695783	279462.19767	67711763.4853	0
12475000.0	88338.0	1075881863.97	0.334488833795	174279.931641	1.00738031324	1.18871057034	42891.4966683	26410.8581543	2743.36706374	591.414170671	39001399.319	67716711.0491	0
12500000.0	88534.0	1083039164.97	0.334385500361	174278.564453	1.01165939122	1.18872570992	42912.5292216	26428.2226562	2734.27357133	595.792812865	9.02219350541e-13	67721659.1325	0
