z	T	P	nabla_ad	S	rho	delta	cp	cv	opac	frad	fconv	ftot	dT
0.0	3900.0	125.229902257	0.385063201239	174151.647949	5.04614039443e-06	1.00816297531	16745.2389885	10281.3095093	0.000624710569697	0.0	18109.5467358	65311815.0903	0
25000.0	3900.0	165.021661546	0.380632941076	172379.528809	6.65075994277e-06	1.0107178688	17003.0946177	10508.7997437	0.00074451405689	0.0	23180.5550974	65316507.3538	0
50000.0	3900.0	217.474218647	0.374994993277	170602.307129	8.76683259321e-06	1.01411700249	17343.3024342	10808.1207275	0.00088537615032	0.0	30734.4254081	65321200.1229	0
75000.0	3900.0	286.626306313	0.367885357198	168818.579102	1.15581073601e-05	1.01861536503	17789.6726239	11200.6492615	0.00105125196244	0.0	40474.50354	65325893.3976	0
100000.0	3900.0	377.812647816	0.35903847665	167025.769043	1.52415111643e-05	1.02442204952	18374.1916495	11715.2511597	0.00124742858503	0.0	53289.9663057	65330587.1781	0
125000.0	3900.0	498.08425789	0.348186353695	165221.459961	2.0104382159e-05	1.03207552433	19139.6135706	12387.9814148	0.00148054821153	0.0	70157.4089291	65335281.4644	0
150000.0	3900.0	656.769445031	0.335147291113	163401.318359	2.6528448771e-05	1.04219198227	20140.2642041	13265.763855	0.00175602493232	0.0	92413.031573	65339976.2566	0
175000.0	3900.0	866.225176014	0.319830607294	161561.083984	3.50218734013e-05	1.05535078049	21443.7466414	14407.56073	0.0020821383279	0.0	121798.492444	65344671.5548	0
200000.0	3900.0	1142.84597253	0.302312443284	159694.030762	4.62630040943e-05	1.07240259647	23133.9628524	15885.887146	0.00247111703373	25107126.7426	157754.723455	65349367.3591	0
225000.0	3908.0	1507.49539426	0.285415067816	157847.888184	6.09853003652e-05	1.09185874462	25014.0832442	17521.534729	0.00298541965857	17844976.1032	207892.434719	65354063.6694	0
250000.0	3909.0	1989.36785889	0.26511715635	155919.299316	8.06212767657e-05	1.11934149265	27680.8690462	19837.6312256	0.00356308643538	26410743.5446	266356.885725	65358760.4858	0
275000.0	3929.0	2622.82595985	0.250396970428	154094.311523	0.000105952082663	1.14413881302	29979.9932295	21815.3747559	0.00440639938068	22787206.1046	344988.253834	65363457.8085	0
300000.0	3938.0	3458.22635413	0.232037304734	152142.529297	0.000139769767316	1.18063831329	33398.8765921	24751.3275146	0.00533448214793	36660104.4865	394260.257777	65368155.6374	0
325000.0	4003.0	4540.02037058	0.231986507926	150645.739746	0.000180614719625	1.18494868279	33467.9386454	24766.6412354	0.00701996286936	29069179.3124	486208.84773	65372853.9727	0
350000.0	4033.0	5951.69115393	0.220891422408	148862.658691	0.000235575583929	1.2138324976	35946.1286047	26857.0739746	0.0087205813893	36694662.9129	417736.000176	65377552.8144	0
375000.0	4193.0	7715.87475723	0.248420447134	148164.013672	0.000292677157177	1.1611289978	30501.0445773	22125.6408691	0.0133812845237	28917585.0955	446533.978725	65382252.1626	0
400000.0	4287.0	9945.44527155	0.255504834625	146953.344727	0.000368808485973	1.15211820602	29364.553941	21111.4730835	0.0183582843483	36739928.5643	23557.0475483	65386952.0172	0
425000.0	4714.0	12508.88916	0.332516926295	147600.695801	0.000418684692249	1.05596399307	20448.023672	13415.6768799	0.034982792577	28871524.6632	38527.554577	65391652.3785	-1
450000.0	4954.0	15555.9418609	0.353351243927	147106.884766	0.000494849814459	1.03777325153	18832.5128463	12021.270752	0.0479737590311	36304361.9847	0.579348082149	65396353.2465	0
475000.0	5885.0	18679.9067144	0.386560610135	148890.83252	0.000498657186654	1.00792968273	16603.2194025	10143.3662415	0.0815126795593	28477249.8084	0.0184695586254	65401054.6211	-2
500000.0	5892.0	22428.5596568	0.385712139083	147726.525879	0.00059830108512	1.00904905796	16661.4215283	10189.1471863	0.0939548983146	35147485.8553	39.5613671809	65405756.5026	0
525000.0	7473.0	25892.5420818	0.334401229589	150975.512695	0.000542371708434	1.0244140625	19385.8942898	12699.0875244	0.61464574955	28786287.7077	266839.515862	65410458.8909	-11
550000.0	9667.0	28850.0042593	0.169828992899	157823.168945	0.000455375783304	1.25852549076	47391.9130563	37162.4481201	6.74611344816	5020686.40731	24317758.4056	65415161.7861	-10
575000.0	10294.0	31875.8046877	0.143681881089	160452.807617	0.000464119466415	1.40270090103	63576.7598406	50743.460083	12.0983327451	1743379.39391	15905127.0666	65419865.1883	-4
600000.0	11156.0	34820.9782225	0.120203183107	165956.030273	0.000449522872259	1.68046832085	94923.4882337	76087.1337891	24.0688148544	859918.524963	22438639.1747	65424569.0975	-3
625000.0	11402.0	37926.8424422	0.11704514847	167136.608887	0.000473381703614	1.75293588638	102990.687798	82351.5808105	28.984055778	442081.449208	10262580.8189	65429273.5139	-3
650000.0	11834.0	41092.27443	0.111748516389	170310.498047	0.000481317158574	1.90543735027	120623.223683	95842.6818848	38.4704788494	341135.370569	13324815.6515	65433978.4373	-1
675000.0	12033.0	44423.9772621	0.110524896709	171344.384766	0.000506049332216	1.96182131767	127083.168361	100630.871582	43.8881561877	200806.982837	5784967.62663	65438683.868	-2
700000.0	12258.0	47908.4013811	0.109319861849	172696.289062	0.000528634814145	2.02735543251	134746.290991	106252.966309	50.322333186	160810.312957	5387306.45223	65443389.806	0
725000.0	12418.0	51582.4535578	0.108911447441	173385.107422	0.000556996099021	2.06512713432	139060.425632	109329.370117	55.5888546836	110752.124057	2337928.21639	65448096.2513	-1
750000.0	12554.0	55468.3397448	0.108800158711	173773.144531	0.000588761963627	2.09050655365	141848.475082	111253.686523	60.4494475099	78681.1141294	566090.873475	65452803.204	0
775000.0	12653.0	59599.1812279	0.108995856587	173775.610352	0.000625540508281	2.10164046288	142871.155752	111880.310059	64.5298019355	59795.8895548	9277.63215344	65457510.6642	0
800000.0	12751.0	63987.4308071	0.109209602666	173786.828613	0.000664184483412	2.11249828339	143874.962273	112492.456055	68.7679206786	54083.4884838	7600.00460015	65462218.6319	0
825000.0	12850.0	68644.7285476	0.109431120477	173811.71875	0.000704591172962	2.12330269814	144879.178971	113100.842285	73.2241036622	49003.2290265	5891.35813555	65466927.1071	0
850000.0	12948.0	73585.1905415	0.109678393124	173800.146484	0.000747175590732	2.13269877434	145691.949678	113561.645508	77.8444621224	44243.9708289	13545.7946914	65471636.09	0
875000.0	13046.0	78823.3227704	0.109938541628	173772.253418	0.000791883451257	2.14126014709	146391.830668	113934.130859	82.6642761657	40416.5804195	4125.62529288	65476345.5805	0
900000.0	13145.0	84372.2949654	0.110203262726	173782.739258	0.000838448727336	2.1504380703	147190.997888	114379.187012	87.7173356953	36798.1857341	3120.76258108	65481055.5789	0
925000.0	13243.0	90246.9356321	0.110485336334	173799.206543	0.000887238456926	2.15926241875	147962.442294	114804.333496	92.9429428082	33388.6441089	11224.5240261	65485766.085	0
950000.0	13341.0	96462.0122778	0.110779179165	173816.674805	0.000938265998229	2.16767978668	148691.111045	115196.557617	98.3820502241	30494.3744203	10659.4857365	65490477.0989	0
975000.0	13439.0	103033.44832	0.111085003054	173811.340332	0.000991743377199	2.17526960373	149306.733089	115502.46582	104.045285078	27885.3160599	10599.689284	65495188.6208	0
1000000.0	13537.0	109978.50966	0.111397265595	173785.083008	0.00104776324861	2.18207502365	149819.678043	115731.274414	109.939055211	25529.866756	10959.2362379	65499900.6506	0
1025000.0	13635.0	117314.002777	0.111714763924	173782.885742	0.00110614178084	2.18900299072	150378.641151	115997.021484	116.062080536	23407.8055764	11135.1590606	65504613.1885	0
1050000.0	13733.0	125056.36583	0.112040996446	173798.303223	0.00116696992336	2.19591665268	150958.170451	116279.333496	122.42123871	21491.971229	11274.5175196	65509326.2344	0
1075000.0	13831.0	133222.857351	0.112376823138	173818.261719	0.00123039978916	2.20250940323	151508.02204	116539.477539	129.025010896	19757.7285506	11605.3123367	65514039.7885	0
1100000.0	13929.0	141831.948652	0.112722775284	173824.060059	0.00129665249915	2.20847606659	151973.037469	116735.205078	135.884341031	18182.9030879	12503.8572851	65518753.8507	0
1125000.0	14027.0	150903.723111	0.113077216813	173799.304199	0.00136594985634	2.21364831924	152316.747467	116838.671875	143.010240171	16749.0014847	14308.7255197	65523468.4212	0
1150000.0	14125.0	160458.586025	0.113439588466	173787.670898	0.0014380925677	2.21873450279	152669.17759	116950.195312	150.400387353	15446.3544279	16407.105832	65528183.5	0
1175000.0	14223.0	170515.866898	0.113810639118	173795.495605	0.00151305175677	2.22380280495	153043.016132	117079.296875	158.048996356	14336.2208061	2558.51077311	65532899.0871	0
1200000.0	14322.0	181093.816669	0.114187967323	173824.023438	0.00159072760653	2.22890472412	153437.138833	117222.424316	166.002256945	13255.8559198	3173.17175211	65537615.1826	0
1225000.0	14420.0	192214.972693	0.114574828713	173838.134766	0.0016718245206	2.23329329491	153742.412266	117301.599121	174.173873098	12207.2686956	24045.0966161	65542331.7865	0
1250000.0	14518.0	203901.870034	0.114966942136	173831.054688	0.00175637001121	2.23705840111	153956.277206	117312.475586	182.622482106	11309.5817635	28643.6555474	65547048.8989	0
1275000.0	14616.0	216178.781953	0.115367434876	173804.089355	0.00184450891538	2.24047613144	154111.841505	117279.675293	191.355014532	10540.7514895	9763.5763638	65551766.5199	0
1300000.0	14715.0	229067.421099	0.115774281136	173806.408691	0.00193561072592	2.24409747124	154319.245419	117285.595703	200.415424443	9786.74368253	13186.6197266	65556484.6494	0
1325000.0	14813.0	242592.538068	0.116189105144	173812.744141	0.00203038189284	2.24730539322	154493.064482	117270.495605	209.708336843	9095.82756494	17643.7220355	65561203.2876	0
1350000.0	14912.0	256775.769755	0.116609078079	173835.717773	0.00212837881008	2.25039029121	154667.365502	117255.59082	219.347596131	8463.15815847	22540.9279424	65565922.4345	0
1375000.0	15010.0	271644.319332	0.1170340574	173842.76123	0.00223048937187	2.25276875496	154754.650714	117179.614258	229.238808854	7880.61939311	29354.30877	65570642.0901	0
1400000.0	15109.0	287222.376476	0.117466251205	173843.17627	0.00233629089053	2.25496172905	154812.660601	117080.700684	239.503990423	7381.98292153	7092.38855546	65575362.2545	0
1425000.0	15208.0	303538.133862	0.117906156425	173824.194336	0.00244627699431	2.25695252419	154829.747011	116951.330566	250.100844438	6884.95433686	13115.1856898	65580082.9277	0
1450000.0	15307.0	320619.667106	0.118352147346	173819.238281	0.00256010889643	2.25880694389	154849.63266	116826.245117	261.022790744	6427.45316815	20712.8934023	65584804.1097	0
1475000.0	15406.0	338493.851134	0.118803234522	173826.538086	0.00267789073405	2.2604174614	154856.664754	116693.737793	272.280857029	6005.72249438	29951.3724199	65589525.8007	0
1500000.0	15505.0	357188.499273	0.119258315944	173839.306641	0.00279981577478	2.26166915894	154830.953695	116539.050293	283.888245876	5616.21837462	41200.1681806	65594248.0007	0
1525000.0	15604.0	376732.303373	0.119720519375	173851.879883	0.00292604795504	2.26257944107	154770.602877	116360.693359	295.858220693	5282.45945453	11925.1212974	65598970.7096	0
1550000.0	15704.0	397152.366539	0.12019227077	173865.063477	0.00305638332065	2.26340222359	154699.209431	116173.266602	308.271125457	4947.47511865	21415.3635734	65603693.9276	0
1575000.0	15803.0	418484.103161	0.12066707427	173844.812012	0.00319212836075	2.26386976242	154560.906179	115938.500977	321.026948437	4635.43196218	35907.2714732	65608417.6547	0
1600000.0	15903.0	440758.535481	0.121146133818	173833.972168	0.00333211073666	2.26431632042	154426.912739	115706.616211	334.24947958	4368.3493039	7454.83693709	65613141.891	0
1625000.0	16003.0	464007.654955	0.121628603211	173834.375	0.00347665536538	2.26449918747	154276.229969	115464.84375	347.862858987	4099.25428165	18285.0336988	65617866.6364	0
1650000.0	16103.0	488262.869323	0.122118059632	173844.32373	0.00362584978575	2.26440787315	154106.544747	115211.560059	361.876094465	3849.64802476	33110.6338964	65622591.891	0
1675000.0	16203.0	513556.387966	0.122617120389	173859.887695	0.00377983906219	2.26407885551	153918.223115	114946.643066	376.299282331	3617.84489953	52554.2442646	65627317.6548	0
1700000.0	16303.0	539922.192098	0.123123081515	173872.753906	0.00393893014916	2.26351451874	153702.283237	114662.82959	391.151499353	3419.13080602	15240.5928277	65632043.928	0
1725000.0	16404.0	567392.691605	0.123634328778	173881.921387	0.00410292250308	2.26285767555	153469.023377	114365.441895	406.520955082	3217.43246421	32992.6699611	65636770.7105	0
1750000.0	16504.0	596010.710313	0.124141329247	173858.105469	0.00427340228271	2.26195216179	153181.097098	114030.078125	422.295130519	3028.40672964	59324.3849109	65641498.0024	0
1775000.0	16605.0	625811.850643	0.124654950149	173846.936035	0.00444867237093	2.26095128059	152895.680969	113697.302246	438.597589311	2866.89440992	18451.1536094	65646225.8037	0
1800000.0	16706.0	656832.304133	0.125177657915	173848.266602	0.0046291270337	2.25972151756	152601.868015	113361.132812	455.3588751	2702.44116507	41632.9687928	65650954.1145	0
1825000.0	16807.0	689108.576382	0.125708173652	173857.93457	0.00481497500004	2.25824666023	152292.277999	113015.893555	472.584771603	2549.10991187	72808.4409768	65655682.9347	0
1850000.0	16908.0	722678.74113	0.126244656813	173870.507812	0.00500647729496	2.25652813911	151959.886726	112655.895996	490.273870027	2417.92100788	24815.3566565	65660412.2645	0
1875000.0	17010.0	757578.119193	0.126787524649	173888.366699	0.0052032437452	2.25465106964	151611.98447	112284.58252	508.514240723	2295.12407887	1029.23933315	65665142.1038	0
1900000.0	17112.0	793847.755672	0.127334756724	173897.143555	0.00540618657396	2.25258135796	151236.042023	111894.384766	527.24419228	2169.05217826	10981.6347556	65669872.4527	0
1925000.0	17214.0	831531.030942	0.12788439357	173888.830566	0.00561571550861	2.25044417381	150839.335198	111490.258789	546.486083942	2050.83966838	39990.4579518	65674603.3113	0
1950000.0	17316.0	870673.974034	0.128435948484	173872.387695	0.00583175096835	2.24824786186	150431.684691	111079.553223	566.236829571	1940.06448994	83531.6654904	65679334.6795	0
1975000.0	17418.0	911320.544376	0.128993209925	173865.332031	0.00605386139796	2.24583673477	150013.141318	110663.28125	586.481771769	1845.44913327	29493.8111841	65684066.5575	0
2000000.0	17521.0	953508.007323	0.129559057906	173873.425293	0.00628142061032	2.24323773384	149587.747576	110242.724609	607.312163829	1748.23989483	71467.5418361	65688798.9451	0
2025000.0	17623.0	997284.616404	0.130128923162	173878.24707	0.00651613027003	2.24032020569	149131.296928	109803.369141	628.573828496	1656.86713502	129882.750145	65693531.8426	0
2050000.0	17726.0	1042688.98293	0.130711196251	173893.481445	0.00675654837323	2.23722147942	148663.749394	109356.689453	650.442005227	1586.7534873	6875.77841021	65698265.2498	0
2075000.0	17830.0	1089761.24251	0.131303019456	173913.269043	0.00700293730915	2.23401236534	148185.201859	108902.148438	672.928366456	1505.9676825	10677.4380198	65702999.1668	0
2100000.0	17933.0	1138555.93912	0.131891184389	173913.989258	0.00725753170627	2.23071599007	147682.358861	108432.324219	695.857761061	1429.7500659	54126.3885515	65707733.5937	0
2125000.0	18037.0	1189119.03436	0.132479486909	173904.370117	0.00751906736696	2.22752070427	147177.988179	107960.412598	719.418752954	1358.18172536	121652.019534	65712468.5306	0
2150000.0	18140.0	1241509.90396	0.133066382305	173882.69043	0.00778891990194	2.22422480583	146657.543948	107479.6875	743.430913133	1296.87369411	53517.7200784	65717203.9773	0
2175000.0	18245.0	1295765.01633	0.133671961422	173886.279297	0.00806368825579	2.22074508667	146136.69532	106998.205566	768.136570747	1239.49868123	5210.6186933	65721939.934	0
2200000.0	18349.0	1351939.12701	0.134280119915	173888.220215	0.00834652473714	2.21703696251	145595.265339	106505.273438	793.300386614	1179.45259122	53680.7350451	65726676.4007	0
2225000.0	18454.0	1410075.2508	0.134899000327	173901.525879	0.00863566128828	2.21314740181	145043.789399	106005.822754	819.111366901	1128.47681945	4275.07156871	65731413.3773	0
2250000.0	18559.0	1470224.6206	0.135522193075	173914.84375	0.00893237847777	2.20907592773	144475.113003	105495.861816	845.50355967	1075.08005469	56478.0314888	65736150.864	0
2275000.0	18664.0	1532439.35652	0.136152054397	173926.086426	0.00923682819121	2.20481491089	143887.370118	104974.047852	872.491268291	1024.68379645	146582.855866	65740888.8608	0
2300000.0	18769.0	1596774.18669	0.13678523724	173930.371094	0.00954944698606	2.20046591759	143287.224021	104444.934082	900.099229659	981.697302612	66692.1706723	65745627.3676	0
2325000.0	18875.0	1663279.27353	0.137422409802	173929.406738	0.00986958184512	2.19616341591	142687.031059	103915.637207	928.446210994	940.982598909	10140.6815569	65750366.3846	0
2350000.0	18981.0	1732015.66658	0.13805458521	173914.355469	0.0101986552181	2.19198679924	142090.116152	103389.599609	957.465139388	897.98193398	85982.4500742	65755105.9117	0
2375000.0	19087.0	1803042.99202	0.138691787482	173903.833008	0.0105357685243	2.18766713142	141483.679006	102858.544922	987.120073762	861.383942143	20675.2458347	65759845.949	0
2400000.0	19194.0	1876407.63928	0.13934459234	173907.48291	0.0108795284177	2.18309140205	140862.72928	102318.286133	1017.50243593	822.945164752	112994.379793	65764586.4964	0
2425000.0	19300.0	1952173.44842	0.139999300388	173908.398438	0.0112326833914	2.17834019661	140225.287972	101769.171143	1048.45034471	786.4307698	256396.734039	65769327.5541	0
2450000.0	19407.0	2030389.35248	0.140666152516	173918.603516	0.0115929960884	2.1734251976	139577.353582	101213.07373	1080.15926912	759.050276712	1629.43624281	65774069.122	0
2475000.0	19515.0	2111105.58305	0.141342931465	173934.936523	0.0119606829685	2.16840529442	138921.263902	100651.184082	1112.6488119	729.601439127	55246.290325	65778811.2002	0
2500000.0	19623.0	2194381.8426	0.142025542428	173948.31543	0.012337210137	2.16326975822	138250.100571	100079.376221	1145.84255312	695.077314291	206470.082768	65783553.7886	0
2525000.0	19730.0	2280289.66764	0.142705426653	173948.535156	0.012724390217	2.15811276436	137568.719987	99502.1789551	1179.67032423	668.463540601	110391.219314	65788296.8873	0
2550000.0	19839.0	2368875.91936	0.143396185131	173951.904297	0.0131185279315	2.1529917717	136890.928007	98926.3977051	1214.43542701	643.279757738	34785.904978	65793040.4964	0
2575000.0	19947.0	2460219.65589	0.144072103102	173934.692383	0.0135243426485	2.14811420441	136227.67836	98363.0126953	1249.88879881	616.233504294	179013.948199	65797784.6158	0
2600000.0	20056.0	2554380.31731	0.144755122731	173925.561523	0.0139380281325	2.1431646347	135565.822367	97801.6906738	1286.12155447	593.398514089	84397.6096476	65802529.2456	0
2625000.0	20165.0	2651420.30398	0.145448432107	173921.582031	0.0143606412166	2.13793945312	134883.449786	97227.9724121	1322.97171769	571.682309589	16199.8637673	65807274.3857	0
2650000.0	20275.0	2751391.19965	0.146159262463	173928.564453	0.0147907339851	2.1324095726	134179.492309	96640.0146484	1360.54455489	551.116135232	17525.522159	65812020.0363	0
2675000.0	20385.0	2854355.92455	0.146879049912	173938.146973	0.015230032659	2.12668013573	133459.695406	96042.6025391	1398.76974825	529.112612564	70111.9241206	65816766.1973	0
2700000.0	20495.0	2960379.28768	0.147605587885	173948.449707	0.0156788482855	2.12082076073	132729.147725	95439.1052246	1437.67579573	510.506497895	8704.19193418	65821512.8687	0
2725000.0	20606.0	3069516.94079	0.148343861188	173963.720703	0.0161358075275	2.11485719681	131991.238079	94830.7800293	1477.3752332	490.605251505	164687.447327	65826260.0506	0
2750000.0	20716.0	3181849.26566	0.149075758193	173968.518066	0.0166046720551	2.10897469521	131256.833524	94226.8798828	1517.72592207	473.682541941	74010.3085738	65831007.7429	0
2775000.0	20828.0	3297425.25229	0.149820221621	173978.894043	0.0170807288669	2.10310173035	130525.52103	93624.4018555	1559.02804474	457.643812658	10660.1892515	65835755.9457	0
2800000.0	20939.0	3416331.46008	0.150550063744	173972.558594	0.0175696732185	2.09749245644	129812.495878	93036.5722656	1601.05327983	440.193430332	191443.915286	65840504.659	0
2825000.0	21051.0	3538634.57542	0.151278124547	173961.584473	0.018068260033	2.09207749367	129116.923759	92461.1999512	1644.00556069	425.487640502	92308.717099	65845253.8829	0
2850000.0	21163.0	3664411.61965	0.152005824076	173952.209473	0.018577244191	2.08668637276	128427.498388	91891.6625977	1687.7617273	411.397967138	18718.9684362	65850003.6173	0
2875000.0	21276.0	3793722.57772	0.152741481747	173951.35498	0.0190947812371	2.08123350143	127738.776279	91323.3520508	1732.41997672	397.970486052	18162.5929493	65854753.8622	0
2900000.0	21389.0	3926637.3978	0.153486822205	173953.259277	0.0196225028049	2.07556700706	127032.423279	90744.1833496	1777.89286174	383.407183939	120005.568649	65859504.6177	0
2925000.0	21502.0	4063226.36486	0.154244475293	173957.421875	0.020160467102	2.06964230537	126303.729224	90150.8483887	1824.19075951	371.135023193	38051.9722322	65864255.8838	0
2950000.0	21616.0	4203547.87826	0.155019969294	173968.42041	0.0207069024327	2.06346559525	125554.971048	89544.0979004	1871.42099473	359.430195452	2089.88959578	65869007.6605	0
2975000.0	21730.0	4347675.12266	0.155802281993	173978.747559	0.021264055249	2.05717420578	124796.498881	88931.9091797	1919.51153919	346.671035957	194734.999913	65873759.9478	0
3000000.0	21844.0	4495683.7221	0.156588087594	173986.621094	0.0218323075387	2.0508480072	124035.290543	88319.0917969	1968.48555698	335.923560232	99757.2369675	65878512.7458	0
3025000.0	21959.0	4647637.71059	0.15738190721	173995.593262	0.0224099421757	2.04449987411	123274.183515	87706.8847656	2018.45421107	325.646358388	28224.232285	65883266.0543	0
3050000.0	22074.0	4803617.70407	0.1581712177	173997.729492	0.0229994620895	2.03828597069	122524.976873	87104.1870117	2069.34135983	314.384760066	330953.805165	65888019.8735	0
3075000.0	22189.0	4963708.11642	0.158951159069	173990.356445	0.0236014711845	2.03230142593	121795.810429	86516.5893555	2121.1876697	304.892929163	213697.979888	65892774.2033	0
3100000.0	22305.0	5127981.28907	0.159730617881	173981.677246	0.0242136120505	2.02645421028	121081.922984	85940.2099609	2174.05605061	297.079468821	165645.846467	65897529.0438	0
3125000.0	22422.0	5296505.29218	0.160516911187	173980.554199	0.0248348205787	2.02058839798	120373.162987	85368.1945801	2227.89474227	287.120116767	30753.1097249	65902284.395	0
3150000.0	22538.0	5469375.12888	0.161292200676	173975.708008	0.0254698534263	2.01485681534	119679.226066	84808.5327148	2282.43760646	277.534537529	365671.44123	65907040.2569	0
3175000.0	22655.0	5646653.66587	0.162084410565	173977.905273	0.0261139448412	2.00889778137	118968.035182	84237.3535156	2337.80492653	270.719576153	76801.7439352	65911796.6295	0
3200000.0	22773.0	5828403.14003	0.16289558738	173986.437988	0.0267670020548	2.00268125534	118235.950015	83652.0690918	2393.97644555	261.968665009	131819.769171	65916553.5128	0
3225000.0	22890.0	6014718.94418	0.163705863508	173990.185547	0.0274340127362	1.99641442299	117498.680617	83064.8803711	2450.80866015	254.619106815	49504.9229491	65921310.9068	0
3250000.0	23009.0	6205649.56626	0.164538736884	174003.466797	0.0281079628621	1.98993194103	116745.789624	82466.619873	2508.53004911	247.647102517	1628.183624	65926068.8116	0
3275000.0	23127.0	6401294.08678	0.165364675225	174009.741211	0.0287964430754	1.98352622986	115999.268864	81874.4689941	2566.92593385	239.880206385	351006.042366	65930827.2271	0
3300000.0	23246.0	6601720.94308	0.166198012203	174017.736816	0.0294948840747	1.97710812092	115254.028075	81283.6975098	2626.15637905	234.43134324	113312.784388	65935586.1533	0
3325000.0	23366.0	6807000.07549	0.167035147478	174025.830078	0.0302035259665	1.97074401379	114516.00839	80698.4558105	2686.23144598	227.295216109	138759.348909	65940345.5903	0
3350000.0	23485.0	7017238.98481	0.167854059353	174022.436523	0.0309280076181	1.96465933323	113802.657961	80132.0861816	2747.04730683	221.312123206	54355.9849318	65945105.5381	0
3375000.0	23606.0	7232495.77585	0.1686774044	174020.300293	0.0316609475703	1.95868825912	113103.165437	79575.390625	2808.81441046	215.614343942	1585.71723891	65949865.9966	0
3400000.0	23726.0	7452883.13167	0.169481797463	174010.046387	0.0324096436088	1.95298814774	112430.269895	79039.1479492	2871.32398728	209.206184005	391956.492019	65954626.9659	0
3425000.0	23847.0	7678472.19586	0.170294231187	174006.347656	0.0331680239469	1.94722568989	111757.988967	78504.2785645	2934.6607739	204.771907017	143457.024858	65959388.4459	0
3450000.0	23969.0	7909328.48217	0.171124125684	174008.80127	0.0339357720804	1.94123089314	111068.824107	77958.4960938	2998.8151192	198.879008069	141876.904326	65964150.4368	0
3475000.0	24090.0	8145555.63239	0.17195195435	174007.775879	0.0347185923602	1.93519771099	110377.221243	77412.7441406	3063.69237249	193.969440833	53329.9654651	65968912.9385	0
3500000.0	24213.0	8387201.50517	0.172802695296	174016.503906	0.0355081865564	1.92893576622	109669.827231	76856.1096191	3129.46462702	189.301346035	2093.77418448	65973675.951	0
3525000.0	24335.0	8634371.91604	0.173646884142	174020.788574	0.0363132094208	1.92272853851	108968.085982	76304.9560547	3196.00667334	184.004386329	476947.430981	65978439.4743	0
3550000.0	24458.0	8887136.00272	0.174500160259	174028.930664	0.0371281712432	1.91646695137	108264.616999	75753.1005859	3263.42968135	180.394091607	119114.010796	65983203.5085	0
3575000.0	24582.0	9145563.34754	0.175359678693	174039.990234	0.0379531811632	1.9101998806	107563.747832	75203.5461426	3331.75555153	175.496166506	228364.921981	65987968.0534	0
3600000.0	24705.0	9409765.66298	0.176204282	174044.384766	0.038794525608	1.90413439274	106881.49018	74668.3227539	3400.94805317	171.425791374	120817.582734	65992733.1093	0
3625000.0	24830.0	9679795.91721	0.177058017293	174054.089355	0.0396434479626	1.89808297157	106204.926471	74137.1582031	3471.13539279	167.543229919	37122.6062893	65997498.6759	0
3650000.0	24954.0	9955770.63139	0.17789028926	174055.004883	0.0405094542657	1.89232993126	105555.678709	73626.3916016	3542.25781098	163.743592064	7073.37280123	66002264.7534	0
3675000.0	25080.0	10237746.181	0.17872737605	174058.581543	0.0413835805375	1.88663876057	104916.167542	73122.644043	3614.44856882	160.112985912	83759.9124785	66007031.3418	0
3700000.0	25205.0	10525843.222	0.179549762587	174050.646973	0.0422753946623	1.88110184669	104288.978286	72628.9428711	3687.59632821	155.934830964	309524.587861	66011798.441	0
3725000.0	25331.0	10820140.0794	0.18038090038	174044.616699	0.0431776643381	1.87547039986	103656.722642	72132.5561523	3761.57594839	152.534792761	172148.545513	66016566.051	0
3750000.0	25457.0	11120730.2706	0.181214491512	174039.953613	0.0440929507022	1.86977827549	103022.616913	71636.1816406	3836.29832856	149.245417425	63188.0846866	66021334.1719	0
3775000.0	25584.0	11427682.4579	0.182058067192	174040.515137	0.0450180014013	1.86397850513	102383.72824	71137.3413086	3911.7877152	146.089135314	582.141923003	66026102.8037	0
3800000.0	25711.0	11741087.6485	0.182900743812	174042.041016	0.045956188842	1.85818266869	101748.586719	70642.2241211	3988.01811202	143.033020402	58438.1850488	66030871.9463	0
3825000.0	25839.0	12061015.1866	0.183749631454	174048.10791	0.0469042752229	1.8523491621	101114.668796	70148.6755371	4064.99754342	140.098893637	174515.236005	66035641.5998	0
3850000.0	25967.0	12387557.7328	0.184593663712	174054.431152	0.0478657530039	1.84659147263	100490.677404	69663.0004883	4142.71685801	136.721087328	258493.41454	66040411.7643	0
3875000.0	26095.0	12720809.6449	0.185430515106	174060.522461	0.0488408768433	1.8409460783	99879.7553953	69187.3413086	4221.1665823	133.976748888	114454.295076	66045182.4396	0
3900000.0	26224.0	13060843.0005	0.186266699838	174069.750977	0.0498263361806	1.8353767395	99279.7136481	68719.7631836	4300.36997753	131.338511825	12785.04424	66049953.6258	0
3925000.0	26353.0	13407754.7599	0.187093867566	174077.416992	0.050825841754	1.82993328571	98693.4564635	68262.713623	4380.31397632	128.280434493	703319.787462	66054725.3229	0
3950000.0	26482.0	13761643.9579	0.187917031101	174082.397461	0.0518396846019	1.82451748848	98111.3758683	67809.6252441	4461.00937557	125.804730795	469028.772409	66059497.5309	0
3975000.0	26612.0	14122586.0465	0.188743970666	174087.841797	0.0528643795406	1.81908071041	97529.8994087	67357.5866699	4542.44818252	123.896854899	403531.601667	66064270.2498	0
4000000.0	26743.0	14490656.8437	0.189573302059	174093.139648	0.0538999884157	1.81365001202	96951.0886844	66907.9589844	4624.62215914	121.12849026	101146.264216	66069043.4796	0
4025000.0	26873.0	14865983.7562	0.190386634792	174090.283203	0.0549541946384	1.8083987236	96387.4244948	66469.8364258	4707.55900869	118.422082791	993217.120302	66073817.2203	0
4050000.0	27004.0	15248646.2691	0.191199637431	174085.766602	0.0560198823223	1.80321204662	95830.8170027	66036.9506836	4791.24668858	116.70505663	94977.7322128	66078591.472	0
4075000.0	27136.0	15638723.8085	0.19201287977	174081.286621	0.0570965275983	1.79807782173	95280.8852248	65609.0576172	4875.64047229	114.614720551	285062.283217	66083366.2345	0
4100000.0	27268.0	16036316.452	0.192821616155	174078.076172	0.058186800743	1.79300510883	94739.5667824	65187.9821777	4960.69827089	112.159700984	216153.915728	66088141.5079	0
4125000.0	27400.0	16441520.237	0.193624143042	174076.220703	0.0592907745158	1.78801524639	94208.674494	64774.9267578	5046.39768031	110.19688503	42236.539669	66092917.2922	0
4150000.0	27533.0	16854404.6925	0.19442751967	174078.967285	0.0604046217632	1.78306007385	93685.2554397	64367.6269531	5132.70966441	108.30929388	47441.6151124	66097693.5875	0
4175000.0	27666.0	17275067.0377	0.195224759371	174082.006836	0.0615324752289	1.7781419754	93168.4583618	63966.003418	5219.67830564	106.074985887	558778.110415	66102470.3936	0
4200000.0	27799.0	17703606.0396	0.196017039254	174084.912109	0.0626745022601	1.7732360363	92655.9471165	63568.5180664	5307.30467319	104.297577259	265960.376733	66107247.7107	0
4225000.0	27933.0	18140093.2236	0.196812395823	174090.83252	0.0638267301838	1.76829040051	92143.7913354	63172.052002	5395.51932919	102.586931724	52234.825775	66112025.5387	0
4250000.0	28067.0	18584627.8483	0.197602521139	174096.264648	0.0649932044325	1.76338589191	91637.5963297	62780.6213379	5484.37521009	100.921920498	56680.6902562	66116803.8777	0
4275000.0	28202.0	19037281.7437	0.198395037097	174104.199219	0.0661699232296	1.7584747076	91133.9034808	62391.5161133	5573.81920731	99.3185411796	296366.668555	66121582.7276	0
4300000.0	28337.0	19498154.9184	0.199181600563	174111.096191	0.0673610484228	1.75364005566	90638.5264377	62008.8500977	5663.9569731	97.3950629646	251568.417676	66126362.0884	0
4325000.0	28472.0	19967348.8948	0.199961574309	174116.625977	0.0685668273945	1.74890065193	90152.6652426	61633.3374023	5754.83205241	95.8775347223	26130.8045928	66131141.9601	0
4350000.0	28608.0	20444937.2461	0.200741877483	174123.632812	0.0697830837453	1.74421417713	89673.3810207	61262.6403809	5846.34347757	94.4141880885	113703.964495	66135922.3428	0
4375000.0	28744.0	20931023.0154	0.201514003247	174128.479004	0.0710142339813	1.73966372013	89206.5426028	60900.9521484	5938.52108461	92.6461035273	497738.122792	66140703.2365	0
4400000.0	28880.0	21425712.2441	0.202276053139	174130.285645	0.0722606782801	1.73523521423	88751.1819254	60547.7722168	6031.35731563	91.259371474	152121.780948	66145484.6411	0
4425000.0	29017.0	21929083.4339	0.203034944264	174131.103516	0.0735183857614	1.73083746433	88300.8475154	60198.7487793	6124.76384145	89.9214151414	20005.1155187	66150266.5566	0
4450000.0	29154.0	22441245.8694	0.20378362915	174127.380371	0.0747918966226	1.72653722763	87859.689589	59856.7810059	6218.78386958	88.2928128344	717800.483015	66155048.983	0
4475000.0	29291.0	22962309.8143	0.204524670646	174120.727539	0.0760808106861	1.72231340408	87426.1541313	59520.715332	6313.33905167	87.0244719868	275923.775887	66159831.9205	0
4500000.0	29429.0	23492349.4173	0.205268991536	174117.871094	0.0773794599809	1.71805846691	86993.4648353	59185.8215332	6408.26939779	85.8043870492	6021.46458725	66164615.3688	0
4525000.0	29567.0	24031464.4431	0.206009986782	174115.83252	0.0786923337728	1.71384012699	86565.8606372	58855.0231934	6503.58454097	84.6168178763	228191.541002	66169399.328	0
4550000.0	29706.0	24579722.7898	0.206755209716	174117.51709	0.0800147754489	1.7096092701	86139.9021353	58525.6835938	6599.15073664	83.1753067874	385801.21656	66174183.7982	0
4575000.0	29844.0	25137255.8665	0.207490548585	174117.053223	0.0813561637187	1.70549237728	85723.8970324	58203.7109375	6695.13611541	82.0552492353	36690.2462595	66178968.7794	0
4600000.0	29984.0	25704099.5754	0.20823748434	174122.998047	0.0827023905003	1.7013297081	85307.1226166	57881.2072754	6791.1753228	80.9935168452	177820.560168	66183754.2715	0
4625000.0	30123.0	26280386.9044	0.208972282638	174126.318359	0.0840678258101	1.69729077816	84901.1848131	57566.7297363	6887.54850831	79.6608129165	475310.471055	66188540.2745	0
4650000.0	30263.0	26866188.7794	0.209705742271	174132.03125	0.0854432655615	1.69324719906	84498.1589841	57254.9499512	6984.0009538	78.6596823163	62776.9640206	66193326.7885	0
4675000.0	30403.0	27461608.6932	0.210432015618	174137.182617	0.0868335264386	1.68925344944	84101.27905	56948.1140137	7080.60677882	77.685161816	176818.509656	66198113.8135	0
4700000.0	30544.0	28066717.0881	0.211159063444	174144.311523	0.0882337481016	1.68525648117	83706.6443908	56643.3410645	7177.177606	76.4779050921	493627.082242	66202901.3494	0
4725000.0	30684.0	28681651.6958	0.211874262295	174147.827148	0.0896538549569	1.68136525154	83321.0768145	56345.4711914	7273.93936031	75.5590932798	47715.8927801	66207689.3963	0
4750000.0	30826.0	29306449.8931	0.212598977571	174155.59082	0.0910790549824	1.6774251461	82934.100384	56046.8261719	7370.41936033	74.6908831383	224815.389276	66212477.9542	0
4775000.0	30967.0	29941250.3334	0.213313717082	174159.326172	0.0925242784433	1.67359924316	82556.0913653	55754.7973633	7466.99838039	73.5736708994	458385.742606	66217267.023	0
4800000.0	31109.0	30586124.9733	0.214032950929	174164.135742	0.0939796955208	1.66979157925	82180.3726008	55464.3859863	7563.32310971	72.7562248734	24692.8075513	66222056.6029	0
4825000.0	31251.0	31241179.9615	0.214750585836	174167.041016	0.0954503484536	1.66606044769	81810.5708889	55178.1433105	7659.50268895	71.7087838449	1132001.21154	66226846.6937	0
4850000.0	31393.0	31906524.3831	0.215462423128	174167.382812	0.096936681075	1.6624161005	81447.8493625	54896.9909668	7755.50872075	70.9390282271	425956.228293	66231637.2954	0
4875000.0	31536.0	32582234.3617	0.216171530242	174167.114258	0.0984338257695	1.65880906582	81089.6479131	54619.3054199	7851.11459501	70.2021679805	4154.3826942	66236428.4082	0
4900000.0	31679.0	33268422.0995	0.216872199454	174163.208008	0.0999471085379	1.6552901268	80738.8613485	54347.1069336	7946.52038756	69.4847346765	393543.370049	66241220.032	0
4925000.0	31823.0	33965163.1169	0.217574017009	174160.095215	0.101470497611	1.6517791748	80390.3655948	54076.8005371	8041.97291432	68.5556429904	336973.91949	66246012.1667	0
4950000.0	31966.0	34672600.2658	0.218267192343	174155.065918	0.103013735497	1.64834058285	80048.3477692	53811.4868164	8137.93758604	67.6359575721	1879456.49636	66250804.8124	0
4975000.0	32110.0	35390799.4479	0.218966330389	174153.186035	0.104566221125	1.64487493038	79706.0211136	53546.2036133	8233.89918132	67.2143731093	570591.681105	66255597.9691	0
5000000.0	32255.0	36119825.0042	0.219672745899	174154.370117	0.106127656181	1.6413807869	79363.0484122	53280.657959	8329.77587144	66.5836500559	1458954.671	66260391.6367	0
5025000.0	32400.0	36859777.9439	0.220381163474	174156.091309	0.107703483081	1.63790643215	79022.2524352	53016.796875	8425.66801877	65.7414514447	98678.3490117	66265185.8153	0
5050000.0	32545.0	37610759.8658	0.221092510019	174158.349609	0.109293774585	1.63445317745	78683.4652402	52754.4189453	8521.53188809	64.9199353263	844332.463023	66269980.505	0
5075000.0	32690.0	38372874.5949	0.221801285106	174160.583496	0.110898879939	1.63102972507	78348.557077	52495.1782227	8617.25638999	64.340129052	166799.628459	66274775.7056	0
5100000.0	32836.0	39146188.6438	0.222512754033	174165.063477	0.112513247586	1.62759339809	78014.8027984	52237.1337891	8712.55419465	63.7859151852	166076.936531	66279571.4172	0
5125000.0	32982.0	39930806.5898	0.223221507499	174169.238281	0.114142603707	1.62419056892	77684.6552867	51981.9641113	8807.55194361	63.0305616243	766790.058386	66284367.6398	0
5150000.0	33128.0	40726833.6535	0.223928860491	174172.98584	0.115786882816	1.62082123756	77357.5953136	51729.1870117	8902.17790629	62.5083439286	104632.669273	66289164.3734	0
5175000.0	33275.0	41534336.0625	0.224642226678	174178.540039	0.117440475151	1.61744177341	77030.3207497	51476.3305664	8996.06217364	62.0114128702	252936.193819	66293961.618	0
5200000.0	33422.0	42353418.8916	0.2253563989	174183.447266	0.119109026855	1.61409687996	76705.2735128	51225.0488281	9089.35962939	61.3206886045	707336.898953	66298759.3737	0
5225000.0	33569.0	43184187.7684	0.226072445739	174187.597656	0.120792654343	1.61078691483	76382.098292	50974.9847412	9181.99132688	60.8555478944	75357.6309607	66303557.6404	0
5250000.0	33717.0	44026708.758	0.22679788917	174192.993164	0.122485536849	1.60746788979	76057.564784	50723.7365723	9273.57116936	60.4153117869	285955.513325	66308356.4181	0
5275000.0	33865.0	44881088.1929	0.227525139868	174197.167969	0.124193553347	1.6041880846	75734.9913515	50473.6602783	9364.27524964	59.787731946	765537.68152	66313155.7068	0
5300000.0	34013.0	45747435.22	0.228249641515	174199.609375	0.125917169498	1.6009542942	75415.8072955	50226.0040283	9454.04979857	59.3784395026	107963.844564	66317955.5066	0
5325000.0	34162.0	46625818.2674	0.228977996886	174202.355957	0.127650419017	1.59772515297	75097.3175257	49978.8024902	9542.45310128	58.9935052644	244546.965068	66322755.8174	0
5350000.0	34311.0	47516347.5163	0.229703844813	174202.893066	0.129399355501	1.59454321861	74782.2834	49734.0698242	9629.69511953	58.4267988634	898040.494227	66327556.6393	0
5375000.0	34460.0	48419133.7128	0.23042734637	174201.049805	0.131164168124	1.5914106369	74470.774202	49491.8273926	9715.70772415	58.0721236991	171951.476263	66332357.9722	0
5400000.0	34610.0	49334246.7467	0.231155241625	174198.730469	0.132938745082	1.588285923	74160.0213006	49250.1068115	9800.02424131	57.7414491658	178934.739651	66337159.8162	0
5425000.0	34760.0	50261798.0656	0.231882596521	174194.555664	0.134728878038	1.58520162106	73852.0660998	49010.3851318	9882.85864372	57.2344656837	1099540.72349	66341962.1712	0
5450000.0	34910.0	51201895.0656	0.232613614419	174190.808105	0.136533519253	1.58212649822	73544.8579517	48771.2982178	9964.07362264	56.9351122413	300596.448781	66346765.0373	0
5475000.0	35061.0	52154597.8269	0.233355591566	174189.660645	0.138346396852	1.57901990414	73235.4998166	48530.7250977	10043.1547676	56.660732246	64666.9165795	66351568.4145	0
5500000.0	35212.0	53120009.5104	0.234099285954	174188.720703	0.140173884574	1.57592749596	72927.4065813	48291.1865234	10120.3964363	56.2153268518	1495853.63454	66356372.3027	0
5525000.0	35363.0	54098234.6074	0.2348442117	174187.902832	0.14201621525	1.57284986973	72620.7086872	48052.7862549	10195.7131028	55.9725048078	595138.290151	66361176.702	0
5550000.0	35515.0	55089333.2871	0.235597360602	174189.208984	0.143866811413	1.56974649429	72312.6135323	47813.5040283	10268.5908305	55.7542431736	35869.743189	66365981.6124	0
5575000.0	35667.0	56093409.0212	0.236352398989	174190.527344	0.145732090459	1.56665670872	72005.7283337	47575.2197266	10339.99118	55.5475071083	347739.125746	66370787.0339	0
5600000.0	35820.0	57110520.4188	0.237116421038	174193.798828	0.147605504026	1.56354165077	71697.2770521	47335.8947754	10409.7047477	55.360188315	1142448.24797	66375592.9664	0
5625000.0	35973.0	58140770.5622	0.237883185929	174196.948242	0.149493454956	1.56044006348	71389.8454918	47097.3907471	10478.1394945	55.0028757055	358676.17387	66380399.4101	0
5650000.0	36126.0	59184262.3924	0.238653187741	174199.902344	0.15139603056	1.55735230446	71083.3136987	46859.5977783	10545.2293634	54.8362617697	19420.7057693	66385206.3649	0
5675000.0	36280.0	60241053.6296	0.239433712381	174204.516602	0.15330655151	1.55423903465	70774.9303356	46620.5078125	10610.4535326	54.6887806971	510187.108905	66390013.8308	0
5700000.0	36434.0	61311248.4681	0.240217157982	174208.59375	0.155231828103	1.55114412308	70467.5364867	46382.144165	10674.2526669	54.3742624826	1095062.21519	66394821.8079	0
5725000.0	36588.0	62394952.1419	0.241002479261	174211.962891	0.15717203496	1.54806888103	70161.3900804	46144.720459	10736.5727021	54.2467715708	374326.328858	66399630.2961	0
5750000.0	36743.0	63492224.281	0.241796297522	174216.430664	0.159120478202	1.54497623444	69854.0596153	45906.4941406	10796.8498541	54.1380671602	1847.05454674	66404439.2955	0
5775000.0	36898.0	64603170.3361	0.242591349498	174219.970703	0.161083880812	1.54190540314	69548.391048	45669.5556641	10855.5701332	54.0386509638	409106.154006	66409248.8061	0
5800000.0	37054.0	65727848.9232	0.243394189463	174224.389648	0.163055374287	1.53881895542	69241.9150098	45432.1289062	10912.1174287	53.9580304033	1121787.4063	66414058.8278	0
5825000.0	37210.0	66866365.0894	0.24419778284	174227.697754	0.16504173982	1.5357568264	68937.4534508	45196.2463379	10966.9963743	53.714614416	675739.826444	66418869.3608	0
5850000.0	37366.0	68018824.7502	0.245001776923	174229.772949	0.167043137481	1.53271913528	68635.1216436	44962.0147705	11020.1667892	53.6534572137	132007.351656	66423680.405	0
5875000.0	37523.0	69185286.3155	0.24581309947	174232.324219	0.169052640558	1.52966964245	68332.4456676	44727.6489258	11071.0055616	53.6109659147	120177.579206	66428491.9604	0
5900000.0	37680.0	70365857.0978	0.246624998648	174233.203125	0.171077321284	1.52664494514	68031.7484974	44494.7906494	11120.0397196	53.4077032577	2222887.23272	66433304.027	0
5925000.0	37837.0	71560646.3045	0.247436848593	174232.189941	0.173117499799	1.52364802361	67733.1406256	44263.494873	11167.2555116	53.3843016561	1349925.48618	66438116.6049	0
5950000.0	37995.0	72769715.0555	0.248254795842	174230.92041	0.175166118424	1.5206451416	67434.3858316	44032.1655273	11211.9878171	53.5483676811	2315620.1406	66442929.6941	0
5975000.0	38154.0	73993122.7472	0.249078020856	174229.272461	0.177223002538	1.51764082909	67135.8580726	43801.0681152	11254.1928775	53.3931318489	146266.414404	66447743.2946	0
6000000.0	38312.0	75231027.1311	0.249892698109	174224.21875	0.179302092874	1.51470649242	66842.606809	43573.8464355	11295.0313256	53.2391713632	3565464.43235	66452557.4063	0
6025000.0	38471.0	76483484.2292	0.250716198954	174221.008301	0.181388284545	1.51174759865	66548.0363504	43345.8068848	11333.1929681	53.4404299527	569549.640507	66457372.0294	0
6050000.0	38631.0	77750544.7919	0.251548358646	174219.750977	0.183481213753	1.50876498222	66252.2645722	43117.0410156	11368.6122619	53.4932669531	1237705.45438	66462187.1638	0
6075000.0	38791.0	79032307.7278	0.252382051533	174218.652344	0.18558804004	1.50579810143	65957.9865891	42889.4836426	11401.8510883	53.3897523512	994058.125695	66467002.8095	0
6100000.0	38951.0	80328873.4282	0.253218735911	174217.553711	0.187709112652	1.50284099579	65664.4651764	42662.5579834	11432.965014	53.4634510004	417626.679044	66471818.9666	0
6125000.0	39112.0	81640293.2715	0.25406574156	174218.041992	0.189837068319	1.49985682964	65369.0076925	42434.2987061	11461.1810733	53.5569582818	52956.6354583	66476635.635	0
6150000.0	39273.0	82966667.6248	0.254915117109	174218.371582	0.191979226656	1.49688446522	65074.5532487	42206.8786621	11487.1710765	53.6608786686	141788.937564	66481452.8148	0
6175000.0	39435.0	84308046.0589	0.255773325886	174220.178223	0.19412804977	1.49388921261	64778.7921952	41978.6651611	11510.1992053	53.7848257152	547316.880629	66486270.5059	0
6200000.0	39597.0	85664527.793	0.25663249635	174221.801758	0.196290915483	1.49090886116	64484.593079	41751.7578125	11530.9184112	53.9195753875	1100229.40443	66491088.7085	0
6225000.0	39760.0	87036160.9807	0.257499102441	174224.804688	0.198460227693	1.48791074753	64189.7365949	41524.5758057	11548.5679335	54.0748670207	1747023.9422	66495907.4224	0
6250000.0	39923.0	88423043.8571	0.258365262703	174227.539062	0.200643378776	1.48493218422	63897.035217	41299.1760254	11563.9080442	54.0751827382	915144.617596	66500726.6478	0
6275000.0	40086.0	89825275.9709	0.25923079671	174229.907227	0.202840485144	1.48197245598	63606.5099916	41075.5889893	11577.0565846	54.2517153029	433890.14101	66505546.3847	0
6300000.0	40250.0	91242906.1839	0.260105101138	174233.276367	0.205044314498	1.4789917469	63314.735193	40851.2664795	11587.2808399	54.4480818626	105638.651279	66510366.633	0
6325000.0	40414.0	92676035.0509	0.260980597431	174235.986328	0.207262288313	1.47602498531	63024.3213378	40628.1158447	11595.4005423	54.6544737495	42708.1255737	66515187.3927	0
6350000.0	40579.0	94124711.3844	0.261863560493	174239.599609	0.209486781387	1.47304165363	62733.2291533	40404.6569824	11600.6597468	54.8806187898	303600.707478	66520008.664	0
6375000.0	40744.0	95589034.9777	0.262745950974	174242.51709	0.211725360714	1.47007787228	62444.2730893	40182.9467773	11603.8571841	55.116810561	692600.752327	66524830.4468	0
6400000.0	40910.0	97069051.8212	0.263634059705	174246.240234	0.213970168261	1.46710407734	62155.4131774	39961.5081787	11604.2394069	55.3728612832	1159708.02333	66529652.7412	0
6425000.0	41076.0	98564861.7218	0.264519717715	174249.230957	0.216228945646	1.46415674686	61869.4263392	39742.3553467	11602.6341558	55.4718233728	1869063.17458	66534475.5471	0
6450000.0	41242.0	100076563.533	0.265401941533	174251.416016	0.218501692871	1.46124017239	61586.6980383	39525.7568359	11599.0677262	55.7475580523	1314834.19649	66539298.8646	0
6475000.0	41409.0	101604203.778	0.266288987812	174254.174805	0.220780697418	1.45831716061	61304.3919407	39309.6740723	11592.7909268	56.0430731518	841439.666649	66544122.6937	0
6500000.0	41576.0	103147883.949	0.267174903432	174255.761719	0.223073977395	1.45541620255	61024.2502961	39095.3308105	11584.6476129	56.3483925539	442673.078032	66548947.0344	0
6525000.0	41744.0	104707651.792	0.268065979588	174257.543945	0.225373660214	1.45250928402	60744.2743807	38881.2805176	11573.8665322	56.8421910348	4599410.75342	66553771.8868	0
6550000.0	41913.0	106283552.922	0.268961242955	174259.49707	0.227679498494	1.4495998621	60464.8307983	38667.7947998	11560.4423681	57.0188055652	850.052662452	66558597.2508	0
6575000.0	42081.0	107875741.016	0.269845179026	174258.679199	0.230007310165	1.4467574358	60190.9103703	38458.4259033	11546.1209828	57.3637407001	189307.806541	66563423.1266	0
6600000.0	42251.0	109484206.338	0.270738561802	174259.289551	0.232333142776	1.44388926029	59915.9220308	38248.425293	11528.386596	57.7392751806	504182.723335	66568249.514	0
6625000.0	42420.0	111109102.267	0.271618459288	174256.994629	0.234680745052	1.44109523296	59647.1047864	38042.9962158	11509.8074428	57.9437403312	3194146.33912	66573076.4131	0
6650000.0	42590.0	112750472.96	0.272498907387	174254.492188	0.237034371821	1.43831396103	59380.0073288	37838.9160156	11488.7729671	58.5103474138	1528128.99763	66577903.824	0
6675000.0	42761.0	114408363.372	0.273383888088	174252.270508	0.239393586526	1.43553102016	59113.1184543	37635.0646973	11465.2715696	58.9268409418	2154080.82249	66582731.7467	0
6700000.0	42932.0	116082870.236	0.274268035658	174249.87793	0.241765985265	1.43276703358	58848.0295573	37432.6293945	11440.2103419	59.1807699917	1327518.95786	66587560.1812	0
6725000.0	43103.0	117774088.111	0.275150393494	174247.351074	0.244151538936	1.43002188206	58584.9872961	37231.8359375	11413.6122611	59.6175858828	826577.154869	66592389.1274	0
6750000.0	43275.0	119482053.373	0.276037847482	174246.09375	0.246541865636	1.42726433277	58321.9410787	37031.2652588	11384.6507869	60.0758095869	421650.447984	66597218.5856	0
6775000.0	43447.0	121206858.167	0.276922085557	174244.812012	0.248945114436	1.42452609539	58061.3843077	36832.7331543	11354.2542547	60.544766092	110500.775929	66602048.5555	0
6800000.0	43620.0	122948537.143	0.277809651523	174244.86084	0.251352845225	1.42177784443	57801.4128351	36634.9212646	11321.5519551	61.2120663761	6326493.1488	66606879.0374	0
6825000.0	43794.0	124707123.674	0.278699888156	174246.228027	0.253764912486	1.41902017593	57542.2823208	36438.0584717	11286.6262567	61.5485677618	283578.085905	66611710.0311	0
6850000.0	43967.0	126482767.74	0.279579653062	174246.09375	0.256198196439	1.4163081646	57287.6626579	36244.7387695	11251.2523832	61.8832895791	4133931.3687	66616541.5368	0
6875000.0	44141.0	128275505.641	0.28046378956	174246.948242	0.258636398939	1.41358268261	57033.1166421	36051.763916	11213.7360151	62.5968254414	1231871.2954	66621373.5545	0
6900000.0	44316.0	130085372.433	0.281351818297	174248.828125	0.261078967014	1.41084671021	56778.8726623	35859.262085	11174.1116144	63.1546258	1833054.93299	66626206.0841	0
6925000.0	44491.0	131912459.342	0.282235954228	174250.390625	0.263534369878	1.40813338757	56527.3052923	35668.9300537	11133.2825211	63.5425155987	1994744.15377	66631039.1256	0
6950000.0	44666.0	133756856.353	0.283115573792	174251.696777	0.266002374701	1.4054466486	56278.6370876	35480.8746338	11091.3238696	64.1223975029	1358434.38343	66635872.6793	0
6975000.0	44842.0	135618595.816	0.283997039711	174253.991699	0.268474424956	1.40276098251	56031.070063	35293.8079834	11046.9759419	64.9117997996	4270527.4888	66640706.7449	0
7000000.0	45019.0	137497706.542	0.284879483793	174257.226562	0.270950287813	1.40008103848	55784.8804804	35107.8979492	10999.9426021	65.5467419243	5265400.96677	66645541.3226	0
7025000.0	45196.0	139394279.484	0.285756720792	174260.009766	0.273438723525	1.39743518829	55541.759687	34924.3011475	10951.2215822	66.0117169971	34342.4566028	66650376.4125	0
7050000.0	45373.0	141308406.62	0.286629171582	174262.182617	0.275940110441	1.39482045174	55301.4724585	34742.880249	10900.9328656	66.6780194337	167105.734467	66655212.0144	0
7075000.0	45551.0	143240120.802	0.287503123131	174265.05127	0.278445659205	1.39220845699	55062.1284275	34562.3016357	10848.2781789	67.372526122	604911.583644	66660048.1286	0
7100000.0	45729.0	145189511.495	0.288370980184	174267.382812	0.280963722616	1.38962626457	54825.8497847	34384.1156006	10794.2658848	67.8925471731	3887433.02395	66664884.7549	0
7125000.0	45907.0	147156668.472	0.289232504012	174269.189453	0.283494300675	1.38707220554	54592.7128457	34208.4106445	10738.9895771	68.6179205526	2897130.40494	66669721.8934	0
7150000.0	46086.0	149141621.061	0.290093753525	174271.66748	0.286028574919	1.3845179081	54360.9326235	34033.9660645	10681.6504751	69.5655240976	3039034.02344	66674559.5442	0
7175000.0	46266.0	151144395.916	0.290954374946	174274.780273	0.288566254312	1.38196325302	54130.714741	33860.9588623	10622.3430193	70.3497970646	4171472.62325	66679397.7073	0
7200000.0	46446.0	153165082.704	0.291807388245	174277.22168	0.291116419248	1.37943136692	53903.7059696	33690.6005859	10562.0891374	70.9530839627	478752.634306	66684236.3826	0
7225000.0	46626.0	155203772.06	0.292653798694	174278.808594	0.293679215247	1.37692308426	53679.7673624	33522.7508545	10500.9778874	71.7677079765	23700.0420118	66689075.5703	0
7250000.0	46807.0	157260494.074	0.29349971149	174280.725098	0.296245852951	1.37441515923	53457.1585088	33356.149292	10438.2029415	72.6111519443	310890.112263	66693915.2704	0
7275000.0	46988.0	159335337.157	0.294337845742	174281.835938	0.298824801575	1.37193632126	53237.7883596	33192.1112061	10374.7552356	73.4705612574	1055177.0215	66698755.4829	0
7300000.0	47170.0	161428328.214	0.29517471472	174283.227539	0.301407126244	1.36946475506	53020.0149428	33029.4342041	10309.825262	74.359171636	2083619.21293	66703596.2078	0
7325000.0	47352.0	163539553.015	0.296003132296	174283.776855	0.304001383483	1.36702907085	52805.6979206	32869.3969727	10244.4017765	75.0575792108	2014869.20123	66708437.4452	0
7350000.0	47534.0	165669096.574	0.296822663719	174283.508301	0.306607485982	1.36463296413	52595.0105701	32712.0910645	10178.555245	75.9761721768	912913.244915	66713279.195	0
7375000.0	47717.0	167816984.748	0.297640007866	174283.215332	0.309216848109	1.36224913597	52385.920923	32556.060791	10111.4887179	76.9241277948	135884.822397	66718121.4574	0
7400000.0	47900.0	169983307.236	0.29844867745	174281.787109	0.311838462949	1.35990154743	52180.2131783	32402.6184082	10044.1803276	77.8876810365	306770.931563	66722964.2324	0
7425000.0	48084.0	172168088.853	0.299254984724	174280.297852	0.314463337418	1.35756480694	51976.1405541	32250.5126953	9975.84121178	78.8806332811	1310278.53166	66727807.5199	0
7450000.0	48268.0	174371416.399	0.300052566201	174277.612305	0.31710031908	1.35526204109	51775.3787243	32100.9490967	9907.39051975	79.8893097674	2794459.8492	66732651.32	0
7475000.0	48453.0	176593314.491	0.300848994004	174275.769043	0.319739774568	1.35296118259	51575.8975266	31952.5543213	9838.05919733	80.9278486188	4664099.03965	66737495.6328	0
7500000.0	48638.0	178833864.032	0.301638358657	174273.986816	0.322390347719	1.35068249702	51379.1740287	31806.3812256	9768.76256188	81.7612676546	266635.319193	66742340.4583	0
7525000.0	48823.0	181093146.583	0.302420297406	174272.241211	0.325052271364	1.34842658043	51185.3436868	31662.5549316	9699.57063565	82.8289071432	300590.856759	66747185.7964	0
7550000.0	49009.0	183371184.343	0.303200930732	174271.411133	0.327716814354	1.34617030621	50992.697055	31519.8791504	9629.71626556	83.9264008661	1538879.24502	66752031.6474	0
7575000.0	49195.0	185668060.952	0.303974016381	174270.43457	0.330392911565	1.34393715858	50802.8028391	31379.4464111	9560.10255428	84.8111425393	2574899.09035	66756878.0111	0
7600000.0	49381.0	187983859.24	0.304739651391	174269.335938	0.333080533892	1.34172749519	50615.6418672	31241.1987305	9490.79409262	85.9363732521	907711.375321	66761724.8876	0
7625000.0	49568.0	190318595.948	0.305503189342	174269.189453	0.335769989761	1.33951878548	50429.7361471	31104.0924072	9421.0053819	87.091749079	5921.60440581	66766572.2769	0
7650000.0	49755.0	192672349.484	0.3062588671	174268.981934	0.338470330462	1.33733463287	50246.6262521	30969.1650391	9351.62717141	88.2620522662	1077740.02792	66771420.1791	0
7675000.0	49943.0	195045131.962	0.30701197765	174269.799805	0.34117186442	1.33515310287	50064.8516999	30835.3729248	9281.89358972	89.4627576651	3051892.22857	66776268.5942	0
7700000.0	50131.0	197437019.122	0.307756742165	174270.581055	0.343883759342	1.33299660683	49885.9425441	30703.7811279	9212.66988502	90.4378282672	1106063.81821	66781117.5223	0
7725000.0	50319.0	199848089.365	0.308492308625	174271.166992	0.346606597304	1.33086431026	49709.9173117	30574.4567871	9143.41027964	91.6711489003	16463.7214679	66785966.9633	0
7750000.0	50508.0	202278358.048	0.30922478821	174272.558594	0.349331181496	1.32873487473	49535.3181588	30446.3806152	9072.90797113	92.9455942198	1370908.32586	66790816.9173	0
7775000.0	50697.0	204727903.956	0.30994856882	174273.742676	0.352066475898	1.32663047314	49363.5157819	30320.5108643	9002.05969284	93.9966491473	2635490.29835	66795667.3844	0
7800000.0	50886.0	207196804.475	0.310663779792	174274.780273	0.354812538717	1.32455050945	49194.4105306	30196.7803955	8930.96053918	95.3185380794	532128.687639	66800518.3645	0
7825000.0	51076.0	209685073.236	0.31137596524	174276.635742	0.357560056727	1.32247543335	49026.6875239	30074.2767334	8858.87625727	96.6822948196	501854.299948	66805369.8577	0
7850000.0	51266.0	212192786.846	0.312080045036	174278.369141	0.360318110324	1.32042682171	48861.645173	29953.8726807	8786.70808936	98.071165594	2774610.29777	66810221.8641	0
7875000.0	51457.0	214719959.878	0.312780505149	174280.810547	0.363077735528	1.318385005	48698.0524971	29834.7442627	8713.74046184	99.5022414956	6151599.71592	66815074.3836	0
7900000.0	51648.0	217266671.556	0.313471746165	174282.910156	0.36584836198	1.31637084484	48537.2833893	29717.8253174	8640.82850172	100.694961475	152178.80807	66819927.4163	0
7925000.0	51839.0	219833001.141	0.314153765999	174284.692383	0.368629756849	1.31438374519	48379.3017138	29603.0761719	8568.0468416	101.906371458	4648695.09466	66824780.9623	0
7950000.0	52030.0	222419025.949	0.314826802264	174286.206055	0.371421861928	1.31242525578	48224.0522393	29490.4022217	8495.44913846	103.406251772	1447398.24514	66829635.0215	0
7975000.0	52222.0	225024755.996	0.31549617844	174288.354492	0.374215014745	1.31047570705	48070.2826137	29378.9337158	8422.34755319	104.948856142	140613.332535	66834489.5941	0
8000000.0	52414.0	227650265.047	0.31615658642	174290.258789	0.377018237486	1.30855453014	47919.2181911	29269.5068359	8349.57245961	106.516379752	2589903.22329	66839344.68	0
8025000.0	52607.0	230295559.803	0.316813519056	174292.785645	0.379821809474	1.30664360523	47769.580642	29161.2060547	8276.4083714	108.127572969	6683594.76961	66844200.2792	0
8050000.0	52800.0	232960715.776	0.317461293003	174294.885254	0.382635917049	1.30476403236	47622.7233803	29054.9926758	8203.70524345	109.479710971	440144.12363	66849056.3919	0
8075000.0	52993.0	235645808.847	0.31809985139	174296.533203	0.385460269172	1.30291438103	47478.5608893	28950.8209229	8131.48898951	110.849433018	3682579.85704	66853913.0181	0
8100000.0	53186.0	238350914.706	0.31872889733	174297.753906	0.388295185985	1.30109190941	47337.0859468	28848.71521	8059.81110349	112.526920698	443209.241829	66858770.1578	0
8125000.0	53380.0	241076040.865	0.319353214231	174299.42627	0.391130597563	1.29927647114	47197.134797	28747.9156494	7988.01074883	114.247670448	1443688.48639	66863627.811	0
8150000.0	53574.0	243821262.214	0.319967117637	174300.732422	0.393976224586	1.29748356342	47059.8566831	28649.2462158	7916.85871579	115.992327808	5761118.20426	66868485.9777	0
8175000.0	53769.0	246586583.919	0.320575741039	174302.526855	0.396822288167	1.29569423199	46924.1512483	28551.9714355	7845.70297839	117.478369901	211578.682104	66873344.6581	0
8200000.0	53963.0	249372149.444	0.321168779726	174302.954102	0.399688375182	1.29394316673	46792.1585677	28457.5561523	7775.9551325	118.960545438	3878652.18614	66878203.8521	0
8225000.0	54158.0	252177968.7	0.321755648976	174303.674316	0.402555451728	1.29219889641	46661.812656	28364.5629883	7706.3027288	120.787233468	228399.081481	66883063.5599	0
8250000.0	54353.0	255004117.225	0.322331760626	174303.833008	0.405432860134	1.29047751427	46534.14576	28273.7060547	7637.4503257	122.636663036	2424067.15494	66887923.7813	0
8275000.0	54549.0	257850601.91	0.322901387413	174304.260254	0.408310850617	1.28876364231	46408.1869803	28184.3292236	7568.78925557	124.528702979	8156033.27883	66892784.5165	0
8300000.0	54745.0	260717496.034	0.323459859644	174304.11377	0.411198765505	1.28707516193	46284.9641269	28097.1008301	7501.00075697	126.121401301	1606951.93979	66897645.7655	0
8325000.0	54941.0	263604869.988	0.32400732633	174303.417969	0.414096430177	1.28541171551	46164.4898436	28012.0422363	7434.12139481	127.727662125	1453592.46752	66902507.5283	0
8350000.0	55137.0	266512796.338	0.324542611082	174302.111816	0.417003873736	1.28377532959	46046.9323587	27929.2663574	7368.17001314	129.346919006	7718635.8669	66907369.805	0
8375000.0	55333.0	269441350.816	0.32506394631	174300.048828	0.419921794673	1.28216600418	45932.5545554	27849.0386963	7303.1805792	131.312206218	1603849.45499	66912232.5956	0
8400000.0	55530.0	272390539.23	0.325577153127	174298.083496	0.422840006649	1.28056645393	45820.0764634	27770.4284668	7238.55772983	133.318825935	1399340.22234	66917095.9002	0
8425000.0	55727.0	275360434.206	0.326080853639	174296.069336	0.425767910201	1.27898859978	45709.9980036	27693.7103271	7174.94784437	135.345170836	7877888.03317	66921959.7188	0
8450000.0	55925.0	278351035.585	0.32658125818	174294.921875	0.428695057053	1.27741467953	45601.011589	27617.9321289	7111.75638729	137.066106997	1856313.66471	66926824.0513	0
8475000.0	56122.0	281362478.359	0.327072641436	174293.09082	0.431641150499	1.27587485313	45494.6235613	27544.0185547	7050.21284603	138.775178776	895255.027472	66931688.898	0
8500000.0	56320.0	284394759.45	0.32756489165	174292.211914	0.434586341726	1.27433776855	45388.8123186	27470.5780029	6989.0791082	140.872897248	2593591.67412	66936554.2587	0
8525000.0	56518.0	287447946.137	0.328052570329	174291.357422	0.437540642451	1.27282011509	45285.0435956	27398.7579346	6928.46025832	142.639813518	416059.128601	66941420.1335	0
8550000.0	56716.0	290522106.818	0.328534523429	174290.50293	0.440504169092	1.27132284641	45183.3415167	27328.5552979	6868.27668442	144.429036409	5205597.76614	66946286.5226	0
8575000.0	56914.0	293617309.272	0.329009661703	174289.697266	0.443477067165	1.26984572411	45083.4583689	27259.7045898	6808.54861099	146.609623217	11765.4345726	66951153.4258	0
8600000.0	57113.0	296733552.87	0.329480792717	174289.685059	0.446449266747	1.26837337017	44984.2953064	27191.4154053	6748.74713289	148.84459649	5115597.72478	66956020.8433	0
8625000.0	57312.0	299870903.196	0.329943100347	174289.746094	0.449430488516	1.26692056656	44886.478203	27123.9929199	6689.44152973	150.732784945	485455.526101	66960888.775	0
8650000.0	57511.0	303029426.981	0.330395723789	174289.880371	0.452420732472	1.26548743248	44789.7364263	27057.1594238	6630.67892382	152.642575064	2228528.54124	66965757.2211	0
8675000.0	57710.0	306209193.516	0.330838003827	174289.96582	0.45542040607	1.26407325268	44693.9853715	26990.8508301	6572.46137615	154.962259917	1903565.92515	66970626.1815	0
8700000.0	57910.0	309410202.384	0.331273541503	174290.771484	0.458419439383	1.26266586781	44598.679822	26924.7741699	6514.28290402	156.943849608	589982.745729	66975495.6564	0
8725000.0	58109.0	312632590.673	0.331696534062	174290.820312	0.461437739432	1.26129221916	44505.5128291	26860.0982666	6457.2220207	158.922219627	4950336.7743	66980365.6456	0
8750000.0	58309.0	315876356.306	0.332114638551	174291.589355	0.464455166366	1.25992405415	44413.1909141	26796.0968018	6400.22525367	161.349664111	402805.854343	66985236.1493	0
8775000.0	58509.0	319141564.477	0.332525414866	174292.382812	0.467481499072	1.25857460499	44322.6544208	26733.4472656	6343.87089168	163.807577151	8254004.10465	66990107.1675	0
8800000.0	58710.0	322428208.692	0.332933059428	174293.981934	0.470506260172	1.25722980499	44233.3887782	26671.9146729	6287.61921894	165.908763417	2783936.42883	66994978.7003	0
8825000.0	58910.0	325736423.447	0.333331796865	174294.848633	0.473549880553	1.25591754913	44146.9347449	26612.4938965	6232.53691908	168.004610923	35417.5789437	66999850.7476	0
8850000.0	59111.0	329066205.552	0.33372721536	174296.362305	0.476592569612	1.25461292267	44061.6395057	26554.0130615	6177.6115833	170.570317727	6814276.52179	67004723.3096	0
8875000.0	59312.0	332417620.821	0.33411521567	174297.827148	0.479644164443	1.25332796574	43978.2043912	26496.9329834	6123.36525643	172.736764221	1950281.59278	67009596.3862	0
8900000.0	59513.0	335790733.915	0.334495129198	174299.230957	0.482704577735	1.25206136703	43896.6219706	26441.2750244	6069.81519419	174.922247355	300128.823892	67014469.9774	0
8925000.0	59714.0	339185608.793	0.33486612234	174300.610352	0.485773489345	1.25081169605	43816.8429842	26387.0178223	6016.95144398	177.126923434	3776869.37782	67019344.0834	0
8950000.0	59915.0	342602308.165	0.335227221866	174301.977539	0.488850928377	1.24957764149	43738.8768481	26334.2102051	5964.78386156	179.350230842	9111028.97958	67024218.7042	0
8975000.0	60116.0	346040893.493	0.335577662997	174303.344727	0.491936749313	1.24835920334	43662.740238	26282.8613281	5913.32178259	182.043361178	141507.305072	67029093.8397	0
9000000.0	60318.0	349501360.823	0.335919313448	174305.310059	0.495021406095	1.24714648724	43588.0321107	26232.7667236	5862.12347951	184.792173615	7812814.09094	67033969.4901	0
9025000.0	60520.0	352983775.464	0.336249960718	174307.080078	0.49811496865	1.24595189095	43515.3477954	26184.286499	5811.65559379	187.106559225	3295898.41979	67038845.6554	0
9050000.0	60722.0	356488203.013	0.336570023879	174308.740234	0.501217378769	1.24477529526	43444.6173433	26137.3565674	5761.93217687	189.437370235	396252.618205	67043722.3356	0
9075000.0	60924.0	360014709.607	0.336880062925	174310.229492	0.50432869466	1.24361658096	43375.7615836	26091.9006348	5712.94780428	191.784281579	1140397.84769	67048599.5307	0
9100000.0	61126.0	363563358.88	0.337180644179	174311.572266	0.507448683493	1.24247503281	43308.7454932	26047.8912354	5664.70327678	194.146851451	4388128.23393	67053477.2408	0
9125000.0	61328.0	367134214.753	0.337472177058	174312.805176	0.51057751989	1.24135112762	43243.4723007	26005.2276611	5617.21769796	197.010256103	2800556.73821	67058355.466	0
9150000.0	61531.0	370727274.223	0.337757523459	174314.587402	0.513704377227	1.24023282528	43179.3513727	25963.5467529	5570.05067267	199.436609405	362444.77362	67063234.2062	0
9175000.0	61733.0	374342650.061	0.338032727643	174315.551758	0.516850035638	1.23914301395	43117.3843443	25923.4130859	5524.06205653	201.847987328	894886.70375	67068113.4615	0
9200000.0	61936.0	377980377.423	0.338302759508	174317.041016	0.519993831404	1.23805856705	43056.4658555	25884.1583252	5478.41103559	204.80617272	7989989.94399	67072993.232	0
9225000.0	62139.0	381640507.78	0.338565680129	174318.322754	0.523151014931	1.23699164391	42997.0987657	25846.0540771	5433.56083298	206.764772807	7258350.73454	67077873.5177	0
9250000.0	62341.0	385323155.225	0.338820251032	174318.896484	0.526321644429	1.23595094681	42939.6334049	25809.2834473	5389.83523319	209.213617411	11513259.7755	67082754.3186	0
9275000.0	62544.0	389028306.034	0.339071038561	174320.043945	0.529489770997	1.23491561413	42883.0394759	25773.2025146	5346.46150728	212.226360046	5506.28062198	67087635.6347	0
9300000.0	62747.0	392756026.407	0.339314181997	174320.910645	0.532666570507	1.23389923573	42828.1339779	25738.3850098	5303.85609268	215.261561648	12130978.0885	67092517.4662	0
9325000.0	62951.0	396506308.388	0.339550747176	174322.155762	0.535841973033	1.23289263248	42774.5503871	25704.6386719	5261.6364126	217.813652323	8305848.62532	67097399.813	0
9350000.0	63154.0	400279291.264	0.339776962394	174322.363281	0.539036700502	1.23191571236	42723.1705667	25672.467041	5220.55522049	219.803166336	6879645.13009	67102282.6752	0
9375000.0	63357.0	404075040.272	0.339995128225	174322.277832	0.542240275536	1.23095667362	42673.4415502	25641.5435791	5180.07914503	222.889909589	2579664.06143	67107166.0528	0
9400000.0	63561.0	407893546.333	0.340207531019	174322.53418	0.545441987924	1.23000538349	42624.8658701	25611.5539551	5139.75887604	225.483938905	748774.01236	67112049.9458	0
9425000.0	63764.0	411734947.196	0.340410335972	174321.801758	0.548663025256	1.2290803194	42578.2175956	25582.9330444	5100.3460105	228.063658284	80512.8312525	67116934.3543	0
9450000.0	63968.0	415599231.024	0.340607878467	174321.374512	0.551881734282	1.22816085815	42532.6068476	25555.1834106	5061.09644826	230.691952111	1256153.39705	67121819.2784	0
9475000.0	64171.0	419486535.209	0.340796567646	174319.995117	0.55511953542	1.22726619244	42488.7802918	25528.6880493	5022.72242998	233.305776952	3041500.71006	67126704.718	0
9500000.0	64375.0	423396845.829	0.340980365377	174318.945312	0.558354950044	1.22637534142	42445.8349137	25502.9388428	4984.50802099	236.548158191	7542091.0369	67131590.6732	0
9525000.0	64579.0	427330222.186	0.341157701528	174317.578125	0.561598339118	1.22549760342	42404.1312493	25478.1234741	4946.80704076	238.648068064	7608981.69543	67136477.144	0
9550000.0	64782.0	431286798.896	0.341327388992	174315.368652	0.56486018002	1.22464120388	42363.9709565	25454.4021606	4909.95184067	241.312391431	10175381.3038	67141364.1306	0
9575000.0	64986.0	435266559.173	0.341492657667	174314.0625	0.568118935917	1.22378432751	42324.4789661	25431.2927246	4873.24815704	244.625733634	1823120.93436	67146251.6328	0
9600000.0	65190.0	439269558.896	0.341650878474	174312.927246	0.571385084186	1.22293841839	42286.2729997	25409.2071533	4837.03658736	247.363254544	703141.924166	67151139.6508	0
9625000.0	65394.0	443295861.923	0.341801056703	174311.816406	0.574659963604	1.22210609913	42249.5981197	25388.3361816	4801.31549835	250.116900264	51852.2458462	67156028.1846	0
9650000.0	65598.0	447345529.126	0.341943561227	174310.81543	0.577942933887	1.22128772736	42214.3948663	25368.6126709	4766.0832184	252.886549482	313483.772317	67160917.2343	0
9675000.0	65802.0	451418621.864	0.342078540075	174309.875488	0.581234227866	1.22048223019	42180.5759345	25349.9740601	4731.33284593	255.671967507	1018343.5428	67165806.7997	0
9700000.0	66006.0	455515200.963	0.34220647784	174309.033203	0.584533496294	1.2196893692	42148.0617142	25332.3486328	4697.05244072	258.473454807	1863738.78791	67170696.8811	0
9725000.0	66210.0	459635325.88	0.342327610059	174308.337402	0.587840855587	1.21890938282	42116.7828508	25315.6585693	4663.24056745	261.93096082	12155977.2939	67175587.4784	0
9750000.0	66415.0	463778979.649	0.342443264187	174308.374023	0.591145304497	1.21813309193	42086.3740337	25299.710083	4629.5907597	264.804489367	10928244.5005	67180478.5917	0
9775000.0	66619.0	467946296.37	0.342551666507	174307.946777	0.594468205236	1.2173769474	42057.3480566	25284.7183228	4596.70357837	267.005195502	4542825.04139	67185370.221	0
9800000.0	66823.0	472137334.121	0.342654146836	174307.653809	0.597799022216	1.21663331985	42029.3787405	25270.489502	4564.26550132	269.868579384	5363690.82832	67190262.3664	0
9825000.0	67027.0	476352150.166	0.342750946562	174307.543945	0.6011374644	1.21590054035	42002.3172342	25256.9137573	4532.28025961	272.746575973	6110542.69113	67195155.0278	0
9850000.0	67231.0	480590802.12	0.342842420315	174307.543945	0.604483531788	1.21517860889	41976.1454172	25243.977356	4500.7365886	276.314899051	7742195.68916	67200048.2053	0
9875000.0	67436.0	484853267.138	0.342929821236	174308.398438	0.607825815678	1.21446013451	41950.5261084	25231.4575195	4469.32903248	279.265698257	7308356.77108	67204941.899	0
9900000.0	67640.0	489139679.858	0.343010926977	174308.789062	0.611186726019	1.21376037598	41925.9865005	25219.6258545	4438.6523314	281.505100927	7793216.07206	67209836.1089	0
9925000.0	67844.0	493450101.87	0.34308550406	174309.204102	0.614556018263	1.2130740881	41902.5342781	25208.5784912	4408.40399543	284.440863064	8107529.68947	67214730.8351	0
9950000.0	68048.0	497784595.855	0.343153375496	174309.692383	0.617933634203	1.21240067482	41880.1408907	25198.3032227	4378.58293397	288.094084618	6830682.64099	67219626.0775	0
9975000.0	68253.0	502143144.413	0.343215684786	174310.81543	0.621308281552	1.21173238754	41858.5833731	25188.7008667	4348.90630049	291.099662498	6978010.07035	67224521.8362	0
10000000.0	68457.0	506525886.006	0.343271105428	174311.425781	0.624702021014	1.21108472347	41838.3291467	25179.96521	4319.91931643	293.363148064	8104942.0783	67229418.1112	0
10025000.0	68661.0	510932879.821	0.343320558107	174312.060547	0.628103851341	1.21044898033	41819.0861518	25171.9680786	4291.34227415	296.350917642	7802540.18415	67234314.9026	0
10050000.0	68865.0	515364184.107	0.343364346858	174312.841797	0.631513306871	1.20982527733	41800.8752708	25164.7140503	4263.17426545	300.08461016	8316223.67706	67239212.2104	0
10075000.0	69070.0	519819779.056	0.343403114	174314.282227	0.634919444565	1.20920598507	41783.4638249	25158.1100464	4235.1399988	303.141662997	9108626.37721	67244110.0347	0
10100000.0	69274.0	524299798.822	0.343436040615	174315.234375	0.638344092295	1.20860552788	41767.2500315	25152.2979736	4207.7659111	305.42522051	6059205.49799	67249008.3754	0
10125000.0	69478.0	528804300.341	0.343463798354	174316.259766	0.641776423436	1.20801591873	41751.9910978	25147.1832275	4180.77990694	308.46179095	5255686.83782	67253907.2326	0
10150000.0	69682.0	533333339.373	0.34348672226	174317.431641	0.645216030534	1.20743727684	41737.7021086	25142.7612305	4154.17678017	311.510158218	4371827.03789	67258806.6064	0
10175000.0	69886.0	537886969.305	0.343504951059	174318.725586	0.648662971798	1.20686852932	41724.3245376	25139.0151978	4127.95141568	314.57005745	3435604.25468	67263706.4968	0
10200000.0	70090.0	542465244.324	0.343518455121	174320.10498	0.652116781566	1.20630967617	41711.8865321	25135.9619141	4102.10329183	317.641125585	2473428.17753	67268606.9038	0
10225000.0	70294.0	547068223.269	0.343525910943	174321.54541	0.655578623991	1.20576250553	41700.522118	25133.7036133	4076.62738697	320.722540697	1520174.51944	67273507.8275	0
10250000.0	70498.0	551695966.509	0.34352737401	174322.949219	0.659048440866	1.20522713661	41690.2575781	25132.2738647	4051.52321664	323.813711886	656636.35089	67278409.2678	0
10275000.0	70702.0	556348533.342	0.343523041117	174324.377441	0.662526115775	1.20470285416	41681.0249607	25131.6116333	4026.78585367	326.91441871	46507.1548885	67283311.2249	0
10300000.0	70906.0	561025982.654	0.343513334706	174325.756836	0.666011823341	1.20418965816	41672.7752413	25131.6818237	4002.41045892	330.024293377	410444.584713	67288213.6988	0
10325000.0	71110.0	565728373.096	0.34349848074	174327.172852	0.669505156111	1.20368742943	41665.481181	25132.4508667	3978.38791162	333.143617972	1465519.68513	67293116.6894	0
10350000.0	71314.0	570455763.245	0.343478789961	174328.564453	0.673006172292	1.20319533348	41659.0755544	25133.8745117	3954.71362204	336.272085753	3004066.90854	67298020.1969	0
10375000.0	71518.0	575208209.493	0.343454714021	174329.956055	0.676514988299	1.20271337032	41653.527417	25135.9268188	3931.3830816	339.409356309	4998061.80837	67302924.2213	0
10400000.0	71722.0	579985769.027	0.343426311001	174331.359863	0.680031371303	1.20224106312	41648.777874	25138.5528564	3908.37898781	341.716789608	10535129.4209	67307828.7626	0
10425000.0	71925.0	584788579.806	0.343393976648	174332.177734	0.683566671796	1.20178425312	41644.8973557	25141.7373657	3885.91480335	344.82616949	7789613.15173	67312733.8208	0
10450000.0	72129.0	589616617.374	0.343358162916	174333.59375	0.687098014168	1.20133125782	41641.6421393	25145.4208374	3863.54580001	348.839367054	13722925.9987	67317639.3961	0
10475000.0	72333.0	594469938.642	0.343318900087	174335.009766	0.690636923537	1.20088732243	41639.0538514	25149.5635986	3841.49114087	351.151529802	2881939.92455	67322545.4883	0
10500000.0	72536.0	599348678.396	0.343276724333	174335.852051	0.694194459356	1.20045828819	41637.2101037	25154.1519165	3819.94402605	354.288802689	1029038.36303	67327452.0976	0
10525000.0	72740.0	604252815.704	0.343229980643	174337.231445	0.697748386301	1.2000348568	41636.1089087	25159.3322754	3798.47606418	357.475610144	11880.5171356	67332359.224	0
10550000.0	72943.0	609182492.352	0.343178335807	174337.963867	0.701322045643	1.19962859154	41635.9905809	25165.1473999	3777.51030671	360.630517382	1269030.43462	67337266.8676	0
10575000.0	73147.0	614137689.081	0.343122074951	174339.172363	0.70489232894	1.19922792912	41636.6344916	25171.5713501	3756.61077458	363.835719467	3622573.88155	67342175.0283	0
10600000.0	73350.0	619118545.728	0.343061595459	174339.672852	0.708482170012	1.19884324074	41638.1489238	25178.5491943	3736.19605021	366.107105288	12823090.5435	67347083.7062	0
10625000.0	73553.0	624125122.188	0.342997322541	174340.124512	0.712079694495	1.19846844673	41640.4213579	25186.0565186	3716.04730573	369.281645478	8768157.19045	67351992.9013	0
10650000.0	73756.0	629157478.379	0.342929596931	174340.441895	0.71568536805	1.19810247421	41643.3773977	25194.0475464	3696.1533135	372.465744145	5141131.55999	67356902.6137	0
10675000.0	73959.0	634215672.606	0.342858562865	174340.673828	0.719298666809	1.19774544239	41646.9805105	25202.4810791	3676.51517785	375.659051683	2132183.9417	67361812.8435	0
10700000.0	74162.0	639299762.372	0.342784924833	174340.795898	0.722919765394	1.19739627838	41651.1746196	25211.3189697	3657.12593263	378.861671243	159002.77896	67366723.5905	0
10725000.0	74365.0	644409806.377	0.342708770217	174340.808105	0.726548489183	1.19705498219	41655.9241435	25220.5245972	3637.97474778	382.074319038	1171110.91336	67371634.855	0
10750000.0	74568.0	649545860.001	0.34263049424	174340.698242	0.73018448893	1.19672083855	41661.1972328	25230.0796509	3619.05895052	385.296984043	4084036.54616	67376546.6368	0
10775000.0	74771.0	654707980.227	0.342550631382	174340.429688	0.733828172088	1.19639337063	41666.9104161	25239.906311	3600.37195525	388.529680943	8092471.89388	67381458.9361	0
10800000.0	74974.0	659896221.678	0.34246940759	174340.063477	0.737478898373	1.19607210159	41673.0518581	25250.0106812	3581.91122988	390.807602432	7987463.3708	67386371.7529	0
10825000.0	75176.0	665110723.241	0.342386545331	174338.94043	0.741149124224	1.19576299191	41679.7287787	25260.3942871	3563.85818456	394.009780609	4008643.95338	67391285.0872	0
10850000.0	75379.0	670351464.045	0.342299895979	174338.171387	0.744815508369	1.19545817375	41687.0781076	25271.3088989	3545.83383628	397.264171804	976853.658358	67396198.939	0
10875000.0	75581.0	675618587.94	0.342210693823	174336.584473	0.748501857743	1.19516730309	41695.0994566	25282.611084	3528.20279177	400.48555292	449639.185167	67401113.3084	0
10900000.0	75784.0	680912071.543	0.342118440585	174335.400391	0.752184074372	1.19488048553	41703.7214398	25294.3771362	3510.59388772	403.759934457	3306325.07605	67406028.1955	0
10925000.0	75986.0	686232055.866	0.342023587479	174333.789062	0.755885906983	1.19460594654	41712.9799972	25306.5261841	3493.37203006	405.995649216	14508767.942	67410943.6002	0
10950000.0	76188.0	691578598.8	0.34192625037	174332.336426	0.759595190175	1.19433951378	41722.8710089	25319.1146851	3476.34152829	409.238791414	8896679.58458	67415859.5226	0
10975000.0	76390.0	696951756.652	0.341826182819	174331.066895	0.763311923947	1.1940805912	41733.313021	25332.0755005	3459.50420332	412.491816985	4162690.13706	67420775.9627	0
11000000.0	76592.0	702351585.086	0.341724141387	174329.956055	0.767035933677	1.19382834435	41744.2743952	25345.3903198	3442.84670954	415.756024043	767778.145974	67425692.9206	0
11025000.0	76794.0	707778140.802	0.341620240958	174329.02832	0.770767393988	1.19358313084	41755.7261287	25359.0362549	3426.37475634	419.030262485	929406.384373	67430610.3963	0
11050000.0	76996.0	713231478.232	0.341514707437	174328.308105	0.774505955633	1.19334423542	41767.6217848	25372.9751587	3410.07895737	422.31549058	4646267.17057	67435528.3898	0
11075000.0	77198.0	718711651.184	0.341407932967	174327.770996	0.778251793236	1.19311189651	41779.9329091	25387.1765137	3393.95754666	425.611474537	10035249.1271	67440446.9011	0
11100000.0	77400.0	724218714.16	0.341299864393	174327.441406	0.78200455755	1.19288444519	41792.6018698	25401.6220093	3378.00507258	427.857055647	7154720.24195	67445365.9304	0
11125000.0	77601.0	729752806.757	0.341191392383	174326.77002	0.785776763223	1.19266784191	41805.6304568	25416.2200928	3362.38968421	431.121939805	2523230.54167	67450285.4775	0
11150000.0	77803.0	735313901.926	0.341079328049	174326.757812	0.789544428699	1.19245517254	41819.3369694	25431.362915	3346.76563819	434.4427486	22973.8766151	67455205.5427	0
11175000.0	78004.0	740902141.333	0.340964898119	174326.379395	0.793331477325	1.19225490093	41833.6652827	25446.8841553	3331.47022976	436.642899744	24376676.5233	67460126.1258	0
11200000.0	78205.0	746517584.071	0.340847885836	174326.098633	0.797126733232	1.19206309319	41848.5883989	25462.8051758	3316.332112	441.025365194	8249154.71463	67465047.227	0
11225000.0	78407.0	752160202.324	0.340727770688	174326.525879	0.800916925073	1.19187450409	41864.0892084	25479.1900635	3301.17941561	444.378777312	15371213.3054	67469968.8462	0
11250000.0	78608.0	757830137.302	0.340606357183	174326.550293	0.804727082141	1.19169640541	41880.031205	25495.8114624	3286.33769822	446.586755559	3600325.57357	67474890.9835	0
11275000.0	78809.0	763527447.194	0.340483067756	174326.721191	0.808544573374	1.19152498245	41896.4278078	25512.7197266	3271.64532539	449.90795499	117253.160931	67479813.6389	0
11300000.0	79010.0	769252187.546	0.34035840372	174327.038574	0.812369515188	1.19135904312	41913.1938987	25529.8721313	3257.09373673	452.113041102	26452939.96	67484736.8125	0
11325000.0	79210.0	775004502.48	0.340233334155	174326.977539	0.816214247607	1.19120240211	41930.2559054	25547.1343994	3242.83829475	455.402383844	17632018.6146	67489660.5043	0
11350000.0	79411.0	780784361.105	0.3401066466	174327.587891	0.820053974167	1.19104659557	41947.6568899	25564.6621704	3228.56371302	459.892789764	15840092.5513	67494584.7143	0
11375000.0	79612.0	786591819.294	0.339979447081	174328.33252	0.823901034892	1.19089460373	41965.2863721	25582.321167	3214.44725673	462.103198581	3771059.00116	67499509.4425	0
11400000.0	79812.0	792427017.982	0.339852728194	174328.735352	0.827767711598	1.19074988365	41983.0557855	25599.9740601	3200.67716104	465.413474712	104666.203397	67504434.6891	0
11425000.0	80013.0	798289926.226	0.339725250716	174329.785156	0.831629149616	1.19060492516	42001.0259944	25617.7825928	3186.9415599	468.772993194	2882714.0846	67509360.454	0
11450000.0	80213.0	804180686.256	0.339597291418	174330.432129	0.83551032003	1.19046807289	42019.2761369	25635.7025146	3173.54016142	470.910966028	18105302.4833	67514286.7372	0
11475000.0	80413.0	810099358.674	0.339467257948	174331.176758	0.839399523102	1.19033718109	42037.9937792	25653.9428711	3160.31656112	474.219962865	10006760.4191	67519213.5388	0
11500000.0	80613.0	816046002.034	0.3393353199	174332.055664	0.843296060339	1.19021189213	42057.138416	25672.467041	3147.25518168	477.53319376	3580704.96269	67524140.8588	0
11525000.0	80813.0	822020674.704	0.339201948175	174333.007812	0.847200630233	1.19009196758	42076.668644	25691.2384033	3134.36478951	480.848450113	347.499155409	67529068.6973	0
11550000.0	81013.0	828023433.599	0.339067502606	174334.057617	0.851112534292	1.18997704983	42096.5262001	25710.2203369	3121.63001413	484.167989951	3699632.40271	67533997.0543	0
11575000.0	81213.0	834054336.111	0.338932287142	174335.205078	0.855032005347	1.18986654282	42116.6740376	25729.3792725	3109.05279965	486.272196839	17404477.0641	67538925.9297	0
11600000.0	81412.0	840113527.907	0.338797371045	174335.925293	0.858971616253	1.1897636652	42136.9800907	25748.5534668	3096.76425851	489.543805801	9071386.54849	67543855.3238	0
11625000.0	81612.0	846200978.429	0.338661468528	174337.231445	0.8629062213	1.18966209888	42157.5826188	25767.9534912	3084.47687474	494.102768018	30389174.2773	67548785.2363	0
11650000.0	81812.0	852316742.366	0.338525674997	174338.671875	0.866848044097	1.18956410885	42178.3346032	25787.4176025	3072.32594918	496.19686231	365721.898897	67553715.6675	0
11675000.0	82011.0	858460966.101	0.33839121886	174339.624023	0.870809773915	1.18947303295	42199.1155075	25806.7901611	3060.45473928	498.230706484	26356413.9818	67558646.6173	0
11700000.0	82210.0	864633705.982	0.338257415075	174340.698242	0.874779187143	1.18938541412	42219.9751565	25826.1657715	3048.70638687	501.514305885	16443810.3763	67563578.0858	0
11725000.0	82409.0	870835017.714	0.338124562058	174341.845703	0.878755527083	1.18930077553	42240.872954	25845.5108643	3037.07982808	504.804339111	8179680.09339	67568510.073	0
11750000.0	82608.0	877064955.976	0.337992630457	174343.066406	0.882739317603	1.18922007084	42261.8258909	25864.8284912	3025.57733431	508.099793003	2097410.13028	67573442.5789	0
11775000.0	82807.0	883323581.161	0.337859658727	174344.335938	0.886730966158	1.18914592266	42283.1183544	25884.3353271	3014.19121169	511.40138772	746000.983077	67578375.6036	0
11800000.0	83006.0	889610951.007	0.337725866992	174345.64209	0.890730123501	1.18907749653	42304.7330843	25904.0344238	3002.91387909	514.710306463	6056696.95531	67583309.1471	0
11825000.0	83205.0	895927125.47	0.337591393186	174346.972656	0.894736964256	1.18901491165	42326.6281582	25923.8861084	2991.75100476	518.025183393	14183116.5786	67588243.2094	0
11850000.0	83404.0	902272161.91	0.337456700621	174348.352051	0.898751663044	1.18895709515	42348.7310907	25943.838501	2980.68853421	520.038136224	7657490.31362	67593177.7906	0
11875000.0	83602.0	908646209.331	0.337322820841	174349.21875	0.902786618099	1.18890655041	42370.9054838	25963.7359619	2969.85934875	523.311001495	1631388.41031	67598112.8907	0
11900000.0	83801.0	915049234.463	0.337188288243	174350.65918	0.906816334464	1.18885707855	42393.3186398	25983.8104248	2958.99803127	526.640738354	1251466.54932	67603048.5097	0
11925000.0	83999.0	921481386.241	0.337055244285	174351.599121	0.910866539925	1.18881297112	42415.675559	26003.7445068	2948.35447457	528.59547314	26217697.5762	67607984.6476	0
11950000.0	84197.0	927942723.735	0.336923008953	174352.539062	0.914924603421	1.18877220154	42438.0607523	26023.6419678	2937.80403735	531.884409236	15972273.6935	67612921.3046	0
11975000.0	84395.0	934433304.299	0.336791932033	174353.503418	0.918990001082	1.18873310089	42460.4142786	26043.4692383	2927.33956501	535.182373524	7546759.94749	67617858.4806	0
12000000.0	84593.0	940953186.057	0.336662200102	174354.492188	0.923062907532	1.18869578838	42482.7044407	26063.192749	2916.9540019	538.490366519	1559558.80851	67622796.1756	0
12025000.0	84791.0	947502424.233	0.3365341882	174355.46875	0.927143380977	1.18865954876	42504.8657347	26082.7697754	2906.65315486	541.807104731	1248312.98306	67627734.3898	0
12050000.0	84989.0	954081076.763	0.336408108372	174356.445312	0.931231188588	1.18862366676	42526.8612357	26102.1728516	2896.42684554	545.134437457	7009977.94644	67632673.1231	0
12075000.0	85187.0	960689182.739	0.336283093603	174357.434082	0.935324002057	1.18858933449	42548.8214423	26121.5087891	2886.2650357	547.090447648	17658675.0942	67637612.3755	0
12100000.0	85384.0	967326913.096	0.336159006914	174357.836914	0.939440389629	1.18856084347	42570.8146196	26140.7836914	2876.30309196	550.380527709	9047856.077	67642552.1472	0
12125000.0	85582.0	973994233.668	0.336034231026	174358.728027	0.943551189266	1.18853342533	42593.0315219	26160.2264404	2866.28741272	553.73189386	2524097.97815	67647492.4381	0
12150000.0	85779.0	980691299.738	0.335910865937	174359.04541	0.94768346753	1.18851137161	42615.1986951	26179.5410156	2856.46341901	557.042604917	493043.101755	67652433.2482	0
12175000.0	85977.0	987418075.728	0.335787268805	174359.82666	0.95180986682	1.18848979473	42637.5131635	26198.9532471	2846.57620661	560.416987475	5579090.5768	67657374.5777	0
12200000.0	86174.0	994174716.332	0.335665669853	174360.009766	0.955957628321	1.18847298622	42659.6909872	26218.1671143	2836.86960743	562.324897575	21369591.9255	67662316.4265	0
12225000.0	86371.0	1000961279.14	0.335545232683	174360.144043	0.960113131441	1.18845880032	42681.8251301	26237.2802734	2827.21783606	565.664254208	12085367.5615	67667258.7946	0
12250000.0	86568.0	1007777825.67	0.335426223135	174360.180664	0.964276492596	1.18844676018	42703.8726593	26256.262207	2817.62365149	569.015585175	4759025.20159	67672201.6822	0
12275000.0	86765.0	1014624415.74	0.335308933129	174360.131836	0.968447711784	1.18843638897	42725.7938239	26275.0823975	2808.08360688	572.379505603	247903.836785	67677145.0892	0
12300000.0	86962.0	1021501108.61	0.33519351987	174359.985352	0.9726267308	1.18842804432	42747.5608556	26293.7072754	2798.58815432	575.757943784	2903216.86607	67682089.0157	0
12325000.0	87159.0	1028407964.79	0.335080140183	174359.765625	0.976813491434	1.18842101097	42769.1385174	26312.1124268	2789.14318446	579.149693145	9410253.50552	67687033.4616	0
12350000.0	87356.0	1035345042.49	0.334969057539	174359.399414	0.981008051895	1.18841600418	42790.5014275	26330.2612305	2779.74229862	581.077438136	18292651.0519	67691978.4272	0
12375000.0	87552.0	1042312496.87	0.334861256614	174358.447266	0.985223799944	1.1884137392	42811.491608	26348.0072021	2770.50085533	584.437309728	10030917.1629	67696923.9123	0
12400000.0	87749.0	1049310294.55	0.334753605204	174357.836914	0.989434309304	1.18841397762	42832.6157182	26365.7928467	2761.18705722	587.863687892	3553780.04419	67701869.917	0
12425000.0	87945.0	1056338593.76	0.334647544895	174356.57959	0.993666471913	1.18842065334	42853.6822928	26383.4014893	2752.02241008	591.253547291	3436.77051989	67706816.4413	0
12450000.0	88142.0	1063397359.31	0.334541445038	174355.651855	0.997893163003	1.18842971325	42874.9211137	26401.083374	2742.78277815	594.71123503	3529791.34597	67711763.4853	0
12475000.0	88338.0	1070486748.86	0.334437225763	174354.150391	1.0021411581	1.18844354153	42896.0062478	26418.536377	2733.69122248	596.61030245	29556242.1527	67716711.0491	0
12500000.0	88534.0	1077606824.52	0.334333844257	174352.67334	1.00639718585	1.18846011162	42917.0912659	26435.925293	2724.6327943	600.822210212	0.0	67721659.1325	0
