z	T	P	nabla_ad	S	rho	delta	cp	cv	opac	frad	fconv	ftot	dT
0.0	3900.0	151.374261767	0.382136617514	172942.480469	6.10035311155e-06	1.00983989239	16914.5036983	10430.74646	0.00070490440763	0.0	21470.6559824	65311815.0903	0
25000.0	3900.0	199.481021875	0.376905000315	171168.62793	8.04083288841e-06	1.01294195652	17226.7438248	10705.6282043	0.000838831675812	0.0	28203.6248132	65316507.3538	0
50000.0	3900.0	262.899642973	0.370282800869	169388.745117	1.06001927236e-05	1.0170892477	17636.8617191	11066.1437988	0.000996364696648	0.0	37105.5369873	65321200.1229	0
75000.0	3900.0	346.518826655	0.36201268955	167600.170898	1.39770843788e-05	1.02242875099	18173.9797529	11539.1021729	0.00118240058273	0.0	48885.1976681	65325893.3976	0
100000.0	3900.0	456.798778287	0.35181004641	165801.013184	1.84345179122e-05	1.02944016457	18877.47183	12157.7407837	0.00140319674446	0.0	64365.9101204	65330587.1781	0
125000.0	3900.0	602.283037194	0.339472835441	163987.011719	2.43216327078e-05	1.03873515129	19797.8320442	12965.4907227	0.00166482576973	0.0	84772.1303029	65335281.4644	0
150000.0	3900.0	794.284070592	0.324870932417	162154.443359	3.21028856831e-05	1.05086278915	20998.3813729	14017.515564	0.00197391306261	0.0	111702.387102	65339976.2566	0
175000.0	3900.0	1047.80241466	0.308023481526	160296.936035	4.23976018737e-05	1.06654405594	22556.6649492	15381.6589355	0.0023416551029	0.0	147308.457588	65344671.5548	0
200000.0	3900.0	1382.76478842	0.289160022064	158406.079102	5.60340893685e-05	1.08712649345	24574.4822356	17141.506958	0.00278288920646	18406699.6077	190911.622125	65349367.3591	0
225000.0	3908.0	1824.56378755	0.271342370695	156527.966309	7.39119840887e-05	1.11030352116	26809.1650469	19081.9641113	0.0033669197576	40617615.2348	239681.376152	65354063.6694	0
250000.0	3928.0	2405.19084343	0.256736110567	154704.199219	9.71061666633e-05	1.13330757618	28949.496317	20926.1642456	0.00416393760674	19038076.1634	323321.633506	65358760.4858	0
275000.0	3929.0	3172.69258625	0.235750388448	152717.06543	0.000128436397517	1.17216944695	32644.9568418	24109.9838257	0.00497195834051	41362172.1374	364086.746944	65363457.8085	0
300000.0	4000.0	4164.96458857	0.23760881117	151265.344238	0.000165657525031	1.17261052132	32342.2776214	23805.4168701	0.00661966039416	33887901.8365	445992.818915	65368155.6374	0
325000.0	4024.0	5461.68964752	0.224877497828	149446.069336	0.000216419479671	1.20311486721	35015.9021276	26071.6491699	0.00815876961893	41099336.4363	399192.739445	65372853.9727	-1
350000.0	4183.0	7083.34046043	0.252305656314	148717.541504	0.000269079777127	1.15309906006	29823.3124804	21552.6473999	0.0124885894989	33485334.8277	416215.638914	65377552.8144	-1
375000.0	4279.0	9132.86644691	0.259703710317	147512.719727	0.000339073636724	1.14396715164	28687.5671551	20539.9246216	0.0171657777968	40952242.2193	50643.1671171	65382252.1626	0
400000.0	4684.0	11502.2610543	0.33253567027	148043.188477	0.000387266311463	1.05551242828	20440.2425057	13412.902832	0.0322385474502	33520408.3177	30326.164877	65386952.0172	-3
425000.0	4951.0	14305.0744199	0.356175364845	147642.358398	0.000455220941831	1.03503990173	18627.3769227	11848.5954285	0.0448994623544	39684237.0304	0.141018738965	65391652.3785	0
450000.0	5784.0	17229.4628992	0.386739146571	149134.484863	0.000467515576474	1.00829946995	16606.2964747	10142.3454285	0.0712411611665	33239144.6428	0.00913253477495	65396353.2465	-8
475000.0	5893.0	20685.8915948	0.386123040411	148257.226562	0.000551682489913	1.00849628448	16632.9734977	10166.8861389	0.0884506808388	36350089.5516	8.99609442451	65401054.6211	0
500000.0	7208.0	24006.1714531	0.349354877266	150796.850586	0.000521229367223	1.01771652699	18456.987137	11859.9250793	0.434122666642	36655271.5743	60630.434661	65405756.5026	-17
525000.0	9512.0	26801.4483352	0.175641474146	157702.197266	0.000430828094977	1.23586797714	44882.9456772	35033.4869385	5.7238740925	6547016.14838	21394721.604	65410458.8909	-17
550000.0	10306.0	29602.0511237	0.140971835237	161234.301758	0.000429561680448	1.42075610161	65777.2581796	52595.5749512	11.9944924766	2091844.89525	18106797.1398	65415161.7861	-4
575000.0	11150.0	32329.6279946	0.118685908878	166814.074707	0.000416294767547	1.70187759399	97665.1581029	78313.1103516	23.5715361369	940281.582457	21092134.3086	65419865.1883	-5
600000.0	11405.0	35200.3236745	0.115519329439	168103.527832	0.000437547555521	1.77902674675	106313.229694	85007.9040527	28.5308137961	477762.160554	9506241.80448	65424569.0975	-4
625000.0	11817.0	38132.4070863	0.110736442713	171171.984863	0.000445895750545	1.9259814024	123413.894003	98048.9807129	37.4044422691	361628.767477	11525941.8211	65429273.5139	-2
650000.0	12011.0	41220.5954383	0.109634667514	172163.696289	0.000469124813662	1.98042917252	129678.435623	102675.378418	42.5352406009	202835.88383	4144932.12007	65433978.4373	-2
675000.0	12204.0	44466.6826781	0.108767509159	173199.353027	0.000492594097068	2.03359746933	135863.282618	107187.5	48.0192704793	159456.806385	3396072.96898	65438683.868	-1
700000.0	12356.0	47895.7143116	0.108435202641	173808.691406	0.000519950617672	2.06841516495	139838.583606	110018.505859	52.8342914828	103833.160364	798659.952962	65443389.806	0
725000.0	12455.0	51545.7505905	0.108602743903	173809.741211	0.000553239601686	2.08011817932	140939.227072	110712.04834	56.5429500875	73968.1937552	5633.98631771	65448096.2513	0
750000.0	12554.0	55428.6565871	0.108790721846	173784.521484	0.000588309831073	2.09079122543	141888.028005	111283.837891	60.4373028439	66640.8816724	4041.9802832	65452803.204	0
775000.0	12653.0	59556.3138007	0.108986623628	173786.889648	0.000625058021342	2.10192084312	142910.040586	111909.851074	64.5165541546	59854.3343679	9067.42433166	65457510.6642	0
800000.0	12751.0	63941.1640018	0.109200481301	173798.10791	0.000663669709411	2.11277770996	143913.738722	112521.826172	68.753538614	54136.7603429	7395.62014867	65462218.6319	0
825000.0	12850.0	68594.8335669	0.109422087676	173823.291016	0.000704040814981	2.12358546257	144918.492005	113130.529785	73.2086690651	49051.8749322	5692.36054117	65466927.1071	0
850000.0	12948.0	73531.4131814	0.109669273577	173812.451172	0.000746585953948	2.13298916817	145733.04498	113592.712402	77.8277972642	44288.394933	13266.374998	65471636.09	0
875000.0	13046.0	78765.3948451	0.109929666886	173784.399414	0.000791255502008	2.14154791832	146432.298521	113964.587402	82.6462165178	40457.4942121	3929.10205015	65476345.5805	0
900000.0	13145.0	84309.9495627	0.110194576802	173794.750977	0.000837780930851	2.15072202682	147230.769127	114408.996582	87.6979313845	36835.6661937	2936.17282612	65481055.5789	0
925000.0	13243.0	90179.892186	0.110476757206	173811.254883	0.000886528255251	2.15954399109	148002.028451	114833.947754	92.9221274576	33422.8772316	10934.8829446	65485766.085	0
950000.0	13341.0	96389.9696253	0.110770671362	173829.016113	0.000937509298637	2.16796445847	148731.231578	115226.501465	98.3597467522	30525.9078998	10358.2679402	65490477.0989	0
975000.0	13439.0	102956.073753	0.111076636477	173824.353027	0.00099093551853	2.17555999756	149348.159076	115533.349609	104.021183785	27914.5157048	10278.9128815	65495188.6208	0
1000000.0	13537.0	109895.453074	0.111388875581	173798.034668	0.00104690514036	2.18236446381	149860.813147	115761.84082	109.913226631	25556.7968123	10618.8774797	65499900.6506	0
1025000.0	13635.0	117224.916918	0.111706611625	173795.690918	0.00110523205876	2.18928623199	150418.974158	116026.928711	116.034494937	23432.6421221	10784.1969965	65504613.1885	0
1050000.0	13733.0	124960.886006	0.112032892225	173811.132812	0.00116600494948	2.19619894028	150998.238714	116308.935547	122.391671335	21514.9540931	10905.7543044	65509326.2344	0
1075000.0	13831.0	133120.59479	0.112368911099	173831.274414	0.00122937581182	2.20279288292	151548.266846	116569.128418	128.993282049	19779.0491617	11217.0320555	65514039.7885	0
1100000.0	13929.0	141722.483449	0.11271483869	173837.597656	0.00129556326556	2.20876264572	152014.041248	116765.356445	135.850328756	18202.7464104	12075.7648915	65518753.8507	0
1125000.0	14027.0	150786.531645	0.11306942531	173813.195801	0.00136479320645	2.21393537521	152358.323314	116869.238281	142.973894833	16767.4574774	13838.1539396	65523468.4212	0
1150000.0	14125.0	160333.274771	0.113431845113	173801.35498	0.00143686997944	2.2190155983	152709.912639	116980.090332	150.361668572	15463.4781409	15896.8055753	65528183.5	0
1175000.0	14223.0	170382.044563	0.113803030295	173809.106445	0.0015117602743	2.2240793705	153083.275911	117108.80127	158.007701331	14352.2180497	2278.4279117	65532899.0871	0
1200000.0	14322.0	180950.928089	0.114180531763	173837.695312	0.00158936222761	2.22917842865	153477.229193	117251.782227	165.958246138	13270.7620414	2860.71265709	65537615.1826	0
1225000.0	14420.0	192062.492889	0.114567442828	173852.13623	0.0016703786514	2.23356938362	153782.795045	117331.054688	174.127122264	12221.1155577	23385.2169079	65542331.7865	0
1250000.0	14518.0	203739.229097	0.114959669458	173845.678711	0.00175483683051	2.23733472824	153997.39527	117342.492676	182.572561482	11322.5578835	27898.065936	65547048.8989	0
1275000.0	14616.0	216005.379849	0.115360276431	173818.798828	0.00184288910532	2.24074959755	154152.798983	117309.545898	191.301656625	10552.9589117	9226.45895878	65551766.5199	0
1300000.0	14715.0	228882.66074	0.115767302176	173820.935059	0.00193390405911	2.24436616898	154359.175889	117314.575195	200.35888015	9798.14486984	12576.6254995	65556484.6494	0
1325000.0	14813.0	242395.810205	0.116182230559	173827.172852	0.00202858313969	2.2475707531	154532.572395	117299.108887	209.648365041	9106.49712374	16946.4625957	65561203.2876	0
1350000.0	14912.0	256566.429802	0.116602348202	173850.244141	0.00212648274101	2.2506518364	154706.609563	117283.996582	219.283904661	8473.16463044	21754.0873207	65565922.4345	0
1375000.0	15010.0	271421.679009	0.117027382869	173857.592773	0.00222848825615	2.25303125381	154794.034514	117208.007812	229.171113001	7890.0259342	28446.9643055	65570642.0901	0
1400000.0	15109.0	286985.688733	0.117459606234	173858.630371	0.00233417540585	2.25522089005	154852.35249	117109.350586	239.431948754	7390.89642743	6497.56117809	65575362.2545	0
1425000.0	15208.0	303286.606082	0.117899713463	173839.807129	0.00244404827754	2.25720715523	154869.418055	116980.01709	250.0242427	6893.34401301	12354.4830343	65580082.9277	0
1450000.0	15307.0	320352.524746	0.118345802476	173834.667969	0.00255776740232	2.25905942917	154888.476336	116854.174805	260.941984284	6435.32937005	19799.0254197	65584804.1097	0
1475000.0	15406.0	338210.303036	0.11879704308	173841.85791	0.00267543077825	2.26066493988	154895.118229	116721.42334	272.195071041	6013.13905113	28885.9305102	65589525.8007	0
1500000.0	15505.0	356887.716012	0.119252171915	173854.638672	0.00279723008134	2.26191282272	154868.750156	116566.162109	283.79740062	5623.20932141	39962.6385215	65594248.0007	0
1525000.0	15604.0	376413.403269	0.119714518977	173867.431641	0.00292332833851	2.26282310486	154808.43092	116387.744141	295.761758959	5289.09826612	11084.7873141	65598970.7096	0
1550000.0	15704.0	396814.407912	0.12018641585	173881.103516	0.00305352114083	2.26364159584	154737.154481	116200.439453	308.168755649	4953.75760242	20336.9590236	65603693.9276	0
1575000.0	15803.0	418126.064917	0.120661409041	173861.401367	0.00318911224895	2.26410698891	154599.06135	115965.795898	320.918052398	4641.39034795	34547.6949456	65608417.6547	0
1600000.0	15903.0	440379.391572	0.121140577465	173850.366211	0.00332895069732	2.26454734802	154464.032174	115733.093262	334.134263974	4374.00371923	6647.29767031	65613141.891	0
1625000.0	16003.0	463606.389765	0.121623157691	173850.622559	0.00347334480466	2.26472640038	154312.781703	115490.869141	347.740850924	4104.60104932	17155.5590776	65617866.6364	0
1650000.0	16103.0	487838.439764	0.122112740845	173860.498047	0.0036223814277	2.26463127136	154142.672927	115237.268066	361.747384124	3854.70500889	31685.4141272	65622591.891	0
1675000.0	16203.0	513107.685587	0.122611901414	173876.123047	0.00377620472136	2.26429891586	153954.041398	114972.094727	376.163376957	3622.63519154	50824.6650876	65627317.6548	0
1700000.0	16303.0	539448.047114	0.123117992851	173889.257812	0.00393511845687	2.26373195648	153737.888122	114688.07373	391.00679542	3423.70927358	14066.4320615	65632043.928	0
1725000.0	16404.0	566891.856075	0.123629445562	173898.950195	0.00409892027164	2.26306891441	153504.366341	114390.478516	406.367665173	3221.78886524	31385.3281171	65636770.7105	0
1750000.0	16504.0	595481.829826	0.124136670428	173875.598145	0.00426920178143	2.26215457916	153215.898329	114054.748535	422.132879866	3032.55154412	57269.8791624	65641498.0024	0
1775000.0	16605.0	625253.599268	0.124650415697	173864.221191	0.00444428405899	2.26115226746	152930.116691	113721.679688	438.425946128	2870.84869179	17054.0020989	65646225.8037	0
1800000.0	16706.0	656243.36541	0.125173197425	173865.393066	0.0046245431804	2.2599170208	152635.490076	113384.899902	455.178173623	2706.19373558	39736.6866911	65650954.1145	0
1825000.0	16807.0	688487.581414	0.125703848573	173874.975586	0.00481018651044	2.25843882561	152325.493985	113039.355469	472.3949003	2552.67311617	70450.4300555	65655682.9347	0
1850000.0	16908.0	722024.260619	0.126240370731	173887.597656	0.0050014741646	2.25671863556	151992.908179	112679.174805	490.074201329	2421.32583754	23135.2692558	65660412.2645	0
1875000.0	17010.0	756888.640913	0.126783454562	173905.664062	0.00519801369592	2.25483894348	151644.767904	112307.653809	508.305190114	2298.37821301	1684.81503302	65665142.1038	0
1900000.0	17112.0	793121.680272	0.127330891089	173914.855957	0.00540071414434	2.25276041031	151268.36931	111917.175293	527.02454851	2172.1549274	9623.81452231	65669872.4527	0
1925000.0	17214.0	830766.654942	0.127880868793	173907.250977	0.00560998114452	2.25061559677	150871.111008	111512.561035	546.254825624	2053.80509417	37764.7969829	65674603.3113	0
1950000.0	17316.0	869869.531453	0.128432582007	173890.625	0.00582577376917	2.24841403961	150462.745495	111101.35498	565.994106067	1942.88782097	80610.0157176	65679334.6795	0
1975000.0	17418.0	910474.339788	0.128989972848	173883.398438	0.00604763499723	2.24599981308	150043.693621	110684.70459	586.228439087	1848.14744638	27424.324773	65684066.5575	0
2000000.0	17521.0	952618.296915	0.129555840389	173891.333008	0.0062749359131	2.24339699745	149617.714885	110263.720703	607.047167338	1750.81052981	68581.9472412	65688798.9451	0
2025000.0	17623.0	996349.582969	0.130125871057	173896.142578	0.00650937408864	2.24047708511	149160.983174	109824.145508	628.297485086	1659.31631785	126251.46003	65693531.8426	0
2050000.0	17726.0	1041706.73977	0.130708255264	173911.450195	0.00674950752	2.23737382889	148692.960458	109377.124023	650.152478578	1589.11608576	8299.15623468	65698265.2498	0
2075000.0	17830.0	1088729.78312	0.13130024907	173931.518555	0.00699559768691	2.23415589333	148213.849528	108922.229004	672.625876546	1508.22567633	9058.22198569	65702999.1668	0
2100000.0	17933.0	1137473.14986	0.13188871261	173932.678223	0.00724987330614	2.23085284233	147710.635503	108452.13623	695.540763872	1431.91268783	51175.3405924	65707733.5937	0
2125000.0	18037.0	1187982.6782	0.132477520251	173923.681641	0.00751107018004	2.22764778137	147205.587122	107979.724121	719.08549588	1360.2579223	117620.717591	65712468.5306	0
2150000.0	18140.0	1240317.70264	0.133064440398	173901.782227	0.00778060712037	2.2243475914	146684.231879	107498.278809	743.08449319	1298.86450869	50423.7347149	65717203.9773	0
2175000.0	18245.0	1294514.78355	0.13367011256	173905.200195	0.00805505624157	2.22086668015	146163.18186	107016.662598	767.774845154	1241.41155824	3834.74065019	65721939.934	0
2200000.0	18349.0	1350628.60509	0.134278348766	173907.006836	0.00833755620988	2.21715331078	145621.073028	106523.254395	792.922458061	1181.28406674	50473.3808435	65726676.4007	0
2225000.0	18454.0	1408702.09246	0.134897351649	173920.263672	0.00862634442456	2.21326088905	145069.138641	106023.4375	818.716197935	1130.24089739	2943.88738086	65731413.3773	0
2250000.0	18559.0	1468786.412	0.135520686764	173933.642578	0.00892269781616	2.20918560028	144499.950083	105513.098145	845.091018769	1076.77184255	53060.103767	65736150.864	0
2275000.0	18664.0	1530933.54225	0.136150746191	173945.068359	0.00922676736081	2.20491814613	143911.719761	104990.966797	872.059814527	1026.30862523	141693.532026	65740888.8608	0
2300000.0	18769.0	1595198.07649	0.136784282623	173949.682617	0.00953898324951	2.2005610466	143310.92373	104461.376953	899.649678532	983.265258288	62883.9673195	65745627.3676	0
2325000.0	18875.0	1661630.03852	0.137421887512	173949.279785	0.00985869155556	2.19624662399	142709.795548	103931.420898	927.974351024	942.501047445	8118.67284135	65750366.3846	0
2350000.0	18981.0	1730290.35903	0.138054403448	173934.411621	0.0101873438325	2.19206118584	142112.078122	103404.833984	956.973277663	899.441050648	81624.8471248	65755105.9117	0
2375000.0	19087.0	1801238.73485	0.138691631555	173923.657227	0.0105240469566	2.18773841858	141505.259719	102873.547363	986.607020019	862.791776452	17979.4159167	65759845.949	0
2400000.0	19194.0	1874521.59296	0.139344527529	173927.160645	0.010867383935	2.18316316605	140884.015836	102333.026123	1016.96856635	824.297317198	108038.050424	65764586.4964	0
2425000.0	19300.0	1950202.66281	0.139999337772	173927.954102	0.0112201032607	2.1784081459	140246.070741	101783.557129	1047.89448445	787.730159968	249683.694759	65769327.5541	0
2450000.0	19407.0	2028330.77822	0.140666341219	173938.134766	0.0115799593914	2.17349076271	139597.725884	101227.142334	1079.58067095	760.312082932	3012.65384534	65774069.122	0
2475000.0	19515.0	2108956.04908	0.141343255356	173954.553223	0.0119471769722	2.16846585274	138941.116902	100664.886475	1112.04670546	730.821717909	59355.5673616	65778811.2002	0
2500000.0	19623.0	2192138.07261	0.142026167627	173968.103027	0.0123232139231	2.16332221031	138269.322755	100092.675781	1145.21619698	696.247347588	199873.398848	65783553.7886	0
2525000.0	19730.0	2277948.18479	0.14270639773	173968.652344	0.0127098765006	2.15815782547	137587.241819	99514.9658203	1179.01641508	669.598043694	104978.903693	65788296.8873	0
2550000.0	19839.0	2366433.089	0.143397695109	173972.485352	0.0131034685182	2.15302324295	136908.507397	98938.5681152	1213.75558375	644.379784402	31097.2455557	65793040.4964	0
2575000.0	19947.0	2457671.65119	0.144074003466	173955.529785	0.0135087384479	2.1481359005	136244.260759	98374.4689941	1249.18087937	617.294954512	172377.482833	65797784.6158	0
2600000.0	20056.0	2551723.47663	0.144757081125	173946.179199	0.0139218973345	2.1431863308	135582.224609	97813.0310059	1285.38746809	594.425346738	79219.9057509	65802529.2456	0
2625000.0	20165.0	2648650.98976	0.145450439569	173942.077637	0.0143439783642	2.13795900345	134899.410506	97238.9831543	1322.2107912	572.675793956	13271.4793783	65807274.3857	0
2650000.0	20275.0	2748505.6621	0.146161381275	173948.925781	0.0147735154314	2.13242673874	134195.141728	96650.8178711	1359.75455305	552.079027243	20740.0580387	65812020.0363	0
2675000.0	20385.0	2851350.27937	0.146881271943	173958.422852	0.0152122429427	2.12669491768	133474.870098	96053.0395508	1397.95141132	530.041470638	65052.740097	65816766.1973	0
2700000.0	20495.0	2957249.56966	0.147608008572	173968.75	0.0156604637596	2.1208319664	132743.894243	95449.2553711	1436.82523171	511.40836618	6261.0025795	65821512.8687	0
2725000.0	20606.0	3066259.03006	0.148346526517	173984.106445	0.0161168118211	2.11486315727	132005.435045	94840.5395508	1476.49307637	491.476958243	157658.095346	65826260.0506	0
2750000.0	20716.0	3178458.84545	0.149078757213	173989.0625	0.0165850378835	2.10897302628	131270.358786	94236.1755371	1516.80967902	474.529781393	68622.9263474	65831007.7429	0
2775000.0	20828.0	3293897.86714	0.149823689516	173999.804688	0.0170604344021	2.10308909416	130538.125139	93633.0871582	1558.07831427	458.467498644	7929.7011388	65835755.9457	0
2800000.0	20939.0	3412662.36647	0.15055410592	173993.969727	0.0175486711669	2.09746623039	129824.06236	93044.5556641	1600.06565069	440.992280302	183727.097039	65840504.659	0
2825000.0	21051.0	3534818.96609	0.151282533306	173983.14209	0.0180465704034	2.09204292297	129127.694046	92468.6157227	1642.97700449	426.265710311	86279.6154026	65845253.8829	0
2850000.0	21163.0	3660444.76652	0.152010297389	173973.547363	0.0185548888112	2.08665060997	128437.984305	91898.8891602	1686.69838777	412.153298082	15258.2419721	65850003.6173	0
2875000.0	21276.0	3789599.82095	0.152746020716	173972.53418	0.0190717364603	2.08119750023	127749.099724	91330.456543	1731.31899657	398.704745225	21833.3864227	65854753.8622	0
2900000.0	21389.0	3922353.96301	0.153491461751	173974.279785	0.0195987486222	2.07552933693	127042.528128	90751.1779785	1776.75322883	384.118103694	113165.391492	65859504.6177	0
2925000.0	21502.0	4058777.34148	0.154249217483	173978.393555	0.0201359871426	2.06960296631	126313.488997	90157.5805664	1823.01144157	371.826605375	33415.8394488	65864255.8838	0
2950000.0	21616.0	4198928.24939	0.155024885346	173989.355469	0.0206816803257	2.06342291832	125564.276094	89550.5004883	1870.19676915	360.104103378	4131.71938225	65869007.6605	0
2975000.0	21730.0	4342879.64569	0.155807444575	173999.743652	0.0212380673474	2.05712723732	124805.369811	88938.0126953	1918.24532348	347.324353304	186365.238484	65873759.9478	0
3000000.0	21844.0	4490707.00517	0.156593524547	174007.739258	0.0218055174628	2.05079460144	124043.616116	88324.8474121	1967.17623589	336.560133154	93035.299497	65878512.7458	0
3025000.0	21959.0	4642474.19481	0.157387789214	174016.931152	0.0223823262786	2.04443788528	123281.755891	87712.1337891	2017.09393621	326.268027604	23886.1158127	65883266.0543	0
3050000.0	22074.0	4798261.60552	0.158177659934	174019.40918	0.0229709876294	2.03821349144	122531.611126	87108.7768555	2067.93543858	314.988471067	320590.183796	65888019.8735	0
3075000.0	22189.0	4958153.3858	0.158958291519	174012.512207	0.0235721017816	2.03221511841	121801.282625	86520.3857422	2119.72790474	305.483035363	204819.910927	65892774.2033	0
3100000.0	22305.0	5122221.80148	0.159737954293	174003.796387	0.0241833859036	2.02636408806	121087.031631	85943.7744141	2172.54797567	297.657255817	173630.927906	65897529.0438	0
3125000.0	22422.0	5290535.14469	0.160524332294	174002.502441	0.0248037376878	2.02049803734	120378.090573	85371.6369629	2226.3322101	287.681687666	26189.271699	65902284.395	0
3150000.0	22538.0	5463188.34404	0.16129964402	173997.473145	0.0254379010585	2.01476621628	119683.989859	84811.8591309	2280.82930792	278.07909256	354633.23538	65907040.2569	0
3175000.0	22655.0	5640244.20463	0.162091914681	173999.511719	0.0260810975306	2.00880646706	118972.594655	84240.5456543	2336.14222396	271.253450364	83273.70706	65911796.6295	0
3200000.0	22773.0	5821764.79794	0.162903255374	174008.007812	0.0267332397925	2.00258827209	118240.261938	83655.0964355	2392.26065941	262.487641041	123978.154984	65916553.5128	0
3225000.0	22890.0	6007845.32252	0.1637136591	174011.71875	0.0273993155133	1.99631941319	117502.741668	83067.7429199	2449.04407495	255.125235125	43896.4166696	65921310.9068	0
3250000.0	23009.0	6198534.09874	0.164546754019	174024.975586	0.0280722961179	1.98983335495	116749.491032	82469.2382812	2506.70188631	248.142587015	199.63163071	65926068.8116	0
3275000.0	23127.0	6393930.07932	0.165372981701	174031.359863	0.0287597904389	1.98342239857	116002.499288	81876.776123	2565.04113181	240.362408924	339661.022973	65930827.2271	0
3300000.0	23246.0	6594101.47691	0.166206705578	174039.501953	0.0294572164421	1.97699809074	115256.710578	81285.6384277	2624.21367978	234.904886987	120849.601684	65935586.1533	0
3325000.0	23366.0	6799117.97892	0.167044301207	174047.827148	0.0301647924061	1.97062528133	114517.956016	80699.9084473	2684.22367595	227.757310639	130531.594969	65940345.5903	0
3350000.0	23485.0	7009086.84124	0.167863759897	174044.787598	0.0308881717501	1.9645305872	113803.74721	80132.9528809	2744.97599792	221.764758573	48412.749941	65945105.5381	0
3375000.0	23606.0	7224065.95968	0.16868783807	174043.078613	0.031619983929	1.95854747295	113103.322795	79575.6530762	2806.68112024	216.057767541	175.157139818	65949865.9966	0
3400000.0	23726.0	7444167.91875	0.169492193902	174032.641602	0.0323676213156	1.95284807682	112430.347213	79039.3432617	2869.12431999	209.638392611	379967.580098	65954626.9659	0
3425000.0	23847.0	7669464.18671	0.170304672222	174028.771973	0.033124921174	1.9470859766	111758.002504	78504.4372559	2932.40292651	205.196232434	151768.015823	65959388.4459	0
3450000.0	23969.0	7900020.15033	0.171134570978	174031.066895	0.0338915742759	1.94109106064	111068.726364	77958.5876465	2996.48488302	199.293226283	133355.981644	65964150.4368	0
3475000.0	24090.0	8135939.36431	0.171962430449	174029.907227	0.0346732813341	1.93505787849	110377.046303	77412.7868652	3061.30500092	194.374385558	47249.4624601	65968912.9385	0
3500000.0	24213.0	8377269.47968	0.172813246836	174038.574219	0.035461729567	1.92879426479	109669.493576	76856.0791016	3127.00196934	189.698620948	390.304139052	65973675.951	0
3525000.0	24335.0	8624116.18794	0.173657582171	174042.810059	0.0362655773642	1.92258572578	108967.587064	76304.8156738	3193.48113303	184.391771588	463478.817951	65978439.4743	0
3550000.0	24458.0	8876548.39589	0.174510978208	174050.915527	0.0370793495676	1.91632163525	108263.874347	75752.8137207	3260.82938061	180.775655123	127334.284854	65983203.5085	0
3575000.0	24582.0	9134635.49555	0.175370735463	174062.036133	0.0379031262128	1.9100509882	107562.684662	75203.0517578	3329.08253273	175.869024272	217840.656184	65987968.0534	0
3600000.0	24705.0	9398488.91921	0.176215638025	174066.52832	0.0387432082789	1.90398037434	106880.03321	74667.5842285	3398.20459785	171.791433091	112382.638171	65992733.1093	0
3625000.0	24830.0	9668161.51936	0.177069707891	174076.342773	0.039590842789	1.89792323112	106203.000215	74136.1022949	3468.31247074	167.90239573	31540.4218239	65997498.6759	0
3650000.0	24954.0	9943769.56574	0.177902391855	174077.539062	0.0404555175919	1.89216291904	105553.216784	73625.0	3539.36150388	164.096072824	10587.3625122	66002264.7534	0
3675000.0	25080.0	10225369.2407	0.178740019368	174081.433105	0.0413282723457	1.88646423817	104913.087363	73120.8312988	3611.47340907	160.459338399	91238.5627648	66007031.3418	0
3700000.0	25205.0	10513080.764	0.179563014515	174073.852539	0.0422186749347	1.88091778755	104285.195214	72626.6723633	3684.53264001	156.274159463	297757.438925	66011798.441	0
3725000.0	25331.0	10806982.5702	0.180394104594	174067.63916	0.0431196385762	1.87528836727	103652.9827	72130.3161621	3758.43016421	152.867900184	162538.521702	66016566.051	0
3750000.0	25457.0	11107168.474	0.181227661443	174062.82959	0.0440335643361	1.86959707737	103018.884541	71633.9599609	3833.08163736	149.572113415	56312.8231701	66021334.1719	0
3775000.0	25584.0	11413707.0084	0.182071217764	174063.244629	0.0449572544312	1.86379849911	102380.003433	71135.1257324	3908.49056155	146.409938805	328.288857594	66026102.8037	0
3800000.0	25711.0	11726689.0225	0.182913952593	174064.63623	0.0458940558019	1.85800302029	101744.860756	70640.0268555	3984.63920566	143.348117479	65353.3905391	66030871.9463	0
3825000.0	25839.0	12046183.7322	0.18376278601	174070.605469	0.046840745199	1.8521695137	101110.876134	70146.4416504	4061.5355775	140.408488792	184402.710651	66035641.5998	0
3850000.0	25967.0	12372283.5529	0.184606858145	174076.867676	0.0478007750644	1.84641098976	100486.801299	69660.7299805	4139.16597901	137.024387788	246697.33068	66040411.7643	0
3875000.0	26095.0	12705082.5787	0.185443829448	174082.946777	0.0487744182465	1.84076464176	99875.7652889	69184.9914551	4217.53456902	134.274835625	105518.941154	66045182.4396	0
3900000.0	26224.0	13044652.7777	0.186280117988	174092.163086	0.0497583605465	1.83519339561	99275.5917083	68717.3461914	4296.64622762	131.631917213	8655.36919902	66049953.6258	0
3925000.0	26353.0	13391091.0606	0.187107488628	174099.865723	0.0507563527208	1.82974755764	98689.1323982	68260.1745605	4376.5017809	128.5679524	685931.045939	66054725.3229	0
3950000.0	26482.0	13744495.9066	0.187930856494	174104.956055	0.0517686130479	1.82432901859	98106.8350271	67806.9458008	4457.10248216	126.087870383	453828.249919	66059497.5309	0
3975000.0	26612.0	14104942.7255	0.188758036936	174110.534668	0.0527917036379	1.81888759136	97525.0545517	67354.7424316	4538.45003392	124.176715203	417246.700755	66064270.2498	0
4000000.0	26743.0	14472507.0925	0.189587629332	174116.027832	0.0538256826985	1.81345164776	96945.9131577	66904.9194336	4620.52631727	121.403228663	92167.3585151	66069043.4796	0
4025000.0	26873.0	14847316.0596	0.19040124085	174113.452148	0.0548782045371	1.80819439888	96381.8845011	66466.5710449	4703.36905654	118.691703671	972515.676314	66073817.2203	0
4050000.0	27004.0	15229448.7904	0.191214630023	174109.289551	0.0559421605431	1.80300104618	95824.7812337	66033.3618164	4786.95597094	116.971949947	104033.408056	66078591.472	0
4075000.0	27136.0	15618984.8051	0.192027894677	174104.760742	0.0570171432628	1.79786610603	95274.8286585	65605.480957	4871.25813192	114.877552001	298051.573039	66083366.2345	0
4100000.0	27268.0	16016024.4149	0.192836385451	174101.416016	0.0581057611271	1.79279506207	94733.5858915	65184.4665527	4956.21226994	112.417789522	203515.876076	66088141.5079	0
4125000.0	27400.0	16420663.5304	0.193639017659	174099.401855	0.0592080541537	1.78780651093	94202.7713139	64771.4782715	5041.81757352	110.451087893	35162.142744	66092917.2922	0
4150000.0	27533.0	16832971.6453	0.194442301644	174102.050781	0.0603202206548	1.78285300732	93679.4245772	64364.2272949	5128.0343298	108.559728125	55194.7525005	66097693.5875	0
4175000.0	27666.0	17253045.7802	0.195239553765	174104.980469	0.0614463278907	1.77793502808	93162.6581458	63962.6586914	5214.90657487	106.320898849	540566.406075	66102470.3936	0
4200000.0	27799.0	17680984.5329	0.196031679115	174107.788086	0.0625866086921	1.77303028107	92650.1853528	63565.1977539	5302.42372679	104.540189701	251662.96929	66107247.7107	0
4225000.0	27933.0	18116859.271	0.19682700695	174113.647461	0.0637370540062	1.76808464527	92138.0417701	63168.7561035	5390.539499	102.826172642	44061.1994313	66112025.5387	0
4250000.0	28067.0	18560768.8564	0.197617138091	174119.030762	0.0649017165415	1.76318013668	91631.8491598	62777.34375	5479.29532164	101.157881045	65522.0104073	66116803.8777	0
4275000.0	28202.0	19012785.0476	0.198409715222	174126.940918	0.0660765872453	1.7582681179	91128.1415121	62388.2446289	5568.63812917	99.5513696407	311434.330253	66121582.7276	0
4300000.0	28337.0	19473007.7127	0.199196262866	174133.862305	0.0672658352414	1.75343227386	90632.6840792	62005.5419922	5658.66725647	97.6240970288	236543.828201	66126362.0884	0
4325000.0	28472.0	19941538.0973	0.199976351674	174139.489746	0.0684697006363	1.74869120121	90146.7126029	61629.9682617	5749.43221459	96.1037159234	19354.864468	66131141.9601	0
4350000.0	28608.0	20418449.3731	0.200756731971	174146.582031	0.0696840070304	1.74400246143	89667.3551261	61259.2651367	5840.83212131	94.6376412106	125549.249834	66135922.3428	0
4375000.0	28744.0	20903844.5266	0.201529010963	174151.5625	0.070913163654	1.73944926262	89200.3186975	60897.4487305	5932.90329012	92.8659996472	477583.13441	66140703.2365	0
4400000.0	28880.0	21397829.075	0.202291252632	174153.588867	0.0721575779608	1.73501718044	88744.7609215	60544.1589355	6025.6252352	91.4767024664	138688.352448	66145484.6411	0
4425000.0	29017.0	21900481.4569	0.203050317005	174154.675293	0.0734132117941	1.73061537743	88294.1969675	60195.0012207	6118.91611602	90.1362984634	27358.3321228	66150266.5566	0
4450000.0	29154.0	22411910.5571	0.203799194697	174151.245117	0.0746845907997	1.72631084919	87852.810866	59852.8930664	6212.81909117	88.5045603716	693301.215123	66155048.983	0
4475000.0	29291.0	22932226.5373	0.204540150116	174144.580078	0.075971474871	1.72208738327	87419.3540403	59516.9189453	6307.26972991	87.233576842	258194.621078	66159831.9205	0
4500000.0	29429.0	23461504.0225	0.205284322651	174141.564941	0.0772680941736	1.71783459187	86986.7787756	59182.1044922	6402.08069792	86.0111202194	1785.67644476	66164615.3688	0
4525000.0	29567.0	23999842.7493	0.206025185908	174139.39209	0.0785789161455	1.71361780167	86559.2780918	58851.385498	6497.28239052	84.8211443644	245221.098615	66169399.328	0
4550000.0	29706.0	24547310.4934	0.206770253981	174140.979004	0.0798992841737	1.70938920975	86133.4348783	58522.1191406	6592.74150282	83.376510443	364639.372559	66174183.7982	0
4575000.0	29844.0	25104038.2634	0.207505412609	174140.405273	0.0812385405879	1.70527303219	85717.5021912	58200.2197266	6688.61162709	82.2542125475	27293.5380384	66178968.7794	0
4600000.0	29984.0	25670062.036	0.208252372857	174146.264648	0.0825826500659	1.70111131668	85300.7802104	57877.7526855	6784.53489571	81.1903412265	194506.257826	66183754.2715	0
4625000.0	30123.0	26245514.4956	0.208987109808	174149.536133	0.0839458953124	1.69707262516	84894.8711411	57563.3239746	6880.78362798	79.8549521033	451223.04431	66188540.2745	0
4650000.0	30263.0	26830466.396	0.209720589819	174155.175781	0.0853191450005	1.69302988052	84491.9078105	57251.5869141	6977.12601765	78.8517351826	50928.3838265	66193326.7885	0
4675000.0	30403.0	27425020.9004	0.21044675501	174160.302734	0.0867071794346	1.68903660774	84095.0129106	56944.744873	7073.61344585	77.8752776229	194468.144396	66198113.8135	0
4700000.0	30544.0	28029248.3519	0.211173841072	174167.431641	0.0881051382748	1.68503975868	83700.396929	56639.9902344	7170.05740275	76.6655992901	468037.765595	66202901.3494	0
4725000.0	30684.0	28643286.1739	0.211889011749	174170.947266	0.0895229459275	1.68114805222	83314.8303637	56342.1386719	7266.70720633	75.7448927997	36375.6570566	66207689.3963	0
4750000.0	30826.0	29267171.5274	0.212613806547	174178.78418	0.0909458103706	1.67720735073	82927.823112	56043.4814453	7363.06702752	74.8750039385	244855.077742	66212477.9542	0
4775000.0	30967.0	29901042.8303	0.213328667637	174182.617188	0.0923886691453	1.67338061333	82549.7780247	55751.4343262	7459.52513478	73.7554804843	432315.464587	66217267.023	0
4800000.0	31109.0	30544971.7356	0.214047980629	174187.524414	0.0938416778808	1.6695702076	82173.9248389	55460.9680176	7555.72857112	72.9364685783	15469.6449524	66222056.6029	0
4825000.0	31251.0	31199064.1307	0.214765672508	174190.576172	0.0953098860919	1.66583776474	81803.9995913	55174.6337891	7651.78636977	71.8868843519	1094503.21455	66226846.6937	0
4850000.0	31393.0	31863428.8406	0.215477787104	174191.137695	0.0967937376117	1.66219079494	81441.1721687	54893.4326172	7747.67867011	71.115588979	399466.468308	66231637.2954	0
4875000.0	31536.0	32538141.7236	0.216187262947	174191.088867	0.098288335721	1.65857994556	81082.7533051	54615.625	7843.15357368	70.3774464905	128.644519459	66236428.4082	0
4900000.0	31679.0	33223314.5973	0.216888213761	174187.512207	0.0997990500764	1.65505623817	80731.7363959	54343.3044434	7938.43647661	69.6586828948	419055.332609	66241220.032	0
4925000.0	31823.0	33919023.1069	0.21758993195	174184.289551	0.101319936221	1.65154755116	80383.3358585	54073.046875	8033.77425902	68.7275832608	311723.621472	66246012.1667	0
4950000.0	31966.0	34625410.2126	0.218283072537	174179.150391	0.102860707557	1.64811086655	80041.3942155	53807.7758789	8129.62324438	67.8058566121	1832257.21342	66250804.8124	0
4975000.0	32110.0	35342542.2487	0.218982152421	174177.13623	0.104410704807	1.64464688301	79699.1361775	53542.5415039	8225.4777667	67.3834046788	600410.977645	66255597.9691	0
5000000.0	32255.0	36070483.0475	0.219688532105	174178.222656	0.10596960783	1.64115405083	79356.23592	53277.0446777	8321.22898755	66.7514474912	1499102.33295	66260391.6367	0
5025000.0	32400.0	36809333.6261	0.220396959016	174179.870605	0.107542888145	1.63768088818	79015.4889655	53013.2202148	8417.00426032	65.9073936403	116236.097022	66265185.8153	0
5050000.0	32545.0	37559195.2523	0.221108291139	174182.006836	0.109130574856	1.63422834873	78676.7246846	52750.8605957	8512.74151694	65.0841575358	807726.539684	66269980.505	0
5075000.0	32690.0	38320171.6025	0.221817050265	174184.179688	0.110733068141	1.63080573082	78341.8537318	52491.6503906	8608.3672744	64.5030099863	146020.19469	66274775.7056	0
5100000.0	32836.0	39092328.9002	0.222528502434	174188.61084	0.112344816444	1.62736976147	78008.0886593	52233.59375	8703.53810636	63.9477207598	187424.43365	66279571.4172	0
5125000.0	32982.0	39875771.6605	0.223237356389	174192.700195	0.113971458632	1.62396728992	77677.9523446	51978.4301758	8798.42788766	63.1906728383	730438.36248	66284367.6398	0
5150000.0	33128.0	40670604.7809	0.223944786074	174196.459961	0.115613052913	1.62059795856	77350.8800225	51725.6530762	8892.92653171	62.6674539401	86696.4752564	66289164.3734	0
5175000.0	33275.0	41476894.2872	0.224658253894	174202.001953	0.117263894936	1.61721801758	77023.5756616	51472.7844238	8986.69349805	62.1695364738	277776.320136	66293961.618	0
5200000.0	33422.0	42294745.0045	0.225372552408	174206.933594	0.118929689052	1.61387252808	76698.492465	51221.484375	9079.87385334	61.4773145309	671622.134628	66298759.3737	0
5225000.0	33569.0	43124262.4696	0.226088775188	174211.083984	0.120610493468	1.61056149006	76375.2343157	50971.37146	9172.39880824	61.011198477	59228.8150508	66303557.6404	0
5250000.0	33717.0	43965512.1946	0.226814421713	174216.577148	0.122300523799	1.60724163055	76050.6200917	50720.0622559	9263.86263365	60.5701175771	311973.547911	66308356.4181	0
5275000.0	33865.0	44818600.4927	0.227541926742	174220.812988	0.124005659018	1.60396003723	75727.9209867	50469.9188232	9354.45121388	59.9412069354	728663.35848	66313155.7068	0
5300000.0	34013.0	45683636.2775	0.228266759084	174223.388672	0.125726364786	1.60072505474	75408.624055	50222.1710205	9444.11084207	59.5311378904	89773.9143339	66317955.5066	0
5325000.0	34162.0	46560687.7235	0.228995448922	174226.269531	0.127456645714	1.59749341011	75089.9581431	49974.8626709	9532.40027482	59.1455024071	268876.689029	66322755.8174	0
5350000.0	34311.0	47449864.2898	0.229721759964	174227.001953	0.129202555399	1.59430873394	74774.7119872	49729.989624	9619.52926126	58.5776331315	860018.269513	66327556.6393	0
5375000.0	34460.0	48351276.9738	0.230445805042	174225.366211	0.130964326672	1.59117305279	74462.9653758	49487.588501	9705.42975192	58.2223290307	151348.664041	66332357.9722	0
5400000.0	34610.0	49264995.1399	0.231174224829	174223.278809	0.132735847728	1.58804500103	74151.9446649	49245.6817627	9789.63557578	57.891079911	199565.421037	66337159.8162	0
5425000.0	34760.0	50191130.2511	0.231901878888	174219.104004	0.134522968438	1.58496022224	73843.9075247	49005.8990479	9872.37132885	57.3829651043	1061220.9576	66341962.1712	0
5450000.0	34910.0	51129790.0553	0.232632941144	174215.246582	0.136324611958	1.58188641071	73536.7403643	48766.8304443	9953.47826849	57.0830606482	276467.204046	66346765.0373	0
5475000.0	35061.0	52081034.4472	0.233374989846	174213.977051	0.138134506415	1.57878029346	73227.3789564	48526.2542725	10032.4643069	56.8081161095	79374.9987478	66351568.4145	0
5500000.0	35212.0	53044967.1034	0.234118834215	174212.939453	0.13995898189	1.57568883896	72919.3016516	48286.7248535	10109.6126555	56.3616999127	1453723.59439	66356372.3027	0
5525000.0	35363.0	54021691.6813	0.234863884573	174212.036133	0.141798198456	1.57261192799	72612.596183	48048.3154297	10184.8378858	56.1184218406	564962.185439	66361176.702	0
5550000.0	35515.0	55011268.4882	0.235617159865	174213.256836	0.143645753269	1.5695091486	72304.476652	47809.0118408	10257.6153539	55.8997919476	25046.4400965	66365981.6124	0
5575000.0	35667.0	56013800.7422	0.236372298724	174214.501953	0.145507903653	1.56642019749	71997.5866785	47570.715332	10328.9280472	55.6926778359	371770.453088	66370787.0339	0
5600000.0	35820.0	57029347.1449	0.237136476455	174217.700195	0.147378174006	1.56330502033	71689.1075052	47331.3751221	10398.5556086	55.5050288268	1176699.1349	66375592.9664	0
5625000.0	35973.0	58058010.2175	0.237903452231	174220.788574	0.149262981722	1.56020367146	71381.6290452	47092.8253174	10466.9055673	55.1469289432	334606.473799	66380399.4101	0
5650000.0	36126.0	59099892.8285	0.23867366695	174223.681641	0.151162326802	1.55711603165	71075.0662746	46855.0140381	10533.9119413	54.9800471541	28956.6480271	66385206.3649	0
5675000.0	36280.0	60155052.4554	0.239454380453	174228.283691	0.153069631779	1.55400300026	70766.6358982	46615.8813477	10599.0544728	54.8323351427	535777.81048	66390013.8308	0
5700000.0	36434.0	61223593.1335	0.240238044098	174232.324219	0.154991677846	1.55090773106	70459.1630973	46377.456665	10662.773359	54.5171409625	1060565.37024	66394821.8079	0
5725000.0	36588.0	62305619.8612	0.241023751474	174235.681152	0.156928610522	1.54783177376	70152.9212759	46139.9719238	10725.0145984	54.3894692407	351851.998481	66399630.2961	0
5750000.0	36743.0	63401191.8403	0.241817821639	174240.185547	0.158873735927	1.54473817348	69845.5032482	45901.6845703	10785.226861	54.2805814228	6584.50667783	66404439.2955	0
5775000.0	36898.0	64510414.445	0.242613268006	174243.75	0.160833762493	1.54166638851	69539.7023291	45664.6484375	10843.8601144	54.1811341615	430265.751849	66409248.8061	0
5800000.0	37054.0	65633346.1705	0.243416507573	174248.217773	0.162801865372	1.53857898712	69233.0930712	45427.1179199	10900.3464117	54.1004104972	1149274.95222	66414058.8278	0
5825000.0	37210.0	66770091.806	0.244220532975	174251.586914	0.164784840308	1.53551518917	68928.4743335	45191.12854	10955.1421022	53.856569272	651578.259937	66418869.3608	0
5850000.0	37366.0	67920756.9325	0.245025049279	174253.735352	0.166782789165	1.53247606754	68625.9827184	44956.7840576	11008.2429585	53.7954170745	119388.652221	66423680.405	0
5875000.0	37523.0	69085399.787	0.245836929674	174256.420898	0.168788741576	1.52942407131	68323.115677	44722.2869873	11059.0145809	53.7530057135	131735.258065	66428491.9604	0
5900000.0	37680.0	70264127.5146	0.246649421668	174257.421875	0.170809915289	1.52639722824	68022.1955812	44489.2669678	11107.9712379	53.5494307056	2191617.16758	66433304.027	0
5925000.0	37837.0	71457048.9803	0.247461899883	174256.530762	0.172846557689	1.52339804173	67723.3620146	44257.8063965	11155.1235391	53.5261332826	1326784.50978	66438116.6049	0
5950000.0	37995.0	72664224.6837	0.248280630305	174255.444336	0.174891538336	1.52039182186	67424.3315364	44026.2878418	11199.8072481	53.6907677386	2333965.39014	66442929.6941	0
5975000.0	38154.0	73885714.3957	0.249104648322	174254.016113	0.176944799023	1.51738452911	67125.5154636	43794.9768066	11241.941771	53.535357422	138858.933328	66447743.2946	0
6000000.0	38312.0	75121675.1073	0.249919797886	174248.974609	0.179020338692	1.51444935799	66832.1471785	43567.6727295	11282.7357631	53.3810723815	3542122.26941	66452557.4063	0
6025000.0	38471.0	76372163.9803	0.250743387705	174245.654297	0.181102979695	1.51149070263	66537.5815108	43339.6392822	11320.8434337	53.5830068338	577977.022025	66457372.0294	0
6050000.0	38631.0	77637231.5316	0.251575803641	174244.274902	0.183192430995	1.50850892067	66241.7824342	43110.8459473	11356.2241319	53.6360392441	1245870.23413	66462187.1638	0
6075000.0	38791.0	78916976.4196	0.252409663568	174243.09082	0.185295692063	1.50554263592	65947.5226884	42883.303833	11389.4267387	53.5323203775	984057.376203	66467002.8095	0
6100000.0	38951.0	80211499.4466	0.253246500754	174241.894531	0.187413184904	1.50258600712	65653.98206	42656.3598633	11420.494221	53.6063429156	411386.742346	66471818.9666	0
6125000.0	39112.0	81520851.2505	0.254093784828	174242.285156	0.189537531696	1.49960267544	65358.5318454	42428.0975342	11448.6795029	53.7001721073	50651.7634796	66476635.635	0
6150000.0	39273.0	82845132.1371	0.254943348205	174242.553711	0.191676008399	1.49662995338	65064.0166526	42200.6408691	11474.6411568	53.8044550442	144277.770156	66481452.8148	0
6175000.0	39435.0	84184391.7407	0.255801825405	174244.287109	0.193821208086	1.49363517761	64768.2429839	41972.4121094	11497.6315432	53.9288567956	549317.546007	66486270.5059	0
6200000.0	39597.0	85538728.8088	0.256661219079	174245.825195	0.195980348508	1.49065518379	64474.0147396	41745.4772949	11518.3154797	54.0641112649	1101111.87945	66491088.7085	0
6225000.0	39760.0	86908191.5735	0.257528066928	174248.76709	0.19814594998	1.48765742779	64179.1214128	41518.2617188	11535.9457116	54.2198953784	1745794.27351	66495907.4224	0
6250000.0	39923.0	88292878.0283	0.25839450198	174251.44043	0.200325390324	1.48467862606	63886.375448	41292.8253174	11551.2563733	54.2203400984	913970.775441	66500726.6478	0
6275000.0	40086.0	89692887.3612	0.259260344412	174253.78418	0.202518742299	1.48171937466	63595.8284054	41069.2169189	11564.3778311	54.3974794137	434713.373779	66505546.3847	0
6300000.0	40250.0	91108268.4664	0.260134945301	174257.116699	0.204718729947	1.47873818874	63303.9744758	40844.8425293	11574.6035977	54.5944059077	106971.542598	66510366.633	0
6325000.0	40414.0	92539121.7553	0.261010756548	174259.814453	0.20693289116	1.47577130795	63013.5136895	40621.6522217	11582.7016993	54.8014896182	40960.5635568	66515187.3927	0
6350000.0	40579.0	93985495.5703	0.26189410392	174263.40332	0.209153571632	1.47278761864	62722.3470576	40398.1384277	11587.942421	55.0283763369	298420.704794	66520008.664	0
6375000.0	40744.0	95447489.666	0.262776832306	174266.320801	0.21138828015	1.46982336044	62433.3053894	40176.3671875	11591.136353	55.2652850966	683779.572932	66524830.4468	0
6400000.0	40910.0	96925150.1199	0.263665448512	174270.043945	0.213629231439	1.46684873104	62144.344146	39954.8522949	11591.5181568	55.5220989619	1145668.31439	66529652.7412	0
6425000.0	41076.0	98418576.2983	0.264551534707	174273.059082	0.215884094359	1.46390104294	61858.2815423	39735.6384277	11589.8892151	55.62153116	1883060.8816	66534475.5471	0
6450000.0	41242.0	99927866.6254	0.2654341559	174275.292969	0.218152854359	1.460983634	61575.4561066	39518.9697266	11586.3394243	55.8980415178	1329841.84076	66539298.8646	0
6475000.0	41409.0	101453067.717	0.266321688456	174278.100586	0.220427842578	1.45805966854	61293.0415769	39302.8045654	11580.0695128	56.1944506601	856983.897656	66544122.6937	0
6500000.0	41576.0	102994280.949	0.26720817952	174279.736328	0.222717178985	1.45515751839	61012.7728876	39088.3728027	11571.935135	56.5006653889	458301.571787	66548947.0344	0
6525000.0	41744.0	104551553.527	0.268099786488	174281.628418	0.225012830924	1.45224893093	60732.6558405	38874.230957	11561.1531913	56.9959501829	4551755.80115	66553771.8868	0
6550000.0	41913.0	106124931.019	0.268995655593	174283.679199	0.227314594667	1.44933795929	60453.0478837	38660.6201172	11547.743773	57.1731387457	872.84243211	66558597.2508	0
6575000.0	42081.0	107714567.031	0.269880217644	174282.971191	0.229638288147	1.44649422169	60178.9800923	38451.1413574	11533.4254559	57.5191677042	171856.44835	66563423.1266	0
6600000.0	42251.0	109320451.456	0.270774287319	174283.71582	0.231959973462	1.44362330437	59903.8062154	38241.0369873	11515.6979252	57.8958870301	476747.149171	66568249.514	0
6625000.0	42420.0	110942737.186	0.271654857273	174281.567383	0.234303472098	1.44082772732	59634.829337	38035.4797363	11497.1518444	58.100925545	3244389.89924	66573076.4131	0
6650000.0	42590.0	112581468.4	0.272536126126	174279.223633	0.236652849708	1.43804419041	59367.5393984	37831.2713623	11476.1278968	58.6692494858	1477811.43653	66577903.824	0
6675000.0	42761.0	114236690.51	0.273421331159	174276.953125	0.239008048084	1.4352619648	59100.6762853	37627.4353027	11452.652366	59.0869282701	2094063.33817	66582731.7467	0
6700000.0	42932.0	115908500.61	0.274305506052	174274.462891	0.241376372287	1.43249893188	58835.6325975	37425.0305176	11427.6061748	59.341674732	1374605.29939	66587560.1812	0
6725000.0	43103.0	117596992.819	0.275188105387	174271.838379	0.24375783687	1.42975461483	58572.6055251	37224.2462158	11401.0248804	59.7798039141	869450.771955	66592389.1274	0
6750000.0	43275.0	119302203.636	0.276075675849	174270.507812	0.246144074481	1.42699837685	58309.601017	37023.6877441	11372.1078321	60.2392657106	457622.93083	66597218.5856	0
6775000.0	43447.0	121024225.087	0.276960028663	174269.104004	0.248543161433	1.42426121235	58049.0765947	36825.177002	11341.7323363	60.709634254	134840.16572	66602048.5555	0
6800000.0	43620.0	122763092.036	0.277847764637	174269.067383	0.250946730375	1.42151355743	57789.1543272	36627.4078369	11309.078519	61.3787513402	6221725.03662	66606879.0374	0
6825000.0	43794.0	124518837.595	0.278737931037	174270.361328	0.2533547231	1.41875648499	57530.0486958	36430.5633545	11274.1912998	61.7162122384	249833.035448	66611710.0311	0
6850000.0	43967.0	126291611.082	0.279618011081	174270.141602	0.255783845205	1.41604566574	57275.4649515	36237.2650146	11238.8440593	62.0519693629	4214617.06771	66616541.5368	0
6875000.0	44141.0	128081449.717	0.28050227803	174270.935059	0.258217769442	1.41332101822	57020.9275109	36044.2840576	11201.3690657	62.7675315789	1170829.85447	66621373.5545	0
6900000.0	44316.0	129888387.007	0.281390475388	174272.753906	0.260656146565	1.41058564186	56766.7311262	35851.8218994	11161.7761093	63.3269803082	1760252.39041	66626206.0841	0
6925000.0	44491.0	131712514.401	0.282274816679	174274.267578	0.263107271167	1.40787315369	56515.1839814	35661.4990234	11120.9920887	63.7160017563	2066008.28772	66631039.1256	0
6950000.0	44666.0	133553922.455	0.283154525952	174275.500488	0.265570997726	1.40518689156	56266.5265886	35473.4527588	11079.0797569	64.2975342974	1423178.68386	66635872.6793	0
6975000.0	44842.0	135412642.569	0.284036215582	174277.734375	0.268038769718	1.4025015831	56018.95548	35286.3830566	11034.7807864	65.0891580827	4162753.6236	66640706.7449	0
7000000.0	45019.0	137288704.485	0.284918768034	174280.944824	0.270510354312	1.39982235432	55772.785622	35100.479126	10987.7993684	65.725898391	5146204.60901	66645541.3226	0
7025000.0	45196.0	139182198.248	0.285796286308	174283.691406	0.272994482657	1.39717614651	55529.663416	34916.897583	10939.1201228	66.1922817709	57841.4501461	66650376.4125	0
7050000.0	45373.0	141093215.609	0.28666884193	174285.864258	0.275491503999	1.39456188679	55289.387726	34735.4827881	10888.8750212	66.8605534073	131244.534603	66655212.0144	0
7075000.0	45551.0	143021789.288	0.287542996354	174288.708496	0.277992687188	1.39195024967	55050.0574438	34554.9163818	10836.2785775	67.5570323493	546478.434778	66660048.1286	0
7100000.0	45729.0	144968008.569	0.288411233333	174291.015625	0.280506297713	1.38936817646	54813.7846016	34376.7333984	10782.3260279	68.0785640583	3993805.53261	66664884.7549	0
7125000.0	45907.0	146931963.579	0.289272918251	174292.822266	0.283032539301	1.38681399822	54580.6252521	34201.0192871	10727.0990851	68.8060530569	2997847.56656	66669721.8934	0
7150000.0	46086.0	148913682.574	0.290134509171	174295.300293	0.285562360659	1.38426029682	54348.838726	34026.5563965	10669.8117555	69.756410666	2923766.37533	66674559.5442	0
7175000.0	46266.0	150913193.105	0.29099515071	174298.425293	0.288095645374	1.3817050457	54118.6282042	33853.5766602	10610.5816815	70.5428214753	4040335.90718	66679397.7073	0
7200000.0	46446.0	152930583.98	0.291848647156	174300.878906	0.29064132832	1.37917339802	53891.6276278	33683.2214355	10550.3829303	71.1479208585	542686.245879	66684236.3826	0
7225000.0	46626.0	154965945.742	0.292695215617	174302.514648	0.293199555017	1.37666511536	53667.6476395	33515.3320312	10489.3278945	71.9649558082	50801.981418	66689075.5703	0
7250000.0	46807.0	157019308.881	0.293541327119	174304.467773	0.295761739835	1.3741569519	53445.0132895	33348.7182617	10426.6225924	72.8107821306	255020.356925	66693915.2704	0
7275000.0	46988.0	159090761.036	0.294379864698	174305.639648	0.298336090054	1.37167787552	53225.6371297	33184.6832275	10363.2338982	73.6727299358	965854.979781	66698755.4829	0
7300000.0	47170.0	161180329.122	0.29521699375	174307.092285	0.300913874526	1.3692060709	53007.8362949	33021.987915	10298.3760305	74.5638640372	1966711.21091	66703596.2078	0
7325000.0	47352.0	163288099.022	0.296045795262	174307.727051	0.30350353336	1.36677002907	52793.4877335	32861.9293213	10233.0139634	75.2643643092	2129253.4993	66708437.4452	0
7350000.0	47534.0	165414155.309	0.296865563267	174307.543945	0.306105008349	1.3643733263	52582.7606579	32704.6020508	10167.2406277	76.1855775179	1004425.34627	66713279.195	0
7375000.0	47717.0	167558524.342	0.297683186271	174307.385254	0.308709742967	1.3619890213	52373.6324322	32548.550415	10100.2375631	77.1363183361	188316.561771	66718121.4574	0
7400000.0	47900.0	169721294.037	0.298492218273	174306.04248	0.311326730298	1.35964095592	52167.8815594	32395.0744629	10033.0040674	78.1026118039	241381.105031	66722964.2324	0
7425000.0	48084.0	171902490.276	0.299298932007	174304.650879	0.313946977258	1.35730326176	51963.7628626	32242.9504395	9964.71911155	79.098558424	1196372.65701	66727807.5199	0
7450000.0	48268.0	174102199.629	0.300096705128	174302.087402	0.316579185892	1.35500061512	51763.0113839	32093.3959961	9896.35560121	80.110045747	2643383.6365	66732651.32	0
7475000.0	48453.0	176320446.502	0.300892979034	174300.170898	0.319214130286	1.35270106792	51563.6106483	31945.0561523	9827.09071075	81.151587269	4481173.20679	66737495.6328	0
7500000.0	48638.0	178557312.512	0.301682314433	174298.291016	0.32186016324	1.35042405128	51367.0145243	31798.9746094	9757.87133436	81.9873569763	337616.050637	66742340.4583	0
7525000.0	48823.0	180812879.06	0.302464045155	174296.459961	0.324517459376	1.34816980362	51173.2564075	31655.1849365	9688.7459126	83.0581038867	231834.479899	66747185.7964	0
7550000.0	49009.0	183087168.662	0.30324475117	174295.544434	0.327177345753	1.34591424465	50980.6538661	31512.5457764	9618.96950001	84.158704619	1413515.15131	66752031.6474	0
7575000.0	49195.0	185380264.76	0.304017796147	174294.494629	0.329848873662	1.34368252754	50790.8674366	31372.1893311	9549.43347764	85.0459375105	2721296.64684	66756878.0111	0
7600000.0	49381.0	187692249.19	0.30478323119	174293.334961	0.332531722961	1.34147393703	50603.7876052	31234.0026855	9480.19195538	86.1744680275	1012706.38333	66761724.8876	0
7625000.0	49568.0	190023139.465	0.305546787486	174293.115234	0.335216522217	1.33926665783	50417.9691866	31096.9573975	9410.48120543	87.3331036136	8108.50916697	66766572.2769	0
7650000.0	49755.0	192373013.635	0.306302256205	174292.84668	0.337912177201	1.3370834589	50234.9146378	30962.0697021	9341.1702409	88.5068086479	965863.063525	66771420.1791	0
7675000.0	49943.0	194741883.988	0.307055468032	174293.603516	0.340609054547	1.33490335941	50053.2281122	30828.338623	9271.50445513	89.7109952929	2886249.92524	66776268.5942	0
7700000.0	50131.0	197129825.361	0.307799946884	174294.311523	0.343316292856	1.33274781704	49874.4112515	30696.8231201	9202.35823186	90.6888198138	1220668.94588	66781117.5223	0
7725000.0	50319.0	199536916.724	0.308535606651	174294.836426	0.34603435779	1.33061671257	49698.4604982	30567.5445557	9133.16612026	91.925738557	1063.72735972	66785966.9633	0
7750000.0	50508.0	201963173.459	0.309267881636	174296.154785	0.34875413985	1.32848846912	49523.9075717	30439.4989014	9062.75275214	93.2037021579	1246276.95334	66790816.9173	0
7775000.0	50697.0	204408673.294	0.309991589298	174297.314453	0.351484690327	1.32638514042	49352.1753658	30313.6749268	8991.98377366	94.2577363516	2787630.015	66795667.3844	0
7800000.0	50886.0	206873494.522	0.31070667682	174298.291016	0.354226038326	1.3243060112	49183.1390782	30189.9963379	8920.94461093	95.5835546425	625460.955828	66800518.3645	0
7825000.0	51076.0	209357650.087	0.31141887421	174300.12207	0.3569687251	1.32223200798	49015.4900858	30067.5415039	8848.94117038	96.9511817313	413036.253449	66805369.8577	0
7850000.0	51266.0	211861216.592	0.312122823112	174301.806641	0.359721889254	1.32018458843	48850.4970978	29947.164917	8776.83466469	98.3442208257	2611380.2655	66810221.8641	0
7875000.0	51457.0	214384208.406	0.312823102184	174304.211426	0.362476683222	1.31814348698	48686.9719659	29828.0914307	8703.94902924	99.7793541181	5934103.86101	66815074.3836	0
7900000.0	51648.0	216926705.198	0.313514203616	174306.274414	0.365242536645	1.31613004208	48526.2727204	29711.2304688	8631.10952203	100.975558217	95392.9095581	66819927.4163	0
7925000.0	51839.0	219488785.128	0.314196267193	174308.056641	0.368019042071	1.31414401531	48368.3461169	29596.5209961	8558.40972483	102.190422666	4833852.08824	66824780.9623	0
7950000.0	52030.0	222070525.362	0.314869249398	174309.545898	0.370806257706	1.31218600273	48213.1534179	29483.8928223	8485.88436056	103.694671309	1577770.43263	66829635.0215	0
7975000.0	52222.0	224671936.623	0.315538521422	174311.669922	0.373594521079	1.31023681164	48059.4382849	29372.4731445	8412.86507822	105.241651535	84553.1142129	66834489.5941	0
8000000.0	52414.0	227293091.953	0.316198963841	174313.574219	0.37639279617	1.30831670761	47908.411636	29263.0584717	8340.16276283	106.813750648	2425903.54902	66839344.68	0
8025000.0	52607.0	229933998.528	0.316855689795	174316.088867	0.379191478714	1.30640602112	47758.8451784	29154.8309326	8267.08112818	108.429510185	6452752.11121	66844200.2792	0
8050000.0	52800.0	232594731.601	0.317503564276	174318.212891	0.382000522222	1.30452680588	47612.0282218	29048.6572266	8194.45093712	109.785657675	352795.02736	66849056.3919	0
8075000.0	52993.0	235275366.51	0.318141858533	174319.873047	0.384820043109	1.30267834663	47467.9413795	28944.5281982	8122.31614775	111.159248265	3859138.46676	66853913.0181	0
8100000.0	53186.0	237975978.731	0.318770804291	174321.118164	0.387649808545	1.30085670948	47326.5069809	28842.4438477	8050.71027965	112.841677166	534291.411347	66858770.1578	0
8125000.0	53380.0	240696576.629	0.319394993675	174322.827148	0.390480272472	1.29904150963	47186.6121142	28741.6931152	7978.99099914	114.567309079	1310980.82359	66863627.811	0
8150000.0	53574.0	243437233.912	0.320009009043	174324.133301	0.393320951844	1.29724931717	47049.377925	28643.057251	7907.91062564	116.31703926	5538011.7442	66868485.9777	0
8175000.0	53769.0	246197956.205	0.320617203772	174325.98877	0.396161980461	1.29545974731	46913.7115351	28545.8282471	7836.82670804	117.807460361	145703.930403	66873344.6581	0
8200000.0	53963.0	248978886.096	0.321210420616	174326.464844	0.399022945203	1.29370975494	46781.7729735	28451.4434814	7767.14924367	119.29402445	4059634.54066	66878203.8521	0
8225000.0	54158.0	251780034.18	0.321797269371	174327.246094	0.401884928579	1.29196584225	46651.4733015	28358.4869385	7697.5672663	121.12606258	304675.139165	66883063.5599	0
8250000.0	54353.0	254601475.896	0.322373282434	174327.478027	0.404757272918	1.29024493694	46523.842579	28267.6605225	7628.79291069	122.980762539	2260853.48207	66887923.7813	0
8275000.0	54549.0	257443217.493	0.322942708002	174327.966309	0.407630112022	1.28853166103	46397.9320967	28178.3233643	7560.20137038	124.878357328	7904310.30132	66892784.5165	0
8300000.0	54745.0	260305331.9	0.323501198541	174327.893066	0.410512904637	1.28684329987	46274.770237	28091.1499023	7492.48156118	126.475761272	1466240.10446	66897645.7655	0
8325000.0	54941.0	263187890.263	0.324048404718	174327.294922	0.41340541793	1.28518044949	46154.3338936	28006.1157227	7425.67815668	128.086633755	1586531.22531	66902507.5283	0
8350000.0	55137.0	266090964.098	0.324583850439	174326.086426	0.416307651903	1.28354430199	46036.8226985	27923.3825684	7359.79359796	129.710695389	7942950.56248	66907369.805	0
8375000.0	55333.0	269014628.764	0.325104814287	174324.121094	0.419220334152	1.28193545341	45922.4593559	27843.157959	7294.87804647	131.681625064	1739894.73024	66912232.5956	0
8400000.0	55530.0	271958891.45	0.325617872191	174322.241211	0.422133365646	1.28033649921	45810.0473799	27764.6026611	7230.31278564	133.694280389	1268420.15684	66917095.9002	0
8425000.0	55727.0	274923823.899	0.326121267731	174320.153809	0.425056146923	1.27875995636	45700.0684177	27687.9547119	7166.76748501	135.726554129	7635390.03824	66921959.7188	0
8450000.0	55925.0	277909426.811	0.326621389456	174318.969727	0.427978287917	1.27718746662	45591.1923808	27612.2619629	7103.64807429	137.452375773	1713480.57106	66926824.0513	0
8475000.0	56122.0	280915834.365	0.327112561928	174317.041016	0.430919259088	1.27564907074	45484.8709927	27538.3880615	7042.17470054	139.166327372	1006452.63899	66931688.898	0
8500000.0	56320.0	283943043.727	0.327604395048	174316.088867	0.433859182522	1.27411305904	45379.1699155	27465.0360107	6981.10299804	141.270224944	2437342.65947	66936554.2587	0
8525000.0	56518.0	286991122.375	0.328091832146	174315.185547	0.436808390077	1.2725969553	45275.5074681	27393.2891846	6920.55332789	143.042173859	500997.632101	66941420.1335	0
8550000.0	56716.0	290060138.791	0.328573463122	174314.282227	0.439766794443	1.27110099792	45173.8708513	27323.1262207	6860.43090451	144.836656398	5388017.28723	66946286.5226	0
8575000.0	56914.0	293150160.045	0.329048352716	174313.391113	0.442734482931	1.2696249485	45074.0742787	27254.3457031	6800.77105974	147.02347487	43873.9258496	66951153.4258	0
8600000.0	57113.0	296261185.394	0.329519102749	174313.354492	0.445701472927	1.26815402508	44975.0180609	27186.1297607	6741.02309141	149.26516278	4923580.09396	66956020.8433	0
8625000.0	57312.0	299393280.991	0.329981154517	174313.354492	0.448677397799	1.26670241356	44877.2752048	27118.7591553	6681.79270072	151.158622638	404352.782062	66960888.775	0
8650000.0	57511.0	302546512.682	0.33043333577	174313.427734	0.451662461273	1.26526999474	44780.6236217	27051.9989014	6623.09001316	153.074033774	2359893.97767	66965757.2211	0
8675000.0	57710.0	305720949.94	0.330875325053	174313.476562	0.454656837974	1.26385724545	44684.9476904	26985.7391357	6564.93188831	155.400538123	1776520.61397	66970626.1815	0
8700000.0	57910.0	308916591.921	0.331310568507	174314.233398	0.457650603494	1.26245117188	44589.7219312	26919.7113037	6506.81292191	157.387987511	674102.952045	66975495.6564	0
8725000.0	58109.0	312133576.4	0.33173326213	174314.208984	0.460663664853	1.26107859612	44496.6494203	26855.1086426	6449.81747078	159.372017234	5109465.2948	66980365.6456	0
8750000.0	58309.0	315371900.638	0.332150959509	174314.941406	0.46367579489	1.25971138477	44404.3890433	26791.1468506	6392.89308154	161.806236493	333814.567247	66985236.1493	0
8775000.0	58509.0	318631629.498	0.332561535679	174315.698242	0.466696801595	1.25836312771	44313.9572284	26728.5766602	6336.58936512	164.271552626	8048947.91686	66990107.1675	0
8800000.0	58710.0	321912756.912	0.332968793067	174317.272949	0.469716236694	1.25701951981	44224.7773113	26667.1051025	6280.40225833	166.37877849	2650858.96564	66994978.7003	0
8825000.0	58910.0	325215417.014	0.333367351189	174318.09082	0.472754472867	1.25570821762	44138.3798155	26607.723999	6225.376347	168.480845998	69102.6272818	66999850.7476	0
8850000.0	59111.0	328539606.801	0.333762402584	174319.580078	0.475791865028	1.25440454483	44053.1508601	26549.2889404	6170.51411503	171.053892629	6634340.13518	67004723.3096	0
8875000.0	59312.0	331885391.471	0.334150245177	174320.996094	0.478838046547	1.25312054157	43969.7946169	26492.2698975	6116.32339638	173.226774924	1837729.17376	67009596.3862	0
8900000.0	59513.0	335252836.371	0.334529758149	174322.387695	0.48189307563	1.25185501575	43888.2983683	26436.6729736	6062.82825989	175.418737945	358386.994332	67014469.9774	0
8925000.0	59714.0	338642004.533	0.334900427043	174323.754883	0.484956603032	1.25060653687	43808.5952455	26382.4676514	6010.01876213	177.629949068	3900264.37546	67019344.0834	0
8950000.0	59915.0	342052958.836	0.335261305816	174325.109863	0.488028657855	1.24937355518	43730.694903	26329.7027588	5957.91128677	179.859647554	9267010.36979	67024218.7042	0
8975000.0	60116.0	345485760.598	0.335611334871	174326.464844	0.491108978167	1.2481559515	43654.6362989	26278.414917	5906.50850199	182.560542597	184114.254984	67029093.8397	0
9000000.0	60318.0	348940405.23	0.335952731016	174328.393555	0.494188163429	1.24694430828	43580.008252	26228.3813477	5855.36276021	185.31747321	7646979.67134	67033969.4901	0
9025000.0	60520.0	352416958.173	0.336283039679	174330.187988	0.497276312672	1.24575042725	43507.3784508	26179.9407959	5804.95307853	187.638515573	3179616.28169	67038845.6554	0
9050000.0	60722.0	355915485.984	0.336602760649	174331.835938	0.500373309478	1.24457490444	43436.7232013	26133.0627441	5755.28068799	189.976233922	343538.209655	67043722.3356	0
9075000.0	60924.0	359436053.319	0.336912508219	174333.300781	0.503479153849	1.24341678619	43367.948595	26087.6739502	5706.35286224	192.329909771	1212845.88131	67048599.5307	0
9100000.0	61126.0	362978724.306	0.337212632288	174334.692383	0.506593671162	1.24227666855	43301.0041566	26043.7072754	5658.16402749	194.699284156	4490234.94273	67053477.2408	0
9125000.0	61328.0	366543563.744	0.33750378598	174335.913086	0.509716803208	1.24115312099	43235.7928685	26001.0955811	5610.72094464	197.571437937	2707995.78467	67058355.466	0
9150000.0	61531.0	370130561.618	0.337788913821	174337.70752	0.512838130817	1.24003589153	43171.7373815	25959.4573975	5563.60236311	200.00502312	319122.395435	67063234.2062	0
9175000.0	61733.0	373739860.547	0.338063515225	174338.549805	0.515983614605	1.23894786835	43109.9106482	25919.4335938	5517.70939418	202.419705502	986412.591636	67068113.4615	0
9200000.0	61936.0	377371463.823	0.33833340526	174340.234375	0.519116467331	1.23786258698	43048.9905859	25880.1849365	5472.06881496	205.390092754	7867025.35948	67072993.232	0
9225000.0	62139.0	381025402.051	0.338595963525	174341.516113	0.522268004715	1.23679709435	42989.7176748	25842.1447754	5427.27053432	207.354403692	7344541.6633	67077873.5177	0
9250000.0	62341.0	384701831.129	0.338850278861	174342.272949	0.525427632965	1.23575568199	42932.2625369	25805.3955078	5383.54826709	209.814330572	11513515.5292	67082754.3186	0
9275000.0	62544.0	388400727.04	0.339100617379	174343.310547	0.528595410287	1.23472249508	42875.7938367	25769.4000244	5340.26617796	212.832061735	75.741605755	67087635.6347	0
9300000.0	62747.0	392122151.737	0.33934344634	174344.226074	0.531766680069	1.23370695114	42820.9547329	25734.6343994	5297.71013332	215.875992407	12012904.5296	67092517.4662	0
9325000.0	62951.0	395866098.085	0.339579557465	174345.495605	0.534936436452	1.23270094395	42767.454151	25700.9552002	5255.53360586	218.43572245	8215208.06023	67097399.813	0
9350000.0	63154.0	399632705.333	0.33980534308	174345.788574	0.538125517778	1.23172461987	42716.1382185	25668.8323975	5214.49433723	220.431261775	6931139.62602	67102282.6752	0
9375000.0	63357.0	403422038.091	0.34002326972	174345.751953	0.541323213838	1.23076653481	42666.4813963	25637.9577637	5174.05389128	223.527507821	2533987.24189	67107166.0528	0
9400000.0	63561.0	407234086.608	0.340235100502	174346.069336	0.544519338291	1.22981572151	42617.9648418	25608.0200195	5133.79179453	226.128532916	725064.456329	67112049.9458	0
9425000.0	63764.0	411068989.172	0.340437523853	174345.422363	0.547734438442	1.22889125347	42571.4006948	25579.4723511	5094.41349904	228.716333235	88874.2657021	67116934.3543	0
9450000.0	63968.0	414926733.722	0.340634544629	174345.092773	0.550947443116	1.22797250748	42525.8586144	25551.7684937	5055.20959027	231.35225659	1268992.61903	67121819.2784	0
9475000.0	64171.0	418807456.491	0.34082279255	174343.798828	0.554179481696	1.22707843781	42482.1048234	25525.3356934	5016.88020706	233.973681655	3049526.97225	67126704.718	0
9500000.0	64375.0	422711145.343	0.341006174984	174342.84668	0.557409075554	1.22618806362	42439.2420825	25499.6612549	4978.70478107	237.225751083	7520094.32898	67131590.6732	0
9525000.0	64579.0	426637858.701	0.341183010675	174341.577148	0.560646527447	1.22531151772	42397.621624	25474.899292	4941.04769441	239.331865161	7590847.77875	67136477.144	0
9550000.0	64782.0	430587730.443	0.341352278829	174339.39209	0.563902780414	1.22445583344	42357.5545034	25451.2542725	4904.23540319	242.003848213	10145894.0625	67141364.1306	0
9575000.0	64986.0	434560743.881	0.341517043266	174338.024902	0.567155657336	1.22360026836	42318.1472728	25428.2012939	4867.56910763	245.327107648	1833992.30236	67146251.6328	0
9600000.0	65190.0	438556956.932	0.341674813508	174336.804199	0.570416159462	1.22275578976	42280.0197544	25406.1645508	4831.3944325	248.072796818	715572.124865	67151139.6508	0
9625000.0	65394.0	442576431.878	0.34182456706	174335.681152	0.573685159907	1.22192490101	42243.4250716	25385.3424072	4795.7202758	250.834208116	59586.4568775	67156028.1846	0
9650000.0	65598.0	446619229.538	0.341966589334	174334.58252	0.576962367631	1.22110724449	42208.3030297	25365.6845093	4760.52382699	253.612163945	295801.206052	67160917.2343	0
9675000.0	65802.0	450685412.592	0.342101223629	174333.618164	0.580247899052	1.22030293941	42174.5641281	25347.102356	4725.80880032	256.405934598	987898.027245	67165806.7997	0
9700000.0	66006.0	454775040.077	0.342228647814	174332.763672	0.583541404922	1.21951138973	42142.1250874	25329.5257568	4691.56841903	259.215537014	1818919.1787	67170696.8811	0
9725000.0	66210.0	458888171.205	0.342349348637	174331.994629	0.586842885241	1.21873235703	42110.9317114	25312.9013062	4657.79602266	262.683088483	12224090.401	67175587.4784	0
9750000.0	66415.0	463024790.112	0.342464625985	174332.006836	0.59014139697	1.2179569006	42080.6031579	25297.0153809	4624.18042542	265.565307135	11006229.5037	67180478.5917	0
9775000.0	66619.0	467185029.99	0.342572510214	174331.518555	0.593458476942	1.217202425	42051.6903087	25282.0968628	4591.33167743	267.772416355	4453267.24402	67185370.221	0
9800000.0	66823.0	471368948.907	0.342674527076	174331.201172	0.596783356741	1.2164593935	42023.7654006	25267.9016113	4558.93150888	270.644154796	5257997.40738	67190262.3664	0
9825000.0	67027.0	475576604.218	0.342770946147	174331.005859	0.600115919951	1.21572756767	41996.7985923	25254.4036865	4526.97867604	273.530817105	5991648.25272	67195155.0278	0
9850000.0	67231.0	479808052.442	0.342861982141	174331.005859	0.60345599195	1.21500694752	41970.69469	25241.5023804	4495.47190287	277.109542356	7857720.71895	67200048.2053	0
9875000.0	67436.0	484063272.627	0.342949084583	174331.82373	0.606792455073	1.21428906918	41945.1462038	25229.0435791	4464.10108539	280.068891963	7427438.53872	67204941.899	0
9900000.0	67640.0	488342397.884	0.343029750562	174332.177734	0.610147428233	1.21359074116	41920.6886919	25217.2668457	4433.46026803	282.31483869	7635170.39052	67209836.1089	0
9925000.0	67844.0	492645489.898	0.343103774498	174332.568359	0.613510666881	1.21290528774	41897.3005482	25206.2637329	4403.24731472	285.259196191	7931754.67151	67214730.8351	0
9950000.0	68048.0	496972611.612	0.343171344308	174332.995605	0.616882345639	1.21223318577	41875.0063363	25196.0586548	4373.45633423	288.923335127	6978653.34675	67219626.0775	0
9975000.0	68253.0	501323745.547	0.343233238805	174334.130859	0.620250881184	1.21156549454	41853.5102214	25186.5081787	4343.80967787	291.938059202	7138900.9965	67224521.8362	0
10000000.0	68457.0	505699028.956	0.343288243664	174334.692383	0.623638625257	1.21091878414	41833.3249249	25177.8213501	4314.86140212	294.207844411	7899892.49583	67229418.1112	0
10025000.0	68661.0	510098522.395	0.343337307812	174335.314941	0.627034460194	1.21028399467	41814.1577818	25169.8791504	4286.31781886	297.204313831	7591107.20305	67234314.9026	0
10050000.0	68865.0	514522282.93	0.343380622931	174336.047363	0.630437862128	1.20966100693	41796.0126023	25162.6785278	4258.17811495	300.949207371	8518362.01872	67239212.2104	0
10075000.0	69070.0	518970290.357	0.343418971974	174337.475586	0.633837946225	1.20904302597	41778.6801706	25156.1233521	4230.17670256	304.015189503	9327928.82947	67244110.0347	0
10100000.0	69274.0	523442680.252	0.343451451653	174338.40332	0.637256598566	1.20844340324	41762.5285658	25150.3585815	4202.83008089	306.30574143	5835515.41025	67249008.3754	0
10125000.0	69478.0	527939508.011	0.343478846217	174339.428711	0.640682759695	1.20785498619	41747.3578455	25145.3018188	4175.87114716	309.351561542	5033887.47329	67253907.2326	0
10150000.0	69682.0	532460828.556	0.343501237629	174340.576172	0.644116196781	1.20727658272	41733.122886	25140.9317017	4149.30381155	312.408528571	4151654.64872	67258806.6064	0
10175000.0	69886.0	537006696.925	0.343519130352	174341.85791	0.647556851618	1.20670866966	41719.820446	25137.2436523	4123.10921017	315.477452431	3224936.18265	67263706.4968	0
10200000.0	70090.0	541577166.19	0.343532241612	174343.237305	0.651004724205	1.2061508894	41707.4398917	25134.2269897	4097.29140691	318.557402545	2280785.45849	67268606.9038	0
10225000.0	70294.0	546172296.215	0.343539332239	174344.65332	0.654460454825	1.20560443401	41696.1613894	25132.0419312	4071.84091531	321.648161933	1352735.28776	67273507.8275	0
10250000.0	70498.0	550792146.204	0.343540288933	174346.044922	0.657924101688	1.20507001877	41685.9662443	25130.6549072	4046.76622042	324.748378692	526727.827952	67278409.2678	0
10275000.0	70702.0	555436775.369	0.34353556179	174347.473145	0.661395548377	1.20454716682	41676.8138517	25130.0415039	4022.05790222	327.858181879	3413.71815584	67283311.2249	0
10300000.0	70906.0	560106242.728	0.343525348228	174348.876953	0.664874969516	1.2040348053	41668.6448738	25130.1727295	3997.70673792	330.977566163	540670.710865	67288213.6988	0
10325000.0	71110.0	564800606.28	0.343510014958	174350.280762	0.668362074066	1.2035330534	41661.4159587	25130.9951782	3973.71242245	334.1060335	1666561.50439	67293116.6894	0
10350000.0	71314.0	569519924.839	0.343489929039	174351.68457	0.671856920235	1.20304203033	41655.0811288	25132.472229	3950.06595541	337.243635729	3263687.87278	67298020.1969	0
10375000.0	71518.0	574264254.993	0.343465289018	174353.100586	0.675359391607	1.20256114006	41649.6182374	25134.5779419	3926.75852212	340.39052199	5318539.13292	67302924.2213	0
10400000.0	71722.0	579033653.329	0.343436546795	174354.516602	0.67886931356	1.20208954811	41644.9380542	25137.260437	3903.78148848	342.704855064	10087156.8692	67307828.7626	0
10425000.0	71925.0	583828257.324	0.34340370443	174355.34668	0.682398385834	1.20163393021	41641.1508551	25140.5090332	3881.34799061	345.822940705	7373450.69185	67312733.8208	0
10450000.0	72129.0	588648043.403	0.343367438912	174356.787109	0.685923383571	1.20118153095	41637.9639327	25144.2459106	3859.00527581	349.847896719	14211516.8368	67317639.3961	0
10475000.0	72333.0	593493066.892	0.343327780514	174358.239746	0.689455890097	1.20073843002	41635.4665514	25148.4619141	3836.96811012	352.167697743	2569758.38769	67322545.4883	0
10500000.0	72536.0	598363464.167	0.34328504065	174359.130859	0.693007197697	1.20031058788	41633.6927502	25153.0960083	3815.45055442	355.313733342	805641.833443	67327452.0976	0
10525000.0	72740.0	603259213.401	0.343237845277	174360.522461	0.696554663591	1.19988787174	41632.6680153	25158.3282471	3794.00784571	358.509957048	96219.2610554	67332359.224	0
10550000.0	72943.0	608180456.453	0.343185748792	174361.291504	0.70012192009	1.19948244095	41632.6241025	25164.2028809	3773.06260798	361.674539304	1540829.83947	67337266.8676	0
10575000.0	73147.0	613127172.941	0.34312895216	174362.524414	0.703685742337	1.19908285141	41633.3589809	25170.6939697	3752.18768328	364.889202666	4014230.35981	67342175.0283	0
10600000.0	73350.0	618099503.519	0.343068049331	174363.098145	0.707269005943	1.1986989975	41634.9679548	25177.7420044	3731.79699552	367.167389853	12189819.6372	67347083.7062	0
10625000.0	73553.0	623097507.501	0.34300326909	174363.562012	0.710860127583	1.19832491875	41637.3201447	25185.3164673	3711.66789923	370.351656892	8198301.40141	67351992.9013	0
10650000.0	73756.0	628121243.569	0.342934952309	174363.94043	0.71445928188	1.1979598999	41640.3635167	25193.371582	3691.79735231	373.545161433	4651829.44399	67356902.6137	0
10675000.0	73959.0	633170771.7	0.342863411531	174364.233398	0.718066061381	1.19760370255	41644.0539418	25201.8707275	3672.18236044	376.747895937	1763377.56731	67361812.8435	0
10700000.0	74162.0	638246149.342	0.342789127066	174364.416504	0.721680524293	1.19725573063	41648.3429029	25210.774231	3652.81195504	379.960442086	26784.4155327	67366723.5905	0
10725000.0	74365.0	643347433.17	0.342712494536	174364.489746	0.725302728824	1.19691514969	41653.1864584	25220.0561523	3633.68336109	383.182565049	1515663.13147	67371634.855	0
10750000.0	74568.0	648474679.453	0.342633629071	174364.428711	0.728932209313	1.19658184052	41658.5366048	25229.6676636	3614.78590819	386.415153007	4607923.31802	67376546.6368	0
10775000.0	74771.0	653627944.939	0.34255317724	174364.27002	0.732569023967	1.19625496864	41664.3468655	25239.5782471	3596.12097676	389.657561031	8768648.55086	67381458.9361	0
10800000.0	74974.0	658807284.557	0.342471392974	174363.977051	0.736213405617	1.1959348917	41670.6004203	25249.760437	3577.68204806	391.942138052	7288422.61698	67386371.7529	0
10825000.0	75176.0	664012836.801	0.342387831011	174362.963867	0.739876762964	1.19562661648	41677.3744825	25260.2249146	3559.65031807	395.153917019	3438638.0469	67391285.0872	0
10850000.0	75379.0	669244581.261	0.342300566428	174362.280273	0.743536569644	1.19532251358	41684.8298328	25271.2234497	3541.64725124	398.417910172	627649.262928	67396198.939	0
10875000.0	75581.0	674502660.596	0.342210861348	174360.791016	0.747216050513	1.19503235817	41692.9428017	25282.598877	3524.03702379	401.648936362	776238.046198	67401113.3084	0
10900000.0	75784.0	679787050.913	0.342117994094	174359.619141	0.750891747884	1.19474613667	41701.6560204	25294.4381714	3506.44891067	404.932934264	3912182.02434	67406028.1955	0
10925000.0	75986.0	685097895.12	0.342022750774	174357.995605	0.754586886615	1.19447267056	41710.9859395	25306.6360474	3489.2435559	407.175771364	13502005.031	67410943.6002	0
10950000.0	76188.0	690435249.489	0.341924912405	174356.481934	0.758289592341	1.19420719147	41720.9211838	25319.2489624	3472.23318081	410.428450349	8031506.96484	67415859.5226	0
10975000.0	76390.0	695799171.737	0.341824622775	174355.187988	0.76199969044	1.19394910336	41731.433855	25332.2570801	3455.41196033	413.691520967	3495096.88468	67420775.9627	0
11000000.0	76592.0	701189716.974	0.341722220339	174354.052734	0.765717122704	1.19369769096	41742.4570412	25345.6222534	3438.77794631	416.96485945	409006.198344	67425692.9206	0
11025000.0	76794.0	706606942.026	0.341617987188	174353.076172	0.769441830926	1.19345343113	41753.973842	25359.312439	3422.3254597	420.248801649	1386134.67042	67430610.3963	0
11050000.0	76996.0	712050899.889	0.341512149184	174352.355957	0.773173756897	1.19321537018	41765.9328871	25373.2955933	3406.04517944	423.54416112	5399000.63068	67435528.3898	0
11075000.0	77198.0	717521645.633	0.341404903893	174351.757812	0.776912842412	1.19298362732	41778.3011066	25387.5396729	3389.94283872	426.84990408	11014798.7686	67440446.9011	0
11100000.0	77400.0	723019233.865	0.34129658729	174351.367188	0.780658912845	1.19275760651	41791.031565	25402.015686	3374.00923481	429.102149795	6273807.26663	67445365.9304	0
11125000.0	77601.0	728543802.246	0.341187756559	174350.65918	0.784424191806	1.19254136086	41804.1191244	25416.6610718	3358.41231785	432.376775122	1906792.84499	67450285.4775	0
11150000.0	77803.0	734095324.953	0.341075361783	174350.65918	0.788185046986	1.19232976437	41817.8874442	25431.8450928	3342.8067535	435.707429184	252888.727621	67455205.5427	0
11175000.0	78004.0	739673943.755	0.340960629624	174350.219727	0.791965518147	1.19213032722	41832.2811594	25447.4121094	3327.5257845	437.914497494	22945317.0739	67460126.1258	0
11200000.0	78205.0	745279717.273	0.340843398686	174349.938965	0.795753730927	1.19193911552	41847.2582074	25463.3758545	3312.40559021	442.310008239	9249300.51714	67465047.227	0
11225000.0	78407.0	750912617.32	0.340722982236	174350.341797	0.799537345301	1.19175136089	41862.8078702	25479.7927856	3297.27445481	445.672726394	16599768.4075	67469968.8462	0
11250000.0	78608.0	756572785.942	0.340601240238	174350.32959	0.80334051745	1.19157409668	41878.8123619	25496.4569092	3282.45029366	447.887369102	2845679.27814	67474890.9835	0
11275000.0	78809.0	762260279.121	0.340477761043	174350.463867	0.807151314802	1.19140315056	41895.2560646	25513.4048462	3267.77530042	451.218305989	32535.9127443	67479813.6389	0
11300000.0	79010.0	767975153.731	0.340352769471	174350.756836	0.810969271697	1.1912381649	41912.0931498	25530.6015015	3253.24092481	453.430034622	24872303.4901	67484736.8125	0
11325000.0	79210.0	773717553.177	0.340227455664	174350.683594	0.814807077404	1.19108200073	41929.1985312	25547.8988647	3239.00234558	456.729127142	16246997.3179	67489660.5043	0
11350000.0	79411.0	779487447.003	0.340100524288	174351.269531	0.818639993668	1.19092679024	41946.650218	25565.4647827	3224.74464924	461.2327225	17173159.4812	67494584.7143	0
11375000.0	79612.0	785284889.607	0.339973026222	174351.989746	0.822480011266	1.19077587128	41964.3491682	25583.1680298	3210.64136613	463.450311286	2952191.19778	67499509.4425	0
11400000.0	79812.0	791110024.473	0.339846064294	174352.34375	0.826339761261	1.19063186646	41982.1542314	25600.8453369	3196.88757417	466.770383001	55109.9536739	67504434.6891	0
11425000.0	80013.0	796962817.619	0.339718289143	174353.393555	0.830194156151	1.19048786163	42000.1989518	25618.7011719	3183.1717309	470.139396206	3708478.43229	67509360.454	0
11450000.0	80213.0	802843413.24	0.33959006014	174354.052734	0.834068399854	1.19035172462	42018.4981183	25636.6607666	3169.78270463	472.284249509	16609843.4753	67514286.7372	0
11475000.0	80413.0	808751871.606	0.33945975747	174354.785156	0.837950559799	1.19022166729	42037.2803473	25654.9407959	3156.57129523	475.603606283	8779147.22823	67519213.5388	0
11500000.0	80613.0	814688249.175	0.339327633085	174355.639648	0.841840170324	1.19009697437	42056.4742272	25673.5015869	3143.53229765	478.925566684	2726023.92113	67524140.8588	0
11525000.0	80813.0	820652604.265	0.339193993095	174356.567383	0.84573746426	1.18997788429	42076.0517126	25692.3095703	3130.65371618	482.251324088	251079.713952	67529068.6973	0
11550000.0	81013.0	826644995.592	0.339059197515	174357.617188	0.849642441608	1.18986356258	42095.9755383	25711.3342285	3117.93744208	485.580113039	4655778.87092	67533997.0543	0
11575000.0	81213.0	832665480.724	0.33892374219	174358.740234	0.853554927744	1.18975400925	42116.1722368	25730.5267334	3105.3716956	487.691115344	15832149.5583	67538925.9297	0
11600000.0	81412.0	838714203.476	0.338788613974	174359.472656	0.857487088069	1.18965184689	42136.5321551	25749.7375488	3093.09770404	490.972639927	7805351.10295	67543855.3238	0
11625000.0	81612.0	844791134.381	0.338652363019	174360.791016	0.861414708197	1.18955111504	42157.184238	25769.1711426	3080.82486847	495.545014774	32305183.2166	67548785.2363	0
11650000.0	81812.0	850896327.665	0.338516330897	174362.194824	0.865349371452	1.18945407867	42178.0003088	25788.6749268	3068.68832955	497.64542065	899979.593862	67553715.6675	0
11675000.0	82011.0	857029930.03	0.338381609187	174363.171387	0.869304174557	1.1893633604	42198.8301684	25808.0871582	3056.83117511	499.685246744	24436595.365	67558646.6173	0
11700000.0	82210.0	863191996.74	0.338247540222	174364.233398	0.873266137205	1.18927657604	42219.7520428	25827.5024414	3045.09673269	502.978770767	14794430.7656	67563578.0858	0
11725000.0	82409.0	869382582.684	0.338114449653	174365.380859	0.877235317603	1.18919277191	42240.7029892	25846.8811035	3033.48727033	506.278018005	6879486.55908	67568510.073	0
11750000.0	82608.0	875601744.505	0.337982253592	174366.601562	0.881211832166	1.18911314011	42261.7183359	25866.2384033	3021.99838285	509.583314496	1302345.09168	67573442.5789	0
11775000.0	82807.0	881849540.664	0.337849072315	174367.895508	0.885196146555	1.18903923035	42283.0575745	25885.7849121	3010.62242332	512.895359599	1433661.13166	67578375.6036	0
11800000.0	83006.0	888126028.9	0.337715044236	174369.189453	0.889188144356	1.18897151947	42304.7253951	25905.5236816	2999.3617362	516.213515885	7331338.89369	67583309.1471	0
11825000.0	83205.0	894431269.172	0.337580280173	174370.544434	0.893187883776	1.18890964985	42326.6702188	25925.4058838	2988.20878549	519.538740265	15862569.7475	67588243.2094	0
11850000.0	83404.0	900765318.89	0.337445297839	174371.911621	0.897194957361	1.18885266781	42348.838202	25945.401001	2977.16268165	521.557393932	6302872.01074	67593177.7906	0
11875000.0	83602.0	907128326.841	0.337311210088	174372.827148	0.901222811081	1.18880236149	42371.0601341	25965.3411865	2966.34630601	524.839886176	870382.479765	67598112.8907	0
11900000.0	83801.0	913520260.067	0.337176415697	174374.267578	0.90524519328	1.1887537241	42393.5255772	25985.446167	2955.49459136	528.180137465	2098193.55686	67603048.5097	0
11925000.0	83999.0	919941266.819	0.337043164434	174375.195312	0.909288064577	1.18871057034	42415.9401511	26005.4199219	2944.86686993	530.140188687	24048017.1019	67607984.6476	0
11950000.0	84197.0	926391405.307	0.336910722077	174376.196289	0.913338561077	1.18867003918	42438.3793928	26025.3601074	2934.3289128	533.439048295	14129788.2626	67612921.3046	0
11975000.0	84395.0	932870734.866	0.336779357259	174377.172852	0.917396508157	1.1886318922	42460.7930988	26045.223999	2923.87360858	536.74747735	6119244.34606	67617858.4806	0
12000000.0	84593.0	939379311.304	0.336649391828	174378.198242	0.921462080441	1.18859505653	42483.1378994	26064.9902344	2913.50354083	540.064710734	770017.523901	67622796.1756	0
12025000.0	84791.0	945917190.534	0.336521119663	174379.199219	0.925535103306	1.18855941296	42505.3554911	26084.6038818	2903.21169104	543.391962046	2154018.34384	67627734.3898	0
12050000.0	84989.0	952484430.585	0.336394779827	174380.212402	0.929615460336	1.18852424622	42527.4047625	26104.0466309	2892.99748963	546.729239166	8530987.33976	67632673.1231	0
12075000.0	85187.0	959081070.267	0.336269532324	174381.25	0.93370070681	1.18849050999	42549.4234966	26123.425293	2882.84771132	548.691245419	15627684.5664	67637612.3755	0
12100000.0	85384.0	965707280.575	0.336145159304	174381.713867	0.937809469178	1.18846273422	42571.4760471	26142.7398682	2872.9007168	551.990629394	7426841.28405	67642552.1472	0
12125000.0	85582.0	972363027.404	0.336020124496	174382.617188	0.941912876442	1.18843603134	42593.7532974	26162.2253418	2862.8968851	555.351950562	1507924.36144	67647492.4381	0
12150000.0	85779.0	979048463.138	0.335896500763	174382.983398	0.946037296671	1.18841421604	42615.9707686	26181.5795898	2853.08451218	558.672751154	1263471.94836	67652433.2482	0
12175000.0	85977.0	985763555.146	0.335772699159	174383.813477	0.950156361796	1.18839347363	42638.3536135	26201.0406494	2843.20587363	562.057724165	7095038.87865	67657374.5777	0
12200000.0	86174.0	992508456.53	0.335650815291	174384.057617	0.954296439886	1.18837749958	42660.5929304	26220.2972412	2833.51387809	563.970883237	19055908.1847	67662316.4265	0
12225000.0	86371.0	999283225.416	0.335530147207	174384.25293	0.958444201387	1.1883636713	42682.7762356	26239.4500732	2823.87662428	567.319699733	10174040.6862	67667258.7946	0
12250000.0	86568.0	1006087922.31	0.335410906958	174384.362793	0.962599879131	1.18835234642	42704.8909801	26258.4777832	2814.29068816	570.681729771	3384006.01187	67672201.6822	0
12275000.0	86765.0	1012922607.58	0.335293306019	174384.375	0.966763414908	1.18834269047	42726.8729796	26277.3376465	2804.76192846	574.055755959	80340.0523386	67677145.0892	0
12300000.0	86962.0	1019787341.11	0.335177662451	174384.289551	0.970934634097	1.18833494186	42748.7046276	26296.0113525	2795.27770806	577.444404388	4242743.12414	67682089.0157	0
12325000.0	87159.0	1026682182.01	0.335064106123	174384.130859	0.975113653112	1.18832862377	42770.3379248	26314.4561768	2785.84391064	580.846361288	11336953.2333	67687033.4616	0
12350000.0	87356.0	1033607187.48	0.334952766618	174383.874512	0.979300588369	1.18832373619	42791.7497866	26332.6477051	2776.45719353	582.779307837	15940917.6089	67691978.4272	0
12375000.0	87552.0	1040562513.54	0.334844655396	174382.983398	0.983508420177	1.18832230568	42812.7967797	26350.4302979	2767.2205952	586.150651878	8107886.73559	67696923.9123	0
12400000.0	87749.0	1047548126.86	0.33473685437	174382.458496	0.98771112971	1.18832314014	42833.9843284	26368.2617188	2757.91782459	589.587354731	2236121.66318	67701869.917	0
12425000.0	87945.0	1054564185.16	0.334630537698	174381.274414	0.991935492493	1.18833053112	42855.1141805	26385.9161377	2748.76704638	592.986758978	466020.84361	67706816.4413	0
12450000.0	88142.0	1061610653.37	0.334524181817	174380.493164	0.996154150926	1.18834006786	42876.4092784	26403.6407471	2739.53834399	596.45498364	5063145.4619	67711763.4853	0
12475000.0	88338.0	1068687688.24	0.334419813313	174379.003906	1.00039434619	1.18835437298	42897.5343056	26421.1242676	2730.46054065	598.359199733	26598613.7826	67716711.0491	0
12500000.0	88534.0	1075795351.78	0.33431644257	174377.502441	1.00464257412	1.18837165833	42918.6458707	26438.5223389	2721.41281774	602.514630008	0.0	67721659.1325	0
