z	T	P	nabla_ad	S	rho	delta	cp	cv	opac	frad	fconv	ftot	dT
0.0	3900.0	387.251330852	0.35815452949	166863.586426	1.56229482684e-05	1.02502262592	18434.5165285	11768.3128357	0.00126663810712	0.0	54608.3185719	65311815.0903	0
25000.0	3900.0	510.493983809	0.347115943715	165058.032227	2.06064392216e-05	1.03286767006	19218.3259923	12457.1029663	0.00150327333603	0.0	71901.074241	65316507.3538	0
50000.0	3900.0	673.091291162	0.333880287358	163236.401367	2.71897295789e-05	1.04322552681	20242.5286878	13355.3970337	0.00178275424917	0.0	94701.9045018	65321200.1229	0
75000.0	3900.0	887.702556173	0.31836624524	161394.226074	3.58936809164e-05	1.05668413639	21576.1405907	14523.4817505	0.00211379444266	0.0	124811.998494	65325893.3976	0
100000.0	3900.0	1171.12456537	0.300669130293	159524.755859	4.7413713844e-05	1.07414269447	23304.9984939	16035.1669312	0.00250891842996	0.0	164681.139065	65330587.1781	0
125000.0	3900.0	1545.68648271	0.281110414232	157620.800781	6.26811811344e-05	1.09699690342	25539.0915679	17981.1981201	0.00298468714545	0.0	217785.99101	65335281.4644	0
150000.0	3900.0	2041.16102198	0.260214493269	155670.739746	8.29532069702e-05	1.126480937	28405.4118955	20469.6334839	0.00355870364691	59553220.0429	252229.355205	65339976.2566	0
175000.0	3949.0	2686.83782119	0.254954614499	154063.659668	0.000107938205929	1.13727283478	29246.2509215	21172.0611572	0.00463482422216	65520312.7321	296449.11051	65344671.5548	0
200000.0	3988.0	3528.54182455	0.246457416726	152378.417969	0.00014056391251	1.15440201759	30701.7581127	22405.0384521	0.0058569461015	67566082.3641	317969.043387	65349367.3591	0
225000.0	4094.0	4600.37317832	0.258646899928	151218.42041	0.000178334971679	1.13747119904	28744.3718657	20673.2513428	0.00819508526174	65600304.149	304420.335316	65354063.6694	0
250000.0	4219.0	5949.12287697	0.275019880778	150196.899414	0.000223478338057	1.11634123325	26445.804041	18651.1947632	0.0118476327793	74454617.9686	126104.425364	65358760.4858	0
275000.0	4510.0	7552.77483415	0.328582652485	150153.112793	0.000263217714291	1.05727279186	20755.4036852	13704.4128418	0.0209095299195	65805158.2598	32386.7212766	65363457.8085	-18
300000.0	4854.0	9428.01621712	0.362204826405	150060.290527	0.000305204537199	1.02890264988	18201.6137341	11494.8745728	0.0310405758522	69574528.8826	0.000327597713568	65368155.6374	-10
325000.0	5426.0	11477.8667929	0.386302169002	150808.642578	0.000329533975219	1.00944936275	16655.070134	10178.4347534	0.0432241964845	62859675.3305	5.59445602605e-05	65372853.9727	-49
350000.0	5766.0	13834.8494478	0.3876829645	150472.790527	0.000377050014322	1.00727009773	16546.7067001	10094.5556641	0.0589208120073	55896684.8832	0.0117685090153	65377552.8144	0
375000.0	6464.0	16306.996804	0.375596419824	151540.588379	0.000391166565805	1.00824511051	17051.4484818	10580.48172	0.149977575767	105033088.879	332.438944774	65382252.1626	-82
400000.0	9283.0	18229.8703295	0.168893722409	160190.490723	0.000296670179978	1.25288724899	47350.592193	37219.2077637	4.48732282237	15243397.4531	13069809.8682	65386952.0172	-115
425000.0	10574.0	20033.1849735	0.121620026032	167305.407715	0.000276125376786	1.61069452763	88611.9845106	71435.6994629	13.736686734	3403169.03578	20217140.2648	65391652.3785	-14
450000.0	11183.0	21830.980311	0.110344084428	172095.996094	0.000274273361356	1.84912538528	116585.896702	93456.3659668	22.1012752641	1145463.782	8823487.84618	65396353.2465	-13
475000.0	11401.0	23728.5063042	0.108542689432	173273.364258	0.000289129786779	1.91705548763	124465.7501	99423.260498	25.9058465674	431372.374596	1180571.46917	65401054.6211	-5
500000.0	11556.0	25746.9982908	0.10782906717	173826.000977	0.000307316383896	1.95634496212	128911.853861	102709.716797	29.0310650199	262595.929477	194661.027877	65405756.5026	0
525000.0	11657.0	27909.547186	0.107835077458	173801.513672	0.000329106683239	1.97168600559	130401.938838	103730.395508	31.4774936475	186816.513946	4546.5239031	65410458.8909	0
550000.0	11758.0	30224.4871141	0.107846068481	173802.001953	0.000352087369038	1.98707461357	131925.487826	104775.183105	34.0712612278	164739.643179	6485.59605251	65415161.7861	0
575000.0	11858.0	32700.4770703	0.107876147201	173814.624023	0.000376365335342	2.00206065178	133431.212138	105806.115723	36.7963078022	145643.40565	8801.40827726	65419865.1883	0
600000.0	11958.0	35346.2373169	0.107929422465	173829.040527	0.000401971192332	2.01656866074	134883.103233	106790.686035	39.6773746878	129690.491372	5492.37177556	65424569.0975	0
625000.0	12058.0	38171.2051587	0.108022074259	173812.133789	0.000429034685112	2.02981996536	136147.479461	107621.862793	42.7212160394	115707.144437	3028.21284008	65429273.5139	0
650000.0	12158.0	41185.3785629	0.108135021101	173805.224609	0.000457528301467	2.04315829277	137418.909765	108453.393555	45.9308631192	102933.626757	6033.41434266	65433978.4373	0
675000.0	12257.0	44399.1017765	0.108267685641	173813.378906	0.00048754634463	2.05627417564	138684.654057	109279.931641	49.2851814824	91775.3047571	9845.60422024	65438683.868	0
700000.0	12356.0	47822.5484865	0.108414596169	173831.860352	0.000519102286489	2.06901335716	139920.332814	110080.993652	52.8123973059	82404.4029426	7330.17257008	65443389.806	0
725000.0	12455.0	51466.5955244	0.108582107442	173834.155273	0.000552328515369	2.0807363987	141024.729884	110777.368164	56.5189605654	74121.65468	5263.20597843	65448096.2513	0
750000.0	12554.0	55343.074746	0.108770318529	173809.191895	0.000587334909596	2.09140539169	141973.476538	111348.999023	60.411030935	66780.5286449	3694.62343632	65452803.204	0
775000.0	12653.0	59463.8641657	0.108966667657	173811.254883	0.000624017616246	2.10252642632	142994.132111	111973.742676	64.4879779673	59980.6947598	8618.49567637	65457510.6642	0
800000.0	12751.0	63841.3844312	0.109180856199	173822.497559	0.000662558761633	2.11338067055	143997.418348	112585.205078	68.7225575642	54251.980849	6959.25490454	65462218.6319	0
825000.0	12850.0	68487.2284793	0.10940264538	173848.266602	0.000702854208612	2.12419605255	145003.655988	113194.909668	73.1751582548	49157.1890458	5271.21387952	65466927.1071	0
850000.0	12948.0	73415.4389983	0.10964976628	173838.94043	0.000745314650885	2.1336209774	145821.816269	113659.667969	77.7915741914	44384.5965695	12673.346505	65471636.09	0
875000.0	13046.0	78640.4711334	0.109910516159	173810.644531	0.000789901719145	2.14216828346	146519.621137	114030.310059	82.6072973297	40545.9263995	3515.81571997	65476345.5805	0
900000.0	13145.0	84175.5023525	0.110175843031	173820.751953	0.000836341087052	2.15133500099	147316.831727	114473.547363	87.6561039411	36916.6898114	2550.31705236	65481055.5789	0
925000.0	13243.0	90035.3141386	0.110458276449	173837.304688	0.000884996325112	2.16015458107	148087.599384	114897.912598	92.8772474728	33496.9107909	10317.8436862	65485766.085	0
950000.0	13341.0	96234.6089009	0.110752349501	173855.639648	0.000935877665142	2.16857981682	148817.930592	115291.186523	98.3114848833	30594.1390931	9718.93060538	65490477.0989	0
975000.0	13439.0	102789.221445	0.111058201507	173852.429199	0.000989193495116	2.17618918419	149437.965918	115600.317383	103.969116648	27977.6787294	9590.1226375	65495188.6208	0
1000000.0	13537.0	109716.349565	0.111370892786	173826.11084	0.0010450546597	2.18298530579	149949.62074	115827.929688	109.857486554	25615.0403952	9898.81279592	65499900.6506	0
1025000.0	13635.0	117032.809825	0.111688966271	173823.4375	0.00110326993763	2.18990015984	150506.237017	116091.601562	115.974822909	23486.3942711	10037.4114632	65504613.1885	0
1050000.0	13733.0	124754.993275	0.112015550499	173838.793945	0.00116392448035	2.19680738449	151084.750714	116372.888184	122.327789879	21564.6667487	10128.0785735	65509326.2344	0
1075000.0	13831.0	132900.079809	0.112351645771	173859.350586	0.00122716789974	2.20340204239	151635.23559	116633.300781	128.924822492	19825.157136	10389.6701211	65514039.7885	0
1100000.0	13929.0	141486.440779	0.112697721264	173866.784668	0.00129321597342	2.20937681198	152102.799337	116830.79834	135.777037389	18245.6294075	11172.3680995	65518753.8507	0
1125000.0	14027.0	150533.972868	0.113052504743	173843.212891	0.00136230028147	2.21454977989	152447.953365	116935.253906	142.895426698	16807.3652435	12837.1155641	65523468.4212	0
1150000.0	14125.0	160063.217554	0.113415294326	173830.993652	0.00143423494592	2.21961855888	152797.715946	117044.580078	150.27807332	15500.5059381	14818.5771682	65528183.5	0
1175000.0	14223.0	170093.490781	0.113786766142	173838.513184	0.00150897494677	2.22467756271	153169.967926	117172.241211	157.91864146	14386.8189833	1713.39408927	65532899.0871	0
1200000.0	14322.0	180642.824168	0.11416449514	173867.248535	0.00158641728376	2.22977256775	153563.476987	117314.746094	165.863248108	13303.0121319	2222.93076614	65537615.1826	0
1225000.0	14420.0	191733.712816	0.114551560143	173882.324219	0.00166726158568	2.23416185379	153869.741137	117394.506836	174.025728531	12251.0975939	21985.8844552	65542331.7865	0
1250000.0	14518.0	203388.567069	0.114943892044	173877.233887	0.00175153127202	2.2379295826	154085.689163	117406.835938	182.46434677	11350.6540372	26307.8702121	65547048.8989	0
1275000.0	14616.0	215631.509894	0.115344807577	173850.549316	0.00183939664566	2.2413380146	154240.734729	117373.571777	191.186798578	10579.3476687	8101.53326954	65551766.5199	0
1300000.0	14715.0	228484.305569	0.115752183981	173852.331543	0.0019302237888	2.24494481087	154445.47483	117377.233887	200.2368253	9822.81041989	11289.9843154	65556484.6494	0
1325000.0	14813.0	241971.649998	0.116167274068	173858.38623	0.00202470528166	2.24814128876	154617.754508	117360.839844	209.518925882	9129.57522596	15469.776433	65561203.2876	0
1350000.0	14912.0	256115.076097	0.116587594467	173881.616211	0.00212239478969	2.25121927261	154791.360533	117345.251465	219.146230576	8494.81816276	20077.3048397	65565922.4345	0
1375000.0	15010.0	270941.646552	0.117012782539	173889.562988	0.00222417429541	2.25359368324	154879.138758	117269.555664	229.025219692	7910.36510043	26512.4446352	65570642.0901	0
1400000.0	15109.0	286475.38011	0.11744537142	173891.967773	0.00232961565416	2.25578331947	154938.513096	117171.557617	239.276370658	7410.17759836	5280.21652932	65575362.2545	0
1425000.0	15208.0	302744.313737	0.1178858489	173873.522949	0.00243924296228	2.25775933266	154954.801174	117041.601562	249.859038581	6911.49070351	10766.5383218	65580082.9277	0
1450000.0	15307.0	319776.57338	0.118332166649	173867.96875	0.00255271879723	2.25960111618	154972.218098	116914.453125	260.766989427	6452.38390145	17876.2831574	65584804.1097	0
1475000.0	15406.0	337598.986217	0.118783572194	173874.926758	0.00267012660515	2.26120209694	154977.76188	116780.700684	272.009990971	6029.1836429	26622.0926994	65589525.8007	0
1500000.0	15505.0	356239.240403	0.119238977278	173887.756348	0.00279165624306	2.26244211197	154950.612535	116624.829102	283.601006279	5638.33851642	37342.728309	65594248.0007	0
1525000.0	15604.0	375725.869296	0.11970159078	173901.013184	0.00291746709991	2.26334786415	154890.000251	116446.105957	295.553677679	5303.45536197	9347.76499636	65598970.7096	0
1550000.0	15704.0	396085.785564	0.120173798716	173915.686035	0.00304734930978	2.26415872574	154818.886463	116258.898926	307.947549999	4967.3561061	18072.219557	65603693.9276	0
1575000.0	15803.0	417354.158553	0.12064917785	173897.32666	0.00318260981658	2.26461195946	154680.747285	116024.243164	320.683117926	4654.28049322	31673.4396883	65608417.6547	0
1600000.0	15903.0	439561.976945	0.121128626737	173885.803223	0.00332213699039	2.26504611969	154544.489088	115790.527344	333.885621769	4386.23877568	5013.76406949	65613141.891	0
1625000.0	16003.0	462741.295786	0.121611393646	173885.693359	0.00346620777236	2.26521468163	154391.577432	115547.009277	347.477696071	4116.16748672	14801.0890746	65617866.6364	0
1650000.0	16103.0	486923.395456	0.122101223136	173895.43457	0.00361490492651	2.26511311531	154220.590797	115292.700195	361.469065623	3865.65160105	28681.3934318	65622591.891	0
1675000.0	16203.0	512140.311561	0.122600633385	173911.230469	0.00376837056137	2.26477456093	154031.163254	115026.843262	375.86880855	3633.01134022	47161.9223371	65627317.6548	0
1700000.0	16303.0	538425.820602	0.123107007398	173924.890137	0.00392690299122	2.26419901848	153814.590784	114742.492676	390.695026726	3433.60979241	11646.3936733	65632043.928	0
1725000.0	16404.0	565812.091042	0.123618907878	173935.668945	0.00409029462389	2.26352381706	153580.87193	114444.799805	406.036738378	3231.21435037	28016.8968312	65636770.7105	0
1750000.0	16504.0	594341.624159	0.124126707314	173913.378906	0.00426014821642	2.26259708405	153291.766867	114108.544922	421.782168073	3041.52317487	52937.5197147	65641498.0024	0
1775000.0	16605.0	624050.072653	0.124640651446	173901.550293	0.0044348234951	2.26158356667	153004.256241	113774.169922	438.055926266	2879.40305441	14168.4367796	65646225.8037	0
1800000.0	16706.0	654973.686998	0.125163605086	173902.368164	0.00461466197521	2.26034092903	152708.523408	113436.560059	454.787773559	2714.31644015	35752.6702405	65650954.1145	0
1825000.0	16807.0	687148.804137	0.12569446101	173911.779785	0.00479986465507	2.25885772705	152397.453762	113090.100098	471.984810575	2560.38519536	65448.1721814	65655682.9347	0
1850000.0	16908.0	720613.291899	0.126231313161	173924.499512	0.00499068846693	2.25712823868	152063.839127	112729.138184	489.643925563	2428.69106472	19665.1481072	65660412.2645	0
1875000.0	17010.0	755402.242004	0.126774656095	173942.993164	0.00518674005434	2.25523757935	151714.961806	112357.104492	507.85277424	2305.42579315	3423.17420581	65665142.1038	0
1900000.0	17112.0	791556.410667	0.127322603959	173953.088379	0.00538891890756	2.25314807892	151337.933003	111966.113281	526.550268317	2178.87013834	6913.02016866	65669872.4527	0
1925000.0	17214.0	829118.815158	0.127873313012	173946.948242	0.00559762338526	2.25098276138	150939.912312	111561.047363	545.756049055	2060.22039228	33127.044837	65674603.3113	0
1950000.0	17316.0	868135.326939	0.128425267607	173930.053711	0.00581288986723	2.24876976013	150529.785241	111148.498535	565.47171807	1948.99294458	74420.9026741	65679334.6795	0
1975000.0	17418.0	908650.107031	0.128982832811	173922.424316	0.00603421312917	2.2463490963	150109.502806	110730.895996	585.682552747	1853.9846711	23116.1854161	65684066.5575	0
2000000.0	17521.0	950700.273465	0.129548941674	173930.102539	0.00626095470579	2.24374294281	149682.604403	110309.143066	606.476567827	1756.37114531	62492.4157512	65688798.9451	0
2025000.0	17623.0	994333.862876	0.130119169849	173934.814453	0.00649480807624	2.24081373215	149224.889426	109868.896484	627.70036382	1664.61971475	118501.112503	65693531.8426	0
2050000.0	17726.0	1039589.23686	0.130701893083	173950.305176	0.00673433123666	2.2376999855	148755.991208	109421.276855	649.528168342	1594.22813007	11657.6915131	65698265.2498	0
2075000.0	17830.0	1086506.22616	0.131294363416	173970.874023	0.00697977702657	2.23446965218	148275.803237	108965.576172	671.971870368	1513.11551428	5892.38060918	65702999.1668	0
2100000.0	17933.0	1135138.99044	0.131883454165	173972.998047	0.0072333659773	2.23114871979	147771.39839	108494.628906	694.855703475	1436.5954174	45014.9158711	65707733.5937	0
2125000.0	18037.0	1185533.08531	0.132473135233	173965.41748	0.00749382979848	2.2279150486	147264.805923	108021.264648	718.366991869	1364.750993	109035.80209	65712468.5306	0
2150000.0	18140.0	1237747.74263	0.133060269713	173943.066406	0.00776269189373	2.22461175919	146742.061953	107538.623047	742.333859029	1303.17852826	43974.373411	65717203.9773	0
2175000.0	18245.0	1291819.74873	0.133666125327	173946.081543	0.00803644525149	2.22112107277	146219.611395	107056.030273	766.991690629	1245.55695583	1395.0215182	65721939.934	0
2200000.0	18349.0	1347803.61757	0.134274574484	173947.583008	0.00831822217151	2.21740436554	145676.725642	106562.023926	792.104955149	1185.25171883	43783.6035551	65726676.4007	0
2225000.0	18454.0	1405742.13045	0.134893846173	173960.717773	0.00860626278154	2.21350479126	145123.863451	106061.547852	817.86222386	1134.06107308	721.94707726	65731413.3773	0
2250000.0	18559.0	1465686.21424	0.135517499101	173974.206543	0.00890183309821	2.20942091942	144553.637713	105550.415039	844.200728478	1080.4338735	45950.4115654	65736150.864	0
2275000.0	18664.0	1527687.63529	0.136148059145	173986.035156	0.00920508500712	2.20514059067	143964.307604	105027.526855	871.129635386	1029.82452847	131388.940627	65740888.8608	0
2300000.0	18769.0	1591800.68399	0.136782212844	173991.369629	0.00951643323788	2.200766325	143362.120806	104496.960449	898.676256741	986.662760388	54936.2148868	65745627.3676	0
2325000.0	18875.0	1658075.07254	0.137420788915	173992.114258	0.00983522204479	2.19642448425	142759.044985	103965.686035	926.957050936	945.786938196	4312.81277314	65750366.3846	0
2350000.0	18981.0	1726571.4436	0.138053949048	173977.685547	0.0101629620985	2.19222331047	142159.794043	103437.976074	955.910543001	902.601233066	72462.8454575	65755105.9117	0
2375000.0	19087.0	1797349.69265	0.138691338048	173966.503906	0.0104987830127	2.1878964901	141551.858443	102905.810547	985.501097172	865.838520807	12616.2395657	65759845.949	0
2400000.0	19194.0	1870456.26548	0.139344407166	173969.65332	0.0108412114059	2.18331432343	140929.588829	102364.575195	1015.81689919	827.224102013	97616.8529914	65764586.4964	0
2425000.0	19300.0	1945954.68427	0.139999431231	173970.227051	0.0111929875857	2.17855477333	140290.835372	101814.508057	1046.69515363	790.543271446	235402.067296	65769327.5541	0
2450000.0	19407.0	2023893.57977	0.140666709192	173980.322266	0.011551870557	2.17362880707	139641.556035	101257.458496	1078.3332351	763.042493847	6817.50901141	65774069.122	0
2475000.0	19515.0	2104322.82192	0.141344074615	173996.862793	0.0119180740512	2.16859388351	138983.927103	100694.506836	1110.74712096	733.463478489	68492.3934099	65778811.2002	0
2500000.0	19623.0	2187301.71519	0.142027523847	174010.791016	0.0122930505313	2.16343688965	138310.779975	100121.313477	1143.86277815	698.781547401	185902.03372	65783553.7886	0
2525000.0	19730.0	2272901.2575	0.142708514726	174012.011719	0.0126785989778	2.15825271606	137627.132989	99542.5354004	1177.60753542	672.052989086	93635.5919667	65788296.8873	0
2550000.0	19839.0	2361167.79218	0.143400881855	174016.882324	0.0130710213853	2.15309023857	136946.142549	98964.5996094	1212.28788845	646.761450209	23631.6752886	65793040.4964	0
2575000.0	19947.0	2452179.78265	0.144078091398	174000.57373	0.0134751071528	2.14818286896	136280.195107	98399.3103027	1247.65253871	619.593661777	158335.720171	65797784.6158	0
2600000.0	20056.0	2545997.07208	0.144761327823	173990.795898	0.0138871409945	2.14323091507	135617.231473	97837.1520996	1283.80355305	596.648275658	68462.0549907	65802529.2456	0
2625000.0	20165.0	2642682.18795	0.14545483802	173986.303711	0.0143080615089	2.1380007267	134933.715594	97262.6098633	1320.56700138	574.827988829	7662.21878275	65807274.3857	0
2650000.0	20275.0	2742286.37234	0.146165996015	173992.871094	0.0147364044096	2.13246560097	134228.674112	96673.8525391	1358.04917744	554.1643617	28257.416444	65812020.0363	0
2675000.0	20385.0	2844872.2114	0.146886168878	174002.22168	0.0151739031935	2.12672686577	133507.545126	96075.5065918	1396.18126748	532.054430417	54607.8439397	65816766.1973	0
2700000.0	20495.0	2950504.10601	0.14761330735	174012.536621	0.0156208534463	2.120855093	132775.578192	95471.0266113	1434.99010855	513.360829255	2036.41558163	65821512.8687	0
2725000.0	20606.0	3059237.27298	0.148352298226	174028.100586	0.0160758809216	2.11487364769	132035.947984	94861.5234375	1474.58947964	493.364390163	142883.07558	65826260.0506	0
2750000.0	20716.0	3171151.54592	0.149085264335	174033.496094	0.01654272819	2.10896682739	131299.434083	94256.2072754	1514.83414452	476.363868461	57496.1876695	65831007.7429	0
2775000.0	20828.0	3286295.41583	0.149831161022	174044.873047	0.0170166895259	2.10306024551	130565.319796	93651.8310547	1556.02511188	460.25259405	3043.48903969	65835755.9457	0
2800000.0	20939.0	3404754.68018	0.150562839491	174040.014648	0.0175034219865	2.09740972519	129848.969268	93061.7248535	1597.93255562	442.722523317	167494.080402	65840504.659	0
2825000.0	21051.0	3526595.57574	0.151292126519	174029.638672	0.0179998278327	2.09196591377	129150.780415	92484.564209	1640.76508497	427.948793879	73769.2814228	65845253.8829	0
2850000.0	21163.0	3651895.5193	0.152019994146	174019.65332	0.0185067037819	2.08657312393	128460.544186	91914.4287109	1684.40541367	413.788925516	8642.84683031	65850003.6173	0
2875000.0	21276.0	3780714.66937	0.152755867199	174018.261719	0.0190220707736	2.08111834526	127771.132403	91345.6298828	1728.94448168	400.294750378	30480.253228	65854753.8622	0
2900000.0	21389.0	3913122.60224	0.153501471992	174019.750977	0.0195475695364	2.07544660568	127063.967094	90765.9301758	1774.29497135	385.65737752	98904.5925736	65859504.6177	0
2925000.0	21502.0	4049189.14952	0.154259508358	174023.693848	0.0200832455448	2.06951618195	126334.249984	90171.862793	1820.46519705	373.324508931	24166.7035444	65864255.8838	0
2950000.0	21616.0	4188972.36479	0.155035555053	174034.594727	0.0206273361982	2.06332945824	125584.383068	89564.3737793	1867.56206405	361.56218563	9851.04195658	65869007.6605	0
2975000.0	21730.0	4332544.86476	0.155818604329	174045.031738	0.0211820624827	2.05702376366	124824.369549	88951.1169434	1915.51558708	348.738939395	168725.965147	65873759.9478	0
3000000.0	21844.0	4479981.74343	0.156605370226	174053.295898	0.021747797291	2.05067753792	124061.395383	88337.1337891	1964.34451714	337.939846243	79158.6373349	65878512.7458	0
3025000.0	21959.0	4631346.4964	0.157400523249	174062.988281	0.0223228271352	2.04430365562	123297.933996	87723.3154297	2014.16382395	327.613565371	15421.554373	65883266.0543	0
3050000.0	22074.0	4786718.99089	0.158191536378	174066.149902	0.0229096458497	2.03805685043	122545.936876	87118.7133789	2064.89973122	316.296188698	298667.931984	65888019.8735	0
3075000.0	22189.0	4946182.87539	0.158973667015	174060.253906	0.0235088191403	2.0320289135	121813.20512	86528.6865234	2116.58363145	306.760384799	186095.362529	65892774.2033	0
3100000.0	22305.0	5109810.20564	0.159753882587	174051.574707	0.024118256988	2.02616882324	121097.867934	85951.3061523	2169.29438881	298.908691925	191213.229865	65897529.0438	0
3125000.0	22422.0	5277669.70036	0.160540380941	174049.87793	0.0247367788688	2.02030229568	120388.491251	85378.8635254	2222.97122831	288.896532215	17261.0316573	65902284.395	0
3150000.0	22538.0	5449856.22123	0.16131581085	174044.519043	0.0253690559475	2.01457023621	119694.132304	84818.927002	2277.35854954	279.258678324	331305.510638	65907040.2569	0
3175000.0	22655.0	5626432.32135	0.162108253255	174046.276855	0.0260103279288	2.00860857964	118982.341307	84247.3571777	2332.55912367	272.409296741	97715.8180701	65911796.6295	0
3200000.0	22773.0	5807459.74478	0.162919808556	174054.589844	0.0266605129582	2.00238704681	118249.523155	83661.5905762	2388.56263832	263.611174613	107690.862395	65916553.5128	0
3225000.0	22890.0	5993033.34282	0.163730581922	174058.178711	0.0273245605058	1.99611341953	117511.354968	83073.7915039	2445.22337449	256.222939018	32645.1238503	65921310.9068	0
3250000.0	23009.0	6183201.1556	0.164564107787	174071.484375	0.0279954765574	1.98961913586	116757.314685	82474.7802734	2502.76375571	249.215016959	2594.52242736	65926068.8116	0
3275000.0	23127.0	6378061.62196	0.165390953668	174077.990723	0.0286808281089	1.98319792747	116009.342603	81881.6650391	2560.97479366	241.406860512	315704.709309	65930827.2271	0
3300000.0	23246.0	6577682.59989	0.16622543894	174086.474609	0.029376042221	1.97675943375	115262.332181	81289.7155762	2620.01901561	235.931118073	137729.548988	65935586.1533	0
3325000.0	23366.0	6782133.31978	0.167064009078	174095.288086	0.0300813553622	1.97036910057	114522.124145	80703.0151367	2679.89777981	228.757710067	113395.030031	65940345.5903	0
3350000.0	23485.0	6991520.46709	0.167884750229	174092.96875	0.0308023809339	1.96425235271	113806.164036	80134.9060059	2740.51608541	222.744322832	36518.498214	65945105.5381	0
3375000.0	23606.0	7205901.41843	0.168710310799	174092.224121	0.031531748391	1.95824253559	113103.583549	79576.1474609	2802.07172669	217.018772152	2699.63586933	65949865.9966	0
3400000.0	23726.0	7425388.59415	0.169514785557	174081.469727	0.032277093851	1.95254290104	112430.353635	79039.6789551	2864.38721647	210.574035649	354733.282773	65954626.9659	0
3425000.0	23847.0	7650054.09381	0.170327259661	174077.246094	0.0330320763169	1.94678211212	111757.865	78504.6813965	2927.52277423	206.116009014	170098.516048	65959388.4459	0
3450000.0	23969.0	7879963.22652	0.171157239418	174079.199219	0.0337963683705	1.94078791142	111068.477348	77958.770752	2991.47180831	200.189558516	115731.674598	65964150.4368	0
3475000.0	24090.0	8115219.02073	0.171985163603	174077.79541	0.0345756488969	1.93475401402	110376.529449	77412.8051758	3056.14321664	195.25246984	35029.7415837	65968912.9385	0
3500000.0	24213.0	8355868.93763	0.172836177025	174086.230469	0.0353616378561	1.92848825455	109668.665207	76855.9143066	3121.69856327	190.558754387	2476.22378639	65973675.951	0
3525000.0	24335.0	8602018.22762	0.173680722605	174090.344238	0.036162964534	1.92227566242	108966.340803	76304.4067383	3188.02647433	185.231371746	434960.92051	65978439.4743	0
3550000.0	24458.0	8853735.44763	0.174534520959	174098.413086	0.0369741646864	1.91600608826	108262.110264	75752.0812988	3255.22394584	181.602107377	145530.965764	65983203.5085	0
3575000.0	24582.0	9111089.62026	0.175394672135	174109.594727	0.0377953110728	1.90972781181	107560.253855	75201.9042969	3323.32328044	176.676356232	195871.971776	65987968.0534	0
3600000.0	24705.0	9374191.62855	0.176240205805	174114.306641	0.0386326755688	1.90364789963	106876.828891	74665.9362793	3392.27734579	172.58397518	95014.4216401	65992733.1093	0
3625000.0	24830.0	9643093.92536	0.177094978011	174124.475098	0.0394775343011	1.89757859707	106198.821777	74133.8317871	3462.23252316	168.680005326	20643.6875822	65997498.6759	0
3650000.0	24954.0	9917912.16973	0.177928670113	174126.147461	0.0403393351007	1.8918030262	105547.878542	73621.9665527	3533.10657743	164.860039123	19521.6957104	66002264.7534	0
3675000.0	25080.0	10198702.0341	0.178767383804	174130.712891	0.0412091503676	1.88608646393	104906.378146	73116.9006348	3605.0435445	161.210191602	107923.21751	66007031.3418	0
3700000.0	25205.0	10485583.1409	0.179591631208	174123.986816	0.0420965152443	1.88051950932	104276.958417	72621.7346191	3677.93231847	157.008910111	273051.710985	66011798.441	0
3725000.0	25331.0	10778633.9501	0.180422676377	174117.443848	0.0429946157965	1.8748922348	103644.758806	72125.402832	3751.66039298	153.589068436	142432.870653	66016566.051	0
3750000.0	25457.0	11077948.9071	0.181256153252	174112.280273	0.0439056602772	1.86920452118	103010.734558	71629.1015625	3826.13959351	150.280010542	42526.5829324	66021334.1719	0
3775000.0	25584.0	11383596.3362	0.182099675023	174112.37793	0.0448264108854	1.86340785027	102371.842236	71130.279541	3901.3733935	147.105165142	5165.25329527	66026102.8037	0
3800000.0	25711.0	11695666.7023	0.182942386659	174113.476562	0.0457602327515	1.85761356354	101736.660042	70635.168457	3977.34407188	144.031024469	81098.8519613	66030871.9463	0
3825000.0	25839.0	12014228.9406	0.183791339647	174119.238281	0.0467038626084	1.85178029537	101102.577838	70141.5344238	4054.06405106	141.079534065	206269.530048	66035641.5998	0
3850000.0	25967.0	12339375.0171	0.184635495904	174125.317383	0.0476607820019	1.84602081776	100478.352453	69655.7495117	4131.51081888	137.681501158	221994.501553	66040411.7643	0
3875000.0	26095.0	12671198.6077	0.185472612669	174131.311035	0.0486312637804	1.84037196636	99867.0753927	69179.888916	4209.69287168	134.920956298	87161.9058597	66045182.4396	0
3900000.0	26224.0	13009771.3553	0.186309211075	174140.50293	0.0496119864692	1.83479690552	99266.5844148	68712.0666504	4288.61505862	132.267511703	1946.03170971	66049953.6258	0
3925000.0	26353.0	13355189.5566	0.187136874143	174148.31543	0.0506066680828	1.82934558392	98679.6946765	68254.6325684	4368.27338609	129.191127476	648938.446835	66054725.3229	0
3950000.0	26482.0	13707551.2632	0.187960703376	174153.564453	0.0516155560035	1.82392048836	98096.9437097	67801.1413574	4448.67858712	126.701226757	421844.95774	66059497.5309	0
3975000.0	26612.0	14066931.3256	0.18878828312	174159.484863	0.0526351941517	1.81847035885	97514.5729035	67348.5778809	4529.82763026	124.783021515	447280.971679	66064270.2498	0
4000000.0	26743.0	14433404.9444	0.18961851917	174165.380859	0.0536656516488	1.81302392483	96934.693666	66898.3032227	4611.69734568	121.998369594	73839.8609794	66069043.4796	0
4025000.0	26873.0	14807098.3339	0.190432880589	174163.391113	0.0547145391465	1.80775439739	96369.8721551	66459.4726562	4694.33024572	119.275962774	928754.134216	66073817.2203	0
4050000.0	27004.0	15188090.3277	0.191247029024	174159.94873	0.0557747698622	1.80254590511	95811.8538257	66025.7202148	4777.70406751	117.550198032	124346.250121	66078591.472	0
4075000.0	27136.0	15576459.8648	0.192060464348	174155.493164	0.0568461728108	1.79740762711	95261.663031	65597.7111816	4861.79525234	115.447324876	326354.139552	66083366.2345	0
4100000.0	27268.0	15972308.105	0.192868804274	174151.794434	0.0579312109039	1.79234015942	94720.5865903	65176.8310547	4946.54634105	112.976845908	177830.13666	66088141.5079	0
4125000.0	27400.0	16375731.0341	0.193671134602	174149.487305	0.0590299023315	1.78735482693	94189.9532596	64763.9953613	5031.9404925	111.001884708	21531.25809	66092917.2922	0
4150000.0	27533.0	16786797.7252	0.194474270842	174151.867676	0.06013840175	1.78240311146	93666.6969589	64356.829834	5117.94901221	109.102513397	73185.9171434	66097693.5875	0
4175000.0	27666.0	17205604.9252	0.195271331125	174154.553223	0.0612608127994	1.7774875164	93150.0897572	63955.4016113	5204.61040416	106.853837975	501971.062279	66102470.3936	0
4200000.0	27799.0	17632250.7029	0.196063384933	174157.177734	0.0623973028269	1.77258455753	92637.6894264	63558.001709	5291.91409233	105.065596567	221956.805682	66107247.7107	0
4225000.0	27933.0	18066806.0217	0.196858637957	174162.878418	0.0635438846075	1.76763904095	92125.5731523	63161.6210938	5379.8079606	103.344496946	28151.1662838	66112025.5387	0
4250000.0	28067.0	18509369.4659	0.197648781424	174168.188477	0.0647046472295	1.76273477077	91619.3874467	62770.2392578	5468.33905502	101.66927047	85907.634576	66116803.8777	0
4275000.0	28202.0	18960012.2771	0.198441331245	174176.074219	0.0658755598124	1.75782155991	91115.6232709	62381.1462402	5557.45439979	100.056109859	344794.26496	66121582.7276	0
4300000.0	28337.0	19418833.8422	0.199227959736	174183.056641	0.067060769652	1.75298333168	90620.0615734	61998.4130859	5647.25931448	98.1204344163	205362.606818	66126362.0884	0
4325000.0	28472.0	19885934.7646	0.20000814471	174188.806152	0.068260502303	1.74823904037	90133.8908316	61622.7416992	5737.79089028	96.5938265677	7268.73531928	66131141.9601	0
4350000.0	28608.0	20361387.9032	0.200788735199	174196.105957	0.0694706177455	1.74354541302	89654.1981785	61251.8371582	5828.95453266	95.1217690281	152405.13858	66135922.3428	0
4375000.0	28744.0	20845295.5225	0.201561299652	174201.428223	0.0706954888301	1.73898601532	89186.8750561	60889.8803711	5920.78646427	93.3425729852	435007.435616	66140703.2365	0
4400000.0	28880.0	21337762.6377	0.202323864131	174203.857422	0.0719355448382	1.73454749584	88730.9280825	60536.3647461	6013.26622368	91.9476420198	111055.132219	66145484.6411	0
4425000.0	29017.0	21838867.0393	0.203083350716	174205.480957	0.0731867112336	1.73013651371	88279.8902526	60186.9506836	6106.30541737	90.6019800892	45670.744426	66150266.5566	0
4450000.0	29154.0	22348716.9577	0.203832730092	174202.722168	0.0744535354897	1.72582268715	87837.9914305	59844.5495605	6199.95359852	88.963446233	641710.671297	66155048.983	0
4475000.0	29291.0	22867422.3201	0.204573590576	174196.057129	0.0757359957788	1.72159838676	87404.5608024	59508.6364746	6294.16027383	87.6870590402	221427.664703	66159831.9205	0
4500000.0	29429.0	23395058.4392	0.205317484273	174192.785645	0.0770282422309	1.71735012531	86972.2337815	59173.9990234	6388.73209281	86.4592142768	3890.65273901	66164615.3688	0
4525000.0	29567.0	23931725.1503	0.206058020436	174190.344238	0.0783346331446	1.71313714981	86544.9935032	58843.4814453	6483.69257283	85.2639947644	283257.729602	66169399.328	0
4550000.0	29706.0	24477490.1338	0.206802837007	174191.650391	0.0796505191829	1.70891141891	86119.3585155	58514.3920898	6578.90868101	83.8127675518	320507.123968	66174183.7982	0
4575000.0	29844.0	25032483.8517	0.207537837531	174190.856934	0.0809852208477	1.70479810238	85703.5927101	58192.6269531	6674.53368128	82.6855351607	10755.813714	66178968.7794	0
4600000.0	29984.0	25596741.7271	0.208284597244	174196.520996	0.0823247391963	1.7006393671	85287.0153863	57870.2575684	6770.20302011	81.6171088765	232050.58127	66183754.2715	0
4625000.0	30123.0	26170396.1576	0.209019187009	174199.633789	0.083683320554	1.69660246372	84881.2314887	57555.9387207	6866.21073921	80.2755309633	401070.757826	66188540.2745	0
4650000.0	30263.0	26753517.441	0.209752577909	174205.175781	0.0850518554216	1.69256055355	84478.3075738	57244.2443848	6962.3032182	79.2679434095	28422.7126484	66193326.7885	0
4675000.0	30403.0	27346208.2965	0.210478648153	174210.205078	0.0864350877237	1.68856799603	84081.488601	56937.4816895	7058.5314103	78.2873443408	234110.456146	66198113.8135	0
4700000.0	30544.0	27948538.6072	0.211205635932	174217.333984	0.0878281862242	1.68457126617	83686.9002854	56632.7636719	7154.72260012	77.0721883675	414434.19965	66202901.3494	0
4725000.0	30684.0	28560645.1227	0.21192091527	174220.88623	0.0892410462257	1.6806794405	83301.3203007	56334.9182129	7251.11792737	76.1475194823	15880.8966537	66207689.3963	0
4750000.0	30826.0	29182564.6623	0.212645756225	174228.833008	0.0906588829821	1.6767373085	82914.2789738	56036.2670898	7347.22262586	75.2739569029	289859.141234	66212477.9542	0
4775000.0	30967.0	29814435.1775	0.213360767416	174232.8125	0.0920966704143	1.67290818691	82536.0753653	55744.128418	7443.42413174	74.1493748593	377829.296171	66217267.023	0
4800000.0	31109.0	30456327.4959	0.214080319115	174237.976074	0.0935444695642	1.66909456253	82160.0802874	55453.6071777	7539.36197233	73.3270364174	1499.413967	66222056.6029	0
4825000.0	31251.0	31108347.1395	0.214798404236	174241.369629	0.0950074172579	1.6653573513	81789.9078333	55167.1325684	7635.16139977	72.2727723003	1015912.73619	66226846.6937	0
4850000.0	31393.0	31770602.1244	0.215510935591	174242.333984	0.096485906397	1.661703825	81426.7170823	54885.7299805	7730.78593896	71.4983702644	344397.924107	66231637.2954	0
4875000.0	31536.0	32443167.8594	0.216220897612	174242.822266	0.0979750475381	1.65808641911	81067.9412794	54607.7148438	7826.00111694	70.7572290588	10557.4643455	66236428.4082	0
4900000.0	31679.0	33126155.3946	0.216922560535	174239.831543	0.0994801957859	1.65455460548	80716.4778627	54335.1318359	7921.01476365	70.0356535864	476326.059098	66241220.032	0
4925000.0	31823.0	33819640.2779	0.217624320687	174236.584473	0.100995748653	1.65104651451	80368.1058627	54064.9108887	8016.09931069	69.1002188533	259931.663801	66246012.1667	0
4950000.0	31966.0	34523766.3833	0.218317339824	174231.152344	0.102531186712	1.64761340618	80026.3162914	53799.7436523	8111.69288897	68.1741371311	1732184.17976	66250804.8124	0
4975000.0	32110.0	35238599.9442	0.219016365091	174228.918457	0.104075763375	1.6441526413	79684.2291968	53534.6313477	8207.29995342	67.7499844752	666333.135176	66255597.9691	0
5000000.0	32255.0	35964204.8349	0.21972264358	174229.748535	0.105629238533	1.64066314697	79341.4725307	53269.2321777	8302.79398907	67.1152290784	1586699.54952	66260391.6367	0
5025000.0	32400.0	36700681.3285	0.220431035996	174231.176758	0.107197032776	1.6371922493	79000.8039321	53005.4626465	8398.32941652	66.267061112	157225.943995	66265185.8153	0
5050000.0	32545.0	37448130.497	0.221142401905	174233.129883	0.108779175207	1.63374245167	78662.1059694	52743.1335449	8493.81695697	65.4398835559	731221.748522	66269980.505	0
5075000.0	32690.0	38206655.2632	0.22185116886	174235.144043	0.110376000521	1.63032102585	78327.2987837	52483.9782715	8589.1735466	64.8562853912	104707.119191	66274775.7056	0
5100000.0	32836.0	38976321.8564	0.222562722162	174239.453125	0.111982066301	1.62688624859	77993.5691143	52225.9521484	8684.10357562	64.2984453582	235884.501652	66279571.4172	0
5125000.0	32982.0	39757233.9759	0.223271699409	174243.457031	0.11360294593	1.62348425388	77663.4269584	51970.7946777	8778.73327962	63.5378795802	654850.05845	66284367.6398	0
5150000.0	33128.0	40549496.1944	0.223979227512	174247.143555	0.115238697617	1.62011528015	77336.3516163	51718.0114746	8872.99116912	63.0122857346	52171.6704111	66289164.3734	0
5175000.0	33275.0	41353174.0349	0.224692963302	174252.661133	0.116883667943	1.61673462391	77008.966439	51465.0939941	8966.49871277	62.5122530812	333401.242028	66293961.618	0
5200000.0	33422.0	42168371.7046	0.225407507127	174257.617188	0.11854346667	1.61338829994	76683.8069704	51213.7512207	9059.43983362	61.8167285883	596944.884752	66298759.3737	0
5225000.0	33569.0	42995194.2499	0.226124074355	174261.828613	0.120218224765	1.61007535458	76360.414084	50963.55896	9151.69627425	61.348743299	29328.494383	66303557.6404	0
5250000.0	33717.0	43833706.8836	0.226850193236	174267.431641	0.121902114188	1.6067533493	76035.6195526	50712.1307373	9242.92321644	60.9057446505	370264.796881	66308356.4181	0
5275000.0	33865.0	44684015.0302	0.227578175088	174271.875	0.123601072119	1.60346841812	75712.6612376	50461.819458	9333.26604606	60.273917447	651553.011929	66313155.7068	0
5300000.0	34013.0	45546227.0267	0.228303636416	174274.682617	0.125315447804	1.60022926331	75393.0585175	50213.8793945	9422.6812378	59.8621772067	54440.8467713	66317955.5066	0
5325000.0	34162.0	46420410.9979	0.229033137393	174277.856445	0.127039398649	1.59699332714	75074.0414953	49966.3330078	9510.71812126	59.475039769	323651.503868	66322755.8174	0
5350000.0	34311.0	47306675.5684	0.229760317211	174278.955078	0.128778861836	1.59380328655	74758.3821834	49721.1791992	9597.61731293	58.9045349266	780196.985228	66327556.6393	0
5375000.0	34460.0	48205130.8174	0.230485441673	174277.770996	0.130534055643	1.59066140652	74446.1448731	49478.4484863	9683.26897497	58.5479282688	109893.56998	66332357.9722	0
5400000.0	34610.0	49115845.5975	0.231215081143	174276.208496	0.132298926474	1.58752584457	74134.5450774	49236.151123	9767.22890828	58.215511527	246806.265216	66337159.8162	0
5425000.0	34760.0	50038930.933	0.231943480234	174272.167969	0.134079513373	1.58443856239	73826.2675285	48996.2005615	9849.73203603	57.7050828553	979763.618456	66341962.1712	0
5450000.0	34910.0	50974495.6601	0.232674779405	174268.066406	0.135874754051	1.58136701584	73519.1208259	48757.131958	9930.63117462	57.4038168582	227101.884936	66346765.0373	0
5475000.0	35061.0	51922600.3098	0.233417069487	174266.552734	0.137678172905	1.57826304436	73209.7724969	48516.5527344	10009.4029396	57.1277243106	114082.0844	66351568.4145	0
5500000.0	35212.0	52883347.8375	0.234161104115	174265.29541	0.139496143674	1.57517278194	72901.6879105	48277.0172119	10086.3518005	56.6791149949	1364075.75825	66356372.3027	0
5525000.0	35363.0	53856841.8324	0.234906450274	174264.18457	0.141328782775	1.57209718227	72594.9820297	48038.6016846	10161.3704774	56.434850493	502335.975328	66361176.702	0
5550000.0	35515.0	54843141.9408	0.235659972588	174265.197754	0.143169716466	1.56899595261	72286.8585	47799.2736816	10233.9577823	56.2153095214	6771.63550716	66365981.6124	0
5575000.0	35667.0	55842350.9184	0.236415439639	174266.259766	0.145025187521	1.56590843201	71979.9228711	47560.9313965	10305.0833749	56.0073456466	424602.160639	66370787.0339	0
5600000.0	35820.0	56854527.3022	0.237179977263	174269.32373	0.146888720337	1.56279408932	71671.391465	47321.5423584	10374.5160264	55.819022809	1250253.40458	66375592.9664	0
5625000.0	35973.0	57879773.042	0.237947315906	174272.277832	0.148766703205	1.55969321728	71363.8411449	47082.9437256	10442.6850411	55.4592296504	285008.566299	66380399.4101	0
5650000.0	36126.0	58918190.6189	0.238717950995	174275.073242	0.150659179781	1.55660557747	71057.1796839	46845.0531006	10509.5132836	55.2917273279	53050.7533263	66385206.3649	0
5675000.0	36280.0	59969836.9531	0.239499118817	174279.577637	0.152559558046	1.55349230766	70748.6321912	46605.8349609	10574.4701009	55.1435685722	591391.971761	66390013.8308	0
5700000.0	36434.0	61034815.7813	0.240283323575	174283.59375	0.15447459009	1.55039620399	70441.0160672	46367.3095703	10638.0178317	54.8269219318	988499.844393	66394821.8079	0
5725000.0	36588.0	62113231.518	0.241069604752	174286.914062	0.156404450536	1.54731953144	70134.6135788	46129.6936035	10700.0910704	54.6988582541	304839.796812	66399630.2961	0
5750000.0	36743.0	63205143.0413	0.241864395989	174291.40625	0.158342416398	1.54422426224	69826.9510819	45891.2322998	10760.1397792	54.589699346	21843.2293899	66404439.2955	0
5775000.0	36898.0	64310655.3121	0.242660598547	174295.031738	0.160295225214	1.54115080833	69520.9325407	45654.0344238	10818.6128914	54.4900307333	476835.914692	66409248.8061	0
5800000.0	37054.0	65429826.0057	0.243464717356	174299.584961	0.162256095791	1.53806054592	69214.0268509	45416.2963867	10874.9318538	54.409241442	1208407.91121	66414058.8278	0
5825000.0	37210.0	66562759.7303	0.244269744638	174303.100586	0.164231751114	1.53499400616	68909.0962499	45180.0811768	10929.5877859	54.1642893448	601329.845823	66418869.3608	0
5850000.0	37366.0	67709561.3041	0.245075301729	174305.419922	0.166222220287	1.53195118904	68606.2363237	44945.4742432	10982.5286022	54.10321778	93758.5753104	66423680.405	0
5875000.0	37523.0	68870288.6822	0.245888265308	174308.312988	0.168220693013	1.5288952589	68302.9638962	44710.6781006	11033.1573984	54.0609194867	157430.257373	66428491.9604	0
5900000.0	37680.0	70045048.3417	0.246702054925	174309.58252	0.170234299731	1.52586352825	68001.6032391	44477.3529053	11081.9752542	53.8565385761	2125576.06934	66433304.027	0
5925000.0	37837.0	71233948.2061	0.247516019806	174309.020996	0.172263215063	1.52285850048	67702.2519651	44245.5291748	11128.9927666	53.8334956806	1277889.58807	66438116.6049	0
5950000.0	37995.0	72437048.4529	0.248336285246	174308.325195	0.174300483195	1.51984620094	67402.6705567	44013.6169434	11173.5350001	53.9995045955	2372968.96858	66442929.6941	0
5975000.0	38154.0	73654408.5833	0.249162064671	174307.312012	0.1763459004	1.51683175564	67103.2478361	43781.8847656	11215.5460564	53.843594994	123559.218179	66447743.2946	0
6000000.0	38312.0	74886185.0858	0.249978335589	174302.416992	0.17841369845	1.51389312744	66809.5290657	43554.3273926	11256.2195477	53.6887551755	3492362.35462	66452557.4063	0
6025000.0	38471.0	76132435.854	0.250802416881	174298.876953	0.180488787009	1.51093578339	66514.9106585	43326.2512207	11294.2376593	53.892001378	594318.621094	66457372.0294	0
6050000.0	38631.0	77393212.3195	0.251635210346	174297.277832	0.182570554898	1.50795578957	66219.1328123	43097.4578857	11329.5103286	53.9456345398	1263377.03067	66462187.1638	0
6075000.0	38791.0	78668612.6437	0.252469434391	174295.874023	0.184666190762	1.50499045849	65924.8292177	42869.8730469	11362.6348312	53.8414585	963099.810784	66467002.8095	0
6100000.0	38951.0	79958737.2054	0.253306745099	174294.482422	0.186775898328	1.50203490257	65631.2814157	42642.9229736	11393.6042126	53.9161976615	398545.074836	66471818.9666	0
6125000.0	39112.0	81263636.4337	0.254154417613	174294.689941	0.188892503502	1.49905216694	65335.7701825	42414.6179199	11421.7231311	54.010717292	45728.7606499	66476635.635	0
6150000.0	39273.0	82583410.216	0.25500448019	174294.750977	0.191023165826	1.49608075619	65041.2314782	42187.1307373	11447.6110883	54.115814775	149149.60445	66481452.8148	0
6175000.0	39435.0	83918107.7653	0.255863432268	174296.337891	0.193160492927	1.49308633804	64745.3985267	41958.8592529	11470.5221294	54.2412144988	553643.489612	66486270.5059	0
6200000.0	39597.0	85267827.7771	0.256723397773	174297.729492	0.195311702555	1.49010717869	64451.1095853	41731.8664551	11491.1572968	54.3774112069	1101931.55356	66491088.7085	0
6225000.0	39760.0	86632617.8298	0.257590808765	174300.537109	0.197469373234	1.48710942268	64156.1435234	41504.5959473	11508.7333235	54.5343076956	1741161.87134	66495907.4224	0
6250000.0	39923.0	88012575.5827	0.258457810098	174303.076172	0.19964078092	1.48413097858	63863.3257768	41279.1046143	11523.9952157	54.5349762781	912603.944382	66500726.6478	0
6275000.0	40086.0	89407799.7153	0.259324269966	174305.322266	0.201826012926	1.48117160797	63572.6533267	41055.3924561	11537.0730394	54.7133728106	436999.982923	66505546.3847	0
6300000.0	40250.0	90818338.7288	0.26019952892	174308.59375	0.204017880606	1.47819042206	63280.7089852	40830.947876	11547.249305	54.9117235438	110717.60743	66510366.633	0
6325000.0	40414.0	92244292.7443	0.261076003339	174311.230469	0.206223819987	1.47522342205	62990.1238506	40607.6538086	11555.315581	55.1202429185	36748.6156879	66515187.3927	0
6350000.0	40579.0	93685709.6603	0.261960136729	174314.794922	0.208436220419	1.4722391367	62698.8141676	40384.0332031	11560.5439116	55.348627427	286801.497953	66520008.664	0
6375000.0	40744.0	95142688.7297	0.262843706374	174317.700195	0.210662576137	1.46927416325	62409.6073557	40162.1307373	11563.7175954	55.5871575701	663759.85631	66524830.4468	0
6400000.0	40910.0	96615276.0946	0.263733090772	174321.459961	0.212895203731	1.46629858017	62120.4709481	39940.4846191	11564.0857992	55.8456938396	1116291.21119	66529652.7412	0
6425000.0	41076.0	98103570.2897	0.264620166671	174324.475098	0.215141641092	1.46334886551	61834.1836724	39721.1212158	11562.4607125	55.9458818256	1912957.23692	66534475.5471	0
6450000.0	41242.0	99607669.3026	0.265503767646	174326.782227	0.217401902773	1.46042990685	61551.1466578	39504.2907715	11558.9066314	56.22424629	1363398.84926	66539298.8646	0
6475000.0	41409.0	101127618.912	0.2663923249	174329.699707	0.219668349018	1.457503438	61268.4741429	39287.9455566	11552.6261965	56.5226921882	892223.409815	66544122.6937	0
6500000.0	41576.0	102663520.763	0.26727991725	174331.469727	0.221948997932	1.45459938049	60987.9593422	39073.324585	11544.4984207	56.8309626792	492045.237195	66548947.0344	0
6525000.0	41744.0	104215421.372	0.268172775403	174333.520508	0.224235991482	1.45168781281	60707.5532465	38858.9782715	11533.7293771	57.3293950936	4449602.23498	66553771.8868	0
6550000.0	41913.0	105783366.02	0.269069944455	174335.778809	0.226529024076	1.4487735033	60427.6410407	38645.1568604	11520.339118	57.5078825618	10613.8385972	66558597.2508	0
6575000.0	42081.0	107367507.841	0.269955847332	174335.302734	0.22884394275	1.44592607021	60153.2570218	38435.458374	11506.0421474	57.856189215	135836.918077	66563423.1266	0
6600000.0	42251.0	108967836.325	0.270851415961	174336.303711	0.231156736845	1.44305169582	59877.7280053	38225.0915527	11488.3567064	58.2353325689	418605.206302	66568249.514	0
6625000.0	42420.0	110584503.724	0.271733491913	174334.472656	0.233491256949	1.44025146961	59608.3980663	38019.3084717	11469.8294719	58.4419176711	3354064.27688	66573076.4131	0
6650000.0	42590.0	112217553.797	0.272616317289	174332.495117	0.235831626924	1.43746352196	59340.7103723	37814.8132324	11448.8429163	59.0138579562	1371341.40672	66577903.824	0
6675000.0	42761.0	113867031.988	0.27350231169	174330.236816	0.238178065047	1.43468093872	59073.7397493	37610.8947754	11425.4231996	59.4341366442	1965437.705	66582731.7467	0
6700000.0	42932.0	115533036.03	0.274386759947	174327.526855	0.240537585341	1.43191981316	58808.7718739	37408.5449219	11400.4240395	59.69058943	1480241.63581	66587560.1812	0
6725000.0	43103.0	117215660.43	0.275269702425	174324.694824	0.242910260567	1.42917764187	58545.8305967	37207.8125	11373.9184605	60.1313558548	965303.181394	66592389.1274	0
6750000.0	43275.0	118914941.974	0.276157472883	174323.181152	0.245287665166	1.4264228344	58282.8772299	37007.2937012	11345.0701637	60.5936519964	538822.51059	66597218.5856	0
6775000.0	43447.0	120630972.216	0.277042167663	174321.606445	0.247677904554	1.42368817329	58022.4478707	36808.8378906	11314.7544638	61.0669781386	193553.917928	66602048.5555	0
6800000.0	43620.0	122363785.177	0.277930228533	174321.386719	0.250072596828	1.42094242573	57762.6018128	36611.1206055	11282.1783181	61.7401594132	5994036.02507	66606879.0374	0
6825000.0	43794.0	124113414.433	0.278820738904	174322.485352	0.252471567364	1.41818726063	57503.5823719	36414.3310547	11247.3617337	62.0798314691	180169.361719	66611710.0311	0
6850000.0	43967.0	125880008.342	0.279700988372	174322.106934	0.254891696386	1.41547846794	57249.0495979	36221.0571289	11212.1109207	62.4176269662	4390377.9113	66616541.5368	0
6875000.0	44141.0	127663603.82	0.280585574572	174322.753906	0.257316569332	1.41275560856	56994.6090913	36028.1494141	11174.7127972	63.1376130418	1041416.06421	66621373.5545	0
6900000.0	44316.0	129464234.873	0.28147411146	174324.414062	0.25974586606	1.41002178192	56740.4353294	35835.6964111	11135.2018354	63.7005701113	1605751.97976	66626206.0841	0
6925000.0	44491.0	131281992.106	0.282358694227	174325.805664	0.262187881162	1.40731060505	56488.9415739	35645.4071045	11094.5149146	64.0920208744	2222676.92259	66631039.1256	0
6950000.0	44666.0	133116965.715	0.28323886982	174326.928711	0.264642410912	1.40462577343	56240.3373772	35457.3974609	11052.6902335	64.6771999595	1568453.72415	66635872.6793	0
6975000.0	44842.0	134969186.859	0.284120777668	174329.064941	0.267100986093	1.40194165707	55992.7858035	35270.3338623	11008.4726061	65.4737811705	3933010.66577	66640706.7449	0
7000000.0	45019.0	136838685.031	0.285003720952	174332.15332	0.269563373877	1.39926314354	55746.6343136	35084.4482422	10961.6031971	66.1144188628	4889892.47727	66645541.3226	0
7025000.0	45196.0	138725549.762	0.285881685459	174334.838867	0.272038159892	1.39661836624	55503.5799857	34900.9124756	10913.0280263	66.5837903828	120643.758704	66650376.4125	0
7050000.0	45373.0	140629872.698	0.286754645786	174336.938477	0.2745258098	1.39400458336	55263.286901	34719.4854736	10862.8908429	67.2562414132	64087.8716624	66655212.0144	0
7075000.0	45551.0	142551685.951	0.287629245481	174339.746094	0.27701765066	1.39139342308	55023.9874206	34538.9465332	10810.4080409	67.9570578163	426208.777642	66660048.1286	0
7100000.0	45729.0	144491078.899	0.288498004184	174342.016602	0.27952180244	1.38881123066	54787.6810204	34360.748291	10756.5724874	68.4819102619	4227162.81226	66664884.7549	0
7125000.0	45907.0	146448140.665	0.289360268334	174343.798828	0.282038527075	1.38625776768	54554.5431197	34185.0463867	10701.477454	69.2138690828	3219997.66326	66669721.8934	0
7150000.0	46086.0	148422899.8	0.290222320201	174346.289062	0.284558860585	1.38370394707	54322.765016	34010.6048584	10644.3152678	70.1700852596	2681024.28408	66674559.5442	0
7175000.0	46266.0	150415383.26	0.291083422946	174349.450684	0.287082482828	1.38114881516	54092.5060728	33837.5823975	10585.2034853	70.961503434	3760920.07284	66679397.7073	0
7200000.0	46446.0	152425679.794	0.291937580279	174351.953125	0.289618532406	1.37861645222	53865.4586	33667.2088623	10525.1371602	71.5704409947	687886.975886	66684236.3826	0
7225000.0	46626.0	154453879.589	0.29278472682	174353.625488	0.292167183943	1.37610840797	53641.4596759	33499.307251	10464.2282216	72.3924698542	129691.399345	66689075.5703	0
7250000.0	46807.0	156500012.137	0.293631541667	174355.67627	0.29471956077	1.37360012531	53418.7919096	33332.6660156	10401.6501244	73.2436771538	146817.950194	66693915.2704	0
7275000.0	46988.0	158564165.424	0.294470574805	174356.958008	0.29728419031	1.37112092972	53199.3733164	33168.5974121	10338.4132504	74.1109115457	781810.500493	66698755.4829	0
7300000.0	47170.0	160646365.625	0.29530826216	174358.532715	0.299852166791	1.36864817142	52981.5387299	33005.8990479	10273.6994416	75.007608039	1721932.30205	66703596.2078	0
7325000.0	47352.0	162746698.261	0.296137723291	174359.338379	0.302431901218	1.36621141434	52767.1450617	32845.8190918	10208.4827842	75.7125573671	2381613.10679	66708437.4452	0
7350000.0	47534.0	164865247.747	0.296958253485	174359.326172	0.305023451801	1.3638137579	52556.3274875	32688.4246826	10142.8448514	76.6396102798	1212484.77434	66713279.195	0
7375000.0	47717.0	167002040.06	0.297776535831	174359.362793	0.307618291117	1.36142838001	52347.1731638	32532.3822021	10075.9914941	77.5962768583	320467.068516	66718121.4574	0
7400000.0	47900.0	169157162.991	0.298586203541	174358.300781	0.31022526673	1.35907948017	52141.3380027	32378.8452148	10008.8974167	78.5686970957	119442.391123	66722964.2324	0
7425000.0	48084.0	171330642.127	0.299393661138	174357.15332	0.312835414661	1.35674059391	51937.1401724	32226.6784668	9940.7765315	79.5707979067	964395.755769	66727807.5199	0
7450000.0	48268.0	173522563.576	0.300192025949	174354.907227	0.315457582474	1.35443639755	51736.3103694	32077.0843506	9872.54476158	80.5887737706	2325552.07228	66732651.32	0
7475000.0	48453.0	175732951.903	0.300988396066	174352.832031	0.318082631566	1.35213911533	51537.0558856	31928.8513184	9803.44652391	81.6366831448	4090060.36159	66737495.6328	0
7500000.0	48638.0	177961889.974	0.301777386022	174350.793457	0.320718711009	1.34986531734	51340.6295616	31782.8796387	9734.3723149	82.4777775902	508347.357205	66742340.4583	0
7525000.0	48823.0	180209458.554	0.302558955406	174348.779297	0.323366082739	1.34761369228	51147.0586969	31639.2272949	9665.42397402	83.5549669338	104656.205649	66747185.7964	0
7550000.0	49009.0	182475680.096	0.303339362315	174347.680664	0.326016161125	1.34536170959	50954.6903068	31496.7468262	9595.80498557	84.6623408344	1155307.62275	66752031.6474	0
7575000.0	49195.0	184760637.867	0.304112228856	174346.459961	0.328677619109	1.34313225746	50765.0372257	31356.4880371	9526.41550143	85.5552242845	3043033.88499	66756878.0111	0
7600000.0	49381.0	187064413.664	0.30487745309	174345.141602	0.331350485794	1.3409268856	50578.1455194	31218.4295654	9457.34087909	86.6906321996	1253521.7263	66761724.8876	0
7625000.0	49568.0	189387024.379	0.30564081398	174344.775391	0.334025360644	1.33872187138	50392.4966522	31081.5063477	9387.78785268	87.8564060677	88317.6442975	66766572.2769	0
7650000.0	49755.0	191728547.964	0.306396166366	174344.360352	0.33671077108	1.33654177189	50209.6327032	30946.7498779	9318.6337999	89.0374177897	737219.7295	66771420.1791	0
7675000.0	49943.0	194088996.709	0.307149143421	174344.970703	0.339397607604	1.33436369896	50028.087805	30813.1256104	9249.13608932	90.2489439775	2542010.45362	66776268.5942	0
7700000.0	50131.0	196468444.961	0.307893512095	174345.556641	0.342094572261	1.33221077919	49849.4413733	30681.729126	9180.1365289	91.2330042866	1480850.55124	66781117.5223	0
7725000.0	50319.0	198866971.904	0.308628779454	174345.935059	0.344802509062	1.33008217812	49673.6505349	30552.5604248	9111.10149765	92.4775689929	70308.1530097	66785966.9633	0
7750000.0	50508.0	201284591.584	0.309361040947	174347.143555	0.347512133885	1.32795631886	49499.2680221	30424.6337891	9040.83838675	93.7635382909	989910.782073	66790816.9173	0
7775000.0	50697.0	203721382.725	0.310084405748	174348.168945	0.35023241071	1.32585525513	49327.6945786	30298.9257812	8970.23068363	94.8241565034	3124608.5185	66795667.3844	0
7800000.0	50886.0	206177422.619	0.310799323256	174349.072266	0.352963426849	1.32377874851	49158.8192727	30175.3509521	8899.35360522	96.1582014694	842176.829384	66800518.3645	0
7825000.0	51076.0	208652723.743	0.311511460065	174350.78125	0.355695781764	1.32170653343	48991.274978	30052.9754639	8827.51473947	97.5343101932	243163.059218	66805369.8577	0
7850000.0	51266.0	211147362.863	0.312215107615	174352.416992	0.358438643161	1.31966114044	48826.4346392	29932.711792	8755.58282925	98.9358618217	2270549.71955	66810221.8641	0
7875000.0	51457.0	213661354.541	0.312915287721	174354.736328	0.361183017958	1.31762206554	48663.0573195	29813.7451172	8682.84507558	100.380124051	5469780.30381	66815074.3836	0
7900000.0	51648.0	216194777.658	0.313606328018	174356.738281	0.363938394003	1.31561040878	48502.4748314	29696.9696045	8610.18217804	101.583699669	8707.49704705	66819927.4163	0
7925000.0	51839.0	218747709.802	0.314288039322	174358.47168	0.366704451153	1.31362569332	48344.6820201	29582.3638916	8537.63990381	102.806256414	5240982.23341	66824780.9623	0
7950000.0	52030.0	221320228.443	0.314960871163	174359.912109	0.369481160305	1.3116697073	48189.639194	29469.8516846	8465.28125186	104.319840086	1870946.03365	66829635.0215	0
7975000.0	52222.0	223912343.596	0.315629915604	174362.011719	0.372258771677	1.30972194672	48036.0253045	29358.5113525	8392.42082595	105.87657513	4145.24652864	66834489.5941	0
8000000.0	52414.0	226524128.299	0.316290264041	174363.903809	0.375046452973	1.30780303478	47885.1384876	29249.2156982	8319.88605085	107.458445427	2087656.28563	66839344.68	0
8025000.0	52607.0	229155589.474	0.316946842784	174366.418457	0.377834658138	1.30589413643	47735.6810401	29141.0583496	8246.97303838	109.08421167	5963348.34497	66844200.2792	0
8050000.0	52800.0	231806802.067	0.317594272814	174368.530273	0.380633020541	1.3040163517	47588.9776482	29034.9731445	8174.49258054	110.449094185	190074.156259	66849056.3919	0
8075000.0	52993.0	234477841.264	0.318232570025	174370.214844	0.383441860322	1.30216872692	47444.9915822	28930.9265137	8102.524586	111.831279584	4247991.86799	66853913.0181	0
8100000.0	53186.0	237168782.222	0.318861390038	174371.484375	0.386260973755	1.30034852028	47303.6857622	28828.9459229	8031.09319916	113.524031997	751917.4901	66858770.1578	0
8125000.0	53380.0	239879632.668	0.319485253176	174373.266602	0.389080611058	1.29853463173	47163.9082247	28728.2897949	7959.52245855	115.26068167	1038295.9625	66863627.811	0
8150000.0	53574.0	242610466.196	0.320099102948	174374.658203	0.391910434701	1.29674386978	47026.7767715	28629.7210693	7888.60685804	117.021330953	5073233.74057	66868485.9777	0
8175000.0	53769.0	245361288.709	0.3207070765	174376.586914	0.394740607589	1.29495573044	46891.230801	28532.5836182	7817.67929431	118.521237072	34847.0708991	66873344.6581	0
8200000.0	53963.0	248132242.078	0.321300010947	174377.148438	0.397590745706	1.29320681095	46759.3827485	28438.2629395	7748.16356301	120.017109403	4455763.30757	66878203.8521	0
8225000.0	54158.0	250923336.289	0.321886742758	174378.039551	0.400441815145	1.2914634943	46629.1655118	28345.3826904	7678.74323785	121.860581211	490352.518126	66883063.5599	0
8250000.0	54353.0	253734646.007	0.322462704594	174378.393555	0.40330318734	1.28974413872	46501.6448114	28254.6295166	7610.12871099	123.726865922	1923955.27489	66887923.7813	0
8275000.0	54549.0	256566178.723	0.323031874173	174379.052734	0.406164966989	1.28803157806	46375.8314239	28165.3747559	7541.68014171	125.636615458	7369995.87817	66892784.5165	0
8300000.0	54745.0	259418006.446	0.323590199091	174379.162598	0.409036700148	1.28634393215	46252.7554458	28078.2745361	7474.12623472	127.24393588	1179817.29317	66897645.7655	0
8325000.0	54941.0	262290199.814	0.324137305863	174378.723145	0.411918095779	1.28468251228	46132.4277551	27993.3166504	7407.46208809	128.865240821	1888726.55024	66902507.5283	0
8350000.0	55137.0	265182829.446	0.324672316825	174377.722168	0.414809212089	1.28304696083	46014.9970236	27910.6536865	7341.73109108	130.499530741	8425003.33325	66907369.805	0
8375000.0	55333.0	268095971.513	0.325193338005	174376.000977	0.417710689362	1.28143894672	45900.7405755	27830.5175781	7276.95887663	132.482966278	2050648.85047	66912232.5956	0
8400000.0	55530.0	271029631.797	0.325705891502	174374.365234	0.420612574089	1.27984070778	45788.4344774	27752.053833	7212.5442951	134.508227201	998797.249159	66917095.9002	0
8425000.0	55727.0	273983882.775	0.326208671466	174372.167969	0.4235242086	1.27826714516	45678.6260338	27675.5187988	7149.14730755	136.55322255	7117557.54951	66921959.7188	0
8450000.0	55925.0	276958726.072	0.326708145364	174370.825195	0.426435319241	1.27669692039	45569.9448824	27599.9755859	7086.17530156	138.289869202	1419113.01492	66926824.0513	0
8475000.0	56122.0	279954296.384	0.327198506947	174368.798828	0.429365260061	1.27516174316	45463.8640817	27526.272583	7024.84542028	140.014556968	1256517.55066	66931688.898	0
8500000.0	56320.0	282970590.182	0.32768975389	174367.700195	0.432294182247	1.27362823486	45358.3311806	27453.0456543	6963.91635603	142.131565256	2109459.63548	66936554.2587	0
8525000.0	56518.0	286007674.665	0.328176572176	174366.638184	0.435232184827	1.27211511135	45254.8428952	27381.4147949	6903.50059241	143.914821353	700284.597298	66941420.1335	0
8550000.0	56716.0	289065617.72	0.328657396285	174365.612793	0.438179587945	1.27062225342	45153.4369198	27311.4135742	6843.51880106	145.720519765	5785068.89036	66946286.5226	0
8575000.0	56914.0	292144486.872	0.329131598918	174364.624023	0.441136013251	1.26914870739	45053.826561	27242.7703857	6783.99857917	147.921030835	147058.609696	66951153.4258	0
8600000.0	57113.0	295244280.621	0.329601732602	174364.428711	0.444091769168	1.26768040657	44954.9687595	27174.697876	6724.39796497	150.176580403	4521064.81022	66956020.8433	0
8625000.0	57312.0	298365064.852	0.33006313318	174364.306641	0.447056547273	1.26623141766	44857.4155396	27107.4645996	6665.30633369	152.08190445	247934.086879	66960888.775	0
8650000.0	57511.0	301506906.098	0.330514783988	174364.27002	0.450030347565	1.26480138302	44760.9381638	27040.8325195	6606.73397876	154.009517307	2654863.77842	66965757.2211	0
8675000.0	57710.0	304669872.58	0.330955998983	174364.208984	0.45301328646	1.26339125633	44665.4467312	26974.7039795	6548.71228794	156.350624412	1511973.70545	66970626.1815	0
8700000.0	57910.0	307853963.893	0.331390564618	174364.868164	0.455995788798	1.26198732853	44570.3971916	26908.807373	6490.72978617	158.350551632	868496.53799	66975495.6564	0
8725000.0	58109.0	311059316.782	0.331812622522	174364.746094	0.458997441456	1.26061737537	44477.4942393	26844.3206787	6433.86108462	160.347247018	5458131.55892	66980365.6456	0
8750000.0	58309.0	314285928.921	0.332229730425	174365.393066	0.461998220999	1.25925290585	44385.4262721	26780.4870605	6377.07052048	162.796701047	198781.859801	66985236.1493	0
8775000.0	58509.0	317533865.024	0.332639551767	174366.052246	0.465007789899	1.25790691376	44295.1521118	26718.0328369	6320.899217	165.277470086	7612433.28437	66990107.1675	0
8800000.0	58710.0	320803118.692	0.333046312792	174367.529297	0.468015787192	1.25656557083	44206.1430754	26656.6802979	6264.84435762	167.397965851	2366325.54988	66994978.7003	0
8825000.0	58910.0	324093823.46	0.333443996281	174368.286133	0.471042643767	1.25525689125	44119.9176749	26597.4151611	6209.94112072	169.513419238	163632.400862	66999850.7476	0
8850000.0	59111.0	327405975.943	0.333838432318	174369.702148	0.474068394396	1.25395560265	44034.8736015	26539.1204834	6155.20815625	172.102657847	6251137.15801	67004723.3096	0
8875000.0	59312.0	330739642.234	0.334225572842	174371.069336	0.477103021694	1.25267386436	43951.6874953	26482.2235107	6101.14515887	174.289243825	1605906.90078	67009596.3862	0
8900000.0	59513.0	334094886.548	0.334604482928	174372.399902	0.480146496557	1.25141060352	43870.3448423	26426.7364502	6047.76949523	176.495216733	495431.281723	67014469.9774	0
8925000.0	59714.0	337471771.197	0.334974514951	174373.706055	0.483198440634	1.25016379356	43790.7868463	26372.6470947	5995.09116493	178.720174704	4172486.72605	67019344.0834	0
8950000.0	59915.0	340870359.143	0.335334615145	174375.024414	0.486258708406	1.24893331528	43713.0654244	26320.0042725	5943.1000628	180.96419738	9598665.2305	67024218.7042	0
8975000.0	60116.0	344290711.829	0.335684071993	174376.342773	0.48932741629	1.24771785736	43637.1624357	26268.8323975	5891.81859512	183.682046284	288794.749487	67029093.8397	0
9000000.0	60318.0	347732825.002	0.336024754753	174378.24707	0.49239496002	1.24650788307	43562.6779355	26218.9056396	5840.80005645	186.45609174	7292206.6932	67033969.4901	0
9025000.0	60520.0	351196763.348	0.336354368954	174380.029297	0.495471293107	1.2453161478	43490.2180698	26170.59021	5790.49667403	188.792249433	2933948.67027	67038845.6554	0
9050000.0	60722.0	354682592.141	0.336673333825	174381.665039	0.49855641555	1.24414253235	43419.7149123	26123.8250732	5740.94798547	191.144584353	240054.306266	67043722.3356	0
9075000.0	60924.0	358190377.487	0.33698234498	174383.154297	0.501650443766	1.24298632145	43351.0993264	26078.5552979	5692.129508	193.513367969	1370143.80309	67048599.5307	0
9100000.0	61126.0	361720182.174	0.337281834114	174384.521484	0.504753086716	1.24184775352	43284.2904649	26034.6893311	5644.05458927	195.897754954	4712483.15213	67053477.2408	0
9125000.0	61328.0	365272070.321	0.337572292297	174385.766602	0.507864344399	1.24072647095	43219.2521244	25992.2027588	5596.72981251	198.787794634	2506491.47749	67058355.466	0
9150000.0	61531.0	368846037.461	0.337856665073	174387.597656	0.510973797645	1.239610672	43155.3515316	25950.6866455	5549.7226345	201.23679218	231650.66129	67063234.2062	0
9175000.0	61733.0	372442204.167	0.3381305044	174388.476562	0.51410717424	1.23852443695	43093.6659751	25910.760498	5503.93207031	203.66705943	1110339.37324	67068113.4615	0
9200000.0	61936.0	376060621.219	0.338399327446	174390.063477	0.5172334495	1.23744285107	43032.966712	25871.6674805	5458.44141106	206.652465461	7529533.78808	67072993.232	0
9225000.0	62139.0	379701281.537	0.338661550562	174391.687012	0.520362285897	1.23637604713	42973.7373261	25833.6853027	5413.66553372	208.636803758	7461551.6363	67077873.5177	0
9250000.0	62341.0	383364335.891	0.338914732115	174392.211914	0.52352034254	1.23533892632	42916.5080873	25797.076416	5370.12362239	211.105147352	11789970.2913	67082754.3186	0
9275000.0	62544.0	387049767.817	0.339164370559	174393.481445	0.526670599356	1.2343057394	42860.1547503	25761.1938477	5326.90267339	214.145773463	15334.6558554	67087635.6347	0
9300000.0	62747.0	390757641.522	0.339406329591	174394.482422	0.529829761945	1.23329210281	42805.4777357	25726.5472412	5284.44731907	217.208960711	11767729.615	67092517.4662	0
9325000.0	62951.0	394487951.373	0.339641620655	174395.849609	0.532987294719	1.23228752613	42752.1237053	25692.9840088	5242.37638052	219.784775895	8025341.05378	67097399.813	0
9350000.0	63154.0	398240835.261	0.33986649741	174396.276855	0.536164036021	1.23131299019	42700.9639732	25660.9771729	5201.43414272	221.793180982	7036170.03699	67102282.6752	0
9375000.0	63357.0	402016356.947	0.340083537404	174396.362305	0.539349624887	1.23035621643	42651.4575198	25630.2246094	5161.08931703	224.908992187	2441389.54976	67107166.0528	0
9400000.0	63561.0	405814507.68	0.340294504602	174396.838379	0.542533351108	1.22940683365	42603.0976155	25600.4119873	5120.91685948	227.526904919	676616.633445	67112049.9458	0
9425000.0	63764.0	409635424.558	0.340496003562	174396.30127	0.545736169443	1.22848415375	42556.695546	25571.9894409	5081.63732004	230.13094241	108032.878889	67116934.3543	0
9450000.0	63968.0	413479094.708	0.340692123475	174396.166992	0.548936717678	1.2275673151	42511.3355236	25544.4198608	5042.5261935	232.783736044	1298842.35376	67121819.2784	0
9475000.0	64171.0	417345654.819	0.340879465419	174395.056152	0.552156125195	1.22667467594	42467.7412699	25518.1137085	5004.28748327	235.421995741	3067875.94477	67126704.718	0
9500000.0	64375.0	421235091.66	0.341061605378	174394.299316	0.555373262614	1.2257860899	42425.0498228	25492.5643921	4966.20242761	238.694743567	7478612.76652	67131590.6732	0
9525000.0	64579.0	425147463.737	0.341237526899	174393.249512	0.558598199859	1.22491025925	42383.5938283	25467.956543	4928.62908127	240.814726024	7553879.33098	67136477.144	0
9550000.0	64782.0	429082905.864	0.34140557084	174391.223145	0.561841879971	1.22405648232	42343.6826258	25444.4198608	4891.90394134	243.503824625	10067293.407	67141364.1306	0
9575000.0	64986.0	433041400.458	0.341569385353	174389.733887	0.565082533285	1.22320318222	42304.4644948	25421.5148926	4855.3298414	246.84782859	1860085.40408	67146251.6328	0
9600000.0	65190.0	437023006.192	0.34172628519	174388.415527	0.568330637179	1.22236132622	42266.5406999	25399.621582	4819.24612574	249.610748464	745040.037431	67151139.6508	0
9625000.0	65394.0	441027785.484	0.34187510856	174387.158203	0.571587239392	1.22153329849	42230.1359539	25378.9260864	4783.65116547	252.390030698	77827.6697218	67156028.1846	0
9650000.0	65598.0	445055798.924	0.342016252504	174385.998535	0.57485193247	1.22071790695	42195.173996	25359.3841553	4748.54329352	255.185452404	259049.487056	67160917.2343	0
9675000.0	65802.0	449107108.27	0.342149921121	174384.912109	0.578124891035	1.21991586685	42161.6064689	25340.9255981	4713.91045645	257.99708518	919618.671161	67165806.7997	0
9700000.0	66006.0	453181772.752	0.342276487783	174383.959961	0.58140582405	1.21912670135	42129.3464081	25323.475647	4679.75114526	260.824643656	1721322.03262	67170696.8811	0
9725000.0	66210.0	457279851.994	0.342396299972	174383.093262	0.584694731515	1.21835029125	42098.3358901	25306.9793701	4646.06381589	264.313942015	12373013.9779	67175587.4784	0
9750000.0	66415.0	461401329.68	0.342510546094	174383.007812	0.587980728596	1.21757745743	42068.1830709	25291.2109375	4612.52782634	267.21454828	11178408.73	67180478.5917	0
9775000.0	66619.0	465546338.643	0.342617591656	174382.446289	0.591285177507	1.21682524681	42039.4355169	25276.4129639	4579.75682642	269.435881756	4264455.41276	67185370.221	0
9800000.0	66823.0	469714936.524	0.342718655241	174382.006836	0.594597426243	1.21608424187	42011.6792659	25262.3474121	4547.43833944	272.325668525	5037919.03299	67190262.3664	0
9825000.0	67027.0	473907179.63	0.34281417451	174381.750488	0.59791712556	1.21535480022	41984.8781838	25248.9593506	4515.56110251	275.230870394	5738942.76739	67195155.0278	0
9850000.0	67231.0	478123125.665	0.342904280311	174381.665039	0.601244624704	1.21463668346	41958.9616674	25236.1953735	4484.12886975	278.832299703	8102237.4463	67200048.2053	0
9875000.0	67436.0	482362753.006	0.342990338416	174382.397461	0.604568282142	1.21392095089	41933.5683686	25223.8464355	4452.83720752	281.810317223	7694727.2265	67204941.899	0
9900000.0	67640.0	486626193.887	0.343070125845	174382.678223	0.607910507824	1.21322476864	41909.2819202	25212.1948242	4422.268848	284.070751061	7292239.6768	67209836.1089	0
9925000.0	67844.0	490913510.178	0.343143325013	174383.007812	0.611260940786	1.21254146099	41886.0620482	25201.3168335	4392.12251674	287.034275104	7564435.52483	67214730.8351	0
9950000.0	68048.0	495224764.307	0.343209927458	174383.361816	0.614619639236	1.21187138557	41863.9007409	25191.204834	4362.41159287	290.721187224	7305468.82755	67219626.0775	0
9975000.0	68253.0	499559938.775	0.343270993052	174384.411621	0.617975485511	1.21120607853	41842.580343	25181.7764282	4332.83980628	293.754829265	7485404.9056	67224521.8362	0
10000000.0	68457.0	503919171.259	0.343325054511	174384.924316	0.621350307483	1.21056103706	41822.5459273	25173.2086182	4303.95518547	296.039625158	7466843.1652	67229418.1112	0
10025000.0	68661.0	508302519.837	0.343373229636	174385.48584	0.62473298749	1.20992839336	41803.541843	25165.3869629	4275.48374879	299.055083528	7139878.56828	67234314.9026	0
10050000.0	68865.0	512710043.189	0.343415569697	174386.169434	0.628123409115	1.20930743217	41785.5484673	25158.2946777	4247.41050714	302.823865473	8959698.06081	67239212.2104	0
10075000.0	69070.0	517141721.962	0.343453110953	174387.548828	0.631510454696	1.20869123936	41768.3585884	25151.8478394	4219.47526879	305.909551366	9803994.76631	67244110.0347	0
10100000.0	69274.0	521597689.198	0.343484584442	174388.427734	0.63491606852	1.20809352398	41752.3707297	25146.2036133	4192.19782818	308.214611495	5362285.33319	67249008.3754	0
10125000.0	69478.0	526078000.783	0.343511084022	174389.428711	0.638328958303	1.20750701427	41737.3543849	25141.2612915	4165.30709473	311.279748226	4563578.3444	67253907.2326	0
10150000.0	69682.0	530582711.465	0.343532691802	174390.551758	0.641749240458	1.20693075657	41723.2827297	25137.008667	4138.79788028	314.356724542	3696774.76193	67258806.6064	0
10175000.0	69886.0	535111875.699	0.343549574771	174391.772461	0.645176798571	1.20636475086	41710.1305896	25133.4320068	4112.66960296	317.445009374	2791185.92557	67263706.4968	0
10200000.0	70090.0	539665546.377	0.343561731537	174393.164062	0.648611283395	1.20580887794	41697.9071802	25130.5282593	4086.91268245	320.544873857	1880310.02907	67268606.9038	0
10225000.0	70294.0	544243782.74	0.343567979098	174394.543457	0.65205374267	1.20526444912	41686.7817243	25128.4484863	4061.53111811	323.654842111	1010318.55977	67273507.8275	0
10250000.0	70498.0	548846644.488	0.343567922813	174395.947266	0.655504176393	1.20473182201	41676.7461061	25127.1881104	4036.51547978	326.774996363	279813.802224	67278409.2678	0
10275000.0	70702.0	553474189.606	0.343562294371	174397.363281	0.658962177113	1.20421051979	41667.7440122	25126.6891479	4011.8653446	329.90490796	96080.9522273	67283311.2249	0
10300000.0	70906.0	558126477.701	0.3435511506	174398.754883	0.662428268697	1.20370054245	41659.7322155	25126.9241333	3987.57589017	333.044031265	859013.238152	67288213.6988	0
10325000.0	71110.0	562803566.13	0.343534914632	174400.170898	0.665901927277	1.20320105553	41652.6686789	25127.8594971	3963.63802834	336.192710178	2125819.58853	67293116.6894	0
10350000.0	71314.0	567505513.478	0.343513841114	174401.586914	0.669383211061	1.2027118206	41646.5103114	25129.4662476	3940.05151124	339.350262499	3850877.76597	67298020.1969	0
10375000.0	71518.0	572232376.174	0.343488241253	174403.027344	0.672872294672	1.20223283768	41641.2007326	25131.690979	3916.79886787	342.517432631	6024932.64204	67302924.2213	0
10400000.0	71722.0	576984210.387	0.343458482695	174404.492188	0.676368596032	1.20176362991	41636.6979603	25134.4955444	3893.88011215	344.846580955	9147095.82744	67307828.7626	0
10425000.0	71925.0	581761152.541	0.343424680079	174405.34668	0.679884105921	1.20130980015	41633.077015	25137.8677368	3871.49926285	347.984822982	6507217.79912	67312733.8208	0
10450000.0	72129.0	586563179.85	0.343387369942	174406.835938	0.683395424858	1.20085942745	41630.0553529	25141.7236328	3849.20901531	352.035683152	15281055.4094	67317639.3961	0
10475000.0	72333.0	591390347.276	0.343346751319	174408.337402	0.686914194375	1.20041823387	41627.7247203	25146.0617065	3827.22779197	354.37036155	1938674.84321	67322545.4883	0
10500000.0	72536.0	596242790.307	0.343302967055	174409.25293	0.69045170676	1.19999229908	41626.1305599	25150.8331299	3805.75650243	357.537223582	391027.748979	67327452.0976	0
10525000.0	72740.0	601120487.373	0.343254783552	174410.754395	0.693985552061	1.19957149029	41625.2785749	25156.1920166	3784.3641189	360.754125059	407159.298592	67332359.224	0
10550000.0	72943.0	606023578.771	0.343201670945	174411.584473	0.697538896929	1.19916796684	41625.4084195	25162.1932983	3763.47625257	363.938510733	2183561.04743	67337266.8676	0
10575000.0	73147.0	610952044.95	0.34314383033	174412.890625	0.701088923961	1.19877004623	41626.3215276	25168.8232422	3742.65025626	367.174038826	4898407.22073	67342175.0283	0
10600000.0	73350.0	615906025.652	0.34308177163	174413.549805	0.704658275936	1.19838833809	41628.1160449	25176.0101318	3722.31139818	369.466852275	10863069.6064	67347083.7062	0
10625000.0	73553.0	620885579.785	0.343015892163	174414.123535	0.708235427737	1.19801616669	41630.649963	25183.7173462	3702.22940176	372.671846329	7012503.86702	67351992.9013	0
10650000.0	73756.0	625890767.251	0.342946420672	174414.624023	0.711820495781	1.19765281677	41633.8805905	25191.9204712	3682.40938417	375.885778567	3655261.59522	67356902.6137	0
10675000.0	73959.0	630921645.614	0.34287386606	174415.014648	0.715413189027	1.19729864597	41637.7627335	25200.5645752	3662.84025013	379.109402873	1054354.04968	67361812.8435	0
10700000.0	74162.0	635978272.244	0.342798428374	174415.332031	0.719013623893	1.19695270061	41642.2563093	25209.6206665	3643.51512302	382.34286418	202784.16377	67366723.5905	0
10725000.0	74365.0	641060704.624	0.342720503496	174415.551758	0.722621567547	1.19661390781	41647.2915048	25219.0490723	3624.43521358	385.58565754	2350491.93231	67371634.855	0
10750000.0	74568.0	646168998.55	0.342640486714	174415.637207	0.72623701999	1.19628214836	41652.8330523	25228.8146973	3605.58189811	388.839272575	5800275.63977	67376546.6368	0
10775000.0	74771.0	651303209.302	0.342558772667	174415.649414	0.729859690182	1.19595766068	41658.8711003	25238.8946533	3586.96449155	392.102396109	10267509.9058	67381458.9361	0
10800000.0	74974.0	656463392.605	0.342475587523	174415.490723	0.733489578124	1.19563889503	41665.3047161	25249.2263794	3568.56859413	394.402286272	5854224.90384	67386371.7529	0
10825000.0	75176.0	661649686.333	0.342390877553	174414.660645	0.737138674594	1.19533228874	41672.2792326	25259.8419189	3550.5788981	397.635043085	2326130.37007	67391285.0872	0
10850000.0	75379.0	666862069.387	0.342302214626	174414.160156	0.740784103982	1.19503009319	41679.9580183	25271.0128784	3532.61783164	400.920421668	86277.6403025	67396198.939	0
10875000.0	75581.0	672100683.218	0.342211140556	174412.866211	0.744449207559	1.19474196434	41688.2910131	25282.5592041	3515.05250143	404.172152978	1651230.26154	67401113.3084	0
10900000.0	75784.0	677365505.712	0.342116822061	174411.938477	0.748110469431	1.19445741177	41697.2095433	25294.5632935	3497.50922914	407.477230717	5329702.98095	67406028.1955	0
10925000.0	75986.0	682656678.05	0.342020798478	174410.241699	0.751791347284	1.19418621063	41706.7001711	25306.8695068	3480.34773938	409.73447308	11419252.3318	67410943.6002	0
10950000.0	76188.0	687974258.599	0.341922152887	174408.679199	0.755479733925	1.19392240047	41716.7803622	25319.5877075	3463.3807322	413.007920838	6279501.85542	67415859.5226	0
10975000.0	76390.0	693318304.045	0.3418210013	174407.299805	0.759175396524	1.19366562366	41727.4192371	25332.699585	3446.59861314	416.292333423	2192278.62683	67420775.9627	0
11000000.0	76592.0	698688871.048	0.341717849341	174406.079102	0.762878626119	1.19341683388	41738.6033386	25346.1624146	3430.00702571	419.586484223	18712.3832258	67425692.9206	0
11025000.0	76794.0	704086013.649	0.341612867626	174405.029297	0.766588898841	1.19317412376	41750.2350197	25359.9334717	3413.5927547	422.891884683	2560764.59982	67430610.3963	0
11050000.0	76996.0	709509786.179	0.341506282031	174404.211426	0.770306447521	1.19293761253	41762.3280889	25374.017334	3397.35774678	426.207800619	7153912.16515	67435528.3898	0
11075000.0	77198.0	714960243.48	0.341398345714	174403.564453	0.774031039327	1.1927074194	41774.8194653	25388.3529663	3381.29276405	429.535152904	13224067.1074	67440446.9011	0
11100000.0	77400.0	720437439.041	0.341289394546	174403.125	0.777762732469	1.19248342514	41787.6946916	25402.9251099	3365.39981772	431.801834755	4511233.9703	67445365.9304	0
11125000.0	77601.0	725941511.136	0.341179846827	174402.34375	0.781513401307	1.19226872921	41800.9012385	25417.6574707	3349.83902124	435.097897026	796460.975277	67450285.4775	0
11150000.0	77803.0	731472432.623	0.341066736165	174402.258301	0.785259646364	1.19205904007	41814.8105117	25432.9406738	3334.27329449	438.449877728	1130797.80109	67455205.5427	0
11175000.0	78004.0	737030346.021	0.340951316916	174401.77002	0.789025507402	1.19186127186	41829.307771	25448.5748291	3319.03497865	440.670677204	19957890.5849	67460126.1258	0
11200000.0	78205.0	742615309.367	0.34083345536	174401.391602	0.792799168266	1.19167172909	41844.4113607	25464.6286011	3303.94973876	445.09461595	11528303.9741	67465047.227	0
11225000.0	78407.0	748227293.66	0.340712464721	174401.733398	0.796567997895	1.1914857626	41860.0966409	25481.1416626	3288.85361884	448.479411523	19359497.781	67469968.8462	0
11250000.0	78608.0	753866441.33	0.340590121783	174401.672363	0.800356501713	1.19131052494	41876.2302213	25497.8912354	3274.06731679	450.708307585	1439463.29273	67474890.9835	0
11275000.0	78809.0	759532807.761	0.340465987364	174401.77002	0.804152339697	1.19114124775	41892.7956246	25514.9230957	3259.42980169	454.060677828	773154.12954	67479813.6389	0
11300000.0	79010.0	765226449.307	0.340340452106	174402.001953	0.807955570053	1.19097793102	41909.7470169	25532.1990967	3244.9361079	456.28614335	21574814.5777	67484736.8125	0
11325000.0	79210.0	770947508.593	0.340214485062	174401.855469	0.811778649222	1.19082331657	41926.9734949	25549.5819092	3230.73032946	459.606784177	13388523.0679	67489660.5043	0
11350000.0	79411.0	776695955.779	0.34008698428	174402.380371	0.815596664324	1.19066977501	41944.5505968	25567.2393799	3216.50904553	464.139127644	20179146.1336	67494584.7143	0
11375000.0	79612.0	782471845.577	0.339958835055	174403.088379	0.819421838969	1.19052064419	41962.3739922	25585.0234985	3202.44529663	466.370501259	1431053.76271	67499509.4425	0
11400000.0	79812.0	788275319.151	0.339831333046	174403.381348	0.823266571388	1.1903783083	41980.2995636	25602.7862549	3188.73011621	469.711357004	908648.108808	67504434.6891	0
11425000.0	80013.0	794106345.618	0.339703018708	174404.406738	0.827105890494	1.19023573399	41998.4559412	25620.7244873	3175.04229935	473.103060129	5710566.00404	67509360.454	0
11450000.0	80213.0	799965065.378	0.339574278878	174405.004883	0.830965058412	1.19010090828	42016.8630436	25638.7573242	3161.69093841	475.261292025	13534214.2273	67514286.7372	0
11475000.0	80413.0	805851539.619	0.33944332901	174405.700684	0.834832084365	1.18997240067	42035.7555841	25657.119751	3148.50979794	478.602493143	6319013.76246	67519213.5388	0
11500000.0	80613.0	811765825.575	0.33931064097	174406.518555	0.838706619106	1.18984973431	42055.070508	25675.7537842	3135.50410036	481.945744953	1166774.31066	67524140.8588	0
11525000.0	80813.0	817707980.48	0.339176465803	174407.421875	0.842588953674	1.18973219395	42074.7737249	25694.6502686	3122.66183776	485.292202948	1389751.84063	67529068.6973	0
11550000.0	81013.0	823678062.327	0.339041163436	174408.459473	0.846478622407	1.18961966038	42094.8069057	25713.7512207	3109.9711963	488.643500063	6947957.6601	67533997.0543	0
11575000.0	81213.0	829676128.214	0.338905065302	174409.570312	0.850375858136	1.18951177597	42115.1290085	25733.026123	3097.44095582	490.76767452	12610367.7116	67538925.9297	0
11600000.0	81412.0	835702321.568	0.338769350009	174410.266113	0.854292768054	1.18941140175	42135.6121509	25752.3193359	3085.19831053	494.070250258	5304305.75729	67543855.3237	0
11625000.0	81612.0	841756612.924	0.338632595086	174411.572266	0.858204788528	1.1893119812	42156.3790721	25771.8353271	3072.95344431	498.67258306	36561050.6812	67548785.2363	0
11650000.0	81812.0	847839057.796	0.338496005165	174412.976074	0.862124259584	1.18921661377	42177.3156469	25791.4215088	3060.8546353	500.785453745	2490934.93148	67553715.6675	0
11675000.0	82011.0	853949799.094	0.338360699115	174413.964844	0.866063521244	1.18912780285	42198.2666579	25810.9130859	3049.02440189	502.839168491	20458538.8351	67558646.6173	0
11700000.0	82210.0	860088893.94	0.338226101228	174415.002441	0.870010117069	1.18904209137	42219.2897952	25830.4046631	3037.3199278	506.153828037	11450816.6271	67563578.0858	0
11725000.0	82409.0	866256397.234	0.338092455216	174416.162109	0.873963814229	1.1889603138	42240.3666042	25849.8657227	3025.74011459	509.474300495	4349562.1859	67568510.073	0
11750000.0	82608.0	872452364.066	0.337959731721	174417.382812	0.877924961969	1.18888163567	42261.4806919	25869.2962646	3014.27725877	512.801341037	113695.589519	67573442.5789	0
11775000.0	82807.0	878676854.145	0.337826051202	174418.676758	0.88189356029	1.18880927563	42282.9403897	25888.9282227	3002.9336616	516.134235341	3343428.10036	67578375.6036	0
11800000.0	83006.0	884929923.846	0.337691443242	174420.019531	0.885869842023	1.18874335289	42304.7377534	25908.7493896	2991.70173291	519.473827595	10339306.2497	67583309.1471	0
11825000.0	83205.0	891211631.981	0.337556209015	174421.398926	0.889853807166	1.18868303299	42326.8005642	25928.7139893	2980.58053802	522.819977638	19689094.6594	67588243.2094	0
11850000.0	83404.0	897522037.843	0.337420675888	174422.77832	0.893845455721	1.18862736225	42349.0782573	25948.7884521	2969.55937202	524.852231234	3716498.21359	67593177.7906	0
11875000.0	83602.0	903861288.324	0.337286092364	174423.706055	0.897857360542	1.18857872486	42371.4187716	25968.8049316	2958.77062009	528.15599628	35685.8954131	67598112.8907	0
11900000.0	83801.0	910229350.919	0.337150776018	174425.195312	0.901863910258	1.18853139877	42394.00432	25988.9984131	2947.94661939	531.517830711	4352921.36605	67603048.5097	0
11925000.0	83999.0	916626373.866	0.337017003421	174426.196289	0.905891065486	1.18848979473	42416.5388585	26009.0545654	2937.34603986	533.490630185	19596864.9744	67607984.6476	0
11950000.0	84197.0	923052413.984	0.336883986335	174427.22168	0.909925554879	1.18845069408	42439.0987706	26029.0771484	2926.83499539	536.810854457	10429070.8183	67612921.3046	0
11975000.0	84395.0	929507528.716	0.336752155692	174428.271484	0.913967611268	1.1884137392	42461.6310101	26049.029541	2916.40959483	540.140032163	3416005.50656	67617858.4806	0
12000000.0	84593.0	935991776.073	0.336621616893	174429.321289	0.918017118238	1.18837845325	42484.0952177	26068.8751221	2906.06280887	543.479343958	121903.515976	67622796.1756	0
12025000.0	84791.0	942505211.322	0.336492879969	174430.395508	0.922073959373	1.18834412098	42506.4314231	26088.5772705	2895.79724321	546.828198269	4588762.26622	67627734.3898	0
12050000.0	84989.0	949047891.242	0.336365967877	174431.469727	0.926138251089	1.18831038475	42528.6057044	26108.1054688	2885.60912762	550.187058284	12122486.5426	67632673.1231	0
12075000.0	85187.0	955619854.842	0.336240175769	174432.60498	0.930207257625	1.18827819824	42550.7535901	26127.5726318	2875.48842777	552.161436444	11548665.4373	67637612.3755	0
12100000.0	85384.0	962221272.171	0.336115285758	174433.154297	0.934299954679	1.18825137615	42572.9122864	26146.9665527	2865.56367949	555.482708858	4332775.17448	67642552.1472	0
12125000.0	85582.0	968852110.015	0.335989761787	174434.143066	0.938387122005	1.18822586536	42595.3110648	26166.5435791	2855.58853167	558.86520773	62883.4724223	67647492.4381	0
12150000.0	85779.0	975512519.5	0.335865541804	174434.631348	0.942495302297	1.18820595741	42617.6638799	26185.9863281	2845.79808303	562.208111672	3567765.34278	67652433.2482	0
12175000.0	85977.0	982202467.185	0.335741144889	174435.546875	0.946597720031	1.18818640709	42640.1759034	26205.5419922	2835.94778707	565.614616503	10747729.2693	67657374.5777	0
12200000.0	86174.0	988922106.851	0.335618800524	174435.913086	0.950721441768	1.18817150593	42662.5296856	26224.8840332	2826.28053309	567.540390364	14394953.9466	67662316.4265	0
12225000.0	86371.0	995671496.064	0.335497538223	174436.206055	0.954852788709	1.18815910816	42684.8476705	26244.1314697	2816.66788109	570.910926183	6459273.35635	67667258.7946	0
12250000.0	86568.0	1002450694.04	0.33537775799	174436.450195	0.958991877269	1.18814897537	42707.0831901	26263.2507324	2807.10641579	574.29484765	1025424.17194	67672201.6822	0
12275000.0	86765.0	1009259760.55	0.335259697927	174436.59668	0.963138823863	1.18814063072	42729.1912817	26282.2052002	2797.60198094	577.690825471	1713861.5386	67677145.0892	0
12300000.0	86962.0	1016098754.96	0.335143488388	174436.669922	0.967293628491	1.18813419342	42751.1431489	26300.9613037	2788.14503295	581.100759746	7631547.52228	67682089.0157	0
12325000.0	87159.0	1022967737.14	0.335029366463	174436.657715	0.9714558837	1.18812942505	42772.915666	26319.5037842	2778.73530764	584.524915049	15863350.0474	67687033.4616	0
12350000.0	87356.0	1029866764.01	0.334917488429	174436.560059	0.975625996944	1.18812584877	42794.4560558	26337.7868652	2769.36950184	586.471418088	11259817.4635	67691978.4272	0
12375000.0	87552.0	1036795989.48	0.334808999084	174435.827637	0.979817239568	1.18812561035	42815.6197225	26355.657959	2760.16254362	589.863307271	4481898.18046	67696923.9123	0
12400000.0	87749.0	1043755382.59	0.334700606711	174435.48584	0.984002952464	1.1881275177	42836.938001	26373.5870361	2750.88048023	593.323167273	233695.650209	67701869.917	0
12425000.0	87945.0	1050745097.19	0.3345938593	174434.49707	0.988210202195	1.18813633919	42858.1968108	26391.3299561	2741.75305195	596.744868148	2707241.88639	67706816.4413	0
12450000.0	88142.0	1057765101.01	0.334487126608	174433.874512	0.992411980405	1.18814694881	42879.6038852	26409.1400146	2732.55089855	600.235041012	8912496.77614	67711763.4853	0
12475000.0	88338.0	1064815548.42	0.334382248061	174432.60498	0.996635179035	1.18816280365	42900.8660686	26426.7181396	2723.49325869	602.152631463	20606356.2672	67716711.0491	0
12500000.0	88534.0	1071896503.73	0.334278714046	174431.152344	1.00086675957	1.18818092346	42922.0397238	26444.1589355	2714.47160312	606.18406401	0.0	67721659.1325	0
