z	T	P	nabla_ad	S	rho	delta	cp	cv	opac	frad	fconv	ftot	dT
0.0	3900.0	106.719317958	0.38716928687	175195.678711	4.29989510664e-06	1.00696730614	16624.9979976	10175.213623	0.00056390558771	0.0	14402.6948827	65311815.0903	0
25000.0	3900.0	140.625580757	0.383331427782	173428.173828	5.66690427917e-06	1.00914812088	16844.7747591	10369.2726135	0.000672648401632	0.0	19856.5619671	65316507.3538	0
50000.0	3900.0	185.317153963	0.378426387237	171653.430176	7.46942063756e-06	1.0120228529	17134.9325774	10624.8466492	0.000800958016899	0.0	26251.4685451	65321200.1229	0
75000.0	3900.0	244.232719683	0.372199873706	169868.896484	9.84670478488e-06	1.01587641239	17516.443547	10960.2478027	0.000951775888369	0.0	34484.8548983	65325893.3976	0
100000.0	3900.0	321.912245191	0.364395240269	168077.01416	1.2983102593e-05	1.02086389065	18016.3335595	11400.2990723	0.00112967707659	0.0	45427.3116823	65330587.1781	0
125000.0	3900.0	424.354465809	0.354731940958	166275.756836	1.71226872681e-05	1.02737891674	18671.1218246	11976.3748169	0.00134051970394	0.0	59816.5978524	65335281.4644	0
150000.0	3900.0	559.490654981	0.34297802573	164461.535645	2.25892158312e-05	1.03600072861	19528.064925	12728.9009094	0.00159085760202	0.0	78770.8389754	65339976.2566	0
175000.0	3900.0	737.819177445	0.328983442681	162630.358887	2.98131332954e-05	1.04731285572	20647.0472257	13709.8327637	0.00188635816402	0.0	103779.807873	65344671.5548	0
200000.0	3900.0	973.255776286	0.312719405897	160776.794434	3.93680608113e-05	1.06197035313	22101.5871758	14983.4503174	0.00223722912496	0.0	136827.820159	65349367.3591	0
225000.0	3900.0	1284.2774914	0.29435123101	158894.189453	5.20204146426e-05	1.08109283447	23985.8730173	16628.8864136	0.00265722581508	23360084.5074	176852.757559	65354063.6694	0
250000.0	3909.0	1694.28395059	0.277182282185	157036.828613	6.85770800146e-05	1.10237932205	26035.8183875	18409.7885132	0.0032195061141	0.0	239191.496745	65358760.4858	0
275000.0	3900.0	2238.08145589	0.253129947641	155008.410645	9.10337973892e-05	1.13801848888	29518.062387	21432.3165894	0.00377351211389	30288918.226	292904.596971	65363457.8085	0
300000.0	3938.0	2949.5807849	0.244265050185	153315.942383	0.000118987045994	1.15580427647	31051.6541495	22734.0744019	0.00482276085021	19310491.6938	387804.076703	65368155.6374	0
325000.0	3930.0	3893.22950998	0.220517468723	151192.749023	0.000157988523597	1.20716130733	35931.378076	26925.6164551	0.00567502789256	31938834.525	435114.114034	65372853.9727	0
350000.0	4016.0	5107.91680823	0.227133967703	149869.458008	0.000202750186418	1.19699907303	34505.7470644	25643.4326172	0.00771321862879	28808616.3897	506122.125051	65377552.8144	0
375000.0	4044.0	6692.89633691	0.215818770653	148062.072754	0.00026445221124	1.22852897644	37207.1568136	27918.1549072	0.00956859806999	31639558.1511	438902.603845	65382252.1626	-1
400000.0	4216.0	8665.77577567	0.246163727745	147468.359375	0.000327095193597	1.16698336601	30927.7552929	22476.499939	0.0149651479455	28334033.787	367783.718382	65386952.0172	0
425000.0	4349.0	11126.2862713	0.264018996911	146559.423828	0.000406172887324	1.13940668106	28069.3871194	19983.5464478	0.0217947177794	31572449.9008	6396.54260626	65391652.3785	-2
450000.0	4775.0	13952.1487473	0.336328962015	147124.975586	0.000460833064153	1.05284273624	20138.5359387	13144.7738647	0.0396232560124	27153769.3008	6.13967261155e-05	65396353.2465	-2
475000.0	5098.0	17238.7196995	0.363329807136	146980.395508	0.000532005117293	1.02944636345	18136.012071	11424.3812561	0.0556505754613	30269584.1534	0.62568518961	65401054.6211	-5
500000.0	5892.0	20697.9267085	0.386116713315	148250.598145	0.000552098242679	1.00850939751	16633.5085442	10167.2775269	0.0884205658564	24456044.9934	0.0977299756246	65405756.5026	0
525000.0	6062.0	24719.6807648	0.385631212497	147593.505859	0.00064018155399	1.00816941261	16645.6528902	10182.5408936	0.116610090367	39879736.1946	633.10580097	65410458.8909	-6
550000.0	8085.0	28219.6592361	0.289374242854	152069.104004	0.000545020839127	1.05161261559	22939.9424614	15883.3129883	1.29081015767	17986734.9386	2780386.83226	65415161.7861	-10
575000.0	10008.0	31300.820317	0.155434813867	158912.597656	0.000473414957014	1.32700920105	55054.1563745	43629.3273926	9.39298937546	3310311.10795	29885428.2803	65419865.1883	-4
600000.0	10514.0	34486.5534796	0.137761536627	161153.710938	0.000487990575948	1.45491051674	69299.2397015	55438.2385254	14.834934368	1154625.71527	13723811.2017	65424569.0975	-6
625000.0	11198.0	37664.0443388	0.121022251707	165393.701172	0.000484846168547	1.67301785946	93808.6032772	75146.7346191	25.2204152861	727392.076004	21782262.0027	65429273.5139	-1
650000.0	11564.0	40949.3503679	0.115673538548	167704.589844	0.000500271085002	1.7944227457	107532.848116	85810.6994629	32.7416258008	377173.221485	11707590.4423	65433978.4373	-3
675000.0	11858.0	44368.9169033	0.112698653926	169529.248047	0.000519894342688	1.88820874691	118258.955834	93959.8022461	39.7734407188	284409.998034	11688796.1624	65438683.868	-1
700000.0	12148.0	47913.978251	0.110409485788	171507.104492	0.000538157109986	1.98192954063	129186.789389	102110.412598	47.5988619329	192696.989843	8133220.851	65443389.806	-2
725000.0	12313.0	51655.8682256	0.10987685149	172177.734375	0.000567625534131	2.02119064331	133612.396796	105299.414062	52.8206899264	137487.960814	4861413.41053	65448096.2513	-1
750000.0	12514.0	55574.2282408	0.109133550738	173297.192383	0.000593802326421	2.07414698601	139790.342807	109742.480469	59.3954159102	112947.693913	4415757.91661	65452803.204	-1
775000.0	12650.0	59715.7266352	0.109042691201	173710.717773	0.000627164240541	2.09969472885	142617.046954	111691.833496	64.4790571418	71453.5753866	688033.376528	65457510.6642	0
800000.0	12751.0	64113.2157193	0.109234244792	173756.188965	0.000665584764192	2.11174035072	143769.899481	112412.890625	68.8068919347	54760.546238	5045.14588954	65462218.6319	0
825000.0	12850.0	68780.3811364	0.109455702725	173780.273438	0.000706087575963	2.12253284454	144772.11974	113019.970703	73.2662438114	48871.2518759	6442.90330313	65466927.1071	0
850000.0	12948.0	73731.3967465	0.109703075125	173766.809082	0.000748779029891	2.13190317154	145579.884179	113477.038574	77.8900309437	44123.3974837	14313.1121419	65471636.09	0
875000.0	13046.0	78980.8144369	0.10996267203	173739.282227	0.000793590288595	2.14047932625	146282.030311	113851.489258	82.7131659081	40305.8154085	4673.49524667	65476345.5805	0
900000.0	13145.0	84541.7935267	0.110226860607	173750.109863	0.000840264135604	2.14966821671	147083.034685	114298.217773	87.769888516	36696.6969208	3639.01860026	65481055.5789	0
925000.0	13243.0	90429.2066457	0.110508612618	173766.491699	0.000889170223672	2.15849518776	147854.895501	114723.925781	92.9994432437	33295.8649041	12025.1122278	65485766.085	0
950000.0	13341.0	96657.8794354	0.110802321851	173783.203125	0.000940323729992	2.16690587997	148582.078203	115115.197754	98.4428298877	30408.856534	11493.2451716	65490477.0989	0
975000.0	13439.0	103243.808609	0.111108191296	173775.98877	0.000993940602712	2.17447495461	149193.657718	115418.188477	104.110649375	27806.2035355	11498.7122594	65495188.6208	0
1000000.0	13537.0	110204.320415	0.111419933234	173749.87793	0.00105009610252	2.18129348755	149708.225248	115648.388672	110.009209212	25456.9060773	11898.070098	65499900.6506	0
1025000.0	13635.0	117556.208731	0.111736965632	173748.071289	0.00110861537905	2.18823242188	150269.137845	115915.856934	116.137225606	23340.464987	12108.708003	65504613.1885	0
1050000.0	13733.0	125315.955341	0.112062860945	173763.537598	0.00116959324714	2.19515037537	150849.432194	116198.974609	122.501509812	21429.7147193	12291.9327376	65509326.2344	0
1075000.0	13831.0	133500.885307	0.112398577953	173782.93457	0.00123318432088	2.20174312592	151398.697412	116458.825684	129.110958762	19699.9927525	12689.8966494	65514039.7885	0
1100000.0	13929.0	142129.560497	0.112744361201	173787.29248	0.0012996129044	2.20770144463	151861.132622	116652.67334	135.976575025	18129.1785016	13689.4435981	65518753.8507	0
1125000.0	14027.0	151222.128086	0.113098560544	173761.608887	0.00136909272896	2.21287417412	152204.172523	116755.786133	143.108882268	16699.0344299	15618.5916945	65523468.4212	0
1150000.0	14125.0	160799.053258	0.113460443101	173750.488281	0.00144141517922	2.21797466278	152558.927108	116869.274902	150.505614077	15399.9744793	17815.6586174	65528183.5	0
1175000.0	14223.0	170879.726361	0.113831160837	173758.569336	0.00151656422531	2.22305178642	152934.244706	116999.682617	158.161137264	14292.8758579	3369.38789581	65532899.0871	0
1200000.0	14322.0	181482.331575	0.114208252176	173786.901855	0.00159444152814	2.22815823555	153328.638133	117143.164062	166.121682494	13215.4716554	4078.03554659	65537615.1826	0
1225000.0	14420.0	192629.567977	0.114594812931	173800.183105	0.00167575649357	2.23254776001	153633.086943	117221.801758	174.301473975	12169.7101148	25866.5693281	65542331.7865	0
1250000.0	14518.0	204344.090916	0.11498671032	173791.28418	0.00176054049916	2.23630833626	153844.77928	117231.164551	182.758680407	11274.3825188	30707.6199942	65547048.8989	0
1275000.0	14616.0	216650.276434	0.115386922025	173764.208984	0.00184891359822	2.23973941803	154001.648338	117199.401855	191.4996178	10507.6997016	11274.5667239	65551766.5199	0
1300000.0	14715.0	229569.798132	0.115793381715	173767.028809	0.00194025165001	2.2433693409	154210.860271	117206.90918	200.568856423	9755.86579247	14897.8438956	65556484.6494	0
1325000.0	14813.0	243127.461118	0.116207879221	173773.55957	0.00203527292797	2.24658560753	154386.044355	117192.993164	209.87118748	9066.92807209	19588.9740358	65561203.2876	0
1350000.0	14912.0	257344.992824	0.116627598975	173796.289062	0.00213353450818	2.24967479706	154560.650766	117178.466797	219.52046295	8436.05847097	24737.1174094	65565922.4345	0
1375000.0	15010.0	272249.721137	0.117052347687	173802.46582	0.00223593178816	2.25205731392	154647.591477	117102.294922	229.422871473	7855.1302911	31878.7162454	65570642.0901	0
1400000.0	15109.0	287865.977926	0.11748413715	173801.159668	0.00234204435401	2.25425553322	154704.152842	117002.258301	239.699584988	7357.83945958	8788.28382663	65575362.2545	0
1425000.0	15208.0	304222.086556	0.11792377874	173781.872559	0.00245233741225	2.25625681877	154722.51929	116874.023438	250.308528415	6862.24125975	15262.3853731	65580082.9277	0
1450000.0	15307.0	321346.074349	0.118369315298	173777.441406	0.00256647695096	2.25812411308	154744.386463	116750.512695	261.242699465	6406.1080182	23262.4544895	65584804.1097	0
1475000.0	15406.0	339264.866426	0.118820129674	173784.985352	0.00268458188657	2.25974392891	154753.039549	116619.384766	272.513841024	5985.63184939	32921.3100333	65589525.8007	0
1500000.0	15505.0	358006.386486	0.119274920196	173797.680664	0.00280684707832	2.26100063324	154727.922915	116465.258789	284.135217589	5597.2800287	44618.4788922	65594248.0007	0
1525000.0	15604.0	377599.464683	0.119736883424	173809.643555	0.00293344305646	2.26192092896	154667.967227	116287.194824	296.120157568	5264.48168218	14311.5161996	65598970.7096	0
1550000.0	15704.0	398071.364293	0.120208185257	173821.496582	0.00306417086904	2.2627518177	154596.114849	116099.438477	308.549133616	4930.4547461	24449.5245592	65603693.9276	0
1575000.0	15803.0	419457.726725	0.120682517495	173799.768066	0.00320033041135	2.26323318481	154458.045684	115864.880371	321.322810499	4619.2947298	39692.679114	65608417.6547	0
1600000.0	15903.0	441789.561308	0.121161223916	173789.489746	0.0033407045521	2.263692379	154325.977521	115634.472656	334.562119334	4353.04030777	9798.72485781	65613141.891	0
1625000.0	16003.0	465098.826586	0.121643446846	173790.332031	0.0034856586808	2.26388168335	154176.975285	115394.177246	348.193584182	4084.78253022	21477.1431171	65617866.6364	0
1650000.0	16103.0	489417.055352	0.122132596219	173800.439453	0.00363528124581	2.2637989521	154008.587564	115141.955566	362.225909258	3835.95230611	37092.7433689	65622591.891	0
1675000.0	16203.0	514776.596236	0.122631345785	173815.795898	0.00378972458748	2.26347947121	153821.156989	114877.734375	376.670070179	3604.85566625	57361.6351979	65627317.6548	0
1700000.0	16303.0	541211.609475	0.123136918446	173827.929688	0.00394929793401	2.26292610168	153605.672505	114594.262695	391.544015154	3406.73620912	18589.7925716	65632043.928	0
1725000.0	16404.0	568754.720084	0.123647580999	173835.656738	0.00411380779042	2.26228618622	153372.855421	114297.155762	406.937383061	3205.63526164	37493.2077452	65636770.7105	0
1750000.0	16504.0	597449.02187	0.124153999476	173810.693359	0.00428482599091	2.26139616966	153085.480125	113962.17041	422.736303723	3017.18068213	65027.0309037	65641498.0024	0
1775000.0	16605.0	627330.047383	0.124667384537	173800.085449	0.00446060857939	2.26040530205	152802.072774	113630.993652	439.06326582	2856.19031389	22441.557256	65646225.8037	0
1800000.0	16706.0	658433.956107	0.125189770833	173801.855469	0.00464159620606	2.25918364525	152510.043888	113296.313477	455.850105484	2692.27696922	46939.1068522	65650954.1145	0
1825000.0	16807.0	690797.411924	0.125720020166	173811.682129	0.00482799896417	2.25771927834	152201.641628	112951.928711	473.101337619	2539.45766414	79361.4473848	65655682.9347	0
1850000.0	16908.0	724458.66606	0.126256179	173824.09668	0.00502008742842	2.25601053238	151870.410509	112592.84668	490.815429746	2408.70502691	29568.5357067	65660412.2645	0
1875000.0	17010.0	759453.236259	0.126798601822	173841.40625	0.00521747097082	2.25414562225	151523.452167	112222.265625	509.082656247	2286.31000551	14.4864672215	65665142.1038	0
1900000.0	17112.0	795822.418964	0.127345195111	173848.999023	0.00542107591173	2.25209307671	151148.457523	111832.763672	527.84223724	2160.64395017	14965.5902658	65669872.4527	0
1925000.0	17214.0	833609.91137	0.127893970715	173838.781738	0.00563131470699	2.24998426437	150753.02223	111429.443359	547.11436454	2042.81011144	46256.1342509	65674603.3113	0
1950000.0	17316.0	872861.854425	0.128445191473	173822.888184	0.00584800955039	2.24779653549	150346.988021	111019.98291	566.893418878	1932.42995939	91665.1498062	65679334.6795	0
1975000.0	17418.0	913622.029512	0.129002263497	173816.357422	0.00607079937254	2.24539351463	149930.132218	110605.01709	587.168605604	1838.14752478	35406.9827715	65684066.5575	0
2000000.0	17521.0	955927.830391	0.129567814846	173824.755859	0.00629906298855	2.24280309677	149506.097469	110185.498047	608.030735787	1741.2831481	79524.7268063	65688798.9451	0
2025000.0	17623.0	999827.723496	0.130137385829	173829.663086	0.00653451024846	2.2398955822	149050.919826	109747.08252	629.325157916	1650.23426097	139976.149843	65693531.8426	0
2050000.0	17726.0	1045360.53719	0.130719229649	173844.628906	0.0067757018769	2.23680830002	148584.451473	109301.220703	651.227696196	1580.35909497	3488.76172459	65698265.2498	0
2075000.0	17830.0	1092566.64578	0.131310451573	173863.73291	0.00702290481058	2.23361420631	148107.239174	108847.717285	673.751575898	1499.85111589	15498.5732162	65702999.1668	0
2100000.0	17933.0	1141500.94764	0.13189777902	173863.220215	0.00727836959413	2.23034524918	147606.079003	108378.979492	696.719730068	1423.89291141	62418.9609985	65707733.5937	0
2125000.0	18037.0	1192209.76657	0.132485102666	173851.989746	0.00754082202548	2.22717928886	147103.738678	107908.520508	720.322561333	1352.56425014	132908.993793	65712468.5306	0
2150000.0	18140.0	1244752.55744	0.133071727061	173830.908203	0.00781152721174	2.22389125824	146584.705704	107428.820801	744.373878226	1291.48230561	62227.9020424	65717203.9773	0
2175000.0	18245.0	1299165.52711	0.133677073749	173834.997559	0.00808717686596	2.22042036057	146065.384541	106948.474121	769.121428123	1234.31608449	9620.23396943	65721939.934	0
2200000.0	18349.0	1355503.63508	0.134284969318	173837.268066	0.008370922842	2.21671700478	145525.110332	106456.469727	794.328409152	1174.49292613	62738.5236367	65726676.4007	0
2225000.0	18454.0	1413810.10824	0.134903556095	173850.683594	0.00866100890562	2.21283721924	144974.765294	105957.800293	820.184544171	1123.70193549	8655.34448847	65731413.3773	0
2250000.0	18559.0	1474136.47263	0.135526283052	173863.867188	0.00895871289686	2.20877718925	144407.378533	105448.779297	846.624793759	1070.50021766	66121.554264	65736150.864	0
2275000.0	18664.0	1536535.13896	0.136155519495	173874.584961	0.00926420216274	2.20453238487	143821.053259	104927.978516	873.662679714	1020.28620724	160146.548467	65740888.8608	0
2300000.0	18769.0	1601061.1869	0.136787869198	173877.844238	0.00957792053669	2.20020747185	143222.679333	104400.061035	901.325025812	977.447748364	77454.9150437	65745627.3676	0
2325000.0	18875.0	1667765.19765	0.137423769575	173875.366211	0.00989921863948	2.19593882561	142624.977751	103872.497559	929.727454436	936.872564686	16357.3489277	65750366.3846	0
2350000.0	18981.0	1736708.55314	0.138055312259	173860.009766	0.0102294225144	2.19178032875	142029.967161	103347.827148	958.801166582	894.033534667	98253.5853642	65755105.9117	0
2375000.0	19087.0	1807950.59138	0.138692310297	173850.048828	0.01056765268	2.18746519089	141424.752627	102817.724609	988.51213289	857.575648	28620.9791116	65759845.949	0
2400000.0	19194.0	1881537.7164	0.139344833067	173854.125977	0.0109125612653	2.18289780617	140805.107417	102278.387451	1018.9524442	819.286532678	126837.887968	65764586.4964	0
2425000.0	19300.0	1957534.06809	0.139999281696	173855.310059	0.011266909496	2.17815208435	140168.702871	101730.053711	1049.95944224	782.914889812	274994.945587	65769327.5541	0
2450000.0	19407.0	2035988.82336	0.14066577511	173865.600586	0.0116284545584	2.17324709892	139521.971272	101174.798584	1081.73063481	755.636451307	379.248055987	65774069.122	0
2475000.0	19515.0	2116952.51021	0.141341997907	173881.738281	0.0119974247355	2.16824030876	138867.231052	100613.861084	1114.28456987	726.29928863	44600.8287001	65778811.2002	0
2500000.0	19623.0	2200485.2262	0.142023888082	173894.641113	0.0123752906802	2.16312336922	138197.724305	100043.200684	1147.54600999	691.909840019	224796.582449	65783553.7886	0
2525000.0	19730.0	2286658.91866	0.142702775677	173893.933105	0.0127638832055	2.15799331665	137518.463316	99467.4255371	1181.44352834	665.395055282	125581.482596	65788296.8873	0
2550000.0	19839.0	2375520.92074	0.143392145606	173895.922852	0.0131595033963	2.15290641785	136843.32798	98893.4570312	1216.28358984	640.302311893	45515.061558	65793040.4964	0
2575000.0	19947.0	2467150.74431	0.144067144575	173878.149414	0.0135667942232	2.14805006981	136182.320195	98331.7077637	1251.80878311	613.363059026	197556.135005	65797784.6158	0
2600000.0	20056.0	2561607.46968	0.144749977205	173869.580078	0.013981902157	2.14310479164	135521.443012	97771.0876465	1288.11558252	590.620769816	99033.6018535	65802529.2456	0
2625000.0	20165.0	2658953.49234	0.145443015264	173866.064453	0.0144059849845	2.13788199425	134839.975878	97198.059082	1325.04179174	568.992591212	25115.5878586	65807274.3857	0
2650000.0	20275.0	2759240.59285	0.146153588832	173873.364258	0.0148375802382	2.13235735893	134136.971756	96610.7727051	1362.69137376	548.510611378	9746.6776122	65812020.0363	0
2675000.0	20385.0	2862532.04798	0.146873011677	173883.129883	0.015278435967	2.12663578987	133418.284986	96014.1479492	1400.99688001	526.597888322	84499.6847617	65816766.1973	0
2700000.0	20495.0	2968893.04866	0.14759907424	173893.408203	0.0157288613991	2.12078809738	132688.922266	95411.4440918	1439.98542741	508.067027033	16573.1905903	65821512.8687	0
2725000.0	20606.0	3078379.56546	0.148336663181	173908.398438	0.0161874904734	2.11484146118	131952.645027	94804.2358398	1479.77301291	488.246437542	184329.56944	65826260.0506	0
2750000.0	20716.0	3191072.46696	0.149067662502	173912.62207	0.0166581012309	2.10898041725	131220.104877	94201.5991211	1520.21422771	471.39041036	89377.0317961	65831007.7429	0
2775000.0	20828.0	3307021.20151	0.149810878367	173922.08252	0.017135978851	2.10313677788	130491.185357	93600.7568359	1561.61492733	455.412610725	19411.7629701	65835755.9457	0
2800000.0	20939.0	3426312.9254	0.150539029924	173914.416504	0.0176268276846	2.09756565094	129781.258074	93015.0268555	1603.73982853	438.031105111	212972.794783	65840504.659	0
2825000.0	21051.0	3549014.76595	0.151266285463	173903.198242	0.0181272771442	2.09216856956	129087.532347	92440.9545898	1646.79130421	423.384957567	109438.981503	65845253.8829	0
2850000.0	21163.0	3675203.21656	0.151993815742	173894.348145	0.0186380875675	2.08677959442	128398.715515	91871.8200684	1690.64760246	409.355023837	29326.7757203	65850003.6173	0
2875000.0	21276.0	3804938.28922	0.152729312413	173893.920898	0.0191574908968	2.0813293457	127710.75047	91304.0649414	1735.40698234	395.985029383	9363.35623984	65854753.8622	0
2900000.0	21389.0	3938290.29439	0.153474432735	173896.142578	0.0196871314984	2.07566738129	127005.080923	90725.3417969	1780.98760235	381.484497137	139359.660581	65859504.6177	0
2925000.0	21502.0	4075329.83253	0.15423171367	173900.549316	0.020227071218	2.0697479248	126277.164826	90132.5500488	1827.39618571	369.264079779	51662.5738627	65864255.8838	0
2950000.0	21616.0	4216115.65845	0.155006723862	173911.59668	0.0207755365409	2.06358003616	125529.498663	89526.5563965	1874.74028835	357.608499623	900.198890038	65869007.6605	0
2975000.0	21730.0	4360721.41958	0.15578837019	173921.777344	0.021334784833	2.05730128288	124772.293186	88915.222168	1922.95202196	344.903547742	218250.426467	65873759.9478	0
3000000.0	21844.0	4509223.1916	0.156573275275	173929.272461	0.021905216272	2.05099225044	124012.739582	88303.5400391	1972.04846283	334.200587217	118828.793099	65878512.7458	0
3025000.0	21959.0	4661685.54336	0.157365916998	173937.62207	0.0224850955419	2.04466748238	123253.642823	87692.7001953	2022.14308219	323.965858787	41192.5850499	65883266.0543	0
3050000.0	22074.0	4818189.7126	0.158153718949	173938.793945	0.02307696559	2.03848409653	122506.959389	87091.6992188	2073.16647919	312.750794448	359797.106923	65888019.8735	0
3075000.0	22189.0	4978820.69525	0.158931752892	173930.13916	0.0236814157688	2.03253626823	121780.806743	86506.1523438	2125.15062496	303.297019238	238561.15498	65892774.2033	0
3100000.0	22305.0	5143651.02011	0.159710801989	173921.740723	0.0242958558374	2.02669501305	121067.888788	85930.4504395	2178.15604243	295.51652013	144538.424755	65897529.0438	0
3125000.0	22422.0	5312748.16957	0.160496961149	173921.09375	0.024919394491	2.02082943916	120359.581842	85358.7463379	2232.12567615	285.603278676	44398.6631213	65902284.395	0
3150000.0	22538.0	5486207.38252	0.161272082273	173916.662598	0.0255568011198	2.0150988102	119666.120142	84799.4140625	2286.80727239	276.061814518	396334.326096	65907040.2569	0
3175000.0	22655.0	5664091.8704	0.162064081537	173919.165039	0.0262033208855	2.00914168358	118955.391583	84228.5400391	2342.31659617	269.276517835	60110.7700352	65911796.6295	0
3200000.0	22773.0	5846464.20427	0.162874940528	173927.954102	0.0268588646577	2.00292992592	118223.952454	83643.6828613	2398.63602286	260.565522249	154008.392225	65916553.5128	0
3225000.0	22890.0	6033420.27371	0.163684780791	173931.811523	0.0275284328382	1.99667048454	117487.498405	83057.019043	2455.61929647	253.248689621	65896.1220948	65921310.9068	0
3250000.0	23009.0	6225008.97013	0.164517026121	173945.007324	0.0282050023088	1.99019837379	116735.663945	82459.4604492	2513.48986135	246.308076376	8652.71569403	65926068.8116	0
3275000.0	23127.0	6421329.9324	0.165342185424	173951.037598	0.0288962073682	1.98380637169	115990.387095	81868.1396484	2572.04356479	238.576373702	382664.285096	65930827.2271	0
3300000.0	23246.0	6622452.14624	0.166174478797	173958.59375	0.0295974350593	1.97740662098	115246.753978	81278.4301758	2631.44121274	233.149884358	93455.3967167	65935586.1533	0
3325000.0	23366.0	6828446.0891	0.167010325698	173966.015625	0.0303089400404	1.97106564045	114510.665426	80694.4885254	2691.68150368	226.046064769	162016.005527	65940345.5903	0
3350000.0	23485.0	7039420.00513	0.167827637104	173961.669922	0.0310364193865	1.96500945091	113799.59974	80129.6508789	2752.66910961	220.088659791	71596.1303225	65945105.5381	0
3375000.0	23606.0	7255432.68962	0.168649284692	173958.532715	0.031772407965	1.9590691328	113102.583347	79574.6154785	2814.6182444	214.414905859	8657.68125137	65949865.9966	0
3400000.0	23726.0	7476596.65509	0.169453628016	173948.779297	0.0325239925587	1.95336687565	112429.836053	79038.458252	2877.29805302	208.037807179	425174.690216	65954626.9659	0
3425000.0	23847.0	7702982.47245	0.170266067523	173945.532227	0.0332853051077	1.94760251045	111757.720596	78503.692627	2940.80859312	203.623819389	121603.680674	65959388.4459	0
3450000.0	23969.0	7934655.92004	0.171095882297	173948.364258	0.0340560400218	1.9416077137	111068.814815	77958.0505371	3005.13362972	197.759991712	165958.172129	65964150.4368	0
3475000.0	24090.0	8171721.12271	0.171923578007	173947.65625	0.0348419271177	1.93557584286	110377.505496	77412.4633789	3070.19140146	192.873676462	71168.428435	65968912.9385	0
3500000.0	24213.0	8414226.2616	0.172774094431	173956.628418	0.0356346208719	1.92931675911	109670.529153	76856.0974121	3136.14105571	188.228123006	9999.59573528	65973675.951	0
3525000.0	24335.0	8662277.79391	0.173618003172	173961.05957	0.0364428415196	1.9231146574	108969.320947	76305.255127	3202.87429577	182.956718054	514431.832147	65978439.4743	0
3550000.0	24458.0	8915945.17281	0.174470791572	173969.20166	0.037261073885	1.91686046124	108266.538545	75753.8208008	3270.4888641	179.362680118	97591.2030054	65983203.5085	0
3575000.0	24582.0	9175298.50666	0.175329653545	173980.151367	0.0380894125556	1.91060352325	107566.551492	75204.8339844	3339.01385616	174.488356413	257827.342559	65987968.0534	0
3600000.0	24705.0	9440450.2483	0.176173522963	173984.277344	0.0389342021663	1.90455079079	106885.337735	74670.2819824	3408.40200232	170.437248978	144875.968241	65992733.1093	0
3625000.0	24830.0	9711453.88408	0.177026212331	173993.481445	0.0397866533604	1.89851641655	106210.08148	74139.9475098	3478.80428618	166.572172742	53818.3060127	65997498.6759	0
3650000.0	24954.0	9988426.62425	0.177857264497	173993.762207	0.0406562940043	1.89278173447	105562.339822	73630.1818848	3550.13840769	162.790028472	452.582080623	66002264.7534	0
3675000.0	25080.0	10271425.5806	0.178692852148	173996.435547	0.0415341419284	1.88711476326	104924.60242	73127.5939941	3622.5454543	159.175998684	64575.909216	66007031.3418	0
3700000.0	25205.0	10560572.1397	0.17951405976	173987.695312	0.0424297395512	1.88159835339	104299.005036	72634.942627	3695.91388618	155.017942627	342466.276408	66011798.441	0
3725000.0	25331.0	10855944.2743	0.180345222987	173982.128906	0.0433356071881	1.87596273422	103666.644468	72138.4765625	3770.10590443	151.635001931	199425.56694	66016566.051	0
3750000.0	25457.0	11157634.8964	0.181178937561	173977.880859	0.0442545497208	1.87026715279	103032.485148	71642.0471191	3845.04838927	148.362042778	83216.3146103	66021334.1719	0
3775000.0	25584.0	11465712.9801	0.182022481662	173978.845215	0.0451833184343	1.8644657135	102393.629878	71143.2006836	3920.75730947	145.221635192	7677.0696524	66026102.8037	0
3800000.0	25711.0	11780270.1062	0.182865178925	173980.688477	0.0461253002868	1.85866820812	101758.53904	70648.1018066	3997.20638737	142.181030569	40808.2234815	66030871.9463	0
3825000.0	25839.0	12101375.8423	0.183713977106	173987.036133	0.0470772356493	1.85283517838	101124.743245	70154.5898438	4074.41685921	139.261480884	148332.264145	66035641.5998	0
3850000.0	25967.0	12429123.5213	0.184557794788	173993.518066	0.0480426424474	1.84707903862	100500.994922	69669.0551758	4152.3618541	135.901287591	291581.85845	66040411.7643	0
3875000.0	26095.0	12763608.0394	0.18539445137	173999.707031	0.0490217789775	1.84143674374	99890.39137	69193.5668945	4231.0546149	133.170392454	140079.871167	66045182.4396	0
3900000.0	26224.0	13104901.8519	0.186230260535	174008.935547	0.050011316489	1.83587265015	99290.8162699	68726.2756348	4310.49087028	130.545483061	26345.5660026	66049953.6258	0
3925000.0	26353.0	13453102.7922	0.187057003832	174016.430664	0.0510150166519	1.83043634892	98705.0659193	68269.519043	4390.67604499	127.503121115	751770.197823	66054725.3229	0
3950000.0	26482.0	13808310.3191	0.18787962349	174021.166992	0.0520331377629	1.82502961159	98123.6425516	67816.8212891	4471.62125268	125.039558535	511431.883043	66059497.5309	0
3975000.0	26612.0	14170600.6686	0.188705944472	174026.196289	0.0530622055521	1.81960439682	97542.9537395	67365.2648926	4553.31377856	123.140390379	366734.914028	66064270.2498	0
4000000.0	26743.0	14540050.211	0.189534444236	174030.908203	0.0541022818652	1.81418800354	96965.1055764	66916.2231445	4635.74539426	120.38602469	127104.16329	66069043.4796	0
4025000.0	26873.0	14916787.2482	0.190346803622	174027.294922	0.0551610974071	1.80895340443	96402.5457453	66478.7841797	4718.95426165	117.693004452	1050309.73224	66073817.2203	0
4050000.0	27004.0	15300892.0213	0.191158698713	174021.826172	0.0562314853596	1.80378615856	95847.1476043	66046.6308594	4802.90779863	115.983602188	71861.1355587	66078591.472	0
4075000.0	27136.0	15692443.906	0.191972101711	174017.626953	0.0573126017116	1.79865002632	95297.1640125	65618.6706543	4887.56064607	113.904134161	250799.610393	66083366.2345	0
4100000.0	27268.0	16091542.1594	0.192781060987	174014.819336	0.0584073713981	1.79357361794	94755.578043	65197.3571777	4972.87553745	111.46252659	251066.489934	66088141.5079	0
4125000.0	27400.0	16498282.9155	0.193584000136	174013.330078	0.0595159253862	1.78857934475	94224.4766989	64784.1491699	5058.84086101	109.509981487	63690.9842498	66092917.2922	0
4150000.0	27533.0	16912736.1208	0.194387493439	174016.40625	0.0606344037806	1.7836214304	93700.9177028	64376.7150879	5145.42216359	107.632262146	28305.9214112	66097693.5875	0
4175000.0	27666.0	17334999.671	0.195184876567	174019.726562	0.061766950239	1.77870106697	93183.9855908	63974.9694824	5232.65791232	105.410191929	609698.132144	66102470.3936	0
4200000.0	27799.0	17765172.8166	0.195977289962	174022.86377	0.0629137866781	1.77379381657	92671.3800833	63577.3681641	5320.55475302	103.642144664	306288.050842	66107247.7107	0
4225000.0	27933.0	18203327.5186	0.196772692595	174028.955078	0.0640708531137	1.76884746552	92159.2055963	63180.859375	5409.04903221	101.94043082	76689.5573722	66112025.5387	0
4250000.0	28067.0	18649563.5969	0.197562870745	174034.472656	0.0652422968415	1.76394367218	91653.0446907	62789.4104004	5498.18809393	100.284030555	34781.4638879	66116803.8777	0
4275000.0	28202.0	19103953.3445	0.198355386987	174042.382812	0.0664240214974	1.75903439522	91149.4669637	62400.3356934	5587.91258114	98.6890734816	256264.030623	66121582.7276	0
4300000.0	28337.0	19566597.5475	0.199141805657	174049.21875	0.0676202762406	1.75420284271	90654.2574611	62017.7368164	5678.34060527	96.7759283851	294173.056258	66126362.0884	0
4325000.0	28472.0	20037598.4608	0.19992158151	174054.577637	0.06883127935	1.74946880341	90168.6865703	61642.364502	5769.50347384	95.2662974277	47928.7811794	66131141.9601	0
4350000.0	28608.0	20517030.1441	0.200701610396	174061.230469	0.0700528471498	1.74478852749	89689.75754	61271.8566895	5861.31255347	93.8104189058	83308.8499029	66135922.3428	0
4375000.0	28744.0	21004996.5108	0.201473387122	174065.661621	0.0712894252501	1.7402459383	89223.350851	60910.4064941	5953.79808039	92.0516660195	554499.098562	66140703.2365	0
4400000.0	28880.0	21501604.1777	0.202235012261	174066.918945	0.0725413992768	1.73582720757	88768.5159776	60557.5195312	6046.93952747	90.6719615711	191224.659485	66145484.6411	0
4425000.0	29017.0	22006932.5549	0.202993241212	174066.992188	0.0738047674531	1.73144006729	88318.773952	60208.8378906	6140.66153578	89.3406004495	4391.25918501	66150266.5566	0
4450000.0	29154.0	22521091.7933	0.203741321098	174062.402344	0.0750840408728	1.72715330124	87878.3402293	59867.2729492	6235.00090926	87.7205213416	785884.310366	66155048.983	0
4475000.0	29291.0	23044192.0101	0.204482652508	174056.066895	0.0763784628361	1.72292506695	87444.5393545	59531.0058594	6329.86521675	86.4590114444	326114.183414	66159831.9205	0
4500000.0	29429.0	23576306.3044	0.2052275708	174053.564453	0.0776826418587	1.71866488457	87011.4837304	59195.8251953	6425.08638481	85.2457999732	24113.9274196	66164615.3688	0
4525000.0	29567.0	24117534.7391	0.205968832898	174051.879883	0.0790011399658	1.71444201469	86583.5975561	58864.8071289	6520.71609498	84.0646200697	183659.103115	66169399.328	0
4550000.0	29706.0	24667945.5885	0.206714450353	174053.857422	0.080329242337	1.71020698547	86157.384758	58535.2783203	6616.59214602	82.6313056274	445807.976976	66174183.7982	0
4575000.0	29844.0	25227670.8377	0.207450032352	174053.686523	0.0816763931653	1.70608639717	85741.1525252	58213.1286621	6712.88280508	81.5174573902	66390.8175984	66178968.7794	0
4600000.0	29984.0	25796746.6771	0.208197275305	174059.863281	0.0830284116091	1.70192146301	85324.2206678	57890.4785156	6809.23639185	80.4614993708	134599.028287	66183754.2715	0
4625000.0	30123.0	26375306.9972	0.208932122405	174063.378906	0.0843997622724	1.69788050652	84918.1811959	57575.9216309	6905.91895763	79.1364418168	543082.033052	66188540.2745	0
4650000.0	30263.0	26963423.088	0.209665676967	174069.189453	0.0857811901369	1.69383573532	84515.080158	57264.050293	7002.69785847	78.1406213983	99284.8142705	66193326.7885	0
4675000.0	30403.0	27561199.0675	0.210391967843	174074.414062	0.0871775409905	1.68984127045	84118.1087889	56957.1289062	7099.61687281	77.1714147999	131633.544129	66198113.8135	0
4700000.0	30544.0	28168705.9532	0.211119057283	174081.542969	0.0885839108378	1.6858445406	83723.4888484	56652.3376465	7196.50228444	75.9710427187	565932.136643	66202901.3494	0
4725000.0	30684.0	28786082.3187	0.211834262865	174084.985352	0.0900103041204	1.6819537878	83337.932202	56354.4555664	7293.59664372	75.0570361614	83548.6719164	66207689.3963	0
4750000.0	30826.0	29413365.9224	0.212558811784	174092.614746	0.091441834229	1.67801606655	82951.0713069	56055.8532715	7390.394174	74.1934861326	173035.919778	66212477.9542	0
4775000.0	30967.0	30050696.3485	0.213273454312	174096.09375	0.0928935405682	1.67419362068	82573.2149608	55763.8916016	7487.30070166	73.0825004583	532980.096982	66217267.023	0
4800000.0	31109.0	30698146.0459	0.213992263368	174100.537109	0.0943554914556	1.67039000988	82197.7469755	55473.6328125	7583.95394676	72.2693213107	56361.0181444	66222056.6029	0
4825000.0	31251.0	31355822.2235	0.214709339231	174103.00293	0.0958328309935	1.66666638851	81828.2682515	55187.5305176	7680.47177478	71.2275871757	1235675.75255	66226846.6937	0
4850000.0	31393.0	32023834.7116	0.215420614988	174102.79541	0.097326017567	1.66302955151	81465.9877089	54906.640625	7776.8174853	70.4616505158	501469.965583	66231637.2954	0
4875000.0	31536.0	32702260.2599	0.21612906783	174101.843262	0.0988300453173	1.65943193436	81108.3073432	54629.2663574	7872.75519425	69.7285226516	27098.7531736	66236428.4082	0
4900000.0	31679.0	33391211.9178	0.216828990571	174097.20459	0.100350342109	1.65592110157	80757.9816472	54357.3425293	7968.48520395	69.0147647649	325743.476965	66241220.032	0
4925000.0	31823.0	34090764.836	0.217530956758	174094.458008	0.101880374132	1.65240621567	80409.3136234	54086.9140625	8064.26354844	68.0911017003	408985.858294	66246012.1667	0
4950000.0	31966.0	34801060.6765	0.218224311465	174089.770508	0.103430385934	1.64896404743	80067.0941445	53821.4416504	8160.53901329	67.1769285264	2010863.48051	66250804.8124	0
4975000.0	32110.0	35522165.7701	0.218923517196	174088.171387	0.104989681859	1.64549386501	79724.564136	53556.0241699	8256.82151562	66.7574277734	491501.827936	66255597.9691	0
5000000.0	32255.0	36254144.7909	0.219630024065	174089.660645	0.106557992694	1.64199590683	79381.4616887	53290.3991699	8353.0109728	66.1302866817	1350941.60091	66260391.6367	0
5025000.0	32400.0	36997099.503	0.220338559227	174091.650391	0.108140797238	1.63851821423	79040.5068611	53026.4221191	8449.22626316	65.2930374824	55574.4815369	66265185.8153	0
5050000.0	32545.0	37751131.7605	0.221049840017	174094.104004	0.109738117317	1.63506233692	78701.6290529	52763.9831543	8545.3956986	64.4765059024	947163.661392	66269980.505	0
5075000.0	32690.0	38516346.2826	0.221758505255	174096.557617	0.111350353109	1.63163721561	78366.6894868	52504.7180176	8641.44519614	63.8998919325	227887.445778	66274775.7056	0
5100000.0	32836.0	39292809.8492	0.22246988812	174101.147461	0.112971960334	1.62819981575	78032.8975343	52246.6369629	8737.06806101	63.3486785948	112356.262266	66279571.4172	0
5125000.0	32982.0	40080627.845	0.223178510606	174105.419922	0.114608570584	1.62479627132	77702.74537	51991.4550781	8832.38158587	62.5978252569	868596.534998	66284367.6398	0
5150000.0	33128.0	40879906.0314	0.223885638494	174109.25293	0.116260285722	1.62142717838	77375.7315402	51738.7023926	8927.32332053	62.0784656955	159190.58229	66289164.3734	0
5175000.0	33275.0	41690711.2013	0.224598776995	174114.84375	0.117921314086	1.61804842949	77048.5423293	51485.9008789	9021.51239767	61.5843290041	189103.634629	66293961.618	0
5200000.0	33422.0	42513149.2002	0.225312551503	174119.702148	0.119597461889	1.6147056818	76723.6527797	51234.7106934	9115.14385176	60.8975045531	808438.178327	66298759.3737	0
5225000.0	33569.0	43347326.2798	0.226028124397	174123.706055	0.121288736409	1.61139774323	76400.6398488	50984.7503662	9208.08887236	60.4348719008	125631.232236	66303557.6404	0
5250000.0	33717.0	44193309.0971	0.226753013261	174128.930664	0.122989382362	1.60808229446	76076.3656644	50733.6639404	9299.98006276	59.9969540288	218757.868719	66308356.4181	0
5275000.0	33865.0	45051204.5651	0.22747953158	174132.849121	0.124705256894	1.60480678082	75754.1157853	50483.7982178	9390.99400083	59.3729978735	869359.854739	66313155.7068	0
5300000.0	34013.0	45921122.7135	0.228203245692	174134.973145	0.126436876599	1.60157847404	75435.3482053	50236.4074707	9481.08715907	58.9657355302	163557.782963	66317955.5066	0
5325000.0	34162.0	46803132.8493	0.228930529805	174137.304688	0.128178173327	1.59835517406	75117.3190413	49989.5172119	9569.79581984	58.5827467862	182094.484841	66322755.8174	0
5350000.0	34311.0	47697345.601	0.229655196128	174137.341309	0.129935302539	1.59518039227	74802.8420287	49745.1599121	9657.3514393	58.0191744669	1004668.44199	66327556.6393	0
5375000.0	34460.0	48603872.8874	0.230377277241	174134.899902	0.131708453409	1.59205579758	74491.9628788	49503.3508301	9743.67525931	57.6661434426	232870.723238	66332357.9722	0
5400000.0	34610.0	49522785.1426	0.231103556863	174131.90918	0.133491470478	1.58894121647	74181.9526898	49262.1246338	9828.28844423	57.3370036044	126254.23124	66337159.8162	0
5425000.0	34760.0	50454193.8955	0.231830611649	174127.929688	0.135289679747	1.58585488796	73874.0308498	49022.442627	9911.40527807	56.8330555651	1208334.40089	66341962.1712	0
5450000.0	34910.0	51398205.0534	0.232561327089	174124.523926	0.137102426379	1.58277797699	73566.8097471	48783.3465576	9992.8877617	56.5353705804	370285.948296	66346765.0373	0
5475000.0	35061.0	52354878.3614	0.23330299613	174123.632812	0.138923438499	1.57966816425	73257.4194806	48542.7734375	10072.2307704	56.2624965348	29981.6092239	66351568.4145	0
5500000.0	35212.0	53324318.2894	0.234046459263	174122.973633	0.140759249916	1.57657408714	72949.3417078	48303.2562256	10149.7294938	55.8197596802	1615005.73759	66356372.3027	0
5525000.0	35363.0	54306629.274	0.2347910746	174122.424316	0.142609875184	1.57349431515	72642.6504854	48064.8773193	10225.3093666	55.5781679615	680729.798841	66361176.702	0
5550000.0	35515.0	55301872.1683	0.235543855716	174123.974609	0.144468867802	1.5703895092	72334.578048	47825.6195068	10298.4212593	55.3610693282	71890.55073	66365981.6124	0
5575000.0	35667.0	56310150.7651	0.236298444149	174125.488281	0.146342645166	1.56729900837	72027.7386114	47587.3718262	10370.0631856	55.1553484851	284609.71304	66370787.0339	0
5600000.0	35820.0	57331524.5875	0.237062063256	174128.955078	0.148224571603	1.56418275833	71719.3651387	47348.1170654	10440.0253534	54.9688644518	1050434.86052	66375592.9664	0
5625000.0	35973.0	58366096.8865	0.237828341209	174132.226562	0.150121166371	1.5610806942	71412.0232437	47109.6832275	10508.682508	54.6136936576	428012.433573	66380399.4101	0
5650000.0	36126.0	59413971.4582	0.238597797414	174135.314941	0.152032444021	1.55799293518	71105.6185243	46871.987915	10576.0143869	54.4477640503	1257.01265809	66385206.3649	0
5675000.0	36280.0	60475206.2666	0.239377685955	174140.014648	0.153951725224	1.55488026142	70797.4038851	46633.0230713	10641.4640187	54.3008918005	442408.272865	66390013.8308	0
5700000.0	36434.0	61549906.2501	0.240160434323	174144.140625	0.155885878485	1.5517860651	70490.1897466	46394.7967529	10705.4731229	53.9882176176	1191236.663	66394821.8079	0
5725000.0	36588.0	62638177.3781	0.240945024283	174147.509766	0.157835078426	1.54871273041	70184.2975822	46157.5500488	10768.0109026	53.861175217	439542.946369	66399630.2961	0
5750000.0	36743.0	63740079.6403	0.241737878306	174151.928711	0.159792558406	1.54562175274	69877.240901	45919.5373535	10828.5002223	53.7527915863	8087.30304347	66404439.2955	0
5775000.0	36898.0	64855719.3168	0.242531928454	174155.395508	0.161765114171	1.54255366325	69571.9019793	45682.8338623	10887.4165444	53.6536797286	352597.513782	66409248.8061	0
5800000.0	37054.0	65985155.3648	0.243333668662	174159.692383	0.163745789905	1.53947079182	69265.805456	45445.6756592	10944.1777946	53.5731218605	1047467.56942	66414058.8278	0
5825000.0	37210.0	67128493.738	0.244136009174	174162.805176	0.165741483215	1.53641247749	68961.7642023	45210.1043701	10999.2542075	53.3309715337	743750.134002	66418869.3608	0
5850000.0	37366.0	68285841.003	0.244938680419	174164.648438	0.167752325069	1.53338003159	68659.9290432	44976.2237549	11052.605286	53.269829725	169316.767657	66423680.405	0
5875000.0	37523.0	69457256.2276	0.245748461342	174166.882324	0.169771301444	1.53033602238	68357.7772887	44742.2302246	11103.6180879	53.227230057	90515.8178556	66428491.9604	0
5900000.0	37680.0	70642847.5327	0.246558628439	174167.39502	0.171805615537	1.52731776237	68057.6724986	44509.7900391	11152.8334247	53.0249309203	2308823.48973	66433304.027	0
5925000.0	37837.0	71842724.8416	0.2473686402	174165.942383	0.173855543835	1.52432835102	67759.7247113	44278.9611816	11200.2253511	53.0011979256	1413789.25305	66438116.6049	0
5950000.0	37995.0	73056949.546	0.248184579139	174164.18457	0.175913941348	1.52133369446	67461.6965566	44048.1414795	11245.1267629	53.1635955956	2266151.66534	66442929.6941	0
5975000.0	38154.0	74285582.0492	0.249005534243	174161.938477	0.177980778972	1.5183391571	67163.9832188	43817.6025391	11287.4813539	53.0090096769	166946.294268	66447743.2946	0
6000000.0	38312.0	75528779.8817	0.249819528301	174157.080078	0.180069473572	1.5154042244	66870.8393017	43590.4693604	11328.4654732	52.8558310466	3632653.75147	66452557.4063	0
6025000.0	38471.0	76786597.9925	0.250642456304	174154.162598	0.182165211299	1.51244306564	66576.2800124	43362.4603271	11366.7650375	53.0553441439	547028.065469	66457372.0294	0
6050000.0	38631.0	78059086.7319	0.251474216198	174153.149414	0.184267817531	1.50945901871	66280.5382729	43133.7219238	11402.2892532	53.1075950463	1212817.61533	66462187.1638	0
6075000.0	38791.0	79346345.3056	0.252307341004	174152.368164	0.186384349945	1.50649046898	65986.2921848	42906.2011719	11435.6642098	53.0044605093	1023442.46569	66467002.8095	0
6100000.0	38951.0	80648475.3396	0.253143544559	174151.501465	0.188515230548	1.50353240967	65692.8183577	42679.309082	11466.8704064	53.0774282395	436298.952338	66471818.9666	0
6125000.0	39112.0	81965527.6586	0.253989938755	174152.209473	0.190653008758	1.50054740906	65397.4217767	42451.1016846	11495.1953852	53.1699528482	60455.7536182	66476635.635	0
6150000.0	39273.0	83297603.5938	0.254838760244	174152.758789	0.192805076949	1.49757349491	65102.9944516	42223.7213135	11521.262521	53.2729281618	134231.039316	66481452.8148	0
6175000.0	39435.0	84644753.1484	0.255696329396	174154.785156	0.194963882677	1.49457764626	64807.3310166	41995.5841064	11544.3716676	53.3957181259	539528.63581	66486270.5059	0
6200000.0	39597.0	86007076.2913	0.256554793477	174156.591797	0.197136745555	1.49159693718	64513.1989448	41768.7286377	11565.1777826	53.5291894598	1096436.33208	66491088.7085	0
6225000.0	39760.0	87384620.7665	0.257420700194	174159.729004	0.199316156795	1.4885982275	64218.4448655	41541.6351318	11582.9051782	53.6830365144	1749089.97643	66495907.4224	0
6250000.0	39923.0	88777486.1964	0.258286014093	174162.597656	0.20150950877	1.48561930656	63925.8579779	41316.3269043	11598.2908995	53.6831407381	919454.957296	66500726.6478	0
6275000.0	40086.0	90185772.1344	0.25915076013	174165.087891	0.203716888791	1.48266029358	63635.4695011	41092.8344727	11611.4912833	53.8581256532	432952.860791	66505546.3847	0
6300000.0	40250.0	91609528.1075	0.260024249812	174168.554688	0.205930991797	1.47967982292	63343.8439185	40868.6340332	11621.77147	54.0527516031	102208.42831	66510366.633	0
6325000.0	40414.0	93048855.4932	0.260898795275	174171.313477	0.208159370231	1.4767138958	63053.6095538	40645.614624	11629.9281106	54.2573733579	47602.5782246	66515187.3927	0
6350000.0	40579.0	94503803.3324	0.261780811846	174174.951172	0.210394355236	1.47373116016	62762.7150475	40422.3144531	11635.2029754	54.48165163	317039.618501	66520008.664	0
6375000.0	40744.0	95974471.6575	0.262662133892	174177.856445	0.212643484701	1.47076892853	62473.9731331	40200.7629395	11638.4354906	54.7157870229	716453.226304	66524830.4468	0
6400000.0	40910.0	97460907.528	0.263549112091	174181.567383	0.214898900595	1.4677965641	62185.3579707	39979.5013428	11638.8444103	54.9696304808	1195630.90958	66529652.7412	0
6425000.0	41076.0	98963210.6286	0.26443358164	174184.436035	0.217168402742	1.4648514986	61899.6563469	39760.559082	11637.2343722	55.0676384815	1834411.83307	66534475.5471	0
6450000.0	41242.0	100481480.975	0.265314491592	174186.547852	0.219451889279	1.4619371891	61617.2307548	39544.1864014	11633.6828538	55.3410244548	1274824.32353	66539298.8646	0
6475000.0	41409.0	102015765.438	0.266200225943	174189.147949	0.221741735004	1.45901739597	61335.2474476	39328.326416	11627.4000889	55.6340899983	799469.384686	66544122.6937	0
6500000.0	41576.0	103566166.377	0.267084580651	174190.527344	0.22404603078	1.45611977577	61055.4634764	39114.2456055	11619.2579788	55.9368004521	402288.649004	66548947.0344	0
6525000.0	41744.0	105132731.652	0.267974111769	174192.114258	0.226356685744	1.45321631432	60775.8551594	38900.4699707	11608.4446884	56.4267549079	4728319.60582	66553771.8868	0
6550000.0	41913.0	106715506.997	0.26886777818	174193.798828	0.228673568927	1.45031142235	60496.8049676	38687.2497559	11595.0058798	56.6017099398	13860.6150539	66558597.2508	0
6575000.0	42081.0	108314647.793	0.269749867257	174192.614746	0.231012585573	1.44747388363	60223.3209784	38478.1860352	11580.6416764	56.9438651215	239671.951958	66563423.1266	0
6600000.0	42251.0	109930143.654	0.270641378093	174192.883301	0.233349550399	1.44461083412	59948.7886439	38268.5089111	11562.8796583	57.3162875148	582564.225429	66568249.514	0
6625000.0	42420.0	111562149.214	0.271519271972	174190.124512	0.235708605032	1.44182252884	59680.4735453	38063.4307861	11544.2702662	57.5188400188	3057810.31555	66573076.4131	0
6650000.0	42590.0	113210709.562	0.272397961593	174187.304688	0.238073494984	1.4390463829	59413.7926785	37859.6252441	11523.1728088	58.0810592669	1667909.57381	66577903.824	0
6675000.0	42761.0	114875868.281	0.273282588378	174185.339355	0.240443769144	1.43626058102	59146.810672	37655.7250977	11499.6136692	58.4942583412	2317209.70477	66582731.7467	0
6700000.0	42932.0	116557721.387	0.274166330684	174183.215332	0.242827256443	1.43349397182	58881.6262428	37453.2287598	11474.4773752	58.7461584916	1202398.91174	66587560.1812	0
6725000.0	43103.0	118256363.17	0.275048448037	174180.957031	0.245223927777	1.4307461977	58618.4643068	37252.355957	11447.7996248	59.1796106243	715927.588988	66592389.1274	0
6750000.0	43275.0	119971830.679	0.275935461308	174179.931641	0.247625488555	1.42798638344	58355.3311654	37051.7211914	11418.7639391	59.6342255401	330584.959551	66597218.5856	0
6775000.0	43447.0	121704216.308	0.276819298279	174178.881836	0.250040000537	1.42524588108	58094.6926629	36853.1402588	11388.2763263	60.0995667031	53666.4382763	66602048.5555	0
6800000.0	43620.0	123453555.351	0.277706517003	174179.150391	0.252459023613	1.42249488831	57834.6191623	36655.2642822	11355.4885049	60.7617243033	6611157.13301	66606879.0374	0
6825000.0	43794.0	125219881.17	0.278596239755	174180.712891	0.25488238316	1.41973495483	57575.4463733	36458.3831787	11320.4456867	61.0956548182	383273.184064	66611710.0311	0
6850000.0	43967.0	127003344.423	0.279475703201	174180.786133	0.257327134022	1.41702055931	57320.7311273	36265.0115967	11284.9782087	61.4276666359	3921786.63781	66616541.5368	0
6875000.0	44141.0	128803981.96	0.280359443685	174181.848145	0.259776657913	1.41429293156	57066.0979848	36071.9696045	11247.3617337	62.1357426647	1402630.86316	66621373.5545	0
6900000.0	44316.0	130621828.514	0.281246999311	174183.898926	0.262230809312	1.41155493259	56811.8146943	35879.4555664	11207.6185146	62.6892395522	2034215.02632	66626206.0841	0
6925000.0	44491.0	132456975.733	0.282130817147	174185.60791	0.264697708189	1.40884006023	56560.1931754	35689.0838623	11166.6915116	63.07397447	1807431.69393	66631039.1256	0
6950000.0	44666.0	134309515.06	0.283009971431	174187.060547	0.267177296337	1.40615153313	56311.474805	35501.0009766	11124.6069497	63.6494164663	1187405.1405	66635872.6793	0
6975000.0	44842.0	136179478.124	0.283890932596	174189.440918	0.269661075436	1.40346491337	56063.8546222	35313.885498	11080.1502728	64.4326609499	4566486.06423	66640706.7449	0
7000000.0	45019.0	138066894.971	0.284772871056	174192.797852	0.272148638032	1.40078377724	55817.6347083	35127.9541016	11032.9878045	65.0626640336	5594234.89037	66645541.3226	0
7025000.0	45196.0	139971856.133	0.285649547846	174195.654297	0.274648889899	1.39813697338	55574.5242437	34944.3725586	10984.1204206	65.5240118212	1405.71168925	66650376.4125	0
7050000.0	45373.0	141894455.039	0.286521441201	174197.949219	0.277162092971	1.39552152157	55334.2123925	34762.9241943	10933.7046398	66.1850681034	278511.911144	66655212.0144	0
7075000.0	45551.0	143834724.018	0.287394695533	174200.842285	0.279679516098	1.39290928841	55094.8858519	34582.3608398	10880.9036027	66.8741806739	775044.856054	66660048.1286	0
7100000.0	45729.0	145792753.274	0.288262095237	174203.198242	0.282209570287	1.39032661915	54858.6046044	34404.1656494	10826.7288704	67.3901563646	3604859.39008	66664884.7549	0
7125000.0	45907.0	147768633.293	0.289122947688	174204.980469	0.284752226435	1.38777244091	54625.466468	34228.4515381	10771.3099761	68.1098075772	2631030.20961	66669721.8934	0
7150000.0	46086.0	149762393.509	0.289983483755	174207.434082	0.287298607873	1.38521885872	54393.7392996	34054.0344238	10713.8218311	69.0500353347	3355926.5912	66674559.5442	0
7175000.0	46266.0	151774061.152	0.290843187874	174210.510254	0.289848423563	1.38266372681	54163.5183167	33881.0241699	10654.3474492	69.8282108646	4538640.10499	66679397.7073	0
7200000.0	46446.0	153803726.189	0.291695609249	174212.866211	0.2924107539	1.38013255596	53936.5936367	33710.7147217	10593.9236579	70.426746592	320755.434612	66684236.3826	0
7225000.0	46626.0	155851479.923	0.292541268416	174214.379883	0.294985831715	1.37762415409	53712.6887352	33542.8924561	10532.6397808	71.2350351426	17252.4091975	66689075.5703	0
7250000.0	46807.0	157917352.567	0.293386324642	174216.162109	0.29756478034	1.37511706352	53490.1301038	33376.3153076	10469.6985503	72.0718446972	481866.453505	66693915.2704	0
7275000.0	46988.0	160001433.283	0.294223666032	174217.114258	0.300156068988	1.37263894081	53270.8345807	33212.3199463	10406.0708265	72.9245823198	1312328.26015	66698755.4829	0
7300000.0	47170.0	162103748.887	0.295059822666	174218.322754	0.302750850096	1.37016808987	53053.1488094	33049.710083	10340.9675735	73.8061950068	2413622.55645	66703596.2078	0
7325000.0	47352.0	164224386.05	0.295887344086	174218.652344	0.305357621983	1.36773371696	52838.9418369	32889.743042	10275.3577489	74.499095499	1714944.85764	66708437.4452	0
7350000.0	47534.0	166363430.451	0.29670581381	174218.115234	0.307976297336	1.36533868313	52628.2832802	32732.4310303	10209.3234553	75.4105389546	676623.612742	66713279.195	0
7375000.0	47717.0	168520908.309	0.297522492567	174217.553711	0.310598290525	1.3629566431	52419.3500806	32576.5136719	10142.0764675	76.3510281315	26135.142962	66718121.4574	0
7400000.0	47900.0	170696908.971	0.298330183335	174215.820312	0.313232681947	1.36061036587	52213.7016591	32423.0895996	10074.5865889	77.3069702605	510020.049414	66722964.2324	0
7425000.0	48084.0	172891458.268	0.299135636268	174213.903809	0.315870303893	1.35827553272	52009.7324265	32271.0418701	10006.0515797	78.2921825672	1635139.63169	66727807.5199	0
7450000.0	48268.0	175104643.632	0.299932945461	174211.26709	0.318519829307	1.35597109795	51808.8873511	32121.4202881	9937.41541647	79.2929746254	3218987.28608	66732651.32	0
7475000.0	48453.0	177336487.305	0.300729556891	174209.631348	0.321171653923	1.35366630554	51609.1644068	31972.8546143	9867.87398164	80.3236228531	5175525.14057	66737495.6328	0
7500000.0	48638.0	179587070.36	0.301519139434	174208.056641	0.323834829032	1.35138452053	51412.2241306	31826.5258789	9798.3888553	81.1504577608	105567.37234	66742340.4583	0
7525000.0	48823.0	181856474.853	0.302301505228	174206.518555	0.326509267325	1.34912538528	51218.1702527	31682.5286865	9728.99776872	82.2098830241	515338.487953	66747185.7964	0
7550000.0	49009.0	184144723.08	0.303082225436	174205.908203	0.329186441377	1.34686529636	51025.3091055	31539.7186279	9658.94207541	83.2989091279	1895150.5426	66752031.6474	0
7575000.0	49195.0	186451899.498	0.303855673655	174205.126953	0.33187516965	1.34462809563	50835.1625426	31399.1088867	9589.12761771	84.1767835792	2197048.89624	66756878.0111	0
7600000.0	49381.0	188778086.351	0.304621375593	174204.248047	0.334575452143	1.34241509438	50647.7925857	31260.7147217	9519.62963555	85.2932570364	641397.346633	66761724.8876	0
7625000.0	49568.0	191123301.365	0.305385254092	174204.272461	0.337277684594	1.34020364285	50461.7103116	31123.4771729	9449.63926358	86.439710641	110193.202631	66766572.2769	0
7650000.0	49755.0	193487623.007	0.306141129883	174204.272461	0.339990714565	1.33801603317	50278.3558043	30988.3758545	9380.06048623	87.6010104926	1402925.42596	66771420.1791	0
7675000.0	49943.0	195871064.017	0.306894558994	174205.26123	0.342705025105	1.33583140373	50096.4120886	30854.473877	9310.125104	88.7924594699	3511063.98261	66776268.5942	0
7700000.0	50131.0	198273699.324	0.30763938505	174206.188965	0.345429871231	1.33367192745	49917.2943669	30722.7325439	9240.71114248	89.7598286185	814743.169259	66781117.5223	0
7725000.0	50319.0	200695609.147	0.308375274183	174206.933594	0.348165631294	1.33153712749	49741.0866149	30593.2617188	9171.25079636	90.9836255882	137194.847366	66785966.9633	0
7750000.0	50508.0	203136808.447	0.309107971976	174208.447266	0.350903021172	1.3294044733	49566.2694238	30465.0390625	9100.54380933	92.2482666993	1729309.08181	66790816.9173	0
7775000.0	50697.0	205597376.13	0.309831914703	174209.790039	0.353651383193	1.32729709148	49394.2865002	30339.0472412	9029.50947108	93.2909282845	2237310.66486	66795667.3844	0
7800000.0	50886.0	208077390.659	0.31054741454	174210.9375	0.356410513632	1.32521402836	49224.9908453	30215.1855469	8958.19351637	94.6027052712	306658.233946	66800518.3645	0
7825000.0	51076.0	210576865.298	0.311259828204	174212.902832	0.359171070158	1.32313609123	49057.0591989	30092.5384521	8885.91869853	95.955726745	767968.186394	66805369.8577	0
7850000.0	51266.0	213095877.334	0.311964124792	174214.746094	0.361942278687	1.32108521461	48891.8391677	29972.0031738	8813.53990831	97.333857418	3233747.80225	66810221.8641	0
7875000.0	51457.0	215634441.505	0.312664670052	174217.260742	0.36471511703	1.31904125214	48728.1052255	29852.7709961	8740.35905734	98.7538563899	6760361.68179	66815074.3836	0
7900000.0	51648.0	218192637.759	0.313356100931	174219.421387	0.367498956621	1.31702494621	48567.1874705	29735.7421875	8667.24339945	99.9371907706	347227.730906	66819927.4163	0
7925000.0	51839.0	220770545.214	0.314038393016	174221.276855	0.370293622836	1.31503605843	48409.0482282	29620.8648682	8594.25811901	101.139064952	4158324.42532	66824780.9623	0
7950000.0	52030.0	223368241.923	0.314711595681	174222.814941	0.373099173885	1.31307554245	48253.6403594	29508.0657959	8521.44768194	102.627307212	1114014.89682	66829635.0215	0
7975000.0	52222.0	225985737.919	0.315381121815	174225.0	0.375905568944	1.3111243248	48099.7369296	29396.4904785	8448.14093596	104.157888469	334634.428941	66834489.5941	0
8000000.0	52414.0	228623107.281	0.316041952621	174226.904297	0.378722150344	1.30920147896	47948.5004207	29286.920166	8375.1521647	105.713288115	3048755.94371	66839344.68	0
8025000.0	52607.0	231280357.01	0.316699006284	174229.443359	0.38153922651	1.30728900433	47798.7775416	29178.5614014	8301.79127641	107.31174564	7323194.76045	66844200.2792	0
8050000.0	52800.0	233957563.546	0.317346935842	174231.494141	0.38436675095	1.30540776253	47651.7403097	29072.2076416	8228.88324526	108.653247353	706399.671644	66849056.3919	0
8075000.0	52993.0	236654802.131	0.317985708814	174233.117676	0.387204694562	1.30355656147	47507.4532776	28967.9321289	8156.45430776	110.012276813	3217429.68175	66853913.0181	0
8100000.0	53186.0	239372149.485	0.318615150063	174234.25293	0.390053144656	1.30173242092	47365.8323189	28865.7196045	8084.57410914	111.676649078	225272.795956	66858770.1578	0
8125000.0	53380.0	242109613.698	0.319239434066	174235.876465	0.392902293243	1.29991543293	47225.7626394	28764.831543	8012.57074961	113.38388785	1829726.21845	66863627.811	0
8150000.0	53574.0	244867269.019	0.319853753392	174237.072754	0.395761657273	1.29812133312	47088.3405261	28666.0430908	7941.2173902	115.11485531	6373918.89049	66868485.9777	0
8175000.0	53769.0	247645121.805	0.320462287975	174238.745117	0.398621428758	1.29632985592	46952.4864371	28568.6676025	7869.85136084	116.589290687	432617.761298	66873344.6581	0
8200000.0	53963.0	250443315.261	0.321055717577	174239.038086	0.401501310989	1.29457783699	46820.3769877	28474.1516113	7799.90596514	118.059754375	3400756.45019	66878203.8521	0
8225000.0	54158.0	253261860.797	0.321642863957	174239.575195	0.404382299166	1.29283237457	46689.9312185	28381.0821533	7730.0559986	119.872078311	63981.0715302	66883063.5599	0
8250000.0	54353.0	256100834.073	0.322219116011	174239.550781	0.407273648307	1.29110944271	46562.1398878	28290.1397705	7661.00819347	121.706964476	2883600.5374	66887923.7813	0
8275000.0	54549.0	258960242.197	0.322788866053	174239.782715	0.410165521316	1.28939461708	46436.078305	28200.6774902	7592.15200861	123.5841439	8859596.34193	66892784.5165	0
8300000.0	54745.0	261840158.14	0.323347547054	174239.39209	0.413067406043	1.28770458698	46312.7157668	28113.3483887	7524.17078814	125.164228456	2011180.85166	66897645.7655	0
8325000.0	54941.0	264740653.714	0.323895108527	174238.439941	0.415979127865	1.28604078293	46192.161853	28028.2073975	7457.10121579	126.757749615	1106243.07718	66902507.5283	0
8350000.0	55137.0	267661800.84	0.324430900569	174236.84082	0.418900774093	1.28440332413	46074.498494	27945.3491211	7390.96219986	128.36412713	7125055.38066	66907369.805	0
8375000.0	55333.0	270603676.201	0.324952631941	174234.472656	0.421832781285	1.28279328346	45959.9567011	27864.9719238	7325.78781891	130.313944567	1248629.05688	66912232.5956	0
8400000.0	55530.0	273566285.652	0.325466446756	174232.568359	0.424765108619	1.28119087219	45847.2701023	27786.2121582	7260.97289959	132.304904174	1779151.18059	66917095.9002	0
8425000.0	55727.0	276549700.801	0.325970995192	174230.725098	0.427706865594	1.27960932255	45736.9241777	27709.2987061	7197.18184193	134.315378956	8555902.78647	66921959.7188	0
8450000.0	55925.0	279553920.896	0.32647233293	174229.760742	0.430647982284	1.27803146839	45627.7192379	27633.3770752	7133.80239741	136.022869788	2262118.05789	66926824.0513	0
8475000.0	56122.0	282579081.14	0.326964509694	174228.100586	0.433608103776	1.27648794651	45521.0709736	27559.2803955	7072.07583977	137.718589458	618963.844132	66931688.898	0
8500000.0	56320.0	285625178.889	0.327457559103	174227.404785	0.43656717753	1.27494692802	45415.006721	27485.6689453	7010.76022128	139.800035291	3038674.80395	66936554.2587	0
8525000.0	56518.0	288692281.667	0.327946174438	174226.708984	0.439535593614	1.27342629433	45311.0012418	27413.6688232	6949.96858467	141.552974972	214691.641103	66941420.1335	0
8550000.0	56716.0	291780458.32	0.328428894856	174226.025391	0.442513352027	1.27192556858	45209.0338736	27343.270874	6889.61330924	143.328017111	4724501.37939	66946286.5226	0
8575000.0	56914.0	294889777.013	0.328904939639	174225.341797	0.445500307251	1.2704449892	45108.8993998	27274.2431641	6829.7146852	145.491498799	54270.4904676	66951153.4258	0
8600000.0	57113.0	298020236.769	0.329376805198	174225.524902	0.448486796813	1.26896977425	45009.5234601	27205.7922363	6769.73473214	147.7090243	5647200.1048	66956020.8433	0
8625000.0	57312.0	301171904.696	0.329840039962	174225.720215	0.451482192148	1.2675139904	44911.4779878	27138.2019043	6710.25943254	149.582290741	727749.103483	66960888.775	0
8650000.0	57511.0	304344847.021	0.330293472909	174225.976562	0.454486726085	1.26607704163	44814.5018636	27071.2127686	6651.3212571	151.477124711	1883509.99112	66965757.2211	0
8675000.0	57710.0	307539132.702	0.330736626561	174226.196289	0.457500631455	1.26466012001	44718.5291194	27004.7393799	6592.92970791	153.778750177	2265100.70554	66970626.1815	0
8700000.0	57910.0	310754761.788	0.331172838531	174227.148438	0.460513925646	1.26324951649	44622.9904329	26938.494873	6534.57722778	155.744844532	378873.676444	66975495.6564	0
8725000.0	58109.0	313991873.224	0.33159667485	174227.294922	0.463546835817	1.26187300682	44529.6015201	26873.6602783	6477.35280309	157.707475184	4525611.38583	66980365.6456	0
8750000.0	58309.0	317250464.04	0.332015552463	174228.173828	0.466578698251	1.26050150394	44437.0643054	26809.5123291	6420.19949247	160.115616843	614140.320685	66985236.1493	0
8775000.0	58509.0	320530600.646	0.332427163782	174229.077148	0.469619524665	1.25914907455	44346.3128336	26746.7132568	6363.66925612	162.554503651	8822139.44662	66990107.1675	0
8800000.0	58710.0	323832274.756	0.332835650225	174230.773926	0.472658721264	1.25780153275	44256.8441317	26685.0372314	6307.2628048	164.638864631	3161939.60025	66994978.7003	0
8825000.0	58910.0	327155622.639	0.333235239718	174231.738281	0.475716893561	1.25648641586	44170.1775202	26625.4608154	6252.00841852	166.718450003	13702.9194309	66999850.7476	0
8850000.0	59111.0	330500641.736	0.333631410942	174233.337402	0.478774192743	1.25517880917	44084.6651334	26566.8212891	6196.92509461	169.263900633	7315437.06577	67004723.3096	0
8875000.0	59312.0	333867397.321	0.334020278993	174234.863281	0.481840455905	1.25389111042	44001.0349355	26509.6008301	6142.522662	171.413128809	2264686.66608	67009596.3862	0
8900000.0	59513.0	337255954.919	0.334401069623	174236.328125	0.484915450215	1.2526216507	43919.2464464	26453.793335	6088.80506439	173.581662071	159977.002491	67014469.9774	0
8925000.0	59714.0	340666378.429	0.334772789239	174237.744141	0.487999146571	1.25136947632	43839.2735126	26399.395752	6035.78918007	175.76879335	3445668.21982	67019344.0834	0
8950000.0	59915.0	344098730.544	0.33513481207	174239.18457	0.491091283038	1.25013267994	43761.0958358	26346.4294434	5983.47141174	177.974446037	8695616.0173	67024218.7042	0
8975000.0	60116.0	347553074.361	0.33548597228	174240.576172	0.494192063343	1.24891209602	43684.7779579	26294.9432373	5931.86112895	180.646222071	45942.8453646	67029093.8397	0
9000000.0	60318.0	351029405.295	0.335828726632	174242.553711	0.497291504871	1.2476965189	43609.8555145	26244.6960449	5880.50876636	183.373499611	8267500.13979	67033969.4901	0
9025000.0	60520.0	354527788.66	0.336160111539	174244.360352	0.500399910379	1.24649965763	43536.974469	26196.0632324	5829.89540095	185.669466142	3619295.31434	67038845.6554	0
9050000.0	60722.0	358048291.201	0.336481056342	174245.996094	0.503517396282	1.24532067776	43466.0643352	26149.005127	5780.02227393	187.981853422	550277.895221	67043722.3356	0
9075000.0	60924.0	361590978.027	0.336792013164	174247.485352	0.506643613335	1.2441598177	43397.0185926	26103.4057617	5730.89040284	190.310289328	954138.458857	67048599.5307	0
9100000.0	61126.0	365155915.584	0.337093412552	174248.828125	0.509778736159	1.24301588535	43329.8104705	26059.2559814	5682.51307168	192.653759447	4114593.6535	67053477.2408	0
9125000.0	61328.0	368743166.533	0.337385880097	174250.0	0.512922531925	1.24188959599	43264.3413298	26016.4489746	5634.87819848	195.494917106	3065205.7954	67058355.466	0
9150000.0	61531.0	372352722.824	0.337672249475	174251.745605	0.516064581461	1.24076914787	43200.0243163	25974.6185303	5587.56901523	197.902071732	488694.709872	67063234.2062	0
9175000.0	61733.0	375984708.611	0.337948349378	174252.661133	0.519225490279	1.23967647552	43137.8617775	25934.3505859	5541.44792904	200.294148072	751415.448017	67068113.4615	0
9200000.0	61936.0	379639136.16	0.338219337325	174254.101562	0.522384420037	1.23859012127	43076.7656139	25894.9584961	5495.66529871	203.228848375	8330304.34627	67072993.232	0
9225000.0	62139.0	383316089.37	0.338483384769	174255.419922	0.525551557075	1.2375202179	43017.1563897	25856.6772461	5450.64391735	205.175271219	6950409.75342	67077873.5177	0
9250000.0	62341.0	387015651.853	0.338738980878	174255.883789	0.52873743698	1.23647725582	42959.4886776	25819.7540283	5406.78678095	207.604786947	11188180.2973	67082754.3186	0
9275000.0	62544.0	390737843.576	0.33899082617	174256.90918	0.531920872163	1.23543989658	42902.7189656	25783.5418701	5363.28252917	210.593827	51121.3345408	67087635.6347	0
9300000.0	62747.0	394482714.328	0.339234979466	174257.641602	0.535113271326	1.23442161083	42847.6201174	25748.5748291	5320.55475302	213.604806875	12533429.7021	67092517.4662	0
9325000.0	62951.0	398250260.007	0.33947245078	174258.59375	0.538309395779	1.23341429234	42793.8908592	25714.7003174	5278.24271537	216.133130505	8550637.51723	67097399.813	0
9350000.0	63154.0	402040616.106	0.339699634635	174258.666992	0.541519722901	1.23243546486	42742.3225021	25682.3791504	5237.04911666	218.106218241	6742034.21438	67102282.6752	0
9375000.0	63357.0	405853849.678	0.339919023445	174258.38623	0.544739014003	1.23147463799	42692.3970009	25651.2969971	5196.43945503	221.168984318	2697637.28209	67107166.0528	0
9400000.0	63561.0	409689950.886	0.3401324896	174258.459473	0.547956267837	1.23052120209	42643.6085816	25621.1456299	5156.00882524	223.741926734	812661.521386	67112049.9458	0
9425000.0	63764.0	413549057.506	0.340336613468	174257.495117	0.551192904823	1.22959423065	42596.769059	25592.3797607	5116.47696899	226.301158905	59652.2882812	67116934.3543	0
9450000.0	63968.0	417431159.478	0.340535286893	174256.872559	0.554427388124	1.22867310047	42550.9517169	25564.4577026	5077.10327144	228.908755861	1220809.29912	67121819.2784	0
9475000.0	64171.0	421336392.894	0.340725362606	174255.236816	0.557681021746	1.2277764082	42506.9215846	25537.8036499	5038.61895132	231.501495488	3023638.46328	67126704.718	0
9500000.0	64375.0	425264746.279	0.34091030271	174253.930664	0.560932210647	1.22688388824	42463.7603331	25511.8804932	5000.29457694	234.717932561	7597600.09879	67131590.6732	0
9525000.0	64579.0	429216278.068	0.341089119298	174252.368164	0.564191373996	1.22600400448	42421.8355816	25486.8972778	4962.47964162	236.800997763	7659928.99806	67136477.144	0
9550000.0	64782.0	433191123.35	0.341259876923	174250.280762	0.567469047382	1.22514438629	42381.4361736	25463.0020142	4925.51308394	239.444111448	10265534.4126	67141364.1306	0
9575000.0	64986.0	437189262.945	0.341426330886	174249.09668	0.570743344724	1.22428405285	42341.7219305	25439.7460938	4888.69844192	242.731326087	1795275.96953	67146251.6328	0
9600000.0	65190.0	441210753.433	0.341585630793	174248.071289	0.574025383685	1.22343504429	42303.2884968	25417.4942017	4852.37206605	245.447304069	669110.584391	67151139.6508	0
9625000.0	65394.0	445255659.323	0.341737143826	174247.119141	0.577315746341	1.22259998322	42266.388633	25396.4538574	4816.5483026	248.17892582	33058.5124307	67156028.1846	0
9650000.0	65598.0	449324042.277	0.341880737591	174246.252441	0.580614607316	1.22177827358	42230.9623844	25376.5762329	4781.20424361	250.926804522	361578.874276	67160917.2343	0
9675000.0	65802.0	453415963.041	0.342017061288	174245.43457	0.583921733778	1.22096955776	42196.9031812	25357.7713013	4746.34883231	253.690090024	1106673.61359	67165806.7997	0
9700000.0	66006.0	457531482.544	0.342146069468	174244.73877	0.587236951105	1.22017419338	42164.178988	25339.9856567	4711.96997733	256.468995017	1989437.46669	67170696.8811	0
9725000.0	66210.0	461670661.177	0.34226830405	174244.128418	0.590560142882	1.21939098835	42132.6877069	25323.1491089	4678.05585603	259.89916684	11973035.2142	67175587.4784	0
9750000.0	66415.0	465833482.62	0.342385175813	174244.311523	0.593880482484	1.21861171722	42102.0687653	25307.0526123	4644.2991416	262.75013795	10717849.2154	67180478.5917	0
9775000.0	66619.0	470020081.158	0.342494688002	174243.969727	0.597219448537	1.2178529501	42072.8230903	25291.897583	4611.30747646	264.933464689	4784926.25064	67185370.221	0
9800000.0	66823.0	474230514.105	0.34259822561	174243.786621	0.600566272624	1.21710574627	42044.630785	25277.5238037	4578.77639704	267.773779282	5642915.26012	67190262.3664	0
9825000.0	67027.0	478464840.202	0.342696253737	174243.762207	0.603920721915	1.21637022495	42017.3741556	25263.8076782	4546.68946657	270.629188087	6430181.2983	67195155.0278	0
9850000.0	67231.0	482723116.345	0.342788874929	174243.908691	0.607282854617	1.21564555168	41990.976934	25250.7019043	4515.05046799	274.169249787	7444014.09177	67200048.2053	0
9875000.0	67436.0	487005320.86	0.34287745382	174244.873047	0.610641378444	1.21492397785	41965.1533622	25238.0462646	4483.55287061	277.096181071	6985616.4038	67204941.899	0
9900000.0	67640.0	491311589.423	0.342959768682	174245.324707	0.614018645138	1.21422207355	41940.4108852	25226.0574341	4452.77853956	279.317828151	8233997.99974	67209836.1089	0
9925000.0	67844.0	495641982.286	0.343035389624	174245.825195	0.617404060904	1.21353280544	41916.7522869	25214.8666382	4422.43879258	282.230235724	8579108.09869	67214730.8351	0
9950000.0	68048.0	499996563.232	0.343104476166	174246.386719	0.620797974989	1.21285676956	41894.165011	25204.447937	4392.52761422	285.854454084	6433638.55131	67219626.0775	0
9975000.0	68253.0	504375315.623	0.343167890781	174247.619629	0.624188920483	1.21218597889	41872.3974907	25194.6868896	4362.76125829	288.836046298	6552267.41191	67224521.8362	0
10000000.0	68457.0	508778377.581	0.343224391355	174248.254395	0.627599132713	1.21153557301	41851.9405565	25185.8093262	4333.68668428	291.08126892	8666101.92105	67229418.1112	0
10025000.0	68661.0	513205809.323	0.343275010548	174248.999023	0.6310173776	1.21089744568	41832.5204101	25177.6824951	4305.02329513	294.045178328	8386421.33253	67234314.9026	0
10050000.0	68865.0	517657668.931	0.343319883656	174249.829102	0.634443364106	1.2102714777	41814.1122782	25170.2804565	4276.76548536	297.749485134	7780687.208	67239212.2104	0
10075000.0	69070.0	522133936.731	0.343359849424	174251.318359	0.637866032775	1.20964992046	41796.501752	25163.5223389	4248.64650885	300.782076104	8524791.08637	67244110.0347	0
10100000.0	69274.0	526634748.149	0.343393864191	174252.319336	0.641307327896	1.20904707909	41780.0996402	25157.5698853	4221.18512099	303.047502618	6679298.91564	67249008.3754	0
10125000.0	69478.0	531160159.318	0.343422767983	174253.405762	0.644756306428	1.20845496655	41764.6542127	25152.3193359	4194.1176593	306.059758427	5874474.03556	67253907.2326	0
10150000.0	69682.0	535710226.008	0.343446839445	174254.614258	0.648212502711	1.20787394047	41750.1598654	25147.7462769	4167.43423744	309.083753394	4978951.18051	67258806.6064	0
10175000.0	69886.0	540285003.037	0.343466189048	174255.908203	0.651676033158	1.20730268955	41736.5968226	25143.8674927	4141.12972527	312.11919754	4018961.20881	67263706.4968	0
10200000.0	70090.0	544884545.168	0.343480871451	174257.348633	0.655146781355	1.20674133301	41723.9470252	25140.6585693	4115.20360069	315.165561782	3023267.56413	67268606.9038	0
10225000.0	70294.0	549508911.608	0.34348953522	174258.764648	0.658625504002	1.20619189739	41712.4048645	25138.2720947	4089.65082729	318.222228063	2013714.00798	67273507.8275	0
10250000.0	70498.0	554158162.238	0.343492123184	174260.168457	0.662112142891	1.20565402508	41701.9327317	25136.6897583	4064.47092028	321.288610556	1056495.04391	67278409.2678	0
10275000.0	70702.0	558832357.161	0.343489028884	174261.572266	0.665606756229	1.20512735844	41692.5014403	25135.8810425	4039.65006722	324.365118049	274069.143494	67283311.2249	0
10300000.0	70906.0	563531556.004	0.343480477654	174262.963867	0.669109344017	1.20461165905	41684.0475287	25135.8016968	4015.20120988	327.450053195	125231.327652	67288213.6988	0
10325000.0	71110.0	568255816.973	0.343466864073	174264.343262	0.672619789839	1.2041066885	41676.5443682	25136.4242554	3991.1062743	330.544258034	965745.825095	67293116.6894	0
10350000.0	71314.0	573005198.455	0.343448358085	174265.710449	0.676137919072	1.20361220837	41669.9344822	25137.6998901	3967.35630125	333.647908368	2331656.58911	67298020.1969	0
10375000.0	71518.0	577779759.17	0.343425467419	174267.077637	0.679663848132	1.2031276226	41664.1757532	25139.5980835	3943.95117626	336.760307436	4166931.96861	67302924.2213	0
10400000.0	71722.0	582579556.193	0.343398390631	174268.42041	0.683197344188	1.20265293121	41659.2173403	25142.074585	3920.87784649	339.048989049	11782704.6869	67307828.7626	0
10425000.0	71925.0	587404726.956	0.343367326472	174269.189453	0.686749990564	1.20219361782	41655.129962	25145.1080322	3898.35038279	342.132900729	8959027.99142	67312733.8208	0
10450000.0	72129.0	592255247.699	0.343332754878	174270.556641	0.690298562404	1.20173835754	41651.6608885	25148.6297607	3875.91405047	346.113979916	12424098.3657	67317639.3961	0
10475000.0	72333.0	597131175.052	0.343294874653	174271.875	0.69385470124	1.20129203796	41648.8548919	25152.6138306	3853.78455713	348.408086816	3793531.18452	67322545.4883	0
10500000.0	72536.0	602032646.214	0.343253940812	174272.644043	0.697429873981	1.20086061954	41646.7895589	25157.0404053	3832.17690307	351.519542015	1726106.56316	67327452.0976	0
10525000.0	72740.0	606959639.911	0.343208467094	174273.950195	0.701001205016	1.20043468475	41645.4681299	25162.0483398	3810.64437674	354.680625497	233497.255697	67332359.224	0
10550000.0	72943.0	611912298.486	0.343158204429	174274.560547	0.704592501279	1.20002615452	41645.1207078	25167.6940918	3789.61145605	357.810369426	620387.42105	67337266.8676	0
10575000.0	73147.0	616890601.319	0.343103241232	174275.634766	0.708180246875	1.19962310791	41645.5364996	25173.9456177	3768.64911067	360.989695854	2623665.73344	67342175.0283	0
10600000.0	73350.0	621894690.733	0.34304425539	174276.037598	0.711787608452	1.19923567772	41646.8208286	25180.7571411	3748.17308114	363.24251945	14612053.6283	67347083.7062	0
10625000.0	73553.0	626924626.221	0.342981307156	174276.318359	0.715403002687	1.19885838032	41648.8523093	25188.0828857	3727.95974634	366.391664718	10398576.99	67351992.9013	0
10650000.0	73756.0	631980467.682	0.34291501769	174276.513672	0.719026254956	1.19849026203	41651.5622443	25195.8831787	3708.00605167	369.550053111	6558935.33772	67356902.6137	0
10675000.0	73959.0	637062274.746	0.342845559025	174276.5625	0.722657481674	1.19813072681	41654.9221107	25204.133606	3688.3089905	372.717406871	3258836.25271	67361812.8435	0
10700000.0	74162.0	642170105.323	0.342773299193	174276.513672	0.726296508219	1.19777941704	41658.8691781	25212.7746582	3668.85754695	375.894420543	782278.823533	67366723.5905	0
10725000.0	74365.0	647304017.345	0.342698689759	174276.330566	0.729943043552	1.19743585587	41663.379089	25221.7971802	3649.64893459	379.081043027	397263.498356	67371634.855	0
10750000.0	74568.0	652464068.797	0.342622125642	174276.013184	0.733597029466	1.19709932804	41668.384238	25231.1447144	3630.67642325	382.277520905	2757808.65777	67376546.6368	0
10775000.0	74771.0	657650314.0	0.34254374936	174275.561523	0.737258582376	1.19676935673	41673.8397085	25240.7806396	3611.93340696	385.484021165	6346121.51051	67381458.9361	0
10800000.0	74974.0	662862810.549	0.34246417859	174274.951172	0.740927585866	1.19644582272	41679.7136871	25250.6729126	3593.41340083	387.743452304	10016897.6076	67386371.7529	0
10825000.0	75176.0	668101697.927	0.342382911939	174273.608398	0.7446159143	1.19613456726	41686.1287868	25260.8520508	3575.30630942	390.919601202	5700834.7317	67391285.0872	0
10850000.0	75379.0	673366954.233	0.342297996388	174272.558594	0.748300633859	1.19582760334	41693.2234259	25271.5637207	3557.22406182	394.147844058	2161889.51784	67396198.939	0
10875000.0	75581.0	678658724.967	0.34221058214	174270.76416	0.752005318645	1.19553422928	41700.9734718	25282.6599121	3539.54415392	397.342508617	41805.429105	67401113.3084	0
10900000.0	75784.0	683976984.61	0.342119417287	174269.65332	0.75570557965	1.19524514675	41709.3972332	25294.2764282	3521.87864627	400.590763542	1839972.11661	67406028.1955	0
10925000.0	75986.0	689321874.495	0.342025623479	174268.151855	0.759425398428	1.19496846199	41718.4969517	25306.3140869	3504.60527708	402.808140017	17365994.1092	67410943.6002	0
10950000.0	76188.0	694693452.895	0.341929009954	174266.821289	0.763152609579	1.19469952583	41728.1893972	25318.7591553	3487.52001222	406.025522616	11368763.9789	67415859.5226	0
10975000.0	76390.0	700091775.598	0.341830082991	174265.612793	0.766887562349	1.19443798065	41738.4618534	25331.6085815	3470.62473474	409.25302183	6163009.98882	67420775.9627	0
11000000.0	76592.0	705516899.399	0.341729069389	174264.624023	0.77062973287	1.19418358803	41749.2523271	25344.8028564	3453.92128018	412.490309933	2065223.65477	67425692.9206	0
11025000.0	76794.0	710968879.878	0.341626028551	174263.793945	0.77437935397	1.19393622875	41760.5472592	25358.3374023	3437.39634181	415.738465759	65075.8390036	67430610.3963	0
11050000.0	76996.0	716447773.255	0.341521548171	174263.146973	0.778136192821	1.19369542599	41772.2793798	25372.1511841	3421.05188048	418.99701794	2794062.70781	67435528.3898	0
11075000.0	77198.0	721953633.43	0.341415519784	174262.695312	0.781900365837	1.19346034527	41784.4298639	25386.2518311	3404.87859442	422.266682509	7540405.39379	67440446.9011	0
11100000.0	77400.0	727486514.878	0.341308418485	174262.451172	0.785671523772	1.1932309866	41796.9301863	25400.5722046	3388.87478861	424.494183804	9740534.79184	67445365.9304	0
11125000.0	77601.0	733046557.517	0.341200829235	174261.84082	0.789462006651	1.19301187992	41809.8045509	25415.0680542	3373.20915317	427.7330877	4458277.88404	67450285.4775	0
11150000.0	77803.0	738633734.425	0.341089563107	174261.950684	0.793247949332	1.19279754162	41823.3566418	25430.0964355	3357.53851867	431.026990012	690246.80381	67455205.5427	0
11175000.0	78004.0	744248188.769	0.340975985617	174261.633301	0.797053799033	1.19259500504	41837.523663	25445.5062866	3342.19020637	433.209754652	28408390.3289	67460126.1258	0
11200000.0	78205.0	749889979.163	0.340859769045	174261.450195	0.800867564976	1.1924008131	41852.2854183	25461.3174438	3327.00337731	437.55737867	5736291.03093	67465047.227	0
11225000.0	78407.0	755559077.391	0.340740448281	174261.950684	0.804676499683	1.19221007824	41867.6259613	25477.5894165	3311.80555892	440.883413546	12187015.9598	67469968.8462	0
11250000.0	78608.0	761255627.318	0.340619772609	174262.036133	0.808505224995	1.19203019142	41883.4228856	25494.1009521	3296.9196875	443.073163643	5923713.49784	67474890.9835	0
11275000.0	78809.0	766979685.292	0.340497330366	174262.280273	0.812341284472	1.19185638428	41899.649246	25510.8963013	3282.18000531	446.367878395	1268440.48326	67479813.6389	0
11300000.0	79010.0	772731307.741	0.340373374052	174262.670898	0.816185027361	1.1916885376	41916.279597	25527.9495239	3267.58156062	448.555152173	30912528.7272	67484736.8125	0
11325000.0	79210.0	778510640.34	0.340249038728	174262.646484	0.820048735477	1.1915293932	41933.1729944	25545.098877	3253.2802162	451.818103821	21590600.1402	67489660.5043	0
11350000.0	79411.0	784317651.427	0.340123166912	174263.330078	0.823907204904	1.19137132168	41950.4160643	25562.5228882	3238.95611415	456.273278618	12386555.307	67494584.7143	0
11375000.0	79612.0	790152397.53	0.339996671614	174264.147949	0.827773124911	1.19121778011	41967.9002752	25580.0689697	3224.79775919	458.465353786	6314267.19056	67499509.4425	0
11400000.0	79812.0	796015020.149	0.339870600852	174264.562988	0.831658835523	1.19107103348	41985.5256403	25597.6257324	3210.98332387	461.749091802	1350752.32046	67504434.6891	0
11425000.0	80013.0	801905487.773	0.339743880517	174265.673828	0.835539074615	1.19092392921	42003.3487778	25615.3289795	3197.20349417	465.08179798	1028672.49318	67509360.454	0
11450000.0	80213.0	807823945.44	0.339616594663	174266.381836	0.839439453557	1.19078493118	42021.4458607	25633.1451416	3183.75894326	467.202401147	22384567.1601	67514286.7372	0
11475000.0	80413.0	813770452.758	0.339487260842	174267.1875	0.843347748742	1.19065177441	42040.0119249	25651.2878418	3170.48928198	470.485407544	13602140.6077	67519213.5388	0
11500000.0	80613.0	819745067.873	0.33935607604	174268.066406	0.847263610922	1.19052457809	42059.0085278	25669.7052002	3157.39279271	473.770948331	6279526.33408	67524140.8588	0
11525000.0	80813.0	825747850.54	0.339223511063	174269.055176	0.851187272929	1.19040262699	42078.386474	25688.3728027	3144.45742687	477.060204661	1100847.82878	67529068.6973	0
11550000.0	81013.0	831778856.323	0.339089788575	174270.129395	0.855118385516	1.19028520584	42098.0889075	25707.2540283	3131.68164558	480.353142701	1505794.17951	67533997.0543	0
11575000.0	81213.0	837838144.839	0.33895524014	174271.30127	0.85905729793	1.1901730299	42118.0926947	25726.3061523	3119.06050794	482.440741664	21937643.4196	67538925.9297	0
11600000.0	81412.0	843925862.632	0.338821017401	174272.033691	0.863016233779	1.19006812572	42138.249107	25745.3765869	3106.73582237	485.685601636	12818634.8127	67543855.3238	0
11625000.0	81612.0	850041977.138	0.338685861673	174273.364258	0.866970047355	1.18996417522	42158.6920672	25764.6697998	3094.40887329	490.208248171	25389857.2473	67548785.2363	0
11650000.0	81812.0	856186545.982	0.33855081373	174274.780273	0.870931311511	1.18986427784	42179.3028947	25784.0362549	3082.22220597	492.284800305	502099.890654	67553715.6675	0
11675000.0	82011.0	862359714.39	0.338417020255	174275.756836	0.874912831932	1.18977129459	42199.9314609	25803.302002	3070.30601562	494.303057072	31830352.7507	67558646.6173	0
11700000.0	82210.0	868561539.43	0.338283932726	174276.818848	0.878901744727	1.18968129158	42220.6377758	25822.5799561	3058.52320464	497.559773958	21207253.3024	67563578.0858	0
11725000.0	82409.0	874792076.49	0.338151822227	174277.954102	0.882897758856	1.18959498405	42241.3789046	25841.809082	3046.86255372	500.822784434	12077154.9761	67568510.073	0
11750000.0	82608.0	881051383.218	0.338020523144	174279.150391	0.886901165359	1.18951249123	42262.1946939	25861.0321045	3035.31967666	504.092323533	4811026.09883	67573442.5789	0
11775000.0	82807.0	887339517.699	0.337888209966	174280.395508	0.890912662726	1.18943655491	42283.3466459	25880.4443359	3023.89689079	507.367291775	250420.777942	67578375.6036	0
11800000.0	83006.0	893656539.666	0.337755021185	174281.665039	0.894931494258	1.18936622143	42304.8107076	25900.0366211	3012.58655294	510.649083159	3035146.48692	67583309.1471	0
11825000.0	83205.0	900002506.636	0.337621285117	174282.983398	0.898958183825	1.18930149078	42326.5432681	25919.7753906	3001.38113112	513.938390441	9942144.44144	67588243.2094	0
11850000.0	83404.0	906377480.153	0.337487301894	174284.301758	0.902992847841	1.18924212456	42348.5048634	25939.6270752	2990.28633487	515.934310866	11744565.6908	67593177.7906	0
11875000.0	83602.0	912781609.134	0.337354103317	174285.131836	0.907048117369	1.18918943405	42370.5252841	25959.4238281	2979.42227949	519.180619663	4382961.90674	67598112.8907	0
11900000.0	83801.0	919214858.268	0.337220277803	174286.51123	0.911097624339	1.18913805485	42392.7730918	25979.3792725	2968.52598863	522.483634742	51995.1518204	67603048.5097	0
11925000.0	83999.0	925677380.556	0.337087912971	174287.390137	0.915168202482	1.18909263611	42414.9892718	25999.2095947	2957.85140734	524.421647086	32451347.6958	67607984.6476	0
11950000.0	84197.0	932169232.501	0.336956355826	174288.256836	0.919246231206	1.18904983997	42437.2205971	26019.0002441	2947.26375016	527.684733317	21363655.6149	67612921.3046	0
11975000.0	84395.0	938690472.142	0.336825956237	174289.147949	0.923331826925	1.18900895119	42459.4201679	26038.7176514	2936.76558229	530.956085092	11905818.5105	67617858.4806	0
12000000.0	84593.0	945241157.894	0.336696927859	174290.039062	0.927425164264	1.18896996975	42481.5554401	26058.3312988	2926.34657772	534.237270706	4492154.15067	67622796.1756	0
12025000.0	84791.0	951821347.791	0.336569591753	174290.917969	0.931525835767	1.18893194199	42503.5601763	26077.7984619	2916.00936035	537.527875276	108625.48054	67627734.3898	0
12050000.0	84989.0	958431098.213	0.336444214068	174291.784668	0.93563424889	1.18889427185	42525.3912658	26097.0855713	2905.75013364	540.828186816	3406272.43393	67632673.1231	0
12075000.0	85187.0	965070450.087	0.336319900596	174292.675781	0.939747318625	1.18885815144	42547.1950369	26116.3085938	2895.55561402	542.768223193	23604035.1343	67637612.3755	0
12100000.0	85384.0	971739572.686	0.336196460446	174292.993164	0.943884253502	1.18882811069	42569.0352234	26135.4705811	2885.56477207	546.031085971	13967663.8275	67642552.1472	0
12125000.0	85582.0	978438435.386	0.336072410743	174293.725586	0.948015833274	1.18879890442	42591.0927314	26154.800415	2875.51684241	549.355194161	6061881.9103	67647492.4381	0
12150000.0	85779.0	985167192.446	0.335949717243	174293.920898	0.952168542426	1.18877518177	42613.0954856	26173.9929199	2865.65806911	552.639834523	792635.350133	67652433.2482	0
12175000.0	85977.0	991925806.178	0.335826898185	174294.543457	0.956315721851	1.18875205517	42635.2574851	26193.2983398	2855.73903084	555.986819081	2122352.0182	67657374.5777	0
12200000.0	86174.0	998714435.393	0.335705969138	174294.567871	0.960484554525	1.18873369694	42657.2652656	26212.387085	2846.00118714	557.878812991	28121426.8368	67662316.4265	0
12225000.0	86371.0	1005533137.2	0.335586254858	174294.519043	0.964661012404	1.18871760368	42679.2339951	26231.3842773	2836.31834776	561.191024069	17835914.4187	67667258.7946	0
12250000.0	86568.0	1012381973.99	0.335467940659	174294.421387	0.968845153693	1.18870389462	42701.1219249	26250.2471924	2826.69017695	564.515855702	9233755.48795	67672201.6822	0
12275000.0	86765.0	1019261006.03	0.335351345422	174294.177246	0.97303732764	1.18869173527	42722.8705975	26268.9453125	2817.11943446	567.852478956	2784895.42269	67677145.0892	0
12300000.0	86962.0	1026170291.34	0.33523659962	174293.835449	0.977237476036	1.18868172169	42744.4795338	26287.4572754	2807.59342751	571.203422492	288979.480238	67682089.0157	0
12325000.0	87159.0	1033109892.75	0.335123886976	174293.408203	0.981445540674	1.18867349625	42765.8989974	26305.7373047	2798.11806571	574.567488735	4799085.31864	67687033.4616	0
12350000.0	87356.0	1040079867.47	0.335013471054	174292.834473	0.985661172308	1.1886664629	42787.0976065	26323.7731934	2788.68692978	576.479291026	25255943.8023	67691978.4272	0
12375000.0	87552.0	1047080371.57	0.334906336825	174291.650391	0.989898573607	1.18866240978	42807.9132136	26341.394043	2779.41574945	579.811604871	15935778.1022	67696923.9123	0
12400000.0	87749.0	1054111374.42	0.334799297819	174290.808105	0.994130270556	1.18866074085	42828.876912	26359.0667725	2770.06894006	583.210794889	8068381.9002	67701869.917	0
12425000.0	87945.0	1061173032.46	0.334693849541	174289.282227	0.998383853585	1.18866598606	42849.7835431	26376.5563965	2760.87481309	586.573040001	2275796.99423	67706816.4413	0
12450000.0	88142.0	1068265311.11	0.334588254139	174288.183594	1.00263173226	1.18867361546	42870.8832709	26394.1375732	2751.60546013	590.002695838	465226.916895	67711763.4853	0
12475000.0	88338.0	1075388367.78	0.334484112399	174286.682129	1.00690114778	1.18868613243	42891.8991529	26411.5539551	2742.48465974	591.885993763	38102984.6587	67716711.0491	0
12500000.0	88534.0	1082542264.09	0.334380781881	174285.314941	1.01117813028	1.18870151043	42912.9390644	26428.9215088	2733.39709341	596.249007469	0.0	67721659.1325	0
