z	T	P	nabla_ad	S	rho	delta	cp	cv	opac	frad	fconv	ftot	dT
0.0	3900.0	572.364752614	0.341914097579	164317.712402	2.31103420845e-05	1.03682506084	19609.3235714	12800.1739502	0.00161334480073	0.0	80575.3713785	65311815.0903	0
25000.0	3900.0	754.720605644	0.327739325939	162484.741211	3.04983949206e-05	1.04837739468	20752.4425406	13802.1514893	0.0019128243882	0.0	106152.534825	65316507.3538	0
50000.0	3900.0	995.455640844	0.311299216353	160628.894043	4.02700450763e-05	1.06333565712	22237.3597812	15102.2659302	0.00226861257949	0.0	139947.392932	65321200.1229	0
75000.0	3900.0	1313.45491632	0.292786872818	158743.664551	5.32091277705e-05	1.08288037777	24160.7289099	16781.262207	0.0026947664428	0.0	184801.505214	65325893.3976	0
100000.0	3900.0	1733.85164319	0.272596331512	156819.848633	7.03697651261e-05	1.10827791691	26639.2021958	18937.6068115	0.00320907305763	0.0	244681.817834	65330587.1781	0
125000.0	3900.0	2290.20032699	0.251354603639	154845.202637	9.31747266009e-05	1.14105343819	29809.734181	21684.3475342	0.00382930631237	0.0	325315.143488	65335281.4644	0
150000.0	3900.0	3027.46490876	0.229869591071	152827.966309	0.000123558507426	1.18304133415	33826.868178	25144.9234009	0.00457914843271	98289810.0995	249881.069529	65339976.2566	0
175000.0	4053.0	3956.80711536	0.258475457827	152032.165527	0.000154828981636	1.13601410389	28736.3322551	20682.7438354	0.00699815724995	79650910.8047	280054.12016	65344671.5548	-2
200000.0	4111.0	5152.57246019	0.256010875462	150535.388184	0.000198866246137	1.14295876026	29174.25331	21032.5912476	0.00909339732929	97812702.9651	92329.2030082	65349367.3591	-3
225000.0	4472.0	6559.82946174	0.326745635119	150865.393066	0.000231327760503	1.0583293438	20908.1075956	13843.6035156	0.0179950525635	78776008.569	54294.0144677	65354063.6694	-3
250000.0	4712.0	8245.28284617	0.352007307525	150377.404785	0.000275287959539	1.03683614731	18914.1847092	12111.9796753	0.0258506396874	97087052.5218	0.000907398494102	65358760.4858	-7
275000.0	5562.0	10006.4433776	0.388263624668	151954.321289	0.000282728450429	1.00731909275	16527.3082999	10074.9153137	0.0399800906339	76878781.865	91.3981417134	65363457.8085	0
300000.0	5554.0	12147.6693529	0.38695033095	150681.115723	0.00034377535485	1.00872302055	16610.5557317	10142.3080444	0.0466156373495	115551653.594	0.228931070298	65368155.6374	0
325000.0	7126.0	14059.1982528	0.327827317401	154611.315918	0.000299838461615	1.02668058872	19802.2574642	13084.7076416	0.388498266924	99189232.2254	3615.6415684	65372853.9727	-223
350000.0	10269.0	15486.552705	0.121700908356	168237.573242	0.000218846878397	1.59083592892	87075.555307	70356.3476562	10.759182873	10071618.5365	39230112.5602	65377552.8144	-98
375000.0	10829.0	16938.0000565	0.11157186069	171931.420898	0.000221846434556	1.78453886509	109846.487107	88456.4758301	16.463637422	1638948.74665	3660210.28029	65382252.1626	-39
400000.0	11135.0	18459.072409	0.108353674654	173712.854004	0.000232119276689	1.88252580166	121405.81715	97370.2880859	20.4231276358	675192.028239	726261.883614	65386952.0172	-3
425000.0	11251.0	20091.8571852	0.108063865702	173803.149414	0.000249028744292	1.90494608879	123745.903665	99069.7692871	22.5000303311	330536.636357	1391.1039958	65391652.3785	0
450000.0	11353.0	21846.0209294	0.107955790855	173801.000977	0.00026736964287	1.92241454124	125492.923339	100306.500244	24.5475532691	275094.638001	5302.24259359	65396353.2465	0
475000.0	11455.0	23728.5044449	0.107867535717	173821.582031	0.000286753817136	1.93999874592	127272.412991	101564.123535	26.7284821324	240789.8442	6179.0552883	65401054.6211	0
500000.0	11556.0	25746.9959361	0.10782906717	173826.013184	0.000307316412318	1.95634567738	128911.866617	102709.716797	29.0310650199	211332.162744	7743.33919542	65405756.5026	0
525000.0	11657.0	27909.5444731	0.107835077458	173801.501465	0.000329106597974	1.97168707848	130401.998503	103730.419922	31.4774763671	186816.664905	4546.36430294	65410458.8909	0
550000.0	11758.0	30224.4839064	0.107846068481	173802.001953	0.000352087340616	1.98707520962	131925.528267	104775.20752	34.0712612278	164739.656477	6485.62663386	65415161.7861	0
575000.0	11858.0	32700.4736317	0.107876169397	173814.624023	0.000376365250077	2.00206041336	133431.182185	105806.091309	36.7962876019	145643.518601	8801.51246794	65419865.1883	0
600000.0	11958.0	35346.2335861	0.107929422465	173829.040527	0.000401971192332	2.01656866074	134883.103233	106790.686035	39.6773746878	129690.491372	5492.48861487	65424569.0975	0
625000.0	12058.0	38171.2008482	0.108022063131	173812.133789	0.000429034628269	2.02981996536	136147.497572	107621.875	42.7212160394	115707.159768	3028.0930713	65429273.5139	0
650000.0	12158.0	41185.3738536	0.108135065706	173805.224609	0.000457528244624	2.04315805435	137418.956352	108453.442383	45.9308883343	102933.583037	6033.88784163	65433978.4373	0
675000.0	12257.0	44399.09646	0.108267663283	173813.378906	0.000487546287786	2.0562748909	138684.623227	109279.882812	49.2852085389	91775.2650745	9845.32423312	65438683.868	0
700000.0	12356.0	47822.5428862	0.108414607378	173831.848145	0.000519102229646	2.06901335716	139920.405777	110081.066895	52.8123973059	82404.4119661	7330.31901118	65443389.806	0
725000.0	12455.0	51466.5903462	0.108582152418	173834.155273	0.000552328401682	2.08073711395	141024.695967	110777.319336	56.5189295377	74121.7106279	5263.58479338	65448096.2513	0
750000.0	12554.0	55343.0686109	0.108770307246	173809.191895	0.00058733479591	2.09140491486	141973.496504	111349.023438	60.411030935	66780.5415712	3694.4106035	65452803.204	0
775000.0	12653.0	59463.8577152	0.108966667657	173811.254883	0.000624017559403	2.1025261879	142994.091575	111973.706055	64.4879779673	59980.7002236	8618.51886416	65457510.6642	0
800000.0	12751.0	63841.3773431	0.109180856199	173822.485352	0.000662558704789	2.11338043213	143997.37401	112585.168457	68.7225575642	54251.9855035	6959.28937347	65462218.6319	0
825000.0	12850.0	68487.2205858	0.109402656795	173848.266602	0.000702854094925	2.12419652939	145003.636272	113194.873047	73.1751582548	49157.1969969	5271.29540672	65466927.1071	0
850000.0	12948.0	73415.4297736	0.109649720416	173838.94043	0.000745314537198	2.13362002373	145821.772602	113659.655762	77.7915741914	44384.6033397	12672.4815149	65471636.09	0
875000.0	13046.0	78640.461109	0.109910516159	173810.644531	0.000789901605458	2.14216852188	146519.682974	114030.358887	82.6073426794	40545.9099762	3515.79424482	65476345.5805	0
900000.0	13145.0	84175.491723	0.110175843031	173820.751953	0.000836340973365	2.15133571625	147316.873588	114473.571777	87.6561520624	36916.6745631	2550.30526592	65481055.5789	0
925000.0	13243.0	90035.302378	0.110458276449	173837.304688	0.000884996211425	2.16015458107	148087.660492	114897.973633	92.8772474728	33496.9150939	10317.8508873	65485766.085	0
950000.0	13341.0	96234.5972697	0.110752349501	173855.639648	0.000935877551456	2.16858053207	148817.98515	115291.210938	98.3114848833	30594.1428096	9718.93317303	65490477.0989	0
975000.0	13439.0	102789.208556	0.111058213269	173852.416992	0.000989193381429	2.17618966103	149437.933284	115600.268555	103.969059571	27977.697304	9590.38040554	65495188.6208	0
1000000.0	13537.0	109716.336062	0.111370904615	173826.123047	0.00104505454601	2.1829855442	149949.501049	115827.807617	109.857365935	25615.071306	9899.08990918	65499900.6506	0
1025000.0	13635.0	117032.795466	0.111688954374	173823.4375	0.00110326971026	2.18990111351	150506.334298	116091.662598	115.974822909	23486.3991115	10036.9478495	65504613.1885	0
1050000.0	13733.0	124754.976267	0.112015550499	173838.793945	0.00116392448035	2.19680738449	151084.750714	116372.888184	122.327789879	21564.6667487	10128.432009	65509326.2344	0
1075000.0	13831.0	132900.061417	0.112351645771	173859.338379	0.00122716778606	2.20340251923	151635.257579	116633.300781	128.924822492	19825.1589726	10389.7971949	65514039.7885	0
1100000.0	13929.0	141486.422544	0.112697709151	173866.784668	0.00129321574605	2.20937633514	152102.791823	116830.810547	135.777111928	18245.622599	11171.9078489	65518753.8507	0
1125000.0	14027.0	150533.95391	0.113052504743	173843.212891	0.00136230028147	2.21454977989	152447.953365	116935.253906	142.895426698	16807.3652435	12837.5214388	65523468.4212	0
1150000.0	14125.0	160063.195556	0.113415306593	173830.993652	0.00143423471854	2.21961927414	152797.754916	117044.604492	150.27807332	15500.5083955	14818.8920477	65528183.5	0
1175000.0	14223.0	170093.468277	0.113786766142	173838.525391	0.0015089747194	2.22467637062	153169.880012	117172.192383	157.91864146	14386.8211511	1713.35875484	65532899.0871	0
1200000.0	14322.0	180642.799882	0.11416449514	173867.248535	0.00158641728376	2.22977256775	153563.476987	117314.746094	165.863248108	13303.0121319	2223.21165694	65537615.1826	0
1225000.0	14420.0	191733.686502	0.114551560143	173882.324219	0.00166726158568	2.23416185379	153869.741137	117394.506836	174.025728531	12251.0975939	21986.5182966	65542331.7865	0
1250000.0	14518.0	203388.523313	0.114943892044	173877.233887	0.00175153093096	2.23793053627	154086.100663	117407.214355	182.46434677	11350.6562474	26308.0444954	65547048.8989	0
1275000.0	14616.0	215631.463347	0.115344820265	173850.549316	0.00183939641829	2.24133777618	154240.635341	117373.474121	191.186798578	10579.3489765	8102.26575108	65551766.5199	0
1300000.0	14715.0	228484.257718	0.115752145647	173852.34375	0.00193022333406	2.24494457245	154445.467574	117377.233887	200.236715374	9822.8181266	11288.4555	65556484.6494	0
1325000.0	14813.0	241971.600788	0.116167261198	173858.398438	0.00202470505428	2.24814105034	154617.798087	117360.888672	209.518695839	9129.5862751	15469.6780673	65561203.2876	0
1350000.0	14912.0	256115.021617	0.11658760743	173881.640625	0.00212239410757	2.25121927261	154791.371477	117345.263672	219.146230576	8494.82089293	20077.3184267	65565922.4345	0
1375000.0	15010.0	270941.588936	0.117012795596	173889.562988	0.00222417384066	2.25359368324	154879.19212	117269.604492	229.025219692	7910.36671775	26513.2210632	65570642.0901	0
1400000.0	15109.0	286475.321176	0.11744537142	173891.967773	0.00232961519941	2.25578260422	154938.451588	117171.520996	239.2762393	7410.18311288	5280.25400391	65575362.2545	0
1425000.0	15208.0	302744.248237	0.1178858489	173873.535156	0.00243924250753	2.25775933266	154954.787493	117041.589355	249.859038581	6911.49199202	10766.6905151	65580082.9277	0
1450000.0	15307.0	319776.499555	0.118332153295	173867.96875	0.00255271811511	2.25960063934	154972.058735	116914.306641	260.766989427	6452.38562562	17875.3016939	65584804.1097	0
1475000.0	15406.0	337598.909776	0.118783572194	173874.938965	0.00267012615041	2.26120185852	154977.702991	116780.651855	272.009990971	6029.18466973	26622.5024139	65589525.8007	0
1500000.0	15505.0	356239.157495	0.119238977278	173887.768555	0.00279165578831	2.26244211197	154950.716434	116624.926758	283.601006279	5638.33943488	37343.3637978	65594248.0007	0
1525000.0	15604.0	375725.782557	0.11970159078	173901.025391	0.00291746619041	2.26334834099	154890.080045	116446.166992	295.553677679	5303.45701528	9347.29647545	65598970.7096	0
1550000.0	15704.0	396085.699423	0.120173757398	173915.673828	0.00304734840029	2.26416039467	154818.892006	116258.850098	307.947211886	4967.36304258	18069.005911	65603693.9276	0
1575000.0	15803.0	417354.067965	0.120649163968	173897.32666	0.00318260890708	2.26461148262	154680.708109	116024.21875	320.683117926	4654.28182328	31671.6778859	65608417.6547	0
1600000.0	15903.0	439561.884353	0.121128626737	173885.791016	0.0033221360809	2.26504611969	154544.481116	115790.527344	333.885621769	4386.23997649	5013.42545341	65613141.891	0
1625000.0	16003.0	462741.198391	0.121611393646	173885.693359	0.00346620709024	2.26521468163	154391.581259	115547.009277	347.477696071	4116.16829674	14801.1951964	65617866.6364	0
1650000.0	16103.0	486923.288917	0.122101208918	173895.43457	0.00361490356227	2.26511240005	154220.558111	115292.687988	361.469065623	3865.65305992	28678.5421083	65622591.891	0
1675000.0	16203.0	512140.19877	0.122600604716	173911.218262	0.00376836896976	2.26477479935	154031.19017	115026.855469	375.86880855	3633.01287467	47156.4159099	65627317.6548	0
1700000.0	16303.0	538425.702549	0.123107007398	173924.87793	0.00392690208173	2.26419830322	153814.550486	114742.480469	390.695026726	3433.61058765	11646.2845679	65632043.928	0
1725000.0	16404.0	565811.960131	0.123618907878	173935.668945	0.00409029416915	2.26352381706	153580.821163	114444.750977	406.036738378	3231.21470961	28018.2556529	65636770.7105	0
1750000.0	16504.0	594341.486387	0.124126707314	173913.378906	0.00426014639743	2.26259422302	153291.575466	114108.435059	421.782168073	3041.52447354	52934.5493915	65641498.0024	0
1775000.0	16605.0	624049.920441	0.124640651446	173901.550293	0.00443482213086	2.26158285141	153004.222968	113774.157715	438.055926266	2879.40394018	14167.8028382	65646225.8037	0
1800000.0	16706.0	654973.523678	0.125163605086	173902.380371	0.00461466106572	2.26034164429	152708.553166	113436.560059	454.788023228	2714.31548501	35753.3968767	65650954.1145	0
1825000.0	16807.0	687148.62589	0.12569446101	173911.791992	0.00479986283608	2.25885725021	152397.462936	113090.124512	471.984810575	2560.38616566	65446.0581762	65655682.9347	0
1850000.0	16908.0	720613.100519	0.126231282768	173924.511719	0.00499068664794	2.2571284771	152063.860928	112729.150391	489.643925563	2428.69194992	19661.0048008	65660412.2645	0
1875000.0	17010.0	755402.041735	0.126774663759	173943.017578	0.00518673823535	2.25523781776	151714.97297	112357.104492	507.85277424	2305.42660167	3423.35110853	65665142.1038	0
1900000.0	17112.0	791556.193249	0.127322596229	173953.100586	0.00538891617907	2.25314831734	151337.940599	111966.125488	526.549979252	2178.87243769	6910.3214302	65669872.4527	0
1925000.0	17214.0	829118.586873	0.1278733442	173946.936035	0.00559762065677	2.25098276138	150939.971695	111561.096191	545.755449838	2060.22365854	33127.5679309	65674603.3113	0
1950000.0	17316.0	868135.076785	0.128425267607	173930.065918	0.00581288804824	2.24876976013	150529.834015	111148.547363	565.47171807	1948.99355447	74420.3666196	65679334.6795	0
1975000.0	17418.0	908649.844307	0.128982832811	173922.424316	0.00603421131018	2.24634933472	150109.501511	110730.895996	585.682552747	1853.98522998	23115.9918872	65684066.5575	0
2000000.0	17521.0	950700.002985	0.129548957679	173930.114746	0.00626095243206	2.24374294281	149682.530393	110309.069824	606.476567827	1756.37178316	62493.3603014	65688798.9451	0
2025000.0	17623.0	994333.583328	0.130119169849	173934.814453	0.00649480625725	2.24081397057	149224.931953	109868.933105	627.70036382	1664.62018096	118501.14936	65693531.8426	0
2050000.0	17726.0	1039588.94013	0.130701893083	173950.317383	0.00673432850817	2.23770046234	148756.012154	109421.276855	649.527811765	1594.22965119	11659.3000225	65698265.2498	0
2075000.0	17830.0	1086505.91704	0.131294363416	173970.88623	0.00697977611708	2.23446941376	148275.778057	108965.551758	671.971870368	1513.11571145	5894.08142715	65702999.1668	0
2100000.0	17933.0	1135138.67407	0.131883454165	173972.998047	0.00723336552255	2.23114800453	147771.376495	108494.628906	694.855703475	1436.59550772	45019.7309084	65707733.5937	0
2125000.0	18037.0	1185532.76424	0.132473135233	173965.41748	0.00749382888898	2.22791409492	147264.771106	108021.264648	718.366991869	1364.75115863	109040.364231	65712468.5306	0
2150000.0	18140.0	1237747.39757	0.133060269713	173943.041992	0.00776268916525	2.22461175919	146742.09795	107538.659668	742.333859029	1303.17898632	43972.6478828	65717203.9773	0
2175000.0	18245.0	1291819.37295	0.133666142366	173946.09375	0.00803644161351	2.22112154961	146219.752086	107056.152344	766.991269567	1245.55820346	1394.75648564	65721939.934	0
2200000.0	18349.0	1347803.22784	0.134274565887	173947.583008	0.00831821944303	2.21740484238	145676.804983	106562.084961	792.104955149	1185.25210761	43781.0237651	65726676.4007	0
2225000.0	18454.0	1405741.71975	0.134893846173	173960.742188	0.00860626096255	2.21350598335	145123.803896	106061.450195	817.86222386	1134.06131277	722.482333727	65731413.3773	0
2250000.0	18559.0	1465685.78347	0.135517499101	173974.21875	0.00890183036972	2.20942115784	144553.644822	105550.415039	844.199801581	1080.43539093	45950.059697	65736150.864	0
2275000.0	18664.0	1527687.17856	0.136148059145	173986.035156	0.00920508045965	2.20514082909	143964.290693	105027.502441	871.129157154	1029.82560257	131381.139874	65740888.8608	0
2300000.0	18769.0	1591800.21266	0.136782212844	173991.381836	0.0095164295999	2.20076584816	143362.09278	104496.936035	898.676256741	986.663137573	54933.5388983	65745627.3676	0
2325000.0	18875.0	1658074.58769	0.137420788915	173992.138672	0.0098352193163	2.19642591476	142759.090313	103965.673828	926.957050936	945.787200576	4313.01748187	65750366.3846	0
2350000.0	18981.0	1726570.92497	0.138053949048	173977.697754	0.0101629602796	2.19222331047	142159.699238	103437.878418	955.910018226	902.601890125	72467.1047269	65755105.9117	0
2375000.0	19087.0	1797349.15422	0.138691338048	173966.503906	0.0104987793748	2.1878964901	141551.868397	102905.822754	985.501638191	865.838345505	12615.2729373	65759845.949	0
2400000.0	19194.0	1870455.71893	0.139344407166	173969.665527	0.0108412095869	2.18331408501	140929.583119	102364.575195	1015.81578387	827.225149067	97622.0053257	65764586.4964	0
2425000.0	19300.0	1945954.12331	0.139999431231	173970.239258	0.0111929848572	2.17855477333	140290.845462	101814.526367	1046.69515363	790.543464155	235404.573258	65769327.5541	0
2450000.0	19407.0	2023892.98815	0.140666709192	173980.34668	0.0115518641906	2.17362928391	139641.574493	101257.4646	1078.3332351	763.042914375	6822.22631642	65774069.122	0
2475000.0	19515.0	2104322.21194	0.141344065088	173996.875	0.0119180695037	2.16859388351	138983.90406	100694.482422	1110.74712096	733.46375835	68498.8010183	65778811.2002	0
2500000.0	19623.0	2187301.07859	0.142027514228	174010.791016	0.0122930468933	2.16343712807	138310.818693	100121.337891	1143.86277815	698.781754197	185897.831957	65783553.7886	0
2525000.0	19730.0	2272900.58512	0.142708534148	174011.999512	0.0126785944303	2.15825271606	137627.062118	99542.4682617	1177.60753542	672.053230133	93638.9952438	65788296.8873	0
2550000.0	19839.0	2361167.1106	0.143400881855	174016.882324	0.0130710159283	2.15309095383	136946.148994	98964.5751953	1212.28522637	646.76314046	23627.709503	65793040.4964	0
2575000.0	19947.0	2452179.07351	0.144078101297	174000.585938	0.0134751044243	2.14818310738	136280.147382	98399.2614746	1247.65253871	619.593787234	158344.883918	65797784.6158	0
2600000.0	20056.0	2545996.32337	0.144761327823	173990.808105	0.013887132809	2.14323067665	135617.239684	97837.1643066	1283.80214349	596.649282434	68448.3708582	65802529.2456	0
2625000.0	20165.0	2642681.40302	0.145454848109	173986.315918	0.0143080551425	2.13800096512	134933.668016	97262.5488281	1320.56845131	574.827613465	7660.41356888	65807274.3857	0
2650000.0	20275.0	2742285.55979	0.146165996015	173992.871094	0.0147363989527	2.13246536255	134228.670588	96673.8525391	1358.04917744	554.16456691	28260.0993707	65812020.0363	0
2675000.0	20385.0	2844871.35853	0.146886179166	174002.246094	0.015173898646	2.12672615051	133507.548525	96075.5249023	1396.18126748	532.054589869	54611.0814573	65816766.1973	0
2700000.0	20495.0	2950503.20327	0.14761330735	174012.536621	0.0156208516273	2.120855093	132775.577936	95471.0266113	1434.99010855	513.360889034	2039.43649468	65821512.8687	0
2725000.0	20606.0	3059236.3379	0.14835230872	174028.076172	0.0160758772836	2.11487388611	132035.969076	94861.5356445	1474.58947964	493.364501811	142893.175477	65826260.0506	0
2750000.0	20716.0	3171150.54368	0.149085264335	174033.496094	0.016542724552	2.10896658897	131299.392457	94256.1706543	1514.8324813	476.364496248	57501.0526153	65831007.7429	0
2775000.0	20828.0	3286294.38372	0.149831139613	174044.885254	0.01701668225	2.1030600071	130565.273315	93651.7944336	1556.02511188	460.252790844	3038.44578699	65835755.9457	0
2800000.0	20939.0	3404753.59209	0.150562839491	174040.026855	0.0175034183485	2.09740948677	129848.950028	93061.706543	1597.93255562	442.722615334	167502.544424	65840504.659	0
2825000.0	21051.0	3526594.43191	0.151292126519	174029.663086	0.0179998223757	2.09196591377	129150.780184	92484.564209	1640.76508497	427.948923619	73770.5227817	65845253.8829	0
2850000.0	21163.0	3651894.3205	0.152019983126	174019.665527	0.0185066983249	2.08657336235	128460.518161	91914.3981934	1684.40541367	413.789047528	8641.66940368	65850003.6173	0
2875000.0	21276.0	3780713.44439	0.152755867199	174018.261719	0.0190220707736	2.08111834526	127771.132403	91345.6298828	1728.94448168	400.294750378	30465.0639	65854753.8622	0
2900000.0	21389.0	3913121.34584	0.153501494463	174019.775391	0.0195475622604	2.0754468441	127063.956331	90765.9179688	1774.29497135	385.657521069	98911.3287385	65859504.6177	0
2925000.0	21502.0	4049187.86466	0.154259497011	174023.693848	0.0200832364499	2.06951642036	126334.28887	90171.8933105	1820.46519705	373.324677995	24157.1968351	65864255.8838	0
2950000.0	21616.0	4188970.99749	0.155035543592	174034.594727	0.0206273252843	2.06332945824	125584.368175	89564.3554688	1867.56206405	361.562376933	9860.5951195	65869007.6605	0
2975000.0	21730.0	4332543.46598	0.155818604329	174045.019531	0.0211820552067	2.05702376366	124824.442933	88951.1901855	1915.51558708	348.739059186	168724.13183	65873759.9478	0
3000000.0	21844.0	4479980.27501	0.156605381921	174053.295898	0.0217477900151	2.05067753792	124061.416942	88337.1520996	1964.34451714	337.939959304	79163.5477941	65878512.7458	0
3025000.0	21959.0	4631344.96151	0.157400523249	174063.000488	0.0223228198593	2.04430317879	123297.967854	87723.3520508	2014.16382395	327.613672155	15421.7870064	65883266.0543	0
3050000.0	22074.0	4786717.42889	0.158191536378	174066.162109	0.0229096403928	2.0380563736	122545.914239	87118.6950684	2064.89973122	316.296264038	298678.135595	65888019.8735	0
3075000.0	22189.0	4946181.26428	0.158973667015	174060.290527	0.0235088136833	2.0320289135	121813.178851	86528.6621094	2116.58363145	306.760456006	186104.914731	65892774.2033	0
3100000.0	22305.0	5109808.53077	0.159753882587	174051.550293	0.024118251531	2.02616882324	121097.87668	85951.3244629	2169.29438881	298.908759556	191202.334202	65897529.0438	0
3125000.0	22422.0	5277667.98376	0.160540380941	174049.890137	0.0247367661359	2.02030229568	120388.487795	85378.8635254	2222.97122831	288.896680921	17251.7552653	65902284.395	0
3150000.0	22538.0	5449854.46112	0.16131581085	174044.519043	0.0253690450336	2.01456999779	119694.12416	84818.927002	2277.35854954	279.258798463	331291.022297	65907040.2569	0
3175000.0	22655.0	5626430.49136	0.162108240724	174046.276855	0.0260103206529	2.00860881805	118982.393164	84247.4060059	2332.55912367	272.409372943	97718.7301414	65911796.6295	0
3200000.0	22773.0	5807457.85414	0.162919808556	174054.56543	0.0266605020443	2.00238704681	118249.524195	83661.5905762	2388.56001578	263.611571962	107682.76198	65916553.5128	0
3225000.0	22890.0	5993031.37087	0.163730556356	174058.190918	0.0273245441349	1.99611330032	117511.374717	83073.8098145	2445.22068974	256.223373851	32616.9336063	65921310.9068	0
3250000.0	23009.0	6183199.09826	0.164564133614	174071.459961	0.0279954638245	1.98961889744	116757.305034	82474.7802734	2502.76100778	249.215403935	2593.50867363	65926068.8116	0
3275000.0	23127.0	6378059.48249	0.165390953668	174078.00293	0.028680819014	1.98319780827	116009.361695	81881.6833496	2560.97479366	241.406937064	315707.337874	65930827.2271	0
3300000.0	23246.0	6577680.40422	0.166225412589	174086.474609	0.029376034945	1.97675955296	115262.343722	81289.7216797	2620.01901561	235.931176509	137737.763645	65935586.1533	0
3325000.0	23366.0	6782131.06946	0.167064009078	174095.3125	0.0300813426293	1.97036874294	114522.119657	80703.0212402	2679.89777981	228.757806896	113385.003336	65940345.5903	0
3350000.0	23485.0	6991518.1219	0.167884750229	174092.980957	0.030802366382	1.96425247192	113806.170453	80134.9060059	2740.51608541	222.744428062	36508.0270293	65945105.5381	0
3375000.0	23606.0	7205898.96036	0.168710310799	174092.236328	0.0315317374771	1.9582426548	113103.596288	79576.1474609	2802.07172669	217.018847268	2699.79930112	65949865.9966	0
3400000.0	23726.0	7425386.14275	0.169514799259	174081.506348	0.032277086575	1.95254290104	112430.361162	79039.6789551	2864.38721647	210.574083117	354764.701115	65954626.9659	0
3425000.0	23847.0	7650051.57469	0.170327287329	174077.258301	0.0330320654029	1.94678175449	111757.854543	78504.675293	2927.52277423	206.116077116	170076.507501	65959388.4459	0
3450000.0	23969.0	7879960.63874	0.171157239418	174079.211426	0.0337963501806	1.94078779221	111068.446322	77958.7524414	2991.46852381	200.189886062	115706.027223	65964150.4368	0
3475000.0	24090.0	8115216.32257	0.171985177707	174077.807617	0.0345756416209	1.93475401402	110376.548786	77412.8234863	3056.14321664	195.252510928	35046.7924816	65968912.9385	0
3500000.0	24213.0	8355866.15739	0.172836177025	174086.230469	0.0353616342181	1.92848837376	109668.670213	76855.9143066	3121.69856327	190.558773992	2468.11971812	65973675.951	0
3525000.0	24335.0	8602015.40146	0.173680722605	174090.356445	0.0361629536201	1.92227602005	108966.340574	76304.4006348	3188.02647433	185.231427649	434966.196147	65978439.4743	0
3550000.0	24458.0	8853732.52831	0.174534506433	174098.413086	0.0369741464965	1.91600608826	108262.1129	75752.0812988	3255.22394584	181.602196719	145565.977381	65983203.5085	0
3575000.0	24582.0	9111086.60551	0.175394657466	174109.619141	0.0377952965209	1.90972757339	107560.256881	75201.9042969	3323.32328044	176.676424256	195849.77048	65987968.0534	0
3600000.0	24705.0	9374188.57269	0.176240190995	174114.306641	0.0386326646549	1.90364778042	106876.83337	74665.9362793	3392.27734579	172.584023936	95009.1646875	65992733.1093	0
3625000.0	24830.0	9643090.77684	0.177094978011	174124.487305	0.0394775197492	1.89757823944	106198.812518	74133.8317871	3462.23252316	168.680067503	20640.3538662	65997498.6759	0
3650000.0	24954.0	9917908.86782	0.177928685209	174126.147461	0.0403393169108	1.89180278778	105547.867656	73621.9665527	3533.10657743	164.860113462	19524.3079457	66002264.7534	0
3675000.0	25080.0	10198698.6338	0.178767383804	174130.712891	0.0412091394537	1.88608646393	104906.3897	73116.9128418	3605.0435445	161.210234297	107913.419644	66007031.3418	0
3700000.0	25205.0	10485579.5911	0.179591631208	174123.986816	0.0420965079684	1.88051962852	104276.963926	72621.7346191	3677.93231847	157.008937249	273084.386701	66011798.441	0
3725000.0	25331.0	10778630.2523	0.180422645333	174117.431641	0.0429946012446	1.8748922348	103644.76494	72125.4089355	3751.66039298	153.58912042	142405.642161	66016566.051	0
3750000.0	25457.0	11077945.0598	0.181256168918	174112.268066	0.0439056384494	1.86920440197	103010.725211	71629.095459	3826.13959351	150.280085254	42519.5546592	66021334.1719	0
3775000.0	25584.0	11383592.3135	0.182099659211	174112.37793	0.0448263963335	1.86340785027	102371.842393	71130.279541	3901.3733935	147.105212896	5168.49273834	66026102.8037	0
3800000.0	25711.0	11695662.5833	0.182942402618	174113.500977	0.0457602072856	1.85761320591	101736.64951	70635.168457	3977.34407188	144.031104623	81115.4946395	66030871.9463	0
3825000.0	25839.0	12014224.6486	0.183791371862	174119.262695	0.0467038298666	1.85178029537	101102.591125	70141.5466309	4054.05959987	141.079787869	206302.917145	66035641.5998	0
3850000.0	25967.0	12339370.5909	0.184635495904	174125.341797	0.047660760174	1.84602093697	100478.354055	69655.7495117	4131.51081888	137.681564214	221973.941578	66040411.7643	0
3875000.0	26095.0	12671194.1054	0.185472678282	174131.311035	0.0486312419525	1.84037208557	99867.0829751	69179.888916	4209.69287168	134.921016857	87201.9977396	66045182.4396	0
3900000.0	26224.0	13009766.7117	0.186309177971	174140.50293	0.0496119755553	1.83479690552	99266.5843011	68712.0666504	4288.61505862	132.2675408	1944.23113189	66049953.6258	0
3925000.0	26353.0	13355184.7477	0.187136874143	174148.31543	0.0506066498929	1.82934570312	98679.6943493	68254.6325684	4368.27338609	129.191173912	648938.430429	66054725.3229	0
3950000.0	26482.0	13707546.3287	0.187960686529	174153.564453	0.0516155378136	1.82392048836	98096.9386342	67801.1352539	4448.68347159	126.701132296	421822.201325	66059497.5309	0
3975000.0	26612.0	14066926.2681	0.188788266125	174159.49707	0.0526351759618	1.81847023964	97514.5603884	67348.5717773	4529.82763026	124.783064638	447302.463941	66064270.2498	0
4000000.0	26743.0	14433399.7582	0.189618570604	174165.405273	0.0536656225449	1.81302404404	96934.7106696	66898.3093262	4611.69734568	121.998435756	73853.9416047	66069043.4796	0
4025000.0	26873.0	14807093.1002	0.190432863297	174163.391113	0.0547145136807	1.80775427818	96369.8598136	66459.4665527	4694.33024572	119.276018289	928677.200131	66073817.2203	0
4050000.0	27004.0	15188084.9282	0.191247029024	174159.973145	0.0557747480343	1.8025457859	95811.8399846	66025.7019043	4777.70406751	117.550244036	124353.234942	66078591.472	0
4075000.0	27136.0	15576454.3477	0.192060464348	174155.493164	0.0568461473449	1.79740738869	95261.6565803	65597.7111816	4861.78991429	115.44750335	326379.886839	66083366.2345	0
4100000.0	27268.0	15972302.4433	0.192868786537	174151.782227	0.057931189076	1.79234004021	94720.5904027	65176.8310547	4946.54634105	112.976888477	177803.871481	66088141.5079	0
4125000.0	27400.0	16375725.2292	0.193671134602	174149.511719	0.0590298950556	1.7873544693	94189.9456428	64763.9953613	5031.9404925	111.00189839	21557.9351855	66092917.2922	0
4150000.0	27533.0	16786791.8164	0.194474270842	174151.867676	0.0601383726462	1.78240287304	93666.6896706	64356.829834	5117.94901221	109.102566197	73209.1889746	66097693.5875	0
4175000.0	27666.0	17205598.8402	0.195271331125	174154.553223	0.0612607691437	1.77748763561	93150.0927202	63955.4016113	5204.61040416	106.853914121	501848.617518	66102470.3936	0
4200000.0	27799.0	17632244.456	0.196063421593	174157.177734	0.062397273723	1.77258431911	92637.6898055	63558.013916	5291.91409233	105.065645573	221976.526826	66107247.7107	0
4225000.0	27933.0	18066799.7113	0.196858656436	174162.902832	0.0635438627796	1.76763927937	92125.5898906	63161.6333008	5379.8079606	103.344532446	28164.6257676	66112025.5387	0
4250000.0	28067.0	18509362.9818	0.197648781424	174168.200684	0.0647046254016	1.76273477077	91619.3881065	62770.2392578	5468.33905502	101.669304768	85905.0193266	66116803.8777	0
4275000.0	28202.0	18960005.6022	0.198441331245	174176.098633	0.0658755379845	1.75782155991	91115.6263681	62381.1462402	5557.45439979	100.056143013	344787.483376	66121582.7276	0
4300000.0	28337.0	19418826.9531	0.199227959736	174183.056641	0.0670607405482	1.75298333168	90620.0263188	61998.3825684	5647.25931448	98.1204769998	205340.653182	66126362.0884	0
4325000.0	28472.0	19885927.731	0.200008125635	174188.818359	0.0682604659232	1.74823904037	90133.889336	61622.7416992	5737.79089028	96.5938780479	7243.50629233	66131141.9601	0
4350000.0	28608.0	20361380.7347	0.200788735199	174196.09375	0.0694705959177	1.74354553223	89654.2378194	61251.8676758	5828.95453266	95.1217989157	152395.398441	66135922.3428	0
4375000.0	28744.0	20845288.178	0.20156128028	174201.428223	0.0706954742782	1.73898601532	89186.8749546	60889.8803711	5920.7799635	93.3426946851	435025.932555	66140703.2365	0
4400000.0	28880.0	21337755.1174	0.202323864131	174203.869629	0.0719355157344	1.73454713821	88730.9172806	60536.3586426	6013.25962137	91.947780175	111042.585705	66145484.6411	0
4425000.0	29017.0	21838859.3176	0.203083350716	174205.493164	0.0731866821297	1.73013663292	88279.901026	60186.9628906	6106.30541737	90.6020161185	45678.7175371	66150266.5566	0
4450000.0	29154.0	22348709.1065	0.203832789527	174202.722168	0.0744535063859	1.72582244873	87837.9854218	59844.5556641	6199.94679123	88.963578687	641822.229753	66155048.983	0
4475000.0	29291.0	22867414.2377	0.204573590576	174196.057129	0.075735966675	1.72159826756	87404.5505365	59508.6303711	6294.16027383	87.6870927366	221417.806204	66159831.9205	0
4500000.0	29429.0	23395050.2025	0.205317464171	174192.785645	0.0770282058511	1.71735012531	86972.2330778	59173.9990234	6388.72507825	86.4593500395	3908.89055369	66164615.3688	0
4525000.0	29567.0	23931716.767	0.206058020436	174190.344238	0.0783346040407	1.71313714981	86544.990954	58843.4753418	6483.68545401	85.2641200591	283265.152336	66169399.328	0
4550000.0	29706.0	24477481.5086	0.206802837007	174191.650391	0.0796504900791	1.7089111805	86119.3494575	58514.3920898	6578.90145765	83.8128901995	320502.074403	66174183.7982	0
4575000.0	29844.0	25032474.9375	0.207537816993	174190.869141	0.0809851990198	1.70479822159	85703.5923237	58192.6269531	6674.52635293	82.6856482322	10754.2868915	66178968.7794	0
4600000.0	29984.0	25596732.6151	0.208284597244	174196.54541	0.0823246955406	1.70063877106	85286.9982207	57870.2575684	6770.21045352	81.6170625449	232111.031689	66183754.2715	0
4625000.0	30123.0	26170386.8285	0.209019187009	174199.633789	0.0836832768982	1.69660174847	84881.2058671	57555.9326172	6866.21073921	80.2755728413	401000.499606	66188540.2745	0
4650000.0	30263.0	26753507.8699	0.209752577909	174205.175781	0.0850518263178	1.69256067276	84478.3219869	57244.2565918	6962.3032182	79.2679705341	28425.477879	66193326.7885	0
4675000.0	30403.0	27346198.4745	0.210478669277	174210.205078	0.0864350440679	1.68856799603	84081.4931761	56937.4816895	7058.5314103	78.2873838813	234127.039764	66198113.8135	0
4700000.0	30544.0	27948528.471	0.211205657202	174217.333984	0.0878281571204	1.68457102776	83686.8867955	56632.7636719	7154.72260012	77.0722139071	414493.128019	66202901.3494	0
4725000.0	30684.0	28560634.7506	0.21192091527	174220.898438	0.0892410098459	1.68067932129	83301.3212939	56334.9182129	7251.11792737	76.1475505244	15874.0632612	66207689.3963	0
4750000.0	30826.0	29182554.0551	0.212645777787	174228.833008	0.0906588684302	1.6767373085	82914.2571918	56036.2487793	7347.22262586	75.2739689854	289734.073071	66212477.9542	0
4775000.0	30967.0	29814424.2948	0.213360854244	174232.8125	0.0920966194826	1.67290794849	82536.0602367	55744.1223145	7443.41595917	74.1494972788	377928.713987	66217267.023	0
4800000.0	31109.0	30456316.3896	0.214080384676	174237.976074	0.0935444331844	1.66909456253	82160.0744871	55453.6010742	7539.36197233	73.3270649346	1520.07140047	66222056.6029	0
4825000.0	31251.0	31108335.7588	0.214798404236	174241.369629	0.095007388154	1.6653573513	81789.9073944	55167.1264648	7635.16139977	72.2727944398	1015951.07093	66226846.6937	0
4850000.0	31393.0	31770590.5696	0.215510935591	174242.346191	0.0964858700172	1.66170442104	81426.7339863	54885.7299805	7730.78593896	71.4983972227	344391.779826	66231637.2954	0
4875000.0	31536.0	32443156.0288	0.216220897612	174242.822266	0.0979750111583	1.65808618069	81067.9356816	54607.7148438	7826.00111694	70.7572553321	10558.4344702	66236428.4082	0
4900000.0	31679.0	33126143.3124	0.216922560535	174239.831543	0.099480166682	1.65455460548	80716.4763096	54335.1318359	7921.00606671	70.0357509722	476287.659149	66241220.032	0
4925000.0	31823.0	33819628.0328	0.21762434327	174236.584473	0.100995704997	1.65104603767	80368.094042	54064.9108887	8016.09931069	69.1002487221	259946.246732	66246012.1667	0
4950000.0	31966.0	34523753.8338	0.218317362551	174231.164551	0.102531135781	1.64761352539	80026.3199691	53799.7436523	8111.69288897	68.1741709962	1732159.51608	66250804.8124	0
4975000.0	32110.0	35238587.0588	0.219016387964	174228.90625	0.104075719719	1.64415252209	79684.2252336	53534.6313477	8207.29094215	67.7500872804	666301.575262	66255597.9691	0
5000000.0	32255.0	35964191.5343	0.21972264358	174229.785156	0.105629194877	1.64066290855	79341.4644987	53269.2321777	8302.79398907	67.1152568167	1586735.14715	66260391.6367	0
5025000.0	32400.0	36700667.9011	0.220431059165	174231.201172	0.107196974568	1.63719248772	79000.7996597	53005.4504395	8398.32019551	66.2671698534	157254.225665	66265185.8153	0
5050000.0	32545.0	37448116.698	0.221142378586	174233.129883	0.108779109723	1.63374221325	78662.1155585	52743.145752	8493.81695697	65.4399229499	730996.144571	66269980.505	0
5075000.0	32690.0	38206641.1585	0.22185116886	174235.168457	0.110375942313	1.63032114506	78327.3007794	52483.9782715	8589.1735466	64.8563195937	104651.250335	66274775.7056	0
5100000.0	32836.0	38976307.3443	0.222562722162	174239.428711	0.111982022645	1.6268863678	77993.5731356	52225.9521484	8684.10357562	64.2984704247	235892.661881	66279571.4172	0
5125000.0	32982.0	39757219.1891	0.223271699409	174243.481445	0.113602916826	1.62348425388	77663.4401052	51970.8068848	8778.73327962	63.5378958579	654927.29337	66284367.6398	0
5150000.0	33128.0	40549481.067	0.223979275355	174247.143555	0.115238668513	1.62011528015	77336.3446279	51718.0053711	8872.99116912	63.0123016485	52269.2164363	66289164.3734	0
5175000.0	33275.0	41353158.5514	0.224692963302	174252.685547	0.116883602459	1.61673474312	77008.9881327	51465.1123047	8966.49871277	62.5122881034	333503.375442	66293961.618	0
5200000.0	33422.0	42168355.8302	0.225407531355	174257.617188	0.118543423014	1.61338829994	76683.8136643	51213.7573242	9059.43983362	61.8167513535	597022.940979	66298759.3737	0
5225000.0	33569.0	42995178.0967	0.226124074355	174261.853027	0.120218173834	1.61007535458	76360.4091497	50963.5528564	9151.70632243	61.3487019317	29316.4378193	66303557.6404	0
5250000.0	33717.0	43833690.2876	0.226850217774	174267.443848	0.121902063256	1.60675323009	76035.6167223	50712.1307373	9242.92321644	60.9057700974	370223.752464	66308356.4181	0
5275000.0	33865.0	44683998.2261	0.227578199784	174271.875	0.123601028463	1.60346841812	75712.6558207	50461.8133545	9333.26604606	60.2739387357	651648.034446	66313155.7068	0
5300000.0	34013.0	45546210.0249	0.228303636416	174274.682617	0.125315447804	1.60022926331	75393.0585175	50213.8793945	9422.6812378	59.8621772067	54560.8732787	66317955.5066	0
5325000.0	34162.0	46420393.5552	0.229033137393	174277.856445	0.127039354993	1.59699320793	75074.0381799	49966.3330078	9510.71812126	59.475060207	323632.384584	66322755.8174	0
5350000.0	34311.0	47306657.6424	0.229760367555	174278.955078	0.128778803628	1.59380340576	74758.3827985	49721.1791992	9597.60677516	58.904626226	780313.962704	66327556.6393	0
5375000.0	34460.0	48205112.4734	0.230485492336	174277.770996	0.130533997435	1.5906611681	74446.1403412	49478.4484863	9683.25834315	58.5480186597	109958.860045	66332357.9722	0
5400000.0	34610.0	49115826.9018	0.231215132127	174276.208496	0.132298868266	1.58752596378	74134.560294	49236.1572266	9767.22890828	58.2155371401	246715.756419	66337159.8162	0
5425000.0	34760.0	50038912.0964	0.231943505887	174272.167969	0.134079469717	1.58443856239	73826.2653415	48996.2005615	9849.73203603	57.7051016438	979908.614581	66341962.1712	0
5450000.0	34910.0	50974476.3574	0.232674779405	174268.066406	0.135874681291	1.58136665821	73519.1093946	48757.131958	9930.63117462	57.4038475974	227013.844294	66346765.0373	0
5475000.0	35061.0	51922580.6918	0.233417069487	174266.577148	0.137678100145	1.57826244831	73209.7635024	48516.5527344	10009.4029396	57.1277545013	114150.068436	66351568.4145	0
5500000.0	35212.0	52883327.8268	0.234161104115	174265.29541	0.139496085467	1.57517290115	72901.6882536	48277.0111084	10086.3518005	56.6791386455	1364034.67268	66356372.3027	0
5525000.0	35363.0	53856821.4199	0.234906450274	174264.18457	0.141328739119	1.57209730148	72594.9669838	48038.5803223	10161.3704774	56.4348679254	502388.944257	66361176.702	0
5550000.0	35515.0	54843121.0937	0.23565999907	174265.209961	0.143169643707	1.5689958334	72286.8488639	47799.2736816	10233.9577823	56.2153380903	6768.75472772	66365981.6124	0
5575000.0	35667.0	55842329.7716	0.236415439639	174266.271973	0.145025129314	1.5659083128	71979.9209128	47560.9313965	10305.0833749	56.0073681259	424618.697455	66370787.0339	0
5600000.0	35820.0	56854505.733	0.237179977263	174269.32373	0.146888676682	1.56279408932	71671.3820678	47321.5332031	10374.5160264	55.8190393986	1250164.72226	66375592.9664	0
5625000.0	35973.0	57879750.8133	0.237947288908	174272.290039	0.148766615894	1.55969297886	71363.8351425	47082.9437256	10442.6850411	55.4592621996	284799.043454	66380399.4101	0
5650000.0	36126.0	58918167.8288	0.238717950995	174275.073242	0.150659121573	1.55660569668	71057.1882718	46845.0531006	10509.5132836	55.2917486901	53050.5668838	66385206.3649	0
5675000.0	36280.0	59969813.8803	0.239499118817	174279.577637	0.152559485286	1.55349218845	70748.6335583	46605.8349609	10574.4701009	55.1435948716	591471.640781	66390013.8308	0
5700000.0	36434.0	61034792.3543	0.240283351106	174283.59375	0.154474488227	1.55039620399	70441.0212047	46367.3095703	10638.0061516	54.8270182834	988332.207295	66394821.8079	0
5725000.0	36588.0	62113207.6689	0.241069632463	174286.92627	0.156404363224	1.54731965065	70134.6174863	46129.6936035	10700.0910704	54.6988887893	304797.513832	66399630.2961	0
5750000.0	36743.0	63205118.7622	0.241864423884	174291.40625	0.158342372742	1.54422426224	69826.9602234	45891.2414551	10760.1397792	54.5897143967	21776.2455816	66404439.2955	0
5775000.0	36898.0	64310630.4694	0.242660598547	174295.043945	0.160295167007	1.54115045071	69520.9206328	45654.0283203	10818.6128914	54.4900505202	476815.953067	66409248.8061	0
5800000.0	37054.0	65429800.7393	0.243464689092	174299.609375	0.16225600848	1.53806066513	69214.0309449	45416.2963867	10874.9318538	54.4092707201	1208721.26778	66414058.8278	0
5825000.0	37210.0	66562733.8897	0.244269744638	174303.100586	0.164231634699	1.53499388695	68909.0863302	45180.0720215	10929.5877859	54.164327739	601028.875425	66418869.3608	0
5850000.0	37366.0	67709534.9452	0.245075301729	174305.419922	0.166222162079	1.53195106983	68606.2369822	44945.4742432	10982.5286022	54.1032367258	93778.5276993	66423680.405	0
5875000.0	37523.0	68870261.6204	0.245888351799	174308.312988	0.168220663909	1.52889513969	68302.9580189	44710.6781006	11033.1573984	54.0609288398	157078.678953	66428491.9604	0
5900000.0	37680.0	70045020.6535	0.246702054925	174309.570312	0.170234212419	1.52586328983	68001.5940936	44477.3498535	11081.9752542	53.8565661986	2125400.71384	66433304.027	0
5925000.0	37837.0	71233919.8771	0.247516049019	174309.04541	0.172263127752	1.52285826206	67702.2529785	44245.5352783	11128.9927666	53.8335229661	1277900.36299	66438116.6049	0
5950000.0	37995.0	72437019.7934	0.248336285246	174308.325195	0.174300381332	1.51984608173	67402.6646484	44013.6169434	11173.5350001	53.9995361535	2373265.50059	66442929.6941	0
5975000.0	38154.0	73654379.5741	0.249162035068	174307.324219	0.17634582764	1.51683187485	67103.2583056	43781.8908691	11215.5460564	53.8436172096	123477.33457	66447743.2946	0
6000000.0	38312.0	74886155.5986	0.249978365386	174302.429199	0.178413611138	1.51389300823	66809.5116318	43554.3151855	11256.2195477	53.6887814495	3492403.52965	66452557.4063	0
6025000.0	38471.0	76132405.8528	0.250802431878	174298.864746	0.18048871425	1.51093566418	66514.9071922	43326.2512207	11294.2252587	53.8920822744	594266.140948	66457372.0294	0
6050000.0	38631.0	77393181.755	0.251635240539	174297.302246	0.18257049669	1.50795531273	66219.1305478	43097.467041	11329.4978893	53.945710969	1263113.74244	66462187.1638	0
6075000.0	38791.0	78668581.6613	0.252469464785	174295.88623	0.184666103451	1.50498998165	65924.8163556	42869.8730469	11362.6348312	53.8414839567	963150.3994	66467002.8095	0
6100000.0	38951.0	79958705.692	0.253306775695	174294.494629	0.18677584012	1.50203490257	65631.2699742	42642.9077148	11393.6042126	53.9162144642	398734.403302	66471818.9666	0
6125000.0	39112.0	81263604.2568	0.254154402212	174294.702148	0.188892430742	1.49905228615	65335.7739176	42414.6179199	11421.7231311	54.0107380964	45705.9038532	66476635.635	0
6150000.0	39273.0	82583377.4775	0.255004511198	174294.775391	0.191023078514	1.49608063698	65041.2322315	42187.1337891	11447.5985193	54.1158989268	149107.629914	66481452.8148	0
6175000.0	39435.0	83918074.4526	0.255863432268	174296.337891	0.193160420167	1.49308645725	64745.4001866	41958.8531494	11470.5221294	54.2412349303	553621.441919	66486270.5059	0
6200000.0	39597.0	85267793.9219	0.256723413486	174297.753906	0.195311615244	1.49010717869	64451.1144448	41731.8664551	11491.14468	54.3774952198	1101915.88195	66491088.7085	0
6225000.0	39760.0	86632583.2718	0.257590792945	174300.537109	0.19746927137	1.48710942268	64156.1475984	41504.5959473	11508.7333235	54.5343358269	1741449.45701	66495907.4224	0
6250000.0	39923.0	88012540.292	0.258457810098	174303.100586	0.199640664505	1.48413085938	63863.3225602	41279.1046143	11523.9952157	54.5350080788	912363.869396	66500726.6478	0
6275000.0	40086.0	89407763.6091	0.259324269966	174305.334473	0.201825940167	1.48117148876	63572.658773	41055.3985596	11537.0730394	54.7133925351	437044.942222	66505546.3847	0
6300000.0	40250.0	90818301.7228	0.260199561204	174308.59375	0.204017778742	1.47819054127	63280.7038461	40830.9387207	11547.249305	54.9117509605	110739.068851	66510366.633	0
6325000.0	40414.0	92244255.0939	0.261076035841	174311.254883	0.20622368902	1.47522330284	62990.1167698	40607.6477051	11555.315581	55.1202779239	36796.4068383	66515187.3927	0
6350000.0	40579.0	93685671.565	0.26196015309	174314.794922	0.208436162211	1.47223889828	62698.8087429	40384.0362549	11560.5439116	55.3486428836	286623.663596	66520008.664	0
6375000.0	40744.0	95142650.0559	0.262843689903	174317.700195	0.210662517929	1.46927416325	62409.6111103	40162.1337891	11563.704899	55.5872339617	663675.047928	66524830.4468	0
6400000.0	40910.0	96615236.8712	0.263733090772	174321.459961	0.21289511642	1.46629834175	62120.469038	39940.4907227	11564.0731023	55.8457780591	1116296.86602	66529652.7412	0
6425000.0	41076.0	98103530.1289	0.264620149976	174324.487305	0.215141510125	1.46334910393	61834.1913319	39721.1181641	11562.4607125	55.9459158826	1912479.42455	66534475.5471	0
6450000.0	41242.0	99607628.0854	0.265503784452	174326.806641	0.217401771806	1.46042978764	61551.1356717	39504.284668	11558.8812491	56.2244036245	1363192.22925	66539298.8646	0
6475000.0	41409.0	101127577.544	0.266392392578	174329.711914	0.219668232603	1.45750367641	61268.4810161	39287.9455566	11552.6261965	56.5227221429	892415.45057	66544122.6937	0
6500000.0	41576.0	102663478.656	0.26727991725	174331.481934	0.221948896069	1.45459902287	60987.9478847	39073.324585	11544.4984207	56.8309887618	491986.537933	66548947.0344	0
6525000.0	41744.0	104215378.86	0.268172792549	174333.532715	0.22423590417	1.45168757439	60707.5577384	38858.984375	11533.7293771	57.3294174161	4449392.57705	66553771.8868	0
6550000.0	41913.0	105783323.009	0.269069961716	174335.778809	0.226528936764	1.4487735033	60427.6398477	38645.1568604	11520.339118	57.5079047271	10642.8609946	66558597.2508	0
6575000.0	42081.0	107367464.159	0.269955847332	174335.302734	0.228843797231	1.445925951	60153.247453	38435.4553223	11506.0421474	57.8562260051	136021.055498	66563423.1266	0
6600000.0	42251.0	108967791.895	0.270851433452	174336.303711	0.23115662043	1.4430513382	59877.7196665	38225.0915527	11488.3440926	58.2354258375	418641.988444	66568249.514	0
6625000.0	42420.0	110584458.666	0.271733509518	174334.472656	0.23349118419	1.44025123119	59608.3712184	38019.2871094	11469.8294719	58.4419358826	3354444.86733	66573076.4131	0
6650000.0	42590.0	112217507.916	0.272616352728	174332.495117	0.235831554164	1.43746352196	59340.7194695	37814.8223877	11448.8429163	59.0138761634	1370927.87731	66577903.824	0
6675000.0	42761.0	113866985.198	0.27350231169	174330.236816	0.238177890424	1.4346807003	59073.7377224	37610.8978271	11425.4231996	59.434180219	1966095.72656	66582731.7467	0
6700000.0	42932.0	115532988.774	0.274386759947	174327.539062	0.240537527134	1.43191969395	58808.7735289	37408.5449219	11400.4240395	59.6906038745	1480554.51416	66587560.1812	0
6725000.0	43103.0	117215612.909	0.275269684359	174324.707031	0.242910144152	1.42917764187	58545.826673	37207.8033447	11373.9184605	60.1313846729	965073.272469	66592389.1274	0
6750000.0	43275.0	118914894.048	0.276157472883	174323.168945	0.245287606958	1.4264228344	58282.8838269	37007.3028564	11345.0577073	60.5937329049	539049.163178	66597218.5856	0
6775000.0	43447.0	120630923.479	0.277042167663	174321.594238	0.247677788138	1.42368793488	58022.4542496	36808.8500977	11314.7544638	61.0670068417	193488.958495	66602048.5555	0
6800000.0	43620.0	122363736.187	0.277930228533	174321.386719	0.250072509516	1.42094230652	57762.5871534	36611.1083984	11282.1783181	61.7401809694	5993871.77573	66606879.0374	0
6825000.0	43794.0	124113364.764	0.278820757439	174322.509766	0.252471480053	1.41818761826	57503.5795559	36414.3218994	11247.3617337	62.079852938	180050.922523	66611710.0311	0
6850000.0	43967.0	125879958.143	0.27970096972	174322.106934	0.254891609075	1.41547834873	57249.0593831	36221.0693359	11212.0986103	62.4177168789	4390346.50999	66616541.5368	0
6875000.0	44141.0	127663552.787	0.280585612112	174322.766113	0.257316482021	1.41275537014	56994.5820726	36028.1280518	11174.7127972	63.1376344653	1041066.60618	66621373.5545	0
6900000.0	44316.0	129464183.185	0.28147409257	174324.438477	0.259745749645	1.4100215435	56740.4314973	35835.6964111	11135.2018354	63.7005986612	1605994.1128	66626206.0841	0
6925000.0	44491.0	131281939.666	0.28235865621	174325.805664	0.262187735643	1.40731048584	56488.9382764	35645.4071045	11094.5149146	64.0920564467	2221992.42786	66631039.1256	0
6950000.0	44666.0	133116912.635	0.283238812439	174326.940918	0.264642352704	1.40462577343	56240.3322098	35457.3913574	11052.6902335	64.6772141851	1568402.28992	66635872.6793	0
6975000.0	44842.0	134969132.728	0.28412081616	174329.077148	0.267100869678	1.40194153786	55992.7912871	35270.3430176	11008.4726061	65.4738097071	3932716.7833	66640706.7449	0
7000000.0	45019.0	136838630.002	0.28500387588	174332.177734	0.269563228358	1.39926302433	55746.6451238	35084.4604492	10961.5911617	66.1145271445	4888610.87752	66645541.3226	0
7025000.0	45196.0	138725494.048	0.285881646488	174334.838867	0.272038101684	1.39661824703	55503.5802309	34900.9155273	10913.0280263	66.5838046297	120691.303934	66650376.4125	0
7050000.0	45373.0	140629816.304	0.286754684995	174336.950684	0.274525693385	1.39400434494	55263.286058	34719.4885254	10862.8908429	67.2562699339	64001.5968363	66655212.0144	0
7075000.0	45551.0	142551628.787	0.287629304655	174339.733887	0.277017505141	1.39139330387	55023.9843964	34538.9465332	10810.4080409	67.9570935146	426091.306577	66660048.1286	0
7100000.0	45729.0	144491020.633	0.288498043872	174342.041016	0.279521686025	1.38881123066	54787.6812989	34360.748291	10756.5606772	68.4820139736	4227549.7999	66664884.7549	0
7125000.0	45907.0	146448081.501	0.289360328221	174343.823242	0.282038381556	1.38625764847	54554.5372609	34185.0463867	10701.4657042	69.2139807881	3220270.03378	66669721.8934	0
7150000.0	46086.0	148422839.937	0.290222360365	174346.276855	0.284558715066	1.38370382786	54322.7448159	34010.5895996	10644.3152678	70.1701211435	2680939.36163	66674559.5442	0
7175000.0	46266.0	150415322.489	0.291083604756	174349.462891	0.287082366413	1.38114857674	54092.4830374	33837.5671387	10585.2034853	70.9615322097	3758989.32171	66679397.7073	0
7200000.0	46446.0	152425617.959	0.291937498999	174351.965332	0.289618415991	1.37861716747	53865.4929205	33667.2210693	10525.1371602	71.5704697632	687400.422184	66684236.3826	0
7225000.0	46626.0	154453816.357	0.292784747258	174353.662109	0.292167038424	1.37610816956	53641.4599156	33499.307251	10464.2167323	72.3925853946	129671.987444	66689075.5703	0
7250000.0	46807.0	156499948.229	0.293631418329	174355.700684	0.294719415251	1.37359976768	53418.7942565	33332.6751709	10401.661545	73.2436328997	147363.817352	66693915.2704	0
7275000.0	46988.0	158564100.614	0.294470698849	174356.958008	0.297284102999	1.37112092972	53199.3749862	33168.5974121	10338.4132504	74.1109333118	780789.985092	66698755.4829	0
7300000.0	47170.0	160646300.021	0.295308428494	174358.532715	0.299852021271	1.36864793301	52981.5384298	33005.9051514	10273.6881615	75.0077267957	1720716.5746	66703596.2078	0
7325000.0	47352.0	162746631.859	0.296137660565	174359.350586	0.302431784803	1.36621153355	52767.1388871	32845.8099365	10208.4715757	75.7126696405	2381081.6093	66708437.4452	0
7350000.0	47534.0	164865180.475	0.296958190411	174359.338379	0.30502336449	1.3638137579	52556.3172315	32688.4155273	10142.8448514	76.6396322175	1212278.74238	66713279.195	0
7375000.0	47717.0	167001971.806	0.297776578112	174359.375	0.307618116494	1.36142838001	52347.1384112	32532.3486328	10075.9914941	77.5963209067	320441.889061	66718121.4574	0
7400000.0	47900.0	169157093.655	0.298586203541	174358.300781	0.310225121211	1.35907936096	52141.3400605	32378.8513184	10008.8974167	78.5687339504	119505.391105	66722964.2324	0
7425000.0	48084.0	171330572.089	0.29939349017	174357.177734	0.312835269142	1.35674071312	51937.1424006	32226.6784668	9940.7765315	79.57083492	965748.793928	66727807.5199	0
7450000.0	48268.0	173522492.157	0.300192219315	174354.882812	0.315457466058	1.35443627834	51736.3084648	32077.0843506	9872.54476158	80.5888035108	2323547.29813	66732651.32	0
7475000.0	48453.0	175732879.516	0.300988309669	174352.832031	0.318082456943	1.35213875771	51537.0550049	31928.8635254	9803.44652391	81.6367279622	4091566.16773	66737495.6328	0
7500000.0	48638.0	177961816.461	0.301777364309	174350.793457	0.320718623698	1.34986531734	51340.6549688	31782.901001	9734.3723149	82.4778000437	508470.650631	66742340.4583	0
7525000.0	48823.0	180209384.254	0.302559108183	174348.779297	0.323365908116	1.34761357307	51147.0591744	31639.2272949	9665.41336179	83.5551037948	104254.162575	66747185.7964	0
7550000.0	49009.0	182475604.852	0.303339515881	174347.705078	0.326015986502	1.34536147118	50954.6846613	31496.7468262	9595.79444978	84.6624791376	1154389.68585	66752031.6474	0
7575000.0	49195.0	184760561.225	0.304112162706	174346.484375	0.328677415382	1.34313213825	50765.0345906	31356.4880371	9526.41550143	85.5552773149	3041622.59576	66756878.0111	0
7600000.0	49381.0	187064336.144	0.304877408768	174345.141602	0.331350311171	1.34092664719	50578.1509212	31218.4356689	9457.34087909	86.6906778859	1252874.9738	66761724.8876	0
7625000.0	49568.0	189386946.166	0.305640724892	174344.775391	0.334025186021	1.33872187138	50392.4783765	31081.4910889	9387.77754529	87.8565484603	87898.9308628	66766572.2769	0
7650000.0	49755.0	191728468.475	0.306396054454	174344.372559	0.336710654665	1.33654165268	50209.6359718	30946.7559814	9318.6337999	89.0374485737	737852.807299	66771420.1791	0
7675000.0	49943.0	194088916.071	0.307149165913	174344.970703	0.339397462085	1.33436346054	50028.1033277	30813.1469727	9249.12593416	90.2490817621	2541814.80424	66776268.5942	0
7700000.0	50131.0	196468363.428	0.307893421689	174345.568848	0.342094455846	1.33221042156	49849.4452308	30681.7382812	9180.1264495	91.2331355034	1480249.14636	66781117.5223	0
7725000.0	50319.0	198866889.063	0.308628779454	174345.947266	0.344802450854	1.33008229733	49673.6511066	30552.5543213	9111.10149765	92.4775846045	70556.5093383	66785966.9633	0
7750000.0	50508.0	201284508.152	0.309361063765	174347.143555	0.347511959262	1.32795619965	49499.2767313	30424.6429443	9040.8284603	93.7636883552	989945.344981	66790816.9173	0
7775000.0	50697.0	203721298.078	0.310084451597	174348.193359	0.350232265191	1.3258548975	49327.6829051	30298.9257812	8970.2208347	94.8243000152	3125140.03169	66795667.3844	0
7800000.0	50886.0	206177336.204	0.310799392347	174349.072266	0.352963223122	1.32377851009	49158.7972864	30175.3356934	8899.35360522	96.1582569709	842327.291186	66800518.3645	0
7825000.0	51076.0	208652636.838	0.311511460065	174350.805664	0.355695636244	1.32170653343	48991.3038519	30053.0029297	8827.51473947	97.5343500956	243151.501772	66805369.8577	0
7850000.0	51266.0	211147274.897	0.312215154096	174352.441406	0.358438468538	1.31966114044	48826.4364786	29932.7148438	8755.573216	98.9360186485	2270288.20535	66810221.8641	0
7875000.0	51457.0	213661265.389	0.312915334411	174354.760742	0.361182901543	1.31762218475	48663.0574248	29813.7420654	8682.84507558	100.380156406	5468678.49505	66815074.3836	0
7900000.0	51648.0	216194687.283	0.31360630457	174356.750488	0.36393821938	1.31561040878	48502.4647811	29696.9573975	8610.17272443	101.583859945	8779.9951868	66819927.4163	0
7925000.0	51839.0	218747618.642	0.314288109973	174358.47168	0.366704305634	1.31362593174	48344.6797381	29582.3577881	8537.63990381	102.80629721	5242084.84143	66824780.9623	0
7950000.0	52030.0	221320136.114	0.314960847512	174359.912109	0.369480985682	1.31166946888	48189.6196739	29469.8364258	8465.27195734	104.320003928	1870522.92355	66829635.0215	0
7975000.0	52222.0	223912250.347	0.315629915604	174362.023926	0.372258655261	1.30972194672	48036.0241414	29358.5113525	8392.42082595	105.87660824	4101.29058511	66834489.5941	0
8000000.0	52414.0	226524033.844	0.316290311744	174363.891602	0.375046307454	1.30780303478	47885.1289013	29249.206543	8319.87691597	107.458605107	2087042.6825	66839344.68	0
8025000.0	52607.0	229155494.074	0.316946842784	174366.430664	0.377834425308	1.30589413643	47735.6842146	29141.0614014	8246.96398355	109.08439866	5964321.48294	66844200.2792	0
8050000.0	52800.0	231806705.957	0.317594296862	174368.554688	0.380632845918	1.30401647091	47588.9853436	29034.9761963	8174.49258054	110.449144855	190024.969435	66849056.3919	0
8075000.0	52993.0	234477744.038	0.318232473445	174370.214844	0.383441685699	1.30216884613	47444.9907746	28930.9234619	8102.524586	111.831330513	4246467.66665	66853913.0181	0
8100000.0	53186.0	237168684.186	0.318861438519	174371.484375	0.386260682717	1.30034852028	47303.6869867	28828.9459229	8031.07556357	113.524366825	751446.551909	66858770.1578	0
8125000.0	53380.0	239879533.379	0.31948522884	174373.266602	0.389080494642	1.29853463173	47163.8991158	28728.2775879	7959.52245855	115.260716157	1038186.88397	66863627.811	0
8150000.0	53574.0	242610365.353	0.320099005231	174374.658203	0.391910318285	1.29674375057	47026.7751327	28629.7210693	7888.60685804	117.021365714	5074128.37295	66868485.9777	0
8175000.0	53769.0	245361186.281	0.320707223632	174376.586914	0.394740491174	1.29495573044	46891.2004714	28532.5531006	7817.67929431	118.521272026	34312.6281105	66873344.6581	0
8200000.0	53963.0	248132138.269	0.321300060172	174377.148438	0.397590512875	1.29320669174	46759.3791378	28438.2629395	7748.16356301	120.017179686	4455695.95008	66878203.8521	0
8225000.0	54158.0	250923230.955	0.321886693352	174378.051758	0.400441669626	1.29146361351	46629.1675773	28345.3796387	7678.74323785	121.860625495	490132.781675	66883063.5599	0
8250000.0	54353.0	253734540.0	0.32246263022	174378.393555	0.403302983614	1.28974413872	46501.6397831	28254.6264648	7610.12035539	123.727064269	1925097.80398	66887923.7813	0
8275000.0	54549.0	256566071.586	0.323032122962	174379.052734	0.40616482147	1.28803157806	46375.8357889	28165.3808594	7541.68014171	125.636660471	7365290.2802	66892784.5165	0
8300000.0	54745.0	259417898.248	0.323590199091	174379.162598	0.409036525525	1.28634393215	46252.7395121	28078.2562256	7474.12623472	127.243990202	1179846.91952	66897645.7655	0
8325000.0	54941.0	262290089.94	0.324137355962	174378.735352	0.411917921156	1.28468239307	46132.4381313	27993.3288574	7407.46208809	128.86529545	1889273.31267	66902507.5283	0
8350000.0	55137.0	265182718.367	0.324672241428	174377.722168	0.414809066569	1.28304684162	46014.9751592	27910.635376	7341.73109108	130.499576522	8423998.23984	66907369.805	0
8375000.0	55333.0	268095858.914	0.32519321194	174376.000977	0.417710572947	1.28143906593	45900.7514904	27830.5267334	7276.95887663	132.483003201	2049707.09711	66912232.5956	0
8400000.0	55530.0	271029518.121	0.325705891502	174374.389648	0.420612341259	1.27984070778	45788.4260096	27752.0446777	7212.5442951	134.508301658	999203.169863	66917095.9002	0
8425000.0	55727.0	273983767.805	0.326208722208	174372.192383	0.423524004873	1.27826690674	45678.613857	27675.5157471	7149.14730755	136.553288236	7116999.29137	66921959.7188	0
8450000.0	55925.0	276958610.308	0.32670804357	174370.837402	0.426435173722	1.2766970396	45569.9408927	27599.9694824	7086.16752124	138.290068229	1419924.73391	66926824.0513	0
8475000.0	56122.0	279954178.983	0.327198609046	174368.798828	0.429365085438	1.27516126633	45463.8384967	27526.260376	7024.84542028	140.014613912	1257603.25368	66931688.898	0
8500000.0	56320.0	282970471.588	0.32768975389	174367.712402	0.432294036727	1.27362823486	45358.3054275	27453.0212402	6963.91635603	142.1316131	2109126.64913	66936554.2587	0
8525000.0	56518.0	286007554.368	0.328176572176	174366.638184	0.435232010204	1.27211499214	45254.8498751	27381.4239502	6903.50059241	143.914879094	700338.622396	66941420.1335	0
8550000.0	56716.0	289065496.205	0.328657447791	174365.612793	0.438179384219	1.270622015	45153.4387005	27311.4227295	6843.51880106	145.720587516	5785705.64971	66946286.5226	0
8575000.0	56914.0	292144363.843	0.329131598918	174364.599609	0.441135867732	1.26914870739	45053.8225895	27242.767334	6783.99857917	147.92107963	147212.658263	66951153.4258	0
8600000.0	57113.0	295244156.265	0.329601732602	174364.453125	0.444091565441	1.26768040657	44954.9599965	27174.6917725	6724.39796497	150.176649296	4521262.40544	66956020.8433	0
8625000.0	57312.0	298364939.096	0.330063107206	174364.318848	0.447056430858	1.26623117924	44857.4103604	27107.4645996	6665.29901546	152.082111032	247765.758765	66960888.775	0
8650000.0	57511.0	301506778.914	0.330514888167	174364.282227	0.450030085631	1.26480138302	44760.9388988	27040.8325195	6606.72672485	154.009776042	2655565.71394	66965757.2211	0
8675000.0	57710.0	304669743.986	0.330955998983	174364.208984	0.453013111837	1.26339125633	44665.4494946	26974.7039795	6548.70509773	156.350856347	1511834.5316	66970626.1815	0
8700000.0	57910.0	307853833.921	0.331390538435	174364.868164	0.455995585071	1.26198732853	44570.3970678	26908.807373	6490.72978617	158.350622379	868167.762151	66975495.6564	0
8725000.0	58109.0	311059185.16	0.331812570022	174364.746094	0.458997266833	1.26061737537	44477.4878329	26844.3115234	6433.86108462	160.347308022	5457447.30503	66980365.6456	0
8750000.0	58309.0	314285795.765	0.332229756741	174365.393066	0.461997959064	1.25925266743	44385.4279696	26780.4962158	6377.06351872	162.79697209	198907.928291	66985236.1493	0
8775000.0	58509.0	317533730.418	0.332639551767	174366.064453	0.465007557068	1.25790691376	44295.1427356	26718.0236816	6320.89227692	165.277734309	7612942.32175	66990107.1675	0
8800000.0	58710.0	320802982.132	0.333046233456	174367.541504	0.468015612569	1.25656557083	44206.1463066	26656.6833496	6264.84435762	167.398028309	2367171.42925	66994978.7003	0
8825000.0	58910.0	324093685.347	0.333444049298	174368.310547	0.471042352729	1.25525665283	44119.9101812	26597.4151611	6209.94112072	169.513523974	163570.630088	66999850.7476	0
8850000.0	59111.0	327405836.396	0.333838485461	174369.714355	0.474068248877	1.25395560265	44034.8739953	26539.1204834	6155.20815625	172.102710676	6249352.13088	67004723.3096	0
8875000.0	59312.0	330739501.415	0.334225599475	174371.081543	0.477102817968	1.25267374516	43951.6853152	26482.2235107	6101.14515887	174.289318248	1605584.62314	67009596.3862	0
8900000.0	59513.0	334094743.97	0.334604536315	174372.412109	0.480146234622	1.2514103651	43870.3236132	26426.7211914	6047.76949523	176.495313016	495544.587858	67014469.9774	0
8925000.0	59714.0	337471627.142	0.334974488199	174373.706055	0.483198207803	1.25016403198	43790.8029548	26372.65625	5995.08458258	178.720457048	4171716.31438	67019344.0834	0
8950000.0	59915.0	340870213.98	0.335334668765	174375.036621	0.486258533783	1.24893319607	43713.0702137	26320.0134277	5943.1000628	180.964262367	9600383.77344	67024218.7042	0
8975000.0	60116.0	344290565.478	0.335684071993	174376.35498	0.489327241667	1.24771761894	43637.1592793	26268.8323975	5891.81859512	183.682111834	288957.002401	67029093.8397	0
9000000.0	60318.0	347732676.686	0.336024781674	174378.24707	0.492394727189	1.24650788307	43562.6707428	26218.8995361	5840.7936435	186.456384628	7291965.02967	67033969.4901	0
9025000.0	60520.0	351196614.129	0.3363544229	174380.041504	0.495471002068	1.2453161478	43490.2106575	26170.5841064	5790.50303176	188.792153043	2933958.51011	67038845.6554	0
9050000.0	60722.0	354682441.905	0.336673441923	174381.665039	0.498556240927	1.24414229393	43419.7065501	26123.8220215	5740.94168215	191.144861172	239152.530772	67043722.3356	0
9075000.0	60924.0	358190225.466	0.336982372054	174383.14209	0.501650269143	1.24298644066	43351.0887459	26078.5430908	5692.129508	193.513435331	1370787.87016	67048599.5307	0
9100000.0	61126.0	361720028.384	0.337281888359	174384.521484	0.504752853885	1.24184775352	43284.2917598	26034.6893311	5644.05458927	195.897845317	4713262.03214	67053477.2408	0
9125000.0	61328.0	365271903.155	0.337572292297	174385.778809	0.507864111569	1.24072647095	43219.2523356	25992.2027588	5596.72981251	198.787885768	2506494.45	67058355.466	0
9150000.0	61531.0	368845868.962	0.337856610643	174387.62207	0.510973623022	1.23961055279	43155.3530786	25950.6866455	5549.7226345	201.236860952	231757.547082	67063234.2062	0
9175000.0	61733.0	372442030.734	0.338130667954	174388.623047	0.51410170272	1.23852324486	43093.6185745	25910.7330322	5503.89581191	203.670568759	1072297.30843	67068113.4615	0
9200000.0	61936.0	376060430.871	0.338399545864	174390.185547	0.517227803357	1.23744142056	43032.9243071	25871.6461182	5458.39945924	206.656309607	7603199.94321	67072993.232	0
9225000.0	62139.0	379701092.458	0.338661331805	174391.52832	0.520367291756	1.23637700081	42973.769311	25833.7005615	5413.7011977	208.633422272	7533158.78076	67077873.5177	0
9250000.0	62341.0	383364145.218	0.338914786886	174392.211914	0.523520051502	1.2353386879	42916.5217177	25797.0947266	5370.12362239	211.105264711	11790880.9114	67082754.3186	0
9275000.0	62544.0	387049575.195	0.339164315708	174393.481445	0.526670424733	1.2343057394	42860.1461214	25761.1846924	5326.90267339	214.145844465	15338.9111785	67087635.6347	0
9300000.0	62747.0	390757447.898	0.339406439451	174394.494629	0.529829529114	1.2332918644	42805.4674935	25726.5380859	5284.44731907	217.209056162	11764309.396	67092517.4662	0
9325000.0	62951.0	394487756.047	0.339641648158	174395.849609	0.53298700368	1.23228752613	42752.1256274	25692.9870605	5242.37062461	219.785137224	8025098.58343	67097399.813	0
9350000.0	63154.0	398240637.622	0.33986649741	174396.289062	0.536163861398	1.23131299019	42700.9635491	25660.9741211	5201.43414272	221.793253218	7037473.72394	67102282.6752	0
9375000.0	63357.0	402016157.035	0.340083537404	174396.362305	0.539349392056	1.23035621643	42651.4458545	25630.2154541	5161.08931703	224.909089278	2441031.60877	67107166.0528	0
9400000.0	63561.0	405814305.386	0.34029453221	174396.826172	0.542533118278	1.22940707207	42603.0998547	25600.4058838	5120.91685948	227.527002563	676080.396958	67112049.9458	0
9425000.0	63764.0	409635219.487	0.340496003562	174396.313477	0.545735936612	1.22848415375	42556.7039667	25571.9940186	5081.63732004	230.131040592	108176.830056	67116934.3543	0
9450000.0	63968.0	413478887.568	0.340692123475	174396.179199	0.548936310224	1.22756719589	42511.3369308	25544.4244385	5042.52065702	232.784164417	1297759.1893	67121819.2784	0
9475000.0	64171.0	417345445.447	0.340879465419	174395.043945	0.552155834157	1.22667443752	42467.738138	25518.1137085	5004.28198878	235.422378315	3067720.99037	67126704.718	0
9500000.0	64375.0	421234879.772	0.341061633111	174394.299316	0.555373029783	1.22578573227	42425.0475958	25492.5704956	4966.20242761	238.694843635	7477260.68739	67131590.6732	0
9525000.0	64579.0	425147250.088	0.341237526899	174393.261719	0.558598025236	1.22491037846	42383.6003786	25467.9580688	4928.62908127	240.814801305	7555440.01983	67136477.144	0
9550000.0	64782.0	429082689.582	0.341405626419	174391.210938	0.561841588933	1.2240562439	42343.6745478	25444.4198608	4891.90394134	243.503950762	10068643.8851	67141364.1306	0
9575000.0	64986.0	433041182.868	0.341569413169	174389.72168	0.565082242247	1.22320365906	42304.4816847	25421.5179443	4855.3298414	246.847955726	1859725.26261	67146251.6328	0
9600000.0	65190.0	437022786.303	0.341726257348	174388.439941	0.568330287933	1.22236168385	42266.5417107	25399.6109009	4819.24612574	249.610901853	745788.757484	67151139.6508	0
9625000.0	65394.0	441027563.748	0.341875192158	174387.194824	0.571586890146	1.22153317928	42230.122065	25378.9154053	4783.65116547	252.390184911	77576.8450085	67156028.1846	0
9650000.0	65598.0	445055574.981	0.342016196726	174385.998535	0.574851641431	1.22071790695	42195.1768121	25359.3841553	4748.53807982	255.185861783	258589.662542	67160917.2343	0
9675000.0	65802.0	449106882.212	0.342149921121	174384.936523	0.578124541789	1.21991598606	42161.6174473	25340.9317017	4713.91045645	257.997241036	919190.521871	67165806.7997	0
9700000.0	66006.0	453181544.843	0.342276515714	174383.972168	0.58140559122	1.21912682056	42129.3503287	25323.4786987	4679.75114526	260.824748107	1722291.51067	67170696.8811	0
9725000.0	66210.0	457279621.622	0.342396299972	174383.117676	0.584694498684	1.21835029125	42098.333166	25306.9778442	4646.06381589	264.314047267	12371924.495	67175587.4784	0
9750000.0	66415.0	461401097.032	0.342510518124	174383.032227	0.58798037935	1.21757733822	42068.1864105	25291.2155151	4612.52782634	267.214706998	11180112.5895	67180478.5917	0
9775000.0	66619.0	465546103.6	0.342617591656	174382.446289	0.591284886468	1.21682500839	42039.4278178	25276.4129639	4579.75682642	269.436014376	4264544.11561	67185370.221	0
9800000.0	66823.0	469714699.156	0.342718655241	174382.019043	0.594597076997	1.21608400345	42011.6746714	25262.3474121	4547.43334654	272.326127482	5037280.99609	67190262.3664	0
9825000.0	67027.0	473906940.39	0.342814230549	174381.750488	0.597916950937	1.21535491943	41984.8815647	25248.9593506	4515.56110251	275.230950776	5742000.99712	67195155.0278	0
9850000.0	67231.0	478122884.256	0.342904280311	174381.677246	0.601244275458	1.21463644505	41958.9616184	25236.2014771	4484.12886975	278.832461669	8102931.06432	67200048.2053	0
9875000.0	67436.0	482362509.089	0.342990338416	174382.409668	0.604567932896	1.21392095089	41933.5699559	25223.8464355	4452.83720752	281.810480019	7695378.67105	67204941.899	0
9900000.0	67640.0	486625948.348	0.343070266151	174382.678223	0.607910216786	1.21322453022	41909.2774636	25212.1948242	4422.26399253	284.071198959	7296141.49494	67209836.1089	0
9925000.0	67844.0	490913262.436	0.343143325013	174383.007812	0.611260533333	1.21254146099	41886.0483017	25201.3046265	4392.12733911	287.034151284	7562948.15908	67214730.8351	0
9950000.0	68048.0	495224514.446	0.343209983626	174383.349609	0.614619406406	1.21187138557	41863.9084153	25191.2124634	4362.40680313	290.721616555	7302830.41688	67219626.0775	0
9975000.0	68253.0	499559686.696	0.343270964958	174384.423828	0.617975136265	1.21120619774	41842.5763813	25181.7718506	4332.83504901	293.75531781	7486716.88669	67224521.8362	0
10000000.0	68457.0	503918916.503	0.343325054511	174384.912109	0.621349958237	1.21056103706	41822.5506446	25173.2116699	4303.95045991	296.040116595	7466315.4654	67229418.1112	0
10025000.0	68661.0	508302263.586	0.343373201525	174385.498047	0.624732696451	1.20992839336	41803.5389195	25165.3823853	4275.47905449	299.055551196	7139472.60527	67234314.9026	0
10050000.0	68865.0	512709784.584	0.343415569697	174386.181641	0.628123059869	1.20930743217	41785.5486515	25158.2946777	4247.41050714	302.824033848	8960210.27742	67239212.2104	0
10075000.0	69070.0	517141461.08	0.343453082829	174387.561035	0.63151010545	1.20869135857	41768.3637134	25151.8478394	4219.47063599	305.910056421	9805344.63178	67244110.0347	0
10100000.0	69274.0	521597425.738	0.343484612571	174388.452148	0.634915661067	1.20809364319	41752.3743814	25146.2020874	4192.19782818	308.21480929	5361816.90696	67249008.3754	0
10125000.0	69478.0	526077734.849	0.343511084022	174389.428711	0.638328667264	1.20750689507	41737.3526607	25141.2612915	4165.30709473	311.27989015	4563978.7371	67253907.2326	0
10150000.0	69682.0	530582442.41	0.343532691802	174390.551758	0.641748891212	1.20693075657	41723.2724111	25136.9995117	4138.79788028	314.356895618	3696488.7902	67258806.6064	0
10175000.0	69886.0	535111604.108	0.343549574771	174391.784668	0.645176507533	1.20636463165	41710.118286	25133.4228516	4112.66960296	317.445152573	2791578.17751	67263706.4968	0
10200000.0	70090.0	539665272.503	0.343561731537	174393.164062	0.648610875942	1.20580863953	41697.9007554	25130.5282593	4086.91268245	320.545075221	1879564.16418	67268606.9038	0
10225000.0	70294.0	544243506.618	0.343567950956	174394.555664	0.652053393424	1.2052642107	41686.7798461	25128.453064	4061.53111811	323.655015463	1009761.94001	67273507.8275	0
10250000.0	70498.0	548846366.09	0.343567950956	174395.959473	0.655503710732	1.20473206043	41676.7502791	25127.1835327	4036.51547978	326.7752285	279412.566051	67278409.2678	0
10275000.0	70702.0	553473909.033	0.343562294371	174397.363281	0.658961944282	1.204210639	41667.744649	25126.6860962	4011.86093975	329.905386747	95722.8633162	67283311.2249	0
10300000.0	70906.0	558126195.137	0.3435511506	174398.754883	0.662427861243	1.20370054245	41659.7333753	25126.9271851	3987.57151198	333.044601787	859542.993324	67288213.6988	0
10325000.0	71110.0	562803280.932	0.343534942769	174400.170898	0.665901519824	1.20320117474	41652.6734554	25127.8640747	3963.63802834	336.192915889	2125973.08755	67293116.6894	0
10350000.0	71314.0	567505225.837	0.343513841114	174401.599121	0.669382978231	1.20271170139	41646.5057005	25129.4647217	3940.04718523	339.350753128	3849581.76446	67298020.1969	0
10375000.0	71518.0	572232086.394	0.343488184994	174403.051758	0.672871829011	1.20223295689	41641.2075056	25131.690979	3916.79456739	342.51804574	6028250.64961	67302924.2213	0
10400000.0	71722.0	576983918.409	0.343458482695	174404.492188	0.676368363202	1.20176339149	41636.7008435	25134.5001221	3893.87583683	344.847078291	9148866.31579	67307828.7626	0
10425000.0	71925.0	581760858.736	0.343424623841	174405.371094	0.679883756675	1.20130968094	41633.0713128	25137.8662109	3871.49501211	347.98538381	6505512.97142	67312733.8208	0
10450000.0	72129.0	586562883.663	0.343387398056	174406.848145	0.683395133819	1.20085930824	41630.0554747	25141.7266846	3849.20478904	352.036219595	15278923.0392	67317639.3961	0
10475000.0	72333.0	591390048.766	0.343346751319	174408.337402	0.686913961545	1.20041823387	41627.7161885	25146.0540771	3827.22779197	354.370481665	1939778.75116	67322545.4883	0
10500000.0	72536.0	596242489.68	0.343302967055	174409.277344	0.690451473929	1.19999217987	41626.1312336	25150.8331299	3805.75650243	357.537344149	391684.542685	67327452.0976	0
10525000.0	72740.0	601120183.337	0.343254783552	174410.742188	0.693985261023	1.19957149029	41625.2714733	25156.1843872	3784.3641189	360.754276349	406812.429917	67332359.224	0
10550000.0	72943.0	606023271.824	0.343201670945	174411.59668	0.697538605891	1.19916796684	41625.4076985	25162.1932983	3763.47212043	363.939062171	2182929.27869	67337266.8676	0
10575000.0	73147.0	610951735.99	0.34314383033	174412.902832	0.701088574715	1.19877004623	41626.3212168	25168.8247681	3742.65025626	367.174221733	4898334.39461	67342175.0283	0
10600000.0	73350.0	615905714.604	0.34308177163	174413.562012	0.704657810275	1.19838809967	41628.1155931	25176.0131836	3722.30731124	369.46750209	10861163.3314	67347083.7062	0
10625000.0	73553.0	620885266.007	0.343015920215	174414.135742	0.708235078491	1.19801604748	41630.6468933	25183.7158203	3702.22533687	372.67243928	7013497.03293	67351992.9013	0
10650000.0	73756.0	625890450.238	0.342946420672	174414.624023	0.711820146535	1.19765281677	41633.8782661	25191.9174194	3682.40938417	375.885962991	3655395.72153	67356902.6137	0
10675000.0	73959.0	630921326.211	0.34287386606	174415.026855	0.715412781574	1.19729864597	41637.7666547	25200.567627	3662.83622848	379.110035036	1053992.38876	67361812.8435	0
10700000.0	74162.0	635977950.719	0.342798428374	174415.344238	0.719013274647	1.19695234299	41642.2422835	25209.6160889	3643.51512302	382.343049895	202718.226342	67366723.5905	0
10725000.0	74365.0	641060380.497	0.342720503496	174415.551758	0.722621334717	1.19661390781	41647.2881136	25219.0475464	3624.4312341	385.586205134	2349106.13841	67371634.855	0
10750000.0	74568.0	646168671.041	0.342640486714	174415.661621	0.726236612536	1.19628214836	41652.8339819	25228.8146973	3605.58189811	388.839490733	5800829.15863	67376546.6368	0
10775000.0	74771.0	651302879.203	0.342558800644	174415.649414	0.729859282728	1.19595754147	41658.8722056	25238.8946533	3586.96449155	392.102615005	10267127.5545	67381458.9361	0
10800000.0	74974.0	656463059.747	0.342475587523	174415.50293	0.733489228878	1.19563877583	41665.3045285	25249.2263794	3568.56859413	394.402474064	5854543.20431	67386371.7529	0
10825000.0	75176.0	661649350.497	0.342390877553	174414.660645	0.737138325348	1.19533228874	41672.2996194	25259.8602295	3550.5788981	397.635231479	2326390.39206	67391285.0872	0
10850000.0	75379.0	666861729.267	0.342302214626	174414.172363	0.740783754736	1.1950302124	41679.9545527	25271.0098267	3532.61783164	400.920610684	86377.2354726	67396198.939	0
10875000.0	75581.0	672100341.019	0.342211140556	174412.915039	0.744448800106	1.19474184513	41688.2886331	25282.5592041	3515.05250143	404.172374191	1651494.56677	67401113.3084	0
10900000.0	75784.0	677365160.121	0.342116849967	174411.950684	0.748110061977	1.19445741177	41697.2079302	25294.5617676	3497.50922914	407.477452647	5329213.53161	67406028.1955	0
10925000.0	75986.0	682656329.55	0.342020798478	174410.253906	0.75179093983	1.19418597221	41706.6987436	25306.8725586	3480.34391811	409.735145018	11418823.8129	67410943.6002	0
10950000.0	76188.0	687973907.347	0.341922152887	174408.703613	0.755479268264	1.19392240047	41716.7804804	25319.5877075	3463.37692955	413.008628873	6278331.51118	67415859.5226	0
10975000.0	76390.0	693317950.139	0.3418210013	174407.287598	0.759175047278	1.19366574287	41727.4214584	25332.699585	3446.59861314	416.292524932	2192671.71648	67420775.9627	0
11000000.0	76592.0	698688513.878	0.341717849341	174406.079102	0.762878160458	1.19341635704	41738.5875099	25346.1578369	3430.00702571	419.586740339	18871.9641159	67425692.9206	0
11025000.0	76794.0	704085652.962	0.341612839802	174405.053711	0.766588491388	1.19317400455	41750.2429803	25359.942627	3413.5927547	422.892109456	2561602.13803	67430610.3963	0
11050000.0	76996.0	709509422.896	0.341506254225	174404.223633	0.77030598186	1.19293761253	41762.3226624	25374.0127563	3397.35774678	426.208058268	7155959.67397	67435528.3898	0
11075000.0	77198.0	714959877.435	0.341398345714	174403.57666	0.774030573666	1.1927074194	41774.8253631	25388.3575439	3381.29276405	429.535411315	13225368.2492	67440446.9011	0
11100000.0	77400.0	720437070.775	0.341289366775	174403.125	0.777762266807	1.19248342514	41787.6949701	25402.9251099	3365.39981772	431.802093283	4509504.00004	67445365.9304	0
11125000.0	77601.0	725941139.736	0.341179846827	174402.34375	0.781513052061	1.19226861	41800.9115338	25417.6712036	3349.83902124	435.098091464	796834.322278	67450285.4775	0
11150000.0	77803.0	731472058.816	0.341066736165	174402.258301	0.785259180702	1.19205868244	41814.7975516	25432.9376221	3334.27329449	438.45013773	1131331.65904	67455205.5427	0
11175000.0	78004.0	737029969.725	0.340951316916	174401.77002	0.789025216363	1.19186139107	41829.3099714	25448.5748291	3319.03497865	440.670839749	19960300.5016	67460126.1258	0
11200000.0	78205.0	742614930.046	0.340833427664	174401.416016	0.792798702605	1.19167160988	41844.403757	25464.6240234	3303.94973876	445.094877383	11530554.8122	67465047.227	0
11225000.0	78407.0	748226911.816	0.340712437044	174401.757812	0.796567648649	1.19148588181	41860.0970381	25481.1386108	3288.85361884	448.479608154	19359647.4102	67469968.8462	0
11250000.0	78608.0	753866055.452	0.34059006647	174401.672363	0.800356036052	1.19131040573	41876.2336933	25497.8942871	3274.06731679	450.708569815	1437782.35575	67474890.9835	0
11275000.0	78809.0	759532418.615	0.340465987364	174401.77002	0.804151990451	1.19114112854	41892.7933188	25514.9230957	3259.42980169	454.060875029	772692.166147	67479813.6389	0
11300000.0	79010.0	765226057.064	0.340340452106	174402.001953	0.8079551626	1.19097793102	41909.74531	25532.1990967	3244.9325451	456.286874439	21574951.832	67484736.8125	0
11325000.0	79210.0	770947114.237	0.340214457466	174401.855469	0.811778241768	1.19082307816	41926.9683948	25549.5819092	3230.73032946	459.607014866	13387406.7559	67489660.5043	0
11350000.0	79411.0	776695557.867	0.340086956705	174402.392578	0.815596082248	1.1906696558	41944.550471	25567.2393799	3216.50904553	464.139458892	20184176.8875	67494584.7143	0
11375000.0	79612.0	782471444.272	0.33995886261	174403.088379	0.819421373308	1.19052052498	41962.3701482	25585.0234985	3202.44529663	466.370766289	1431243.27368	67499509.4425	0
11400000.0	79812.0	788274914.077	0.339831333046	174403.393555	0.823265989311	1.19037806988	41980.2987237	25602.7893066	3188.72661511	469.712204829	909887.429133	67504434.6891	0
11425000.0	80013.0	794105936.598	0.339703046221	174404.394531	0.827105657663	1.1902358532	41998.4631669	25620.7275391	3175.04229935	473.103193308	5706817.80829	67509360.454	0
11450000.0	80213.0	799964653.679	0.339574278878	174405.004883	0.830964592751	1.19010090828	42016.8626879	25638.7573242	3161.69093841	475.261558355	13533477.5939	67514286.7372	0
11475000.0	80413.0	805851124.399	0.339443356481	174405.712891	0.834831735119	1.18997228146	42035.7528381	25657.119751	3148.51325487	478.602167878	6321223.9964	67519213.5388	0
11500000.0	80613.0	811765406.71	0.339310668419	174406.518555	0.83870626986	1.18984973431	42055.0789672	25675.7629395	3135.50410036	481.94594564	1168060.98228	67524140.8588	0
11525000.0	80813.0	817707558.345	0.339176493231	174407.446289	0.842588371597	1.18973219395	42074.7746994	25694.6502686	3122.65840921	485.293071029	1390463.6938	67529068.6973	0
11550000.0	81013.0	823677636.608	0.339041163436	174408.47168	0.84647804033	1.18961954117	42094.8090956	25713.7542725	3109.9711963	488.643836076	6950187.23007	67533997.0543	0
11575000.0	81213.0	829675699.527	0.338905010534	174409.58252	0.850375392474	1.18951189518	42115.1321918	25733.026123	3097.44095582	490.767943262	12607277.951	67538925.9297	0
11600000.0	81412.0	835701890.756	0.338769350009	174410.27832	0.854292418808	1.18941116333	42135.6077824	25752.3223877	3085.19831053	494.07045224	5305589.7219	67543855.3237	0
11625000.0	81612.0	841756178.939	0.338632595086	174411.572266	0.858204381075	1.1893119812	42156.3777872	25771.8353271	3072.95344431	498.672819817	36560086.6259	67548785.2363	0
11650000.0	81812.0	847838618.934	0.338496005165	174412.963867	0.862123910338	1.18921673298	42177.3142985	25791.4215088	3060.85127461	500.786206455	2489865.81111	67553715.6675	0
11675000.0	82011.0	853949357.836	0.338360671819	174413.964844	0.866063055582	1.18912768364	42198.2655196	25810.9130859	3049.02105419	502.839990952	20456571.1252	67558646.6173	0
11700000.0	82210.0	860088450.198	0.338226101228	174415.014648	0.8700095932	1.18904209137	42219.2890159	25830.4046631	3037.3199278	506.154132813	11449436.46	67563578.0858	0
11725000.0	82409.0	866255950.083	0.338092482469	174416.174316	0.87396329036	1.18896019459	42240.3648425	25849.8657227	3025.74011459	509.474605882	4349529.45791	67568510.073	0
11750000.0	82608.0	872451913.764	0.337959677258	174417.382812	0.8779244381	1.18888187408	42261.4861476	25869.2962646	3014.27725877	512.801647032	112858.928964	67573442.5789	0
11775000.0	82807.0	878676400.136	0.337826023992	174418.676758	0.881893094629	1.18880927563	42282.944793	25888.9312744	3002.9336616	516.134507873	3344414.79108	67578375.6036	0
11800000.0	83006.0	884929466.352	0.33769147043	174420.007324	0.885869376361	1.1887434721	42304.7332687	25908.7463379	2991.69844814	519.47467102	10338168.7921	67583309.1471	0
11825000.0	83205.0	891211171.932	0.337556263348	174421.386719	0.889853341505	1.1886831522	42326.7995531	25928.7109375	2980.57726546	522.820825265	19686064.8629	67588243.2094	0
11850000.0	83404.0	897521575.322	0.337420703033	174422.77832	0.893845106475	1.18862724304	42349.0774981	25948.7915039	2969.55937202	524.852436306	3718817.29204	67593177.7906	0
11875000.0	83602.0	903860823.358	0.337286092364	174423.730469	0.897856894881	1.18857872486	42371.4198421	25968.8049316	2958.77062009	528.1562702	35696.0746595	67598112.8907	0
11900000.0	83801.0	910228881.215	0.337150776018	174425.20752	0.901863444597	1.18853139877	42394.0091282	25989.0014648	2947.94661939	531.518105151	4352923.28513	67603048.5097	0
11925000.0	83999.0	916625900.646	0.337016976341	174426.196289	0.905890599824	1.18848979473	42416.5460753	26009.0576172	2937.34603986	533.490904419	19595293.8175	67607984.6476	0
11950000.0	84197.0	923051936.745	0.336883986335	174427.22168	0.909924972802	1.18845057487	42439.0959199	26029.0771484	2926.83499539	536.811197854	10427064.3164	67612921.3046	0
11975000.0	84395.0	929507048.584	0.336752101618	174428.271484	0.913967029192	1.18841362	42461.6360333	26049.0325928	2916.40639274	540.140969213	3412829.25293	67617858.4806	0
12000000.0	84593.0	935991292.411	0.336621643909	174429.345703	0.918016710784	1.18837857246	42484.099385	26068.8751221	2906.06280887	543.479585176	121330.840533	67622796.1756	0
12025000.0	84791.0	942504723.113	0.336492852973	174430.419922	0.922073377296	1.18834412098	42506.4375059	26088.5803223	2895.80042267	546.82794307	4591200.77778	67627734.3898	0
12050000.0	84989.0	949047401.09	0.336365967877	174431.494141	0.926137785427	1.18831026554	42528.6085372	26108.1085205	2885.60912762	550.187334917	12122240.8574	67632673.1231	0
12075000.0	85187.0	955619361.573	0.336240202724	174432.60498	0.930206908379	1.18827807903	42550.7499374	26127.5726318	2875.48842777	552.161643753	11552484.697	67637612.3755	0
12100000.0	85384.0	962220775.325	0.336115258823	174433.154297	0.93429943081	1.18825149536	42572.9129726	26146.9665527	2865.56682576	555.482410425	4331209.24204	67642552.1472	0
12125000.0	85582.0	968851608.996	0.335989681042	174434.179688	0.938386598136	1.18822598457	42595.3218614	26166.5496826	2855.58853167	558.865519725	62018.2363716	67647492.4381	0
12150000.0	85779.0	975512015.737	0.335865541804	174434.619141	0.942494836636	1.1882058382	42617.6631393	26185.9863281	2845.79495847	562.209006726	3567497.34427	67652433.2482	0
12175000.0	85977.0	982201959.955	0.335741171764	174435.546875	0.946597312577	1.18818640709	42640.1751858	26205.5419922	2835.94778707	565.614859966	10744853.8682	67657374.5777	0
12200000.0	86174.0	988921594.389	0.335618773669	174435.900879	0.950720976107	1.18817150593	42662.5315447	26224.8840332	2826.27742995	567.54129148	14393958.4944	67662316.4265	0
12225000.0	86371.0	995670978.792	0.335497511387	174436.230469	0.954852323048	1.18815910816	42684.8534551	26244.1345215	2816.66478851	570.911831441	6458561.22737	67667258.7946	0
12250000.0	86568.0	1002450172.57	0.335377784807	174436.450195	0.958991295192	1.18814885616	42707.0835003	26263.2507324	2807.10641579	574.295196229	1025369.10462	67672201.6822	0
12275000.0	86765.0	1009259235.61	0.335259697927	174436.621094	0.963138416409	1.18814074993	42729.193185	26282.2052002	2797.59890929	577.691704142	1712931.91914	67677145.0892	0
12300000.0	86962.0	1016098225.49	0.335143461608	174436.706543	0.967293046415	1.18813407421	42751.1442776	26300.9674072	2788.14197169	581.101747454	7634084.90142	67682089.0157	0
12325000.0	87159.0	1022967203.67	0.335029339701	174436.682129	0.971455418039	1.18812906742	42772.904298	26319.5037842	2778.73530764	584.525195238	15864100.3009	67687033.4616	0
12350000.0	87356.0	1029866226.55	0.334917488429	174436.560059	0.975625298452	1.18812584877	42794.4605475	26337.7929688	2769.36950184	586.471837968	11256283.0284	67691978.4272	0
12375000.0	87552.0	1036795450.39	0.334808999084	174435.827637	0.979816541076	1.18812572956	42815.6347025	26355.6671143	2760.15951308	589.864375419	4479302.45667	67696923.9123	0
12400000.0	87749.0	1043754839.22	0.334700660128	174435.473633	0.984002370387	1.1881275177	42836.9350497	26373.5870361	2750.88048023	593.323518247	234143.703778	67701869.917	0
12425000.0	87945.0	1050744550.07	0.334593885991	174434.521484	0.988209620118	1.18813633919	42858.198701	26391.3299561	2741.75305195	596.745219644	2707109.13399	67706816.4413	0
12450000.0	88142.0	1057764549.67	0.334487099933	174433.886719	0.992411398329	1.18814706802	42879.6088542	26409.1430664	2732.54789832	600.2360521	8914987.05756	67711763.4853	0
12475000.0	88338.0	1064814993.63	0.334382221403	174432.617188	0.996634713374	1.18816280365	42900.8665615	26426.7181396	2723.49325869	602.152912809	20605752.2419	67716711.0491	0
12500000.0	88534.0	1071895945.09	0.334278714046	174431.164551	1.00086606108	1.18818092346	42922.0413901	26444.1619873	2714.46862275	606.185045498	0.0	67721659.1325	0
