z	T	P	nabla_ad	S	rho	delta	cp	cv	opac	frad	fconv	ftot	dT
0.0	3900.0	153.156289005	0.381939243826	172865.563965	6.1722191802e-06	1.00995433331	16926.084119	10440.9576416	0.000710159320115	0.0	21077.5182029	65311815.0903	0
25000.0	3900.0	201.829903539	0.376654061853	171091.357422	8.13560063762e-06	1.01309525967	17241.9818275	10719.0299988	0.000845002875283	0.0	28674.3462527	65316507.3538	0
50000.0	3900.0	265.996182452	0.369967355438	169311.071777	1.07251958426e-05	1.01728928089	17656.8489111	11083.7333679	0.00100363589449	0.0	37589.0849183	65321200.1229	0
75000.0	3900.0	350.601864555	0.361620327901	167522.058105	1.41420386512e-05	1.02268946171	18200.1163309	11562.0948792	0.00119100718904	0.0	49451.4421662	65325893.3976	0
100000.0	3900.0	462.183968326	0.351331852441	165722.290039	1.8652295708e-05	1.02978336811	18911.7775446	12187.8936768	0.00141344232328	0.0	65118.9308779	65330587.1781	0
125000.0	3900.0	609.388057055	0.338900218411	163907.568359	2.4609338567e-05	1.03918588161	19842.5001153	13004.6691895	0.00167689880412	0.0	85766.9592333	65335281.4644	0
150000.0	3900.0	803.662278448	0.324201119364	162074.072266	3.24832996057e-05	1.05144953728	21056.6128581	14068.5272217	0.00198822263395	0.0	113018.217011	65339976.2566	0
175000.0	3900.0	1060.18818886	0.307261332242	160215.405273	4.29011421943e-05	1.06730818748	22631.9496556	15447.428894	0.00235874645307	0.0	149049.943161	65344671.5548	0
200000.0	3900.0	1399.13467832	0.288321145304	158325.195312	5.67015483455e-05	1.08812367916	24671.9140581	17226.3519287	0.00280349576538	18056323.909	193179.179204	65349367.3591	0
225000.0	3908.0	1846.20512215	0.270456619426	156449.926758	7.47955226643e-05	1.11154997349	26930.137091	19186.9827271	0.00339209205307	39839952.9864	242516.036741	65354063.6694	0
250000.0	3928.0	2433.78512464	0.255831501603	154623.55957	9.8271641491e-05	1.13480603695	29092.8609772	21050.038147	0.00419515505608	18672301.6995	327218.248745	65358760.4858	0
275000.0	3929.0	3210.52459359	0.234838715457	152629.150391	0.000129986744923	1.17407548428	32825.1477275	24264.7613525	0.00500959248388	41688540.4675	365795.863134	65363457.8085	0
300000.0	4002.0	4214.11404306	0.237346376893	151195.129395	0.000167538189544	1.17326176167	32392.5394633	23847.1282959	0.00668918630534	33208994.5928	451298.036973	65368155.6374	0
325000.0	4025.0	5526.37153978	0.223998820807	149358.105469	0.000219020535042	1.20531308651	35215.5941138	26241.607666	0.00821937266406	41407241.8136	393048.105452	65372853.9727	0
350000.0	4191.0	7163.91938729	0.253436124828	148683.813477	0.000271653220807	1.15134060383	29642.0664826	21394.6868896	0.0127266306402	32968941.2694	419313.943303	65377552.8144	0
375000.0	4281.0	9235.783436	0.259408087751	147444.897461	0.000342753935456	1.14459359646	28735.1074723	20579.4403076	0.0173444692427	41428568.6097	32309.6382812	65382252.1626	0
400000.0	4708.0	11618.2717575	0.335501483171	148074.108887	0.000389177671423	1.05277478695	20197.5424258	13203.692627	0.0330483090923	32921583.5265	38565.1855336	65386952.0172	-2
425000.0	4951.0	14449.4428911	0.355809975276	147576.44043	0.000459829550437	1.03538691998	18653.6831841	11870.7794189	0.0452493566789	40605528.5336	0.230337602604	65391652.3785	0
450000.0	5855.0	17365.0118317	0.386828316105	149280.505371	0.000465604642841	1.00771999359	16588.3575162	10130.7983398	0.0755443595127	32612723.8238	0.010139606896	65396353.2465	-6
475000.0	5893.0	20848.6554434	0.3860862182	148206.12793	0.000556026861886	1.00854659081	16635.5410394	10168.8941956	0.0889755582484	38230196.8739	15.0350655658	65401054.6211	0
500000.0	7373.0	24113.6613627	0.339099082114	151189.978027	0.00051171684845	1.02213788033	19081.0577825	12424.7817993	0.529933032192	34120467.441	119743.059188	65405756.5026	-16
525000.0	9670.0	26861.6558498	0.166706704113	158464.575195	0.000423114954629	1.26960217953	48758.2147833	38341.0552979	6.66188776895	5777789.8109	24582686.5764	65410458.8909	-15
550000.0	10348.0	29651.1148526	0.139398795368	161502.563477	0.000427742293141	1.43375897408	67247.848347	53811.0839844	12.4433912053	1904122.97165	16410104.6845	65415161.7861	-5
575000.0	11191.0	32365.8451851	0.1178824164	167162.5	0.000414236581037	1.71788966656	99518.6755672	79772.3083496	24.2377154214	926366.98511	21782158.0337	65419865.1883	-4
600000.0	11445.0	35221.0315904	0.114835231327	168480.639648	0.000435085610206	1.79567027092	108259.821702	86518.6035156	29.2798888446	458864.797516	9192689.64883	65424569.0975	-4
625000.0	11837.0	38144.8894442	0.110487536624	171381.433105	0.00044459648052	1.93455457687	124449.335095	98833.2397461	37.8400056744	348402.327007	10827138.3966	65429273.5139	-2
650000.0	12031.0	41223.4669561	0.109416093278	172382.617188	0.000467615279831	1.98896574974	130723.096795	103458.508301	42.9999226403	197057.776698	3873920.0919	65433978.4373	-2
675000.0	12214.0	44464.1324951	0.108672392186	173313.208008	0.000491744742703	2.03786969185	136392.29224	107580.151367	48.2649010472	150021.029747	2712615.11851	65438683.868	-1
700000.0	12356.0	47892.9535223	0.108434428916	173809.558105	0.000519918671671	2.06843876839	139841.676808	110020.849609	52.8335083558	99687.4362993	565753.903298	65443389.806	0
725000.0	12455.0	51542.7639339	0.108602102761	173810.656738	0.000553205381948	2.08014202118	140942.405065	110714.440918	56.5420499087	73973.9469058	5621.80493959	65448096.2513	0
750000.0	12554.0	55425.4274596	0.108789852743	173785.473633	0.000588273223912	2.09081363678	141891.26369	111286.328125	60.4363074877	66646.1262228	4028.00971914	65452803.204	0
775000.0	12653.0	59552.825028	0.108985842014	173787.817383	0.000625018856226	2.10194349289	142913.162674	111912.207031	64.5154561986	59859.1036724	9050.19942394	65457510.6642	0
800000.0	12751.0	63937.3990608	0.109199730733	173799.023438	0.000663627474751	2.11280083656	143916.887815	112524.194336	68.7524062957	54141.0973837	7378.16901304	65462218.6319	0
825000.0	12850.0	68590.7727542	0.109421299804	173824.21875	0.00070399607921	2.12360930443	144921.761808	113132.995605	73.2073829956	49055.8537301	5675.67625714	65466927.1071	0
850000.0	12948.0	73527.0368677	0.10966855096	173813.464355	0.00074653826232	2.13301301003	145736.295039	113595.141602	77.8264300497	44292.002325	13244.8147673	65471636.09	0
875000.0	13046.0	78760.680418	0.109928963884	173785.375977	0.000791204570305	2.14157056808	146435.573008	113967.06543	82.6447646571	40460.8093385	3913.78579704	65476345.5805	0
900000.0	13145.0	84304.8758391	0.110193870407	173795.751953	0.000837726645386	2.15074539185	147234.067502	114411.474609	87.6963907796	36838.7003311	2921.40430645	65481055.5789	0
925000.0	13243.0	90174.4369089	0.110476082108	173812.243652	0.00088647038865	2.15956783295	148005.2939	114836.376953	92.9204950782	33425.6461888	10911.6780552	65485766.085	0
950000.0	13341.0	96384.1070368	0.11077001607	173830.029297	0.000937447794058	2.16798853874	148734.523321	115228.942871	98.3579108563	30528.4804776	10334.7767575	65490477.0989	0
975000.0	13439.0	102949.779576	0.111075824597	173825.415039	0.000990869693851	2.17558455467	149351.584092	115535.888672	104.019242218	27916.891172	10250.0216409	65495188.6208	0
1000000.0	13537.0	109888.698322	0.111388248451	173799.121094	0.00104683545032	2.18238568306	149864.076089	115764.306641	109.911114749	25558.9892744	10592.7551141	65499900.6506	0
1025000.0	13635.0	117217.671633	0.111705909512	173796.75293	0.00110515759388	2.18931007385	150422.325134	116029.406738	116.03226544	23434.6712757	10753.8339185	65504613.1885	0
1050000.0	13733.0	124953.122111	0.112032233884	173812.158203	0.00116592639188	2.19622182846	151001.44899	116311.303711	122.389252502	21516.8289624	10875.7450697	65509326.2344	0
1075000.0	13831.0	133112.279761	0.112368188594	173832.336426	0.00122929259305	2.20281529427	151551.540098	116571.557617	128.990661935	19780.7899212	11183.7470149	65514039.7885	0
1100000.0	13929.0	141713.583612	0.112714196541	173838.684082	0.0012954748172	2.20878338814	152017.372392	116767.871094	135.847569361	18204.3589676	12041.5033499	65518753.8507	0
1125000.0	14027.0	150777.074483	0.1130688035	173814.294434	0.00136469998324	2.21395683289	152361.611664	116871.679688	142.970912256	16768.9526861	13800.8771267	65523468.4212	0
1150000.0	14125.0	160323.161585	0.113431268392	173802.478027	0.00143677141295	2.21903777122	152713.127483	116982.434082	150.358614423	15464.8531006	15857.6477839	65528183.5	0
1175000.0	14223.0	170371.166652	0.113802437442	173810.205078	0.00151165500029	2.22410273552	153086.526111	117111.157227	158.004405134	14353.5169891	2256.19054711	65532899.0871	0
1200000.0	14322.0	180939.311579	0.114179934971	173838.818359	0.0015892508145	2.22920227051	153480.360105	117253.991699	165.954601874	13271.9838156	2835.34327304	65537615.1826	0
1225000.0	14420.0	192050.097823	0.114566829467	173853.271484	0.00167026121289	2.23359179497	153786.091414	117333.459473	174.123394211	12222.2365197	23331.5708816	65542331.7865	0
1250000.0	14518.0	203726.007809	0.114959077096	173846.887207	0.00175471245711	2.23735523224	154000.576245	117344.824219	182.568452159	11323.6152931	27838.4193087	65547048.8989	0
1275000.0	14616.0	215991.281832	0.115359679934	173819.98291	0.00184275768333	2.24077320099	154156.129693	117311.92627	191.297350829	10553.9490758	9183.31291836	65551766.5199	0
1300000.0	14715.0	228867.640774	0.115766714243	173822.131348	0.0019337651338	2.24438810349	154362.432234	117316.931152	200.354260505	9799.07472279	12526.2477601	65556484.6494	0
1325000.0	14813.0	242379.816827	0.116181612659	173828.356934	0.00202843716579	2.24759149551	154535.809125	117301.489258	209.643416119	9107.36744811	16888.237255	65561203.2876	0
1350000.0	14912.0	256549.412154	0.116601751757	173851.428223	0.00212632812691	2.25067400932	154709.928008	117286.401367	219.278607905	8473.98543655	21686.7936424	65565922.4345	0
1375000.0	15010.0	271403.577199	0.11702680819	173858.789062	0.00222832522923	2.25305223465	154797.372767	117210.473633	229.165577421	7890.79377833	28370.8501085	65570642.0901	0
1400000.0	15109.0	286966.449827	0.117459158876	173859.887695	0.0023340039661	2.25524282455	154855.604965	117111.682129	239.426033886	7391.62191224	6454.22620663	65575362.2545	0
1425000.0	15208.0	303266.163387	0.117899196466	173841.064453	0.00244386683335	2.25722765923	154872.536812	116982.250977	250.018203418	6894.022331	12292.9268791	65580082.9277	0
1450000.0	15307.0	320330.811197	0.118345268203	173835.913086	0.00255757686318	2.2590777874	154891.58034	116856.45752	260.934965045	6435.98192666	19723.7072632	65584804.1097	0
1475000.0	15406.0	338187.25741	0.118796504724	173843.09082	0.00267523091679	2.26068592072	154898.138554	116723.535156	272.188197375	6013.7401447	28797.7641677	65589525.8007	0
1500000.0	15505.0	356863.270349	0.119251670113	173855.883789	0.00279701998807	2.26193261147	154872.088828	116568.62793	283.790078169	5623.77680187	39862.6513543	65594248.0007	0
1525000.0	15604.0	376387.482337	0.119714040611	173868.701172	0.00292310778605	2.26284384727	154811.470141	116389.880371	295.753965445	5289.63672114	11018.9181136	65598970.7096	0
1550000.0	15704.0	396786.936654	0.120185961257	173882.409668	0.00305328785544	2.26366186142	154740.106304	116202.490234	308.160296856	4954.27208025	20249.8598703	65603693.9276	0
1575000.0	15803.0	418096.96356	0.120660950848	173862.768555	0.00318886668538	2.26412343979	154601.88698	115967.834473	320.909419827	4641.87262991	34436.7685724	65608417.6547	0
1600000.0	15903.0	440348.573978	0.121140115625	173851.68457	0.00332869331032	2.26456713676	154467.083868	115735.241699	334.125092464	4374.46200629	6581.57972612	65613141.891	0
1625000.0	16003.0	463573.774664	0.121622748591	173851.940918	0.0034730758216	2.26474332809	154315.604867	115492.895508	347.731115036	4105.03387364	17067.3181537	65617866.6364	0
1650000.0	16103.0	487803.939416	0.122112328445	173861.804199	0.0036220990296	2.2646484375	154145.541156	115239.331055	361.736660329	3855.11982503	31570.803637	65622591.891	0
1675000.0	16203.0	513071.212656	0.122611471299	173877.46582	0.00377590959033	2.26431751251	153957.056461	114974.255371	376.151812809	3623.02972287	50685.2935704	65627317.6548	0
1700000.0	16303.0	539409.505562	0.123117559178	173890.612793	0.00393480831917	2.26374864578	153740.710427	114690.087891	390.994989599	3424.08251162	13970.2478208	65632043.928	0
1725000.0	16404.0	566851.146346	0.123629022854	173900.32959	0.00409859512729	2.26308703423	153507.425076	114392.675781	406.354949394	3222.14527712	31253.8802634	65636770.7105	0
1750000.0	16504.0	595438.844845	0.12413625894	173877.01416	0.00426886026617	2.26217198372	153219.170308	114057.165527	422.119207303	3032.8923859	57099.6830235	65641498.0024	0
1775000.0	16605.0	625208.224163	0.124650060068	173865.600586	0.00444392617283	2.26116752625	152932.780733	113723.55957	438.411986523	2871.17131098	16940.2744374	65646225.8037	0
1800000.0	16706.0	656195.497255	0.125172831335	173866.772461	0.00462417210656	2.25993227959	152638.249862	113386.877441	455.163680623	2706.4970739	39588.0399513	65650954.1145	0
1825000.0	16807.0	688437.105671	0.125703464303	173876.367188	0.0048097981562	2.25845527649	152328.260322	113041.296387	472.379340462	2552.96331493	70258.4269655	65655682.9347	0
1850000.0	16908.0	721971.05501	0.126240051566	173888.989258	0.00500106671097	2.25673365593	151995.58833	112681.091309	490.05859723	2421.60021548	23001.4930016	65660412.2645	0
1875000.0	17010.0	756832.59578	0.126783117316	173907.080078	0.00519758759765	2.25485229492	151647.274252	112309.448242	508.288168416	2298.64360913	1744.02198789	65665142.1038	0
1900000.0	17112.0	793062.661376	0.127330581848	173916.308594	0.00540026940143	2.25277495384	151271.093838	111919.128418	527.00718927	2172.40537184	9516.61959263	65669872.4527	0
1925000.0	17214.0	830704.519206	0.127880580269	173908.740234	0.00560951502848	2.2506301403	150873.728676	111514.39209	546.235633484	2054.04791969	37585.5180772	65674603.3113	0
1950000.0	17316.0	869804.133262	0.128432267392	173892.102051	0.0058252890085	2.24842715263	150465.400406	111103.271484	565.974841822	1943.11563759	80371.3189274	65679334.6795	0
1975000.0	17418.0	910405.551824	0.128989679298	173884.863281	0.00604712886343	2.24601340294	150046.195509	110686.462402	586.208164327	1848.36605889	27254.473781	65684066.5575	0
2000000.0	17521.0	952545.972175	0.129555616289	173892.797852	0.00627440840617	2.24341201782	149620.26197	110265.466309	607.025839316	1751.01924569	68354.3712907	65688798.9451	0
2025000.0	17623.0	996273.576063	0.13012556424	173897.607422	0.00650882429909	2.24048995972	149163.304848	109825.744629	628.275065546	1659.51569404	125942.014957	65693531.8426	0
2050000.0	17726.0	1041626.89498	0.13070800272	173912.915039	0.00674893544783	2.23738479614	148695.318017	109378.820801	650.129279186	1589.30749814	8419.54281124	65698265.2498	0
2075000.0	17830.0	1088645.94296	0.131300035336	173933.007812	0.00699500014889	2.23416900635	148216.306722	108923.950195	672.600767503	1508.41082318	8929.88981516	65702999.1668	0
2100000.0	17933.0	1137385.15352	0.131888546722	173934.179688	0.00724925121176	2.23086547852	147713.037556	108453.796387	695.514417596	1432.0898133	50945.0594128	65707733.5937	0
2125000.0	18037.0	1187890.32824	0.132477327773	173925.244141	0.00751041898184	2.22765779495	147207.875	107981.347656	719.058652505	1360.42664935	117281.678476	65712468.5306	0
2150000.0	18140.0	1240220.81702	0.133064313754	173903.344727	0.0077799322753	2.2243578434	146686.519261	107499.902344	743.055530168	1299.02780638	50183.0039222	65717203.9773	0
2175000.0	18245.0	1294413.18366	0.133669959201	173906.726074	0.00805435320217	2.2208750248	146165.182289	107018.066406	767.744498307	1241.56899109	3726.82790821	65721939.934	0
2200000.0	18349.0	1350522.11006	0.134278211203	173908.532715	0.00833682679513	2.21716356277	145623.214883	106524.743652	792.891117236	1181.43411796	50214.8564322	65726676.4007	0
2225000.0	18454.0	1408590.51113	0.134897212815	173921.801758	0.00862558772496	2.21327066422	145071.184423	106024.853516	818.683388154	1130.3853502	2843.18264547	65731413.3773	0
2250000.0	18559.0	1468669.54268	0.135520564159	173935.15625	0.00892191019375	2.20919370651	144501.970422	105514.526367	845.057152026	1076.91005632	52782.2230317	65736150.864	0
2275000.0	18664.0	1530811.18041	0.136150675478	173946.618652	0.00922594881558	2.20492601395	143913.720211	104992.382812	872.024867019	1026.44081573	141304.727619	65740888.8608	0
2300000.0	18769.0	1595070.00732	0.136784175564	173951.245117	0.00953813287197	2.20056915283	143312.84511	104462.70752	899.612143763	983.393950559	62570.3021211	65745627.3676	0
2325000.0	18875.0	1661496.02296	0.137421833482	173950.891113	0.00985780570772	2.19625210762	142711.711462	103932.8125	927.936653341	942.624035825	7958.01670276	65750366.3846	0
2350000.0	18981.0	1730150.15699	0.138054367096	173936.035156	0.0101864234239	2.19206833839	142113.942373	103406.115723	956.932300593	899.560839612	81263.6819908	65755105.9117	0
2375000.0	19087.0	1801092.12256	0.138691631555	173925.256348	0.0105230947156	2.18774485588	141507.029411	102874.768066	986.56639886	862.905379024	17768.4432587	65759845.949	0
2400000.0	19194.0	1874368.32679	0.139344481236	173928.759766	0.0108663971332	2.18316817284	140885.703231	102334.204102	1016.92502031	824.40747415	107625.928059	65764586.4964	0
2425000.0	19300.0	1950042.51269	0.139999328426	173929.56543	0.0112190800792	2.17841362953	140247.765719	101784.735107	1047.85076468	787.834870742	249130.619952	65769327.5541	0
2450000.0	19407.0	2028163.48602	0.140666331784	173939.72168	0.0115789025585	2.17349553108	139599.423173	101228.35083	1079.53325862	760.414873764	3136.32880825	65774069.122	0
2475000.0	19515.0	2108781.37406	0.141343302987	173956.152344	0.0119460819406	2.16847109795	138942.680534	100665.942383	1111.9978673	730.920808429	59680.0714673	65778811.2002	0
2500000.0	19623.0	2191955.7291	0.142026196482	173969.702148	0.0123220743262	2.16332650185	138270.828506	100093.701172	1145.1659021	696.342320966	199320.424243	65783553.7886	0
2525000.0	19730.0	2277757.89804	0.142706475417	173970.288086	0.012708693248	2.15816164017	137588.690275	99515.9423828	1178.96204689	669.691268725	104527.784915	65788296.8873	0
2550000.0	19839.0	2366234.57786	0.143397802966	173974.157715	0.0131022425194	2.15302634239	136909.866603	98939.4836426	1213.69828103	644.470506254	30794.1694288	65793040.4964	0
2575000.0	19947.0	2457464.62531	0.144074161832	173957.23877	0.0135074687933	2.14813804626	136245.762088	98375.5249023	1249.12327566	617.38144749	171835.26869	65797784.6158	0
2600000.0	20056.0	2551507.60449	0.144757231004	173947.851562	0.0139205885716	2.14318823814	135583.416313	97813.7939453	1285.32819479	594.50864712	78807.1333815	65802529.2456	0
2625000.0	20165.0	2648425.98179	0.145450590887	173943.762207	0.0143426241266	2.13796043396	134900.595861	97239.7644043	1322.14981986	572.756277898	13039.0891031	65807274.3857	0
2650000.0	20275.0	2748271.20828	0.14616155445	173950.561523	0.0147721148096	2.13242816925	134196.341082	96651.6235352	1359.69035757	552.157440709	21012.5927696	65812020.0363	0
2675000.0	20385.0	2851106.08724	0.146881457115	173960.070801	0.0152107986651	2.12669610977	133476.099282	96053.8818359	1397.88234288	530.117989987	64651.9016152	65816766.1973	0
2700000.0	20495.0	2956995.31286	0.14760821636	173970.385742	0.0156589703693	2.12083315849	132745.06046	95450.0366211	1436.75582014	511.481848182	6076.35882593	65821512.8687	0
2725000.0	20606.0	3065994.33507	0.148346757376	173985.766602	0.0161152693181	2.11486315727	132006.601289	94841.3635254	1476.42174848	491.547747051	157101.389175	65826260.0506	0
2750000.0	20716.0	3178183.3819	0.149079011552	173990.771484	0.0165834426298	2.10897278786	131271.484155	94236.9567871	1516.73473816	474.598877512	68194.6687858	65831007.7429	0
2775000.0	20828.0	3293611.28172	0.149823967811	174001.489258	0.0170587845787	2.10308742523	130539.171529	93633.8256836	1558.00133445	458.534493638	7717.55525115	65835755.9457	0
2800000.0	20939.0	3412364.28395	0.150554430168	173995.678711	0.0175469667738	2.09746408463	129824.972441	93045.1721191	1599.9848397	441.057390809	183110.356729	65840504.659	0
2825000.0	21051.0	3534508.97458	0.151282893439	173984.875488	0.0180448059837	2.09203982353	129128.488249	92469.1589355	1642.89763393	426.327986014	85788.1017995	65845253.8829	0
2850000.0	21163.0	3660122.50708	0.152010638959	173975.305176	0.0185530698218	2.08664822578	128438.851397	91899.4812012	1686.61134958	412.214978029	14976.5415272	65850003.6173	0
2875000.0	21276.0	3789264.94142	0.152746398975	173974.243164	0.0190698592633	2.08119487762	127749.894116	91330.9997559	1731.22965584	398.764570215	22150.7752565	65854753.8622	0
2900000.0	21389.0	3922006.03733	0.153491843711	173976.025391	0.0195968241314	2.07552647591	127043.278328	90751.6662598	1776.66154356	384.175650213	112636.361507	65859504.6177	0
2925000.0	21502.0	4058415.95668	0.154249603224	173980.102539	0.0201339971682	2.0696003437	126314.250741	90158.0871582	1822.91536777	371.882953881	33044.1472724	65864255.8838	0
2950000.0	21616.0	4198552.97427	0.155025274976	173991.064453	0.0206796357816	2.06341958046	125565.064655	89551.0437012	1870.10026195	360.158291114	4313.20536685	65869007.6605	0
2975000.0	21730.0	4342490.10349	0.1558078613	174001.44043	0.0212359536818	2.0571231842	124806.101106	88938.5375977	1918.1442308	347.377230323	185676.788904	65873759.9478	0
3000000.0	21844.0	4490302.7682	0.156593957181	174009.436035	0.0218033437704	2.05079007149	124044.279714	88325.2990723	1967.068245	336.612165436	92499.4581212	65878512.7458	0
3025000.0	21959.0	4642054.78007	0.157388261683	174018.676758	0.0223800852837	2.04443335533	123282.370879	87712.5488281	2016.98541958	326.318253378	23547.167295	65883266.0543	0
3050000.0	22074.0	4797826.59238	0.15817819681	174021.166992	0.0229686775128	2.03820800781	122532.173611	87109.161377	2067.82191637	315.037446027	319776.193411	65888019.8735	0
3075000.0	22189.0	4957702.2411	0.158958869853	174014.343262	0.0235697079916	2.03220796585	121801.728112	86520.6970215	2119.60921206	305.531168878	204064.615913	65892774.2033	0
3100000.0	22305.0	5121754.0691	0.159738562649	174005.59082	0.0241809284489	2.02635717392	121087.453127	85944.0551758	2172.42871061	297.70384894	174289.49851	65897529.0438	0
3125000.0	22422.0	5290050.3417	0.160524934367	174004.272461	0.0248012183874	2.02049016953	120378.4982	85371.9360352	2226.20510392	287.727337271	25839.6215316	65902284.395	0
3150000.0	22538.0	5462685.9865	0.16130026433	173999.243164	0.0254353071796	2.01475954056	119684.420333	84812.1582031	2280.69909038	278.123329587	353757.754358	65907040.2569	0
3175000.0	22655.0	5639723.75735	0.162092541099	174001.257324	0.0260784363491	2.00879907608	118972.968657	84240.8081055	2336.00884847	271.296619419	83778.3774286	65911796.6295	0
3200000.0	22773.0	5821225.75471	0.162903862771	174009.753418	0.0267305040325	2.00258016586	118240.597835	83655.3405762	2392.12145355	262.529782231	123359.965022	65916553.5128	0
3225000.0	22890.0	6007287.17769	0.163714310896	174013.476562	0.0273964942608	1.996311903	117503.077543	83067.96875	2448.89618728	255.166916041	43448.5858772	65921310.9068	0
3250000.0	23009.0	6197956.35887	0.164547399555	174026.733398	0.0280694075627	1.98982548714	116749.778255	82469.4335938	2506.55602111	248.182564537	132.631752042	65926068.8116	0
3275000.0	23127.0	6393332.12063	0.165373672858	174033.105469	0.0287568109343	1.98341393471	116002.749262	81876.9592285	2564.8890557	240.401565893	338741.843191	65930827.2271	0
3300000.0	23246.0	6593482.7623	0.166207390549	174041.271973	0.0294541532639	1.97698891163	115256.909546	81285.7788086	2624.05521435	234.943503935	121500.14811	65935586.1533	0
3325000.0	23366.0	6798477.99257	0.167045019711	174049.609375	0.0301616546494	1.97061550617	114518.107019	80700.0305176	2684.06158676	227.794760118	129880.270465	65940345.5903	0
3350000.0	23485.0	7008424.95917	0.167864592959	174046.594238	0.0308849412249	1.96452009678	113803.865543	80133.0566406	2744.81024015	221.80134855	47972.5777576	65945105.5381	0
3375000.0	23606.0	7223381.51615	0.168688638626	174044.946289	0.0316166551784	1.95853614807	113103.344078	79575.6774902	2806.50547349	216.094038645	104.733238551	65949865.9966	0
3400000.0	23726.0	7443460.34288	0.169493043207	174034.49707	0.0323642161675	1.95283639431	112430.336128	79039.3432617	2868.94791543	209.673340879	379038.619723	65954626.9659	0
3425000.0	23847.0	7668732.8571	0.170305502028	174030.59082	0.0331214287144	1.9470744133	111757.994427	78504.4494629	2932.21297298	205.231163516	152437.181279	65959388.4459	0
3450000.0	23969.0	7899264.51387	0.171135450787	174032.885742	0.0338879872288	1.94107985497	111068.74433	77958.6120605	2996.29735804	199.326795694	132697.911335	65964150.4368	0
3475000.0	24090.0	8135158.74073	0.171963318791	174031.726074	0.0346695996996	1.93504691124	110377.045908	77412.7868652	3061.10669744	194.407619791	46777.1294901	65968912.9385	0
3500000.0	24213.0	8376463.2586	0.172814101268	174040.356445	0.035457953345	1.92878305912	109669.460753	76856.060791	3126.79941018	189.731113878	293.53780838	65973675.951	0
3525000.0	24335.0	8623283.67995	0.173658444973	174044.604492	0.0362617101928	1.92257428169	108967.533461	76304.7912598	3193.27426753	184.423382732	462378.842026	65978439.4743	0
3550000.0	24458.0	8875688.92999	0.174511893076	174052.709961	0.0370753841707	1.91630959511	108263.783364	75752.7648926	3260.61815246	180.806702173	127990.237338	65983203.5085	0
3575000.0	24582.0	9133748.37634	0.175371615372	174063.818359	0.0378990662284	1.91003835201	107562.593389	75203.0151367	3328.87053827	175.899065631	216990.317271	65987968.0534	0
3600000.0	24705.0	9397573.54491	0.176216570854	174068.310547	0.0387390427932	1.90396785736	106879.923607	74667.5292969	3397.97700921	171.821412706	111714.54368	65992733.1093	0
3625000.0	24830.0	9667217.12487	0.177070649784	174078.173828	0.0395865754399	1.89791059494	106202.852875	74136.0229492	3468.08780237	167.931373416	31102.5183559	65997498.6759	0
3650000.0	24954.0	9942795.37824	0.177903418085	174079.370117	0.0404511447414	1.89214980602	105553.026491	73624.8840332	3539.12834731	164.124623703	10868.582075	66002264.7534	0
3675000.0	25080.0	10224364.5072	0.178741009583	174083.300781	0.0413237867178	1.88644993305	104912.827092	73120.6787109	3611.23153712	160.487504354	91870.0536175	66007031.3418	0
3700000.0	25205.0	10512044.7306	0.179564121493	174075.720215	0.0422140728915	1.88090312481	104284.904518	72626.4953613	3684.28587506	156.301663995	296853.565689	66011798.441	0
3725000.0	25331.0	10805914.4396	0.180395175291	174069.53125	0.0431149164797	1.87527322769	103652.670755	72130.1330566	3758.1784501	152.894882671	161718.071828	66016566.051	0
3750000.0	25457.0	11106067.5048	0.181228742057	174064.672852	0.0440287476522	1.86958265305	103018.610151	71633.8012695	3832.81650705	149.598823993	55784.8495806	66021334.1719	0
3775000.0	25584.0	11412572.4442	0.182072276847	174065.100098	0.0449523286079	1.86378407478	102379.707023	71134.9487305	3908.22450635	146.435950288	429.872024257	66026102.8037	0
3800000.0	25711.0	11725520.1369	0.182914957687	174066.491699	0.0458890062873	1.85798847675	101744.551614	70639.84375	3984.35921761	143.373965595	65992.3752585	66030871.9463	0
3825000.0	25839.0	12044979.6584	0.183763897068	174072.460938	0.0468355792691	1.85215473175	101110.562734	70146.2585449	4061.25464527	140.433689398	185204.484533	66035641.5998	0
3850000.0	25967.0	12371043.5183	0.184607995685	174078.674316	0.0477954927192	1.84639620781	100486.498699	69660.559082	4138.87967717	137.049011226	245790.648274	66040411.7643	0
3875000.0	26095.0	12703805.8286	0.185444944529	174084.753418	0.0487690194859	1.84074997902	99875.4554884	69184.8205566	4217.2428465	134.298989255	104820.879729	66045182.4396	0
3900000.0	26224.0	13043338.519	0.186281210056	174093.969727	0.0497528599226	1.83517861366	99275.2378799	68717.1386719	4296.34431582	131.655721333	8369.68292524	66049953.6258	0
3925000.0	26353.0	13389738.3	0.187108590419	174101.68457	0.0507507065777	1.82973241806	98688.7649961	68259.954834	4376.18945302	128.5914328	684484.122519	66054725.3229	0
3950000.0	26482.0	13743103.8479	0.187932001685	174106.762695	0.0517628432135	1.82431340218	98106.4423168	67806.7199707	4456.78440223	126.110924857	452630.959929	66059497.5309	0
3975000.0	26612.0	14103510.4158	0.188759158251	174112.353516	0.0527858137502	1.81887185574	97524.6588008	67354.510498	4538.12614865	124.19943441	418347.056858	66064270.2498	0
4000000.0	26743.0	14471033.7453	0.189588794803	174117.883301	0.0538196436537	1.81343579292	96945.483086	66904.6569824	4620.19657465	121.425516689	91428.3886056	66069043.4796	0
4025000.0	26873.0	14845800.6839	0.190402520068	174115.332031	0.054872038163	1.808177948	96381.4492207	66466.3208008	4703.02823814	118.713644231	971041.611808	66073817.2203	0
4050000.0	27004.0	15227890.4328	0.191215815584	174111.181641	0.0559358595638	1.80298388004	95824.3310102	66033.1054688	4786.60384012	116.993732544	104786.334607	66078591.472	0
4075000.0	27136.0	15617382.4216	0.192029178262	174106.689453	0.0570107004023	1.7978489399	95274.352458	65605.2062988	4870.89979979	114.898986502	299020.312637	66083366.2345	0
4100000.0	27268.0	16014377.117	0.192837644403	174103.283691	0.0580991836614	1.79277801514	94733.1122185	65184.197998	4955.84768854	112.438787503	202578.3885	66088141.5079	0
4125000.0	27400.0	16418970.4432	0.193640233474	174101.293945	0.0592013457208	1.78778970242	94202.311181	64771.2097168	5041.44669495	110.471730073	34626.3809564	66092917.2922	0
4150000.0	27533.0	16831231.7328	0.194443455454	174103.918457	0.0603133667028	1.7828360796	93678.9643646	64363.9709473	5127.65710909	108.580051949	55887.664806	66097693.5875	0
4175000.0	27666.0	17251258.1502	0.195240680703	174106.848145	0.0614393502474	1.77791821957	93162.1941558	63962.3901367	5214.51723847	106.340912911	539048.872016	66102470.3936	0
4200000.0	27799.0	17679148.1704	0.196032888513	174109.643555	0.0625794928055	1.77301323414	92649.716932	63564.9353027	5302.03367791	104.559768388	250624.513795	66107247.7107	0
4225000.0	27933.0	18114973.1204	0.196828189235	174115.515137	0.0637297634967	1.76806759834	92137.5593721	63168.4814453	5390.14296828	102.845501039	43387.5925793	66112025.5387	0
4250000.0	28067.0	18558832.0925	0.197618274021	174120.898438	0.0648942877888	1.76316332817	91631.3910024	62777.0874023	5478.88624641	101.177014772	66313.3503016	66116803.8777	0
4275000.0	28202.0	19010796.4905	0.198410879054	174128.808594	0.0660690056975	1.75825119019	91127.6559726	62387.9699707	5568.21627007	99.5703364298	312738.278183	66121582.7276	0
4300000.0	28337.0	19470966.4081	0.199197454865	174135.717773	0.0672581227263	1.75341534615	90632.1970309	62005.2612305	5658.23857711	97.642688665	235407.27097	66126362.0884	0
4325000.0	28472.0	19939442.9253	0.19997745768	174141.357422	0.0684618134983	1.74867463112	90146.2863757	61629.7424316	5748.99665922	96.1220693914	18769.1613118	66131141.9601	0
4350000.0	28608.0	20416299.2301	0.200757942718	174148.449707	0.0696759743732	1.7439852953	89666.8619594	61258.9904785	5840.38964182	94.6557223577	126490.233019	66135922.3428	0
4375000.0	28744.0	20901638.3165	0.201530269776	174153.45459	0.0709049636498	1.73943209648	89199.8246139	60897.1679688	5932.4408085	92.8839798882	476055.837415	66140703.2365	0
4400000.0	28880.0	21395565.6477	0.202292403906	174155.505371	0.0721491960576	1.7349998951	88744.2711141	60543.8842773	6025.15552573	91.49446191	137462.835979	66145484.6411	0
4425000.0	29017.0	21898159.7102	0.203051496595	174156.604004	0.0734046698199	1.7305970192	88293.634126	60194.6838379	6118.43913434	90.1538151375	28051.2769927	66150266.5566	0
4450000.0	29154.0	22409529.2891	0.20380048203	174153.198242	0.0746758742025	1.72629249096	87852.2493588	59852.5817871	6212.32796868	88.5218887755	691335.520165	66155048.983	0
4475000.0	29291.0	22929784.6405	0.204541367029	174146.484375	0.0759625982028	1.72206902504	87418.8003494	59516.607666	6306.77114112	87.2506677424	256696.923008	66159831.9205	0
4500000.0	29429.0	23459000.2852	0.205285548436	174143.493652	0.0772590574343	1.71781659126	86986.2314828	59181.7932129	6401.57461434	86.0279811588	1517.21440491	66164615.3688	0
4525000.0	29567.0	23997275.9877	0.206026380075	174141.333008	0.0785697047831	1.71360003948	86558.7521624	58851.0864258	6496.76878125	84.8377950495	246712.481738	66169399.328	0
4550000.0	29706.0	24544679.6384	0.206771517962	174142.883301	0.0798899127403	1.7093706131	86132.8902816	58521.8322754	6592.22034752	83.3928830652	363029.666361	66174183.7982	0
4575000.0	29844.0	25101342.1315	0.207506706127	174142.30957	0.0812289945316	1.70525515079	85716.9766433	58199.9328613	6688.08289327	82.2703825501	26642.1365431	66178968.7794	0
4600000.0	29984.0	25667299.3736	0.208253592983	174148.168945	0.0825729221106	1.70109343529	85300.2557355	57877.4719238	6783.99857917	81.2063256481	195904.146151	66183754.2715	0
4625000.0	30123.0	26242684.1335	0.208988338558	174151.403809	0.0839360145619	1.69705533981	84894.3842537	57563.0615234	6880.23970299	79.8706662057	449416.674241	66188540.2745	0
4650000.0	30263.0	26827567.0577	0.209721701373	174157.055664	0.0853090677992	1.69301247597	84491.4104745	57251.3183594	6976.56681682	78.8673706472	49897.0207637	66193326.7885	0
4675000.0	30403.0	27422051.2856	0.210447979866	174162.158203	0.0866969203344	1.68901896477	84094.5014962	56944.4641113	7073.04651178	77.8907355981	195899.032232	66198113.8135	0
4700000.0	30544.0	28026207.199	0.211175031878	174169.311523	0.0880947045516	1.6850219965	83699.8788187	56639.7155762	7169.48273891	76.680825172	465982.478795	66202901.3494	0
4725000.0	30684.0	28640172.3123	0.211890189225	174172.839355	0.0895123375813	1.68113052845	83314.3283186	56341.8701172	7266.11681833	75.760024698	35517.4963967	66207689.3963	0
4750000.0	30826.0	29263983.4949	0.212614992093	174180.688477	0.0909349982976	1.67718958855	82927.3178093	56043.2128906	7362.46881072	74.8899909779	246532.093684	66212477.9542	0
4775000.0	30967.0	29897779.4419	0.21332992627	174184.521484	0.0923776824493	1.67336285114	82549.2373785	55751.1352539	7458.91908118	73.7702459058	430419.498992	66217267.023	0
4800000.0	31109.0	30541631.5	0.214049225917	174189.428711	0.0938304729061	1.66955292225	82173.4291654	55460.6994629	7555.11470141	72.9511054055	14798.2375296	66222056.6029	0
4825000.0	31251.0	31195645.8687	0.214766904166	174192.480469	0.0952984846663	1.66581976414	81803.4763314	55174.3530273	7651.16469578	71.9013265011	1091486.09956	66226846.6937	0
4850000.0	31393.0	31859931.1833	0.215479049084	174193.066406	0.0967821251834	1.66217207909	81440.6099378	54893.1335449	7747.04069937	71.1299788906	397314.386091	66231637.2954	0
4875000.0	31536.0	32534563.2273	0.216188466393	174193.054199	0.0982765341178	1.65856158733	81082.1945943	54615.3198242	7842.50774121	70.3916941095	12.1769131692	66236428.4082	0
4900000.0	31679.0	33219653.6937	0.216889469885	174189.477539	0.0997870229185	1.65503752232	80731.1720374	54342.9992676	7937.77408286	69.6728923351	421312.599722	66241220.032	0
4925000.0	31823.0	33915278.4776	0.217591241368	174186.254883	0.101307727164	1.65152859688	80382.7675464	54072.7478027	8033.11273017	68.7415263515	309782.878971	66246012.1667	0
4950000.0	31966.0	34621580.406	0.21828434487	174181.091309	0.102848294773	1.64809203148	80040.825044	53807.4768066	8128.94489775	67.8196990824	1828423.80278	66250804.8124	0
4975000.0	32110.0	35338625.7372	0.21898341005	174179.089355	0.104398073745	1.64462828636	79698.5786303	53542.2485352	8224.78239137	67.397255068	602986.999457	66255597.9691	0
5000000.0	32255.0	36066478.5298	0.219689797861	174180.163574	0.105956787593	1.64113545418	79355.6901047	53276.763916	8320.53465308	66.7650950487	1502391.43439	66260391.6367	0
5025000.0	32400.0	36805239.6562	0.220398209786	174181.811523	0.107529856905	1.63766229153	79014.9340833	53012.9333496	8416.30193424	65.9208812979	117749.410262	66265185.8153	0
5050000.0	32545.0	37555010.2265	0.221109573308	174183.947754	0.109117347165	1.63421010971	78676.1620429	52750.5615234	8512.03120241	65.097479148	804887.389763	66269980.505	0
5075000.0	32690.0	38315894.1628	0.221818340667	174186.108398	0.110719607619	1.6307874918	78341.3004965	52491.3513184	8607.63952989	64.5163059717	144378.552167	66274775.7056	0
5100000.0	32836.0	39087957.6074	0.222529801128	174190.50293	0.112331130367	1.62735140324	78007.5501685	52233.3190918	8702.81187151	63.9608489303	189221.671139	66279571.4172	0
5125000.0	32982.0	39871305.0598	0.223238663369	174194.628906	0.113957576104	1.6239490509	77677.403951	51978.1433105	8797.68407559	63.203714037	727616.102205	66284367.6398	0
5150000.0	33128.0	40666041.2532	0.223946101351	174198.388672	0.115598937555	1.62057983875	77350.3365564	51725.3662109	8892.1747308	62.680404982	85299.9091499	66289164.3734	0
5175000.0	33275.0	41472232.4759	0.224659553499	174203.930664	0.117249554023	1.61719989777	77023.029909	51472.4975586	8985.93377015	62.1823973435	279879.60689	66293961.618	0
5200000.0	33422.0	42289983.2674	0.22537386029	174208.862305	0.118915122584	1.61385452747	76697.94773	51221.1975098	9079.11621653	61.4899759793	668661.570306	66298759.3737	0
5225000.0	33569.0	43119399.1333	0.22609011577	174213.012695	0.120595723274	1.61054337025	76374.6821882	50971.081543	9171.61331091	61.0238968489	58030.3386853	66303557.6404	0
5250000.0	33717.0	43960545.7988	0.226815746383	174218.481445	0.122285506222	1.60722339153	76050.0656262	50719.7723389	9263.07947409	60.5826776527	314179.952798	66308356.4181	0
5275000.0	33865.0	44813529.2105	0.227543284612	174222.741699	0.123990408611	1.603941679	75727.3499042	50469.6105957	9353.65012611	59.9537137644	725664.398677	66313155.7068	0
5300000.0	34013.0	45678458.5198	0.228268150465	174225.317383	0.125710852444	1.60070633888	75408.0373731	50221.862793	9443.30207612	59.5435829918	88264.7767047	66317955.5066	0
5325000.0	34162.0	46555401.7924	0.228996899211	174228.198242	0.127440900542	1.59747433662	75089.3414081	49974.5330811	9531.58394802	59.1578758709	270890.739057	66322755.8174	0
5350000.0	34311.0	47444468.7535	0.229723219467	174228.955078	0.1291866065	1.59428977966	74774.0997516	49729.6569824	9618.70547298	58.5898823744	857112.274209	66327556.6393	0
5375000.0	34460.0	48345769.8821	0.23044727376	174227.34375	0.130948101287	1.59115350246	74462.3148287	49487.2375488	9704.59860737	58.2345302188	149625.533985	66332357.9722	0
5400000.0	34610.0	49259374.9676	0.231175779296	174225.280762	0.132719345856	1.58802568913	74151.3003115	49245.3277588	9788.7972201	57.9032365543	201388.436507	66337159.8162	0
5425000.0	34760.0	50185395.0412	0.231903417513	174221.09375	0.134506248287	1.58494102955	73843.2604788	49005.5389404	9871.51504941	57.3950764016	1057952.15703	66341962.1712	0
5450000.0	34910.0	51123938.0577	0.232634463679	174217.224121	0.136307673529	1.5818669796	73536.0881081	48766.4733887	9952.61495424	57.0951062802	274484.445085	66346765.0373	0
5475000.0	35061.0	52075064.1866	0.23337654808	174215.966797	0.138117276947	1.57876110077	73226.7255069	48525.8972168	10031.5941418	56.8201309395	80740.9856727	66351568.4145	0
5500000.0	35212.0	53038876.8912	0.234120402399	174214.916992	0.139941548696	1.57566952705	72918.6412586	48286.3586426	10108.7357989	56.373610723	1450283.31308	66356372.3027	0
5525000.0	35363.0	54015479.6742	0.234865489057	174213.989258	0.141780503327	1.57259249687	72611.9247119	48047.946167	10183.9545046	56.1302942418	562544.24649	66361176.702	0
5550000.0	35515.0	55004933.1084	0.235618748186	174215.209961	0.143627810758	1.56948959827	72303.81292	47808.6486816	10256.7256604	55.911624645	24195.7254127	66365981.6124	0
5575000.0	35667.0	56007340.1928	0.236373950526	174216.442871	0.145489713759	1.56640124321	71996.9240922	47570.3399658	10328.0321683	55.7044723528	373624.122252	66370787.0339	0
5600000.0	35820.0	57022759.692	0.23713811214	174219.641113	0.147359751281	1.56328594685	71688.4404189	47330.9967041	10397.6536906	55.5167832378	1179286.52679	66375592.9664	0
5625000.0	35973.0	58051293.9912	0.237905098514	174222.729492	0.149244267959	1.56018459797	71380.9591152	47092.4560547	10465.9862298	55.1586885672	332625.626613	66380399.4101	0
5650000.0	36126.0	59093045.9037	0.23867532391	174225.634766	0.151143380208	1.55709660053	71074.3825677	46854.6356201	10532.9982832	54.9917088855	29754.7459267	66385206.3649	0
5675000.0	36280.0	60148072.9103	0.239456075612	174230.200195	0.153050437802	1.55398368835	70765.9499055	46615.4968262	10598.1351646	54.8439685253	537636.479713	66390013.8308	0
5700000.0	36434.0	61216479.1754	0.24023975037	174234.25293	0.154972192831	1.55088829994	70458.4769191	46377.0782471	10661.8485241	54.5287250747	1057853.10557	66394821.8079	0
5725000.0	36588.0	62298369.7678	0.241025413523	174237.62207	0.156908849021	1.54781258106	70152.2414298	46139.5874023	10724.0725904	54.4010973896	349813.003129	66399630.2961	0
5750000.0	36743.0	63393803.854	0.24181957831	174242.114258	0.15885369794	1.54471886158	69844.7944208	45901.2817383	10784.2795644	54.2921970728	7058.98886521	66404439.2955	0
5775000.0	36898.0	64502886.7096	0.242615036253	174245.678711	0.160813477123	1.54164707661	69539.0029709	45664.2547607	10842.919573	54.1926690877	431977.189491	66409248.8061	0
5800000.0	37054.0	65625676.6839	0.243418315802	174250.134277	0.162781303516	1.5385594368	69232.3840421	45426.7211914	10899.3890039	54.1119970436	1151460.49478	66414058.8278	0
5825000.0	37210.0	66762278.7131	0.24422241005	174253.515625	0.164764001966	1.53549563885	68927.7514243	45190.7165527	10954.1919087	53.8680529631	649799.879013	66418869.3608	0
5850000.0	37366.0	67912798.2367	0.245027024627	174255.688477	0.16676163068	1.53245604038	68625.2388657	44956.3598633	11007.2760737	53.8069685789	118472.168046	66423680.405	0
5875000.0	37523.0	69077293.2585	0.245838860497	174258.349609	0.16876735026	1.52940428257	68322.3570917	44721.8475342	11058.0310955	53.7646002451	132614.547644	66428491.9604	0
5900000.0	37680.0	70255871.5272	0.246651365276	174259.375	0.170788291143	1.52637732029	68021.4341418	44488.8244629	11107.0077888	53.560856397	2189510.91923	66433304.027	0
5925000.0	37837.0	71448641.2986	0.24746397312	174258.520508	0.172824569745	1.52337753773	67722.5601676	44257.3455811	11154.1560003	53.5375868285	1325109.10747	66438116.6049	0
5950000.0	37995.0	72655663.2901	0.248282717283	174257.434082	0.174869259354	1.52037155628	67423.5151976	44025.7995605	11198.8235377	53.7023249637	2335492.59535	66442929.6941	0
5975000.0	38154.0	73876997.2686	0.249106808355	174256.030273	0.17692221445	1.51736366749	67124.687481	43794.4915771	11240.9420178	53.5469533126	138230.770217	66447743.2946	0
6000000.0	38312.0	75112800.3282	0.249921972079	174250.964355	0.178997477633	1.51442849636	66831.309377	43567.1813965	11281.732382	53.3926383055	3540073.18763	66452557.4063	0
6025000.0	38471.0	76363129.453	0.250745621222	174247.644043	0.181079871254	1.511469841	66536.7322959	43339.1387939	11319.8490924	53.5945521688	578307.095973	66457372.0294	0
6050000.0	38631.0	77628035.3437	0.251578021832	174246.276855	0.183168973308	1.50848817825	66240.9454723	43110.357666	11355.2017479	53.6477380143	1246755.50736	66462187.1638	0
6075000.0	38791.0	78907616.6193	0.252411957249	174245.092773	0.185271957889	1.50552201271	65946.660342	42882.7850342	11388.4263735	53.5438810179	983432.140535	66467002.8095	0
6100000.0	38951.0	80201973.804	0.25324882496	174243.87207	0.18738914514	1.50256538391	65653.1321153	42655.8532715	11419.478589	53.6179882447	411013.972049	66471818.9666	0
6125000.0	39112.0	81511157.7766	0.254096016858	174244.262695	0.18951317179	1.49958193302	65357.6720197	42427.5878906	11447.6739334	53.711792351	50250.2366547	66476635.635	0
6150000.0	39273.0	82835268.9218	0.254945641675	174244.506836	0.191651386558	1.4966095686	65063.182854	42200.1434326	11473.6207095	53.8161533168	144535.063238	66481452.8148	0
6175000.0	39435.0	84174356.5238	0.255804149948	174246.240234	0.193796280655	1.4936144352	64767.3852842	41971.9085693	11496.6090513	53.9405904737	549589.844055	66486270.5059	0
6200000.0	39597.0	85528519.7421	0.256663559268	174247.77832	0.195955173695	1.49063467979	64473.1520842	41744.9615479	11517.2911484	54.0758660081	1100952.99287	66491088.7085	0
6225000.0	39760.0	86897806.4253	0.257530470388	174250.708008	0.198120455025	1.48763680458	64178.2562971	41517.7459717	11534.9198124	54.2316954778	1745307.43556	66495907.4224	0
6250000.0	39923.0	88282314.6013	0.258396857964	174253.393555	0.200299575226	1.48465788364	63885.5286716	41292.3309326	11550.2291125	54.2321510487	913708.167295	66500726.6478	0
6275000.0	40086.0	89682143.5477	0.259262668134	174255.737305	0.202492607059	1.48169839382	63594.9418899	41068.6889648	11563.3494034	54.4093390252	434338.594438	66505546.3847	0
6300000.0	40250.0	91097341.9094	0.260137397666	174259.057617	0.204692332773	1.47871756554	63303.0994847	40844.3237305	11573.5742606	54.6063025901	107229.53792	66510366.633	0
6325000.0	40414.0	92528010.3376	0.261013192968	174261.767578	0.206906159292	1.47575080395	63012.6407146	40621.1242676	11581.671642	54.8134444582	40846.2684396	66515187.3927	0
6350000.0	40579.0	93974197.4229	0.261896573212	174265.332031	0.209126534173	1.47276675701	62721.4523669	40397.6043701	11586.9118977	55.0403855987	298031.304243	66520008.664	0
6375000.0	40744.0	95436002.2793	0.262779384127	174268.249512	0.211360922549	1.46980309486	62432.4263812	40175.8331299	11590.0928203	55.2774149283	682873.407049	66524830.4468	0
6400000.0	40910.0	96913471.507	0.263667934746	174271.99707	0.213601597352	1.46682810783	62143.4462987	39954.309082	11590.4745896	55.5342816413	1144657.89957	66529652.7412	0
6425000.0	41076.0	98406704.0479	0.264554054366	174275.0	0.21585614013	1.46388053894	61857.3811342	39735.0921631	11588.8712427	55.633620826	1884018.85927	66534475.5471	0
6450000.0	41242.0	99915798.6974	0.265436776391	174277.246094	0.21812452178	1.46096265316	61574.5422068	39518.4204102	11585.3090436	55.9102743503	1330910.58309	66539298.8646	0
6475000.0	41409.0	101440801.696	0.2663243265	174280.053711	0.220399248064	1.4580385685	61292.1118428	39302.2491455	11579.0269764	56.2068015212	858416.933639	66544122.6937	0
6500000.0	41576.0	102981814.697	0.267210818132	174281.689453	0.222688220674	1.45513641834	61011.8383635	39087.8082275	11570.9060352	56.5130384604	459280.93983	66548947.0344	0
6525000.0	41744.0	104538884.776	0.268102545562	174283.59375	0.224983552471	1.45222759247	60731.6912561	38873.6450195	11560.1250504	57.0084372039	4547723.50798	66553771.8868	0
6550000.0	41913.0	106112057.444	0.268998433137	174285.644531	0.227284966968	1.44931662083	60452.0789398	38660.0311279	11546.7168246	57.1856771017	1071.13534986	66558597.2508	0
6575000.0	42081.0	107701486.42	0.269883065582	174284.936523	0.229608325753	1.44647264481	60178.0260083	38450.567627	11532.3744567	57.5319162564	170516.530404	66563423.1266	0
6600000.0	42251.0	109307161.508	0.27077717164	174285.681152	0.23192972003	1.44360172749	59902.8317	38240.4418945	11514.6738266	57.9085889479	474463.08441	66568249.514	0
6625000.0	42420.0	110929235.61	0.271657760384	174283.532715	0.234272840316	1.44080603123	59633.8331763	38034.8724365	11496.1167729	58.1137542866	3247853.89561	66573076.4131	0
6650000.0	42590.0	112567753.079	0.272539136649	174281.237793	0.236621883232	1.43802273273	59366.546588	37830.657959	11475.0947181	58.6822105456	1473890.13742	66577903.824	0
6675000.0	42761.0	114222758.64	0.273424361271	174278.942871	0.238976703258	1.43524003029	59099.6486515	37626.8005371	11451.6213008	59.0999989552	2089819.67417	66582731.7467	0
6700000.0	42932.0	115894349.992	0.274308573732	174276.464844	0.241344794631	1.43247723579	58834.6162097	37424.4018555	11426.5773644	59.354782645	1378905.30233	66587560.1812	0
6725000.0	43103.0	117582621.142	0.275191228951	174273.828125	0.243725866312	1.42973303795	58571.5902839	37223.614502	11400.0109798	59.7929629124	873162.338143	66592389.1274	0
6750000.0	43275.0	119287608.705	0.276078746907	174272.473145	0.246111798333	1.42697644234	58308.5716894	37023.059082	11371.0840181	60.2525901952	460592.341134	66597218.5856	0
6775000.0	43447.0	121009404.902	0.276963064561	174271.069336	0.248510623351	1.42423951626	58048.0763941	36824.5697021	11340.7237087	60.7229832443	137012.543216	66602048.5555	0
6800000.0	43620.0	122748043.856	0.277850875246	174271.032715	0.250913843047	1.42149233818	57788.1544263	36626.7883301	11308.0727953	61.3922559191	6212252.79485	66606879.0374	0
6825000.0	43794.0	124503559.1	0.278741080134	174272.302246	0.253321486525	1.41873550415	57529.0651514	36429.9530029	11273.1763011	61.7298670474	246726.968816	66611710.0311	0
6850000.0	43967.0	126276099.455	0.279621124171	174272.094727	0.255750172073	1.41602420807	57274.4633181	36236.6516113	11237.8445816	62.065658923	4220583.11012	66616541.5368	0
6875000.0	44141.0	128065702.176	0.280505467119	174272.888184	0.258183776168	1.41329944134	57019.9338469	36043.6798096	11200.3606231	62.7814478665	1165675.45778	66621373.5545	0
6900000.0	44316.0	129872401.985	0.281393609192	174274.719238	0.260621833149	1.4105643034	56765.7446589	35851.2268066	11160.7834852	63.3409508774	1754470.80528	66626206.0841	0
6925000.0	44491.0	131696289.46	0.282277951214	174276.208496	0.263072637608	1.40785181522	56514.194087	35660.8947754	11120.0030916	63.7300575346	2071841.26784	66631039.1256	0
6950000.0	44666.0	133537454.914	0.283157737403	174277.441406	0.265536014922	1.40516591072	56265.5597039	35472.8607178	11078.0823238	64.3117950138	1428979.05718	66635872.6793	0
6975000.0	44842.0	135395930.274	0.284039408593	174279.675293	0.268003437668	1.40248060226	56017.9565079	35285.7635498	11033.7873415	65.1036002478	4153737.96876	66640706.7449	0
7000000.0	45019.0	137271744.733	0.284921980919	174282.861328	0.270474643912	1.39980089664	55771.7925483	35099.8779297	10986.8101531	65.7404946111	5136482.39934	66645541.3226	0
7025000.0	45196.0	139164988.529	0.285799421642	174285.60791	0.272958423011	1.39715564251	55528.7011154	34916.2994385	10938.13529	66.2069867338	59683.7127887	66650376.4125	0
7050000.0	45373.0	141075753.684	0.286672035625	174287.792969	0.275455124211	1.39454102516	55288.4128799	34734.8846436	10887.894712	66.8754044782	128486.16136	66655212.0144	0
7075000.0	45551.0	143004072.358	0.287546248983	174290.625	0.277955899946	1.39192938805	55049.0827751	34554.3182373	10835.3030035	67.5720568805	541929.332853	66660048.1286	0
7100000.0	45729.0	144950034.259	0.288414525467	174292.944336	0.280469190329	1.38934731483	54812.7836973	34376.1108398	10781.3434737	68.0937763091	4002818.03739	66664884.7549	0
7125000.0	45907.0	146913729.225	0.289276269989	174294.726562	0.282995053567	1.38679349422	54579.6464334	34200.4119873	10726.1333403	68.8213630425	3006576.34622	66669721.8934	0
7150000.0	46086.0	148895186.092	0.290137820694	174297.216797	0.285524554783	1.38423931599	54347.85767	34025.958252	10668.8628821	69.7718518636	2914232.73663	66674559.5442	0
7175000.0	46266.0	150894431.438	0.290998481908	174300.341797	0.28805740294	1.38168430328	54117.6453473	33852.9724121	10609.6147777	70.5586164746	4030161.39117	66679397.7073	0
7200000.0	46446.0	152911554.835	0.291851937001	174302.807617	0.290602736641	1.37915241718	53890.619761	33682.5958252	10549.433095	71.1637759822	547409.920291	66684236.3826	0
7225000.0	46626.0	154946647.249	0.292698626705	174304.443359	0.2931606723	1.37664413452	53666.6605178	33514.730835	10488.3835559	71.9809810617	53505.7528183	66689075.5703	0
7250000.0	46807.0	156999737.663	0.29354467578	174306.408691	0.295722449664	1.37413620949	53444.0339799	33348.1170654	10425.683899	72.8270123986	250827.465394	66693915.2704	0
7275000.0	46988.0	159070914.693	0.294383253179	174307.568359	0.298296508845	1.37165689468	53224.6409173	33184.0698242	10362.3122891	73.6890588472	958390.498621	66698755.4829	0
7300000.0	47170.0	161160205.356	0.295220484649	174309.033203	0.300873827655	1.36918509007	53006.8338906	33021.3684082	10297.448883	74.5805029992	1957033.71409	66703596.2078	0
7325000.0	47352.0	163267694.803	0.2960492431	174309.667969	0.303463137243	1.36674892902	52792.517545	32861.3494873	10232.0927004	75.2811607301	2138463.52726	66708437.4452	0
7350000.0	47534.0	165393468.014	0.296869030226	174309.472656	0.306064321194	1.36435234547	52581.7468477	32703.9703369	10166.314124	76.2026494418	1012438.68804	66713279.195	0
7375000.0	47717.0	167537551.32	0.297686799122	174309.326172	0.308668561047	1.36196780205	52372.6587136	32547.9644775	10099.3282537	77.1535557239	193116.309394	66718121.4574	0
7400000.0	47900.0	169700032.666	0.298495787059	174308.007812	0.311285257339	1.35961985588	52166.881554	32394.4641113	10032.100811	78.1200505532	235949.160471	66722964.2324	0
7425000.0	48084.0	171880938.14	0.299302370604	174306.640625	0.313905067742	1.35728192329	51962.7698881	32242.3522949	9963.8220027	79.1162416029	1188383.07284	66727807.5199	0
7450000.0	48268.0	174080354.194	0.300100269441	174304.077148	0.316536985338	1.35497891903	51762.0008694	32092.7886963	9895.46464702	80.1279397779	2630649.585	66732651.32	0
7475000.0	48453.0	176298304.803	0.300896627046	174302.172852	0.319171522278	1.35267961025	51562.5968858	31944.4396973	9826.20599238	81.1697282424	4465026.8249	66737495.6328	0
7500000.0	48638.0	178534872.397	0.301685829713	174300.244141	0.321817176882	1.35040295124	51366.0209209	31798.3703613	9756.98213494	82.0057812321	343484.760754	66742340.4583	0
7525000.0	48823.0	180790137.842	0.302467709549	174298.4375	0.324474065565	1.34814846516	51172.2630444	31654.586792	9687.8736492	83.076691003	226017.455534	66747185.7964	0
7550000.0	49009.0	183064123.2	0.303248302956	174297.509766	0.327133573592	1.34589338303	50979.6908906	31511.9659424	9618.09295821	84.1776362908	1403573.38533	66752031.6474	0
7575000.0	49195.0	185356912.445	0.304021321991	174296.447754	0.329804723151	1.34366178513	50789.9088102	31371.6125488	9548.56327241	85.0650741665	2732888.57564	66756878.0111	0
7600000.0	49381.0	187668587.72	0.30478668622	174295.275879	0.332487252308	1.34145319462	50602.813635	31233.4136963	9479.32805987	86.1938485206	1021148.42739	66761724.8876	0
7625000.0	49568.0	189999166.107	0.305550193071	174295.056152	0.335171673214	1.33924615383	50416.9980588	31096.3623047	9409.62366241	87.3527497124	9821.6721267	66766572.2769	0
7650000.0	49755.0	192348725.454	0.306305857606	174294.799805	0.337866891641	1.33706331253	50233.9604961	30961.4837646	9340.31901394	88.5267386663	956372.509005	66771420.1791	0
7675000.0	49943.0	194717278.281	0.307059064687	174295.532227	0.340563361533	1.33488285542	50052.2903404	30827.7832031	9270.66975536	89.7311100776	2872521.95217	66776268.5942	0
7700000.0	50131.0	197104899.372	0.307803493236	174296.252441	0.343270192388	1.33272778988	49873.473676	30696.2493896	9201.51965434	90.7092651385	1230005.80544	66781117.5223	0
7725000.0	50319.0	199511667.815	0.308539079189	174296.75293	0.345987908076	1.33059668541	49697.5164179	30566.9647217	9132.33384796	91.946458557	2060.06827642	66785966.9633	0
7750000.0	50508.0	201937599.112	0.309271393481	174298.071289	0.348707311787	1.32846844196	49522.9922492	30438.949585	9061.92689635	93.2247137554	1236307.554	66790816.9173	0
7775000.0	50697.0	204382770.953	0.309995071776	174299.206543	0.351437542122	1.32636499405	49351.2503397	30313.1225586	8991.16436679	94.2789730946	2800514.56315	66795667.3844	0
7800000.0	50886.0	206847261.396	0.310710014264	174300.195312	0.354178395355	1.32428598404	49182.2289795	30189.4500732	8920.1316776	95.6051243917	631892.872324	66800518.3645	0
7825000.0	51076.0	209331083.445	0.311422342585	174302.026367	0.356920732884	1.32221221924	49014.5690733	30066.986084	8848.13479847	96.9730547677	406264.09935	66805369.8577	0
7850000.0	51266.0	211834313.576	0.312126144594	174303.710938	0.359673518687	1.32016468048	48849.5868654	29946.6247559	8776.04449931	98.3663023856	2599961.69798	66810221.8641	0
7875000.0	51457.0	214356965.998	0.312826601908	174306.103516	0.362427934306	1.31812369823	48686.0551975	29827.5421143	8703.15586994	99.801869673	5915758.82619	66815074.3836	0
7900000.0	51648.0	216899120.716	0.313517812561	174308.178711	0.365193292964	1.31611037254	48525.364158	29710.6842041	8630.33247607	100.998266767	90875.8654532	66819927.4163	0
7925000.0	51839.0	219460855.713	0.314199750636	174309.94873	0.367969507352	1.31412434578	48367.44402	29595.9747314	8557.62043209	102.213605741	4849606.7958	66824780.9623	0
7950000.0	52030.0	222042248.426	0.314872653228	174311.425781	0.370756373741	1.31216669083	48212.271974	29483.3648682	8485.11107269	103.718074514	1588605.21275	66829635.0215	0
7975000.0	52222.0	224643309.554	0.315541939737	174313.574219	0.373544171453	1.31021761894	48058.5604089	29371.9512939	8412.09844434	105.265429404	80528.984806	66834489.5941	0
8000000.0	52414.0	227264112.139	0.316202444157	174315.478516	0.376341922674	1.30829715729	47907.5474914	29262.5518799	8339.40275405	106.837925368	2413557.27758	66839344.68	0
8025000.0	52607.0	229904662.751	0.316859160645	174317.993164	0.37914031418	1.30638659	47757.9669964	29154.3060303	8266.31870299	108.454144719	6433739.12135	66844200.2792	0
8050000.0	52800.0	232565037.045	0.317506881088	174320.080566	0.381949008442	1.30450832844	47611.1817055	29048.1445312	8193.69521019	109.810591755	346508.524737	66849056.3919	0
8075000.0	52993.0	235245309.933	0.318145333486	174321.777344	0.384768034564	1.30265927315	47467.0863378	28944.0185547	8121.5670734	111.184527409	3873710.5361	66853913.0181	0
8100000.0	53186.0	237945557.611	0.318774341453	174322.998047	0.387597567169	1.30083751678	47325.6435909	28841.9372559	8049.97664762	112.867171427	543566.073306	66858770.1578	0
8125000.0	53380.0	240665787.853	0.319398350123	174324.719238	0.390427594539	1.29902255535	47185.7587067	28741.1895752	7978.25514284	114.593335205	1300089.83924	66863627.811	0
8150000.0	53574.0	243406074.267	0.320012402824	174326.049805	0.393267779145	1.29723036289	47048.5277045	28642.5537109	7907.19000642	116.343368129	5520265.19432	66868485.9777	0
8175000.0	53769.0	246166423.462	0.320620585958	174327.905273	0.396108371206	1.29544079304	46912.8695015	28545.3338623	7836.10396273	117.834271582	140791.159471	66873344.6581	0
8200000.0	53963.0	248946977.101	0.32121371693	174328.381348	0.398968957597	1.2936912775	46780.9445215	28450.9521484	7766.43292431	119.321171359	4073247.17073	66878203.8521	0
8225000.0	54158.0	251747746.07	0.321800602431	174329.162598	0.401830591727	1.29194676876	46650.647549	28358.013916	7696.86581492	121.153481921	311212.597615	66883063.5599	0
8250000.0	54353.0	254568805.584	0.322376602658	174329.370117	0.404702499509	1.29022634029	46523.0137825	28267.1722412	7628.08935114	123.008751439	2248009.20883	66887923.7813	0
8275000.0	54549.0	257410162.459	0.322946064832	174329.89502	0.407574902056	1.28851270676	46397.1000119	28177.835083	7559.50413662	124.906792743	7883672.1687	66892784.5165	0
8300000.0	54745.0	260271889.254	0.323504467185	174329.833984	0.410457199905	1.28682458401	46273.9309042	28090.6524658	7491.79057284	126.504592575	1456396.3332	66897645.7655	0
8325000.0	54941.0	263154057.344	0.324051759538	174329.211426	0.413349363953	1.28516161442	46153.5150683	28005.6396484	7424.9851769	128.11595953	1597772.75535	66902507.5283	0
8350000.0	55137.0	266056736.951	0.324587040521	174328.027344	0.416251132265	1.28352594376	46035.9989073	27922.8912354	7359.11484666	129.740273034	7957859.70719	66907369.805	0
8375000.0	55333.0	268980004.73	0.325108140617	174326.074219	0.419163407059	1.28191673756	45921.6564991	27842.7001953	7294.19727323	131.711800526	1751053.60612	66912232.5956	0
8400000.0	55530.0	271923867.605	0.325621209028	174324.206543	0.422076147515	1.28031790257	45809.2205947	27764.1174316	7229.64597561	133.724737118	1256788.86141	66917095.9002	0
8425000.0	55727.0	274888397.593	0.326124564178	174322.094727	0.424998434028	1.27874159813	45699.2624315	27687.4847412	7166.10653539	135.757505323	7615052.63449	66921959.7188	0
8450000.0	55925.0	277873594.988	0.326624696021	174320.88623	0.427920138463	1.27716898918	45590.3746195	27611.7797852	7102.99294581	137.48373331	1701477.63511	66926824.0513	0
8475000.0	56122.0	280879594.091	0.327115750886	174318.994141	0.430860731285	1.27563083172	45484.1055125	27537.9547119	7041.5252414	139.198069057	1015465.21005	66931688.898	0
8500000.0	56320.0	283906392.15	0.32760764478	174318.041992	0.433800218161	1.27409482002	45378.37901	27464.5782471	6980.45150694	141.302613776	2423952.10397	66936554.2587	0
8525000.0	56518.0	286954056.101	0.328094963231	174317.114258	0.436748930952	1.27257847786	45274.7064359	27392.8283691	6919.90748741	143.074999719	507397.844466	66941420.1335	0
8550000.0	56716.0	290022655.159	0.328576629147	174316.19873	0.439706956968	1.27108299732	45173.1134207	27322.6989746	6859.79820655	144.869726978	5402834.50862	66946286.5226	0
8575000.0	56914.0	293112256.01	0.329051424641	174315.332031	0.442674267106	1.26960718632	45073.319731	27253.9123535	6800.13639759	147.057197774	46870.137536	66951153.4258	0
8600000.0	57113.0	296222857.962	0.329522105803	174315.270996	0.44564079144	1.2681363821	44974.2642316	27185.6933594	6740.40140574	149.29925675	4910029.1354	66956020.8433	0
8625000.0	57312.0	299354526.562	0.329984269844	174315.270996	0.448616337962	1.26668441296	44876.5163238	27118.3258057	6681.16914188	151.193306063	397582.089784	66960888.775	0
8650000.0	57511.0	302507329.091	0.330436537739	174315.332031	0.451600848464	1.26525223255	44779.8782511	27051.574707	6622.47193259	153.109206442	2371741.06272	66965757.2211	0
8675000.0	57710.0	305681333.667	0.330878509492	174315.368652	0.454594846815	1.26383972168	44684.2224173	26985.333252	6564.31923517	155.436235065	1764824.5978	66970626.1815	0
8700000.0	57910.0	308876540.297	0.331313630474	174316.137695	0.457588204881	1.26243376732	44588.9970654	26919.3023682	6506.20569255	157.424140734	681458.168811	66975495.6564	0
8725000.0	58109.0	312093085.939	0.33173627944	174316.113281	0.460600800579	1.26106119156	44495.9166828	26854.6936035	6449.21556035	159.408645185	5122316.00013	66980365.6456	0
8750000.0	58309.0	315330968.535	0.332154010726	174316.845703	0.463612494059	1.25969421864	44403.6922235	26790.7592773	6392.29648342	161.843432798	328023.462849	66985236.1493	0
8775000.0	58509.0	318590253.6	0.332564541706	174317.602539	0.466633122414	1.25834584236	44313.2364223	26728.1707764	6335.99802138	164.309303662	8031076.57962	66990107.1675	0
8800000.0	58710.0	321870933.648	0.332971753594	174319.140625	0.469652237371	1.25700223446	44224.0754359	26666.7175293	6279.81615808	166.416981239	2638321.62218	66994978.7003	0
8825000.0	58910.0	325173143.087	0.333370159826	174319.995117	0.472689978778	1.25569105148	44137.6711098	26607.3272705	6224.79538189	168.519560217	71933.7691808	66999850.7476	0
8850000.0	59111.0	328496879.198	0.333765217883	174321.459961	0.475726963487	1.25438785553	44052.467939	26548.9044189	6169.93826978	171.093195607	6619769.36414	67004723.3096	0
8875000.0	59312.0	331842207.176	0.33415301378	174322.888184	0.478772679344	1.25310385227	43969.1302149	26491.9036865	6115.75932317	173.26640507	1829345.26213	67009596.3862	0
8900000.0	59513.0	335209192.28	0.334532639772	174324.267578	0.481827242766	1.25183832645	43887.6095511	26436.2854004	6062.26246411	175.459079909	363826.424683	67014469.9774	0
8925000.0	59714.0	338597897.213	0.334903234832	174325.634766	0.484890391817	1.25058972836	43807.9374593	26382.1136475	6009.45789464	177.670784837	3911469.8153	67019344.0834	0
8950000.0	59915.0	342008385.293	0.335264012464	174326.977539	0.487961864565	1.24935698509	43730.0430146	26329.3487549	5957.34874114	179.901253404	9277117.15614	67024218.7042	0
8975000.0	60116.0	345440717.634	0.335614074029	174328.344727	0.491041864734	1.24813950062	43653.9737409	26278.0487061	5905.95729429	182.602535015	187962.09681	67029093.8397	0
9000000.0	60318.0	348894889.709	0.335955475749	174330.26123	0.494120584335	1.24692797661	43579.3488902	26228.0151367	5854.81632555	185.360116607	7632536.33857	67033969.4901	0
9025000.0	60520.0	352370967.742	0.336285708925	174332.080078	0.497208267916	1.24573421478	43506.7427595	26179.5959473	5804.4113482	187.681709433	3170530.32848	67038845.6554	0
9050000.0	60722.0	355869016.714	0.336605489	174333.71582	0.500304740854	1.24455857277	43436.0952265	26132.7270508	5754.73727472	190.020212568	339279.155404	67043722.3356	0
9075000.0	60924.0	359389102.038	0.336915160405	174335.180664	0.503410119563	1.24340093136	43367.3206908	26087.3291016	5705.81406873	192.374448588	1218148.33931	67048599.5307	0
9100000.0	61126.0	362931288.024	0.337215234978	174336.572266	0.506524171215	1.24226033688	43300.3703912	26043.3654785	5657.62978398	194.744386508	4497071.19578	67053477.2408	0
9125000.0	61328.0	366495638.998	0.337506447483	174337.792969	0.509647012223	1.24113726616	43235.1811876	26000.769043	5610.19734046	197.616935365	2698616.8144	67058355.466	0
9150000.0	61531.0	370082145.679	0.337791471005	174339.599609	0.51276787417	1.24001991749	43171.1264148	25959.1308594	5563.08315613	200.051095899	315499.867727	67063234.2062	0
9175000.0	61733.0	373690966.765	0.338066294557	174340.576172	0.515907653607	1.23893082142	43109.2487672	25919.0734863	5517.14600906	202.470182487	955343.531772	67068113.4615	0
9200000.0	61936.0	377322060.473	0.338335943402	174342.102051	0.519045279361	1.23784697056	43048.3975693	25879.8706055	5471.55214255	205.437659777	7856071.52244	67072993.232	0
9225000.0	62139.0	380975494.366	0.338598587612	174343.530273	0.522191170603	1.23677992821	42989.060654	25841.796875	5426.72234175	207.405862837	7280446.97601	67077873.5177	0
9250000.0	62341.0	384651421.689	0.338852523634	174344.018555	0.52536081057	1.23574113846	42931.7139606	25805.1086426	5383.0813254	209.859219682	11604255.6884	67082754.3186	0
9275000.0	62544.0	388349810.323	0.339103112214	174345.202637	0.528522883542	1.23470652103	42875.1975103	25769.0917969	5339.76195034	212.881367938	56.1916051422	67087635.6347	0
9300000.0	62747.0	392070723.633	0.339345725108	174346.118164	0.531693687662	1.23369121552	42820.3633653	25734.3200684	5297.20992384	215.926016193	12005689.0725	67092517.4662	0
9325000.0	62951.0	395814156.013	0.339581866898	174347.387695	0.534862920176	1.23268544674	42766.8703265	25700.6469727	5255.03737868	218.486375652	8209344.18374	67097399.813	0
9350000.0	63154.0	399580245.428	0.339807628055	174347.692871	0.538051419426	1.23170924187	42715.569985	25668.536377	5214.00198498	220.482436652	6932408.12218	67102282.6752	0
9375000.0	63357.0	403369056.749	0.340025474931	174347.65625	0.541248940863	1.23075127602	42665.9071469	25637.6556396	5173.56535742	223.579291764	2530270.8389	67107166.0528	0
9400000.0	63561.0	407180581.276	0.340237308462	174347.998047	0.544444425032	1.22980034351	42617.4078936	25607.7362061	5133.30706221	226.181003247	723867.452381	67112049.9458	0
9425000.0	63764.0	411014956.229	0.340439706808	174347.32666	0.547659234144	1.22887599468	42570.8454609	25579.1870117	5093.93248481	228.769340838	89878.9455243	67116934.3543	0
9450000.0	63968.0	414872169.953	0.34063678544	174347.021484	0.550871598534	1.22795712948	42525.3178454	25551.4984131	5054.73227768	231.40595875	1270674.08394	67121819.2784	0
9475000.0	64171.0	418752359.03	0.340824925059	174345.715332	0.554103171453	1.22706317902	42481.5649387	25525.0656128	5016.40100573	234.028258017	3049776.53175	67126704.718	0
9500000.0	64375.0	422655510.622	0.341008254338	174344.787598	0.557332241442	1.22617304325	42438.7109355	25499.3896484	4978.23469206	237.280859193	7520081.01267	67131590.6732	0
9525000.0	64579.0	426581682.667	0.341185092187	174343.518066	0.560569402296	1.22529637814	42397.1103894	25474.6536255	4940.58116098	239.387396242	7591465.42219	67136477.144	0
9550000.0	64782.0	430531010.664	0.341354251282	174341.320801	0.563825073186	1.22444057465	42357.024019	25450.9933472	4903.76696143	242.060322619	10141690.5838	67141364.1306	0
9575000.0	64986.0	434503477.394	0.34151879516	174339.953613	0.567077542655	1.22358548641	42317.6439822	25427.9586792	4867.10951203	245.384070498	1838018.9493	67146251.6328	0
9600000.0	65190.0	438499139.575	0.341676706189	174338.73291	0.570337520912	1.22274112701	42279.5218925	25405.921936	4830.93825252	248.130429735	717342.997007	67151139.6508	0
9625000.0	65394.0	442518060.385	0.3418264614	174337.609863	0.573606113903	1.22190988064	42242.915991	25385.0967407	4795.26219917	250.892739139	60178.4311256	67156028.1846	0
9650000.0	65598.0	446560301.409	0.341968457368	174336.547852	0.576882739551	1.22109246254	42207.8015049	25365.4418945	4760.07433861	253.671122064	293997.303636	67160917.2343	0
9675000.0	65802.0	450625923.114	0.342102953617	174335.546875	0.580167863518	1.22028827667	42174.0737426	25346.8673706	4725.36258972	256.465521864	983922.294706	67165806.7997	0
9700000.0	66006.0	454714986.091	0.342230490788	174334.667969	0.583460903727	1.21949672699	42141.6544254	25329.309082	4691.12544142	259.275782272	1815880.06378	67170696.8811	0
9725000.0	66210.0	458827549.664	0.342351137023	174333.911133	0.586761801969	1.21871781349	42110.4537893	25312.677002	4657.35623383	262.74419635	12230930.2768	67175587.4784	0
9750000.0	66415.0	462963597.963	0.342466443538	174333.92334	0.59006002266	1.2179428339	42080.1347482	25296.786499	4623.74381058	265.627011343	11008881.9006	67180478.5917	0
9775000.0	66619.0	467123263.554	0.342574272952	174333.435059	0.593376578763	1.21718800068	42051.2064962	25281.867981	4590.89312355	267.834957463	4447841.36351	67185370.221	0
9800000.0	66823.0	471306605.145	0.342676290864	174333.093262	0.596701051109	1.2164452076	42023.3022661	25267.6864624	4558.50105484	270.707046093	5253245.33236	67190262.3664	0
9825000.0	67027.0	475513679.217	0.342772598878	174332.922363	0.600033032242	1.21571362019	41996.3491232	25254.1946411	4526.55123898	273.594435033	5982638.88315	67195155.0278	0
9850000.0	67231.0	479744543.778	0.342863607723	174332.922363	0.603372580372	1.21499311924	41970.254273	25241.3009644	4495.04250531	277.174325681	7866812.28792	67200048.2053	0
9875000.0	67436.0	483999176.375	0.342950570782	174333.740234	0.606708461419	1.21427547932	41944.7142297	25228.8452148	4463.67958523	280.134115379	7441483.97824	67204941.899	0
9900000.0	67640.0	488277710.791	0.343031321626	174334.057617	0.610063085333	1.21357703209	41920.2592342	25217.074585	4433.03679368	282.380841889	7623182.97871	67209836.1089	0
9925000.0	67844.0	492580207.246	0.343105262038	174334.460449	0.613425800111	1.21289169788	41896.8862814	25206.086731	4402.82672624	285.325915182	7916828.08987	67214730.8351	0
9950000.0	68048.0	496906730.879	0.343172832434	174334.887695	0.616797013208	1.21221935749	41874.5759554	25195.8694458	4373.03859132	288.990910772	6990507.02365	67219626.0775	0
9975000.0	68253.0	501257263.014	0.343234727469	174336.010742	0.620165141299	1.21155226231	41853.1002934	25186.3235474	4343.39953562	292.005991794	7149593.3585	67224521.8362	0
10000000.0	68457.0	505631941.38	0.343289564222	174336.572266	0.623552419711	1.21090531349	41832.9220422	25177.6519775	4314.44925608	294.276627028	7882442.34506	67229418.1112	0
10025000.0	68661.0	510030826.382	0.343338656852	174337.207031	0.62694773078	1.21027052402	41813.7587394	25169.7158813	4285.91310498	297.273496421	7574230.44339	67234314.9026	0
10050000.0	68865.0	514453974.595	0.3433819442	174337.939453	0.630350667052	1.20964801311	41795.6256704	25162.5137329	4257.77138317	301.019589767	8533924.05404	67239212.2104	0
10075000.0	69070.0	518901367.411	0.343420293538	174339.355469	0.633750285488	1.20902979374	41778.2789103	25155.9555054	4229.77264541	304.086286726	9343441.72918	67244110.0347	0
10100000.0	69274.0	523373137.788	0.343452689095	174340.270996	0.637168530375	1.20843029022	41762.1486287	25150.2029419	4202.43324992	306.377006511	5819377.01388	67249008.3754	0
10125000.0	69478.0	527869343.233	0.343480083857	174341.320801	0.640594109427	1.20784151554	41746.9740954	25145.149231	4175.47686165	309.423587713	5017479.02135	67253907.2326	0
10150000.0	69682.0	532390037.775	0.343502531694	174342.468262	0.644027022645	1.20726382732	41732.7569198	25140.7852173	4148.9074792	312.481633258	4137335.40333	67258806.6064	0
10175000.0	69886.0	536935276.091	0.343520255743	174343.725586	0.64746721182	1.20669567585	41719.4553715	25137.1017456	4122.71537987	315.551270053	3208642.5257	67263706.4968	0
10200000.0	70090.0	541505111.901	0.343533310815	174345.129395	0.65091450233	1.206138134	41707.085869	25134.0866089	4096.90004267	318.631992135	2264442.76644	67268606.9038	0
10225000.0	70294.0	546099604.96	0.343540345209	174346.54541	0.65436976729	1.20559179783	41695.8151169	25131.9046021	4071.45645232	321.723115458	1338470.33096	67273507.8275	0
10250000.0	70498.0	550718814.251	0.343541358186	174347.949219	0.657832832076	1.20505702496	41685.612117	25130.5236816	4046.38412499	324.824105085	516554.148548	67278409.2678	0
10275000.0	70702.0	555362798.84	0.343536462188	174349.365234	0.661303871311	1.20453453064	41676.478178	25129.9209595	4021.67372411	327.934956736	1503.32411363	67283311.2249	0
10300000.0	70906.0	560031618.38	0.34352633298	174350.756836	0.664782710373	1.20402216911	41668.304365	25130.0460815	3997.32488578	331.055121183	551776.658933	67288213.6988	0
10325000.0	71110.0	564725331.126	0.343511027756	174352.148438	0.668269349262	1.20352065563	41661.0786917	25130.8685303	3973.3328622	334.184312477	1681725.03583	67293116.6894	0
10350000.0	71314.0	569443993.812	0.343490885458	174353.564453	0.67176372977	1.20302975178	41654.7617555	25132.3547363	3949.68865382	337.322640188	3283283.12768	67298020.1969	0
10375000.0	71518.0	574187665.45	0.343466189048	174354.980469	0.675265677273	1.2025488615	41649.2976998	25134.4650269	3926.3834468	340.470282843	5343129.40846	67302924.2213	0
10400000.0	71722.0	578956402.029	0.343437390432	174356.396484	0.678775133565	1.20207750797	41644.6368978	25137.159729	3903.40860788	342.785147417	10053224.2463	67307828.7626	0
10425000.0	71925.0	583750339.999	0.343404547906	174357.226562	0.682303565554	1.20162177086	41640.8474058	25140.411377	3880.97299166	345.904419779	7341138.60932	67312733.8208	0
10450000.0	72129.0	588569455.824	0.343368113549	174358.691406	0.685828272253	1.2011693716	41637.664572	25144.1497803	3858.63667214	349.929838486	14250737.3845	67317639.3961	0
10475000.0	72333.0	593413806.242	0.343328511203	174360.131836	0.689359963872	1.20072650909	41635.1729958	25148.3673096	3836.60161139	352.250348968	2544064.70306	67322545.4883	0
10500000.0	72536.0	598283526.258	0.343285714964	174361.010742	0.69291080581	1.20029866695	41633.4109621	25153.0151367	3815.08192219	355.397498541	787859.67984	67327452.0976	0
10525000.0	72740.0	603178595.535	0.343238547494	174362.414551	0.696457806043	1.19987607002	41632.3888194	25158.2458496	3793.64128518	358.594461462	104703.999482	67332359.224	0
10550000.0	72943.0	608099154.126	0.343186366556	174363.171387	0.700024480466	1.19947063923	41632.3557568	25164.1281128	3772.69807109	361.759834106	1563963.53453	67337266.8676	0
10575000.0	73147.0	613045182.648	0.343129513577	174364.416504	0.703587778844	1.19907104969	41633.1062925	25170.6359863	3751.82928259	364.974869323	4047354.212	67342175.0283	0
10600000.0	73350.0	618016821.545	0.343068610549	174364.990234	0.707170576788	1.19868719578	41634.7154146	25177.6870728	3731.43644554	367.253977367	12140295.5358	67347083.7062	0
10625000.0	73553.0	623014129.442	0.343003745944	174365.478516	0.710761232767	1.19831311703	41637.0602013	25185.2508545	3711.3133689	370.438570836	8153295.75352	67351992.9013	0
10650000.0	73756.0	628037166.383	0.342935288779	174365.869141	0.714359804988	1.1979483366	41640.1178258	25193.3135986	3691.44471997	373.632867382	4610201.47841	67356902.6137	0
10675000.0	73959.0	633085991.593	0.34286385997	174366.137695	0.71796606062	1.19759225845	41643.8195019	25201.8218994	3671.82757016	376.836778998	1735630.1356	67361812.8435	0
10700000.0	74162.0	638160662.393	0.342789547295	174366.333008	0.721580116078	1.19724428654	41648.1201899	25210.7421875	3652.46304649	380.049615263	20358.3147672	67366723.5905	0
10725000.0	74365.0	643261236.476	0.342712858571	174366.418457	0.72520179674	1.19690382481	41652.9707841	25220.0241089	3633.33627967	383.27250495	1542429.97089	67371634.855	0
10750000.0	74568.0	648387768.676	0.34263388098	174366.381836	0.728830636945	1.19657039642	41658.3267423	25229.6432495	3614.44063181	386.505923358	4651032.62967	67376546.6368	0
10775000.0	74771.0	653540315.715	0.342553345101	174366.223145	0.73246692773	1.19624388218	41664.1529634	25239.5629883	3595.77748321	389.749102135	8824628.95284	67381458.9361	0
10800000.0	74974.0	658718933.159	0.342471588717	174365.917969	0.736110610887	1.19592380524	41670.3941771	25249.7344971	3577.33638799	392.034747802	7231938.33845	67386371.7529	0
10825000.0	75176.0	663923759.433	0.342387998709	174364.904785	0.739773502573	1.19561517239	41677.1805224	25260.2142334	3559.31030812	395.246827206	3394951.83122	67391285.0872	0
10850000.0	75379.0	669154773.16	0.34230067817	174364.233398	0.743432785384	1.19531166553	41684.641243	25271.206665	3541.30507269	398.51203237	602336.59048	67396198.939	0
10875000.0	75581.0	674412118.209	0.342210833427	174362.731934	0.747111975215	1.19502139091	41692.7667476	25282.5958252	3523.69654667	401.743702185	804083.864621	67401113.3084	0
10900000.0	75784.0	679695770.261	0.342117910377	174361.59668	0.750786974095	1.19473528862	41701.4773319	25294.430542	3506.11013283	405.028575544	3963122.0257	67406028.1955	0
10925000.0	75986.0	685005872.359	0.342022722884	174359.94873	0.754481530748	1.19446229935	41710.8223037	25306.6360474	3488.90644038	407.27197827	13423811.2557	67410943.6002	0
10950000.0	76188.0	690342482.581	0.341924884531	174358.447266	0.758183654398	1.19419634342	41720.7630223	25319.2626953	3471.89770875	410.525461043	7965298.72105	67415859.5226	0
10975000.0	76390.0	695705655.367	0.341824511344	174357.15332	0.76189317042	1.19393837452	41731.2761683	25332.2692871	3455.08190699	413.788883237	3442433.07041	67420775.9627	0
11000000.0	76592.0	701095448.021	0.341722025452	174355.993652	0.765610020608	1.19368708134	41742.3081278	25345.6390381	3438.44570655	417.063484019	382226.592755	67425692.9206	0
11025000.0	76794.0	706511914.902	0.341617736771	174355.053711	0.769334321376	1.19344305992	41753.8380609	25359.3353271	3421.99480951	420.348140938	1426783.70408	67430610.3963	0
11050000.0	76996.0	711955111.409	0.341511843308	174354.272461	0.773065723479	1.19320487976	41765.7898154	25373.3169556	3405.71984151	423.643815561	5464047.04656	67435528.3898	0
11075000.0	77198.0	717425092.811	0.341404709367	174353.710938	0.776804168709	1.19297325611	41778.1701184	25387.5717163	3389.61903885	426.950401083	11094203.071	67440446.9011	0
11100000.0	77400.0	722921912.482	0.341296337344	174353.33252	0.780549831688	1.19274747372	41790.9151473	25402.053833	3373.68695688	429.203112981	6206003.52383	67445365.9304	0
11125000.0	77601.0	728445708.439	0.341187451264	174352.612305	0.784314470366	1.19253122807	41804.0079892	25416.7053223	3358.08784267	432.479046586	1859302.06464	67450285.4775	0
11150000.0	77803.0	733996453.581	0.341075112161	174352.587891	0.788074685261	1.19231939316	41817.78037	25431.8984985	3342.48745597	435.810073129	277323.447816	67455205.5427	0
11175000.0	78004.0	739574291.496	0.34096038017	174352.160645	0.79185469076	1.19212019444	41832.1607132	25447.4472046	3327.20794658	438.017626155	22835560.2006	67460126.1258	0
11200000.0	78205.0	745179280.108	0.340843038611	174351.867676	0.795642321464	1.19192874432	41847.1308675	25463.4109497	3312.08919653	442.414200931	9332100.69585	67465047.227	0
11225000.0	78407.0	750811391.165	0.340722594737	174352.270508	0.799425411969	1.19174134731	41862.7043088	25479.8416138	3296.95226658	445.77868685	16700748.2749	67469968.8462	0
11250000.0	78608.0	756470765.947	0.340600825357	174352.258301	0.803227943834	1.1915640831	41878.712412	25496.5087891	3282.1331576	447.993424372	2786294.13806	67474890.9835	0
11275000.0	78809.0	762157462.312	0.340477318824	174352.416992	0.80703815911	1.1913933754	41895.1676032	25513.4643555	3267.45958219	451.325176869	47063.0007506	67479813.6389	0
11300000.0	79010.0	767871535.664	0.340352355195	174352.709961	0.810855533928	1.19122850895	41912.0071234	25530.6625366	3252.92661083	453.537455545	24744987.1189	67484736.8125	0
11325000.0	79210.0	773613130.114	0.340226958899	174352.612305	0.814692815766	1.19107234478	41929.1148605	25547.9598999	3238.68940727	456.83732158	16133605.5816	67489660.5043	0
11350000.0	79411.0	779382215.272	0.340100027894	174353.186035	0.818525324576	1.1909173727	41946.5755695	25565.5303955	3224.43308844	461.341910499	17281621.8226	67494584.7143	0
11375000.0	79612.0	785178845.371	0.339972502644	174353.930664	0.822364818305	1.19076645374	41964.2757258	25583.2382202	3210.33469275	463.559507388	2889885.74703	67499509.4425	0
11400000.0	79812.0	791003161.822	0.33984551357	174354.272461	0.826223869808	1.19062244892	41982.091999	25600.9246826	3196.58572424	466.879937981	73120.5730472	67504434.6891	0
11425000.0	80013.0	796855133.832	0.339717738833	174355.322266	0.830077799037	1.19047832489	42000.1341455	25618.7805176	3182.8641867	470.250732118	3777024.27574	67509360.454	0
11450000.0	80213.0	802734904.97	0.339589537741	174355.957031	0.83395128604	1.19034218788	42018.430625	25636.7340088	3169.47645402	472.396214404	16491275.8873	67514286.7372	0
11475000.0	80413.0	808642534.277	0.339459180524	174356.689453	0.837832922116	1.19021224976	42037.2160659	25655.0170898	3156.2697865	475.715823728	8682087.3529	67519213.5388	0
11500000.0	80613.0	814578079.947	0.33932694678	174357.543945	0.841722008772	1.19008767605	42056.4174209	25673.5839844	3143.22858324	479.039081277	2658067.5359	67524140.8588	0
11525000.0	80813.0	820541600.091	0.339193279899	174358.47168	0.845618895255	1.18996834755	42076.0001981	25692.3980713	3130.35468304	482.365017716	281952.08429	67529068.6973	0
11550000.0	81013.0	826533151.859	0.339058567112	174359.521484	0.849523115903	1.18985426426	42095.919596	25711.4196777	3117.63620053	485.695244347	4735663.74153	67533997.0543	0
11575000.0	81213.0	832552791.974	0.338922975357	174360.668945	0.853435019962	1.18974483013	42116.1278118	25730.6182861	3105.07507734	487.806230213	15701772.26	67538925.9297	0
11600000.0	81412.0	838600666.482	0.338787875116	174361.376953	0.85736688925	1.18964278698	42136.5003723	25749.8382568	3092.7988624	491.088918865	7708302.21904	67543855.3238	0
11625000.0	81612.0	844676743.413	0.338651679442	174362.695312	0.861293636262	1.18954217434	42157.1562362	25769.2718506	3080.52721258	495.662562232	32460141.2633	67548785.2363	0
11650000.0	81812.0	850781079.353	0.338515593227	174364.111328	0.865227659233	1.18944489956	42177.9740334	25788.7817383	3068.39521521	497.762970023	950364.842518	67553715.6675	0
11675000.0	82011.0	856913819.079	0.338380817506	174365.087891	0.869181822054	1.18935453892	42198.8126473	25808.1970215	3056.53583738	499.803875034	24277736.2444	67558646.6173	0
11700000.0	82210.0	863075018.959	0.33824672189	174366.137695	0.873143319041	1.18926751614	42219.7266813	25827.6123047	3044.80587176	503.097575584	14661253.1368	67563578.0858	0
11725000.0	82409.0	869264734.16	0.338113631965	174367.297363	0.877112033777	1.18918395042	42240.6851384	25846.9940186	3033.19418799	506.398104669	6778409.27904	67568510.073	0
11750000.0	82608.0	875483021.3	0.337981409308	174368.505859	0.881087966263	1.1891040802	42261.6958324	25866.3513184	3021.70309281	509.704758232	1244103.92197	67573442.5789	0
11775000.0	82807.0	881729938.316	0.33784817427	174369.787598	0.885071756784	1.18903064728	42283.0502327	25885.9008789	3010.3348553	513.016445148	1495315.53646	67578375.6036	0
11800000.0	83006.0	888005543.758	0.337714119711	174371.09375	0.889062997885	1.18896317482	42304.729026	25905.6427002	2999.07524378	516.335498468	7440723.53111	67583309.1471	0
11825000.0	83205.0	894309896.078	0.337579356386	174372.460938	0.893061980605	1.18890118599	42326.6773082	25925.5310059	2987.92007776	519.662191924	16007118.1343	67588243.2094	0
11850000.0	83404.0	900643054.491	0.33744437479	174373.828125	0.897068821359	1.18884432316	42348.8477656	25945.5291748	2976.87504115	521.681132187	6199564.7061	67593177.7906	0
11875000.0	83602.0	907005166.274	0.337310260646	174374.731445	0.90109591838	1.18879413605	42371.0790931	25965.4724121	2966.05971054	524.964514133	815670.746625	67598112.8907	0
11900000.0	83801.0	913396199.642	0.337175494118	174376.196289	0.905117718503	1.18874526024	42393.5432433	25985.5804443	2955.20904434	528.305567772	2171787.19542	67603048.5097	0
11925000.0	83999.0	919816302.701	0.337042189417	174377.124023	0.909160007723	1.18870210648	42415.9583499	26005.557251	2944.58234971	530.266091906	23875517.6156	67607984.6476	0
11950000.0	84197.0	926265533.035	0.336909747826	174378.112793	0.913209922146	1.18866205215	42438.4127674	26025.5004883	2934.04541071	533.565741762	13985849.5801	67612921.3046	0
11975000.0	84395.0	932743948.469	0.336778356726	174379.125977	0.917267345358	1.18862378597	42460.8259777	26045.3674316	2923.59432662	536.874339211	6010640.19088	67617858.4806	0
12000000.0	84593.0	939251607.33	0.336648365046	174380.102539	0.921332277358	1.18858718872	42483.1779696	26065.133667	2913.2252494	540.192396433	715304.681181	67622796.1756	0
12025000.0	84791.0	945788565.686	0.336520066664	174381.12793	0.92540460173	1.18855130672	42505.397113	26084.7564697	2902.93119536	543.521104423	2234292.35358	67627734.3898	0
12050000.0	84989.0	952354878.369	0.336393727618	174382.116699	0.929484434891	1.18851613998	42527.4488148	26104.1992188	2892.7179808	546.859144398	8656061.76545	67632673.1231	0
12075000.0	85187.0	958950588.698	0.33626842698	174383.178711	0.933568924665	1.18848264217	42549.4697014	26123.5748291	2882.57234807	548.821120597	15464873.0342	67637612.3755	0
12100000.0	85384.0	965575863.73	0.336144027837	174383.642578	0.937677163165	1.1884547472	42571.5226373	26142.8955078	2872.62630365	552.121252539	7300137.7247	67642552.1472	0
12125000.0	85582.0	972230671.242	0.336018993872	174384.558105	0.941779813729	1.18842804432	42593.8109603	26162.3901367	2862.6234275	555.483473996	1432512.25306	67647492.4381	0
12150000.0	85779.0	978915164.511	0.33589537097	174384.94873	0.945903826505	1.18840646744	42616.0326048	26181.7443848	2852.8057273	558.80618464	1333977.87857	67652433.2482	0
12175000.0	85977.0	985629308.229	0.335771489559	174385.778809	0.950022018515	1.18838572502	42638.4191388	26201.2084961	2842.93429687	562.190904378	7227359.59121	67657374.5777	0
12200000.0	86174.0	992373256.588	0.335649606569	174386.022949	0.954161572736	1.18836987019	42660.6631737	26220.4650879	2833.24011631	564.10509978	18870160.9529	67662316.4265	0
12225000.0	86371.0	999147068.919	0.335528885671	174386.206055	0.958308868576	1.18835616112	42682.8575065	26239.6270752	2823.60379361	567.454641875	10023418.5424	67667258.7946	0
12250000.0	86568.0	1005950805.26	0.335409673141	174386.303711	0.962463906035	1.18834447861	42704.9662309	26258.6547852	2814.01878365	570.817503332	3280569.29933	67672201.6822	0
12275000.0	86765.0	1012784525.18	0.335292099871	174386.352539	0.966626801528	1.18833482265	42726.9511537	26277.520752	2804.49094457	574.192363234	111786.98049	67677145.0892	0
12300000.0	86962.0	1019648288.29	0.335176403565	174386.279297	0.970797380432	1.18832707405	42748.7856418	26296.194458	2795.01070929	577.581214149	4356996.39939	67682089.0157	0
12325000.0	87159.0	1026542153.18	0.33506276779	174386.108398	0.974975642748	1.18832099438	42770.4329591	26314.6484375	2785.57781297	580.984075935	11502097.598	67687033.4616	0
12350000.0	87356.0	1033466178.59	0.334951429174	174385.864258	0.979162054136	1.18831658363	42791.8631195	26332.8430176	2776.18894432	582.918079881	15754141.1355	67691978.4272	0
12375000.0	87552.0	1040420520.84	0.334843372278	174384.973145	0.983369187452	1.1883149147	42812.9012933	26350.6256104	2766.95931439	586.289000821	7960267.49158	67696923.9123	0
12400000.0	87749.0	1047405146.05	0.334735438508	174384.460449	0.987571431324	1.18831586838	42834.0986663	26368.4661865	2757.65439436	589.727085119	2137867.61724	67701869.917	0
12425000.0	87945.0	1054420211.06	0.334629149432	174383.288574	0.991794862784	1.18832349777	42855.2325006	26386.1175537	2748.50449021	593.127494664	527472.939379	67706816.4413	0
12450000.0	88142.0	1061465681.26	0.334522794433	174382.48291	0.99601293914	1.18833291531	42876.5330641	26403.8513184	2739.27666933	596.596532859	5196425.92672	67711763.4853	0
12475000.0	88338.0	1068541714.21	0.334418426794	174381.018066	1.00025255233	1.18834733963	42897.6615843	26421.3317871	2730.19673543	598.501846617	26363759.9996	67716711.0491	0
12500000.0	88534.0	1075648371.15	0.334315003614	174379.528809	1.00450019818	1.18836438656	42918.7716505	26438.7359619	2721.15287438	602.651930173	0.0	67721659.1325	0
