z	T	P	nabla_ad	S	rho	delta	cp	cv	opac	frad	fconv	ftot	dT
0.0	3900.0	150.344208053	0.382250499378	172987.426758	6.05881389504e-06	1.00977361202	16907.8341517	10424.8703003	0.000701854673607	0.0	20666.2256704	65311815.0903	0
25000.0	3900.0	198.123318852	0.377050388763	171213.745117	7.98605626073e-06	1.01285374165	17217.9323054	10697.8744507	0.000835250656893	0.0	27996.0323815	65316507.3538	0
50000.0	3900.0	261.109799795	0.370466181203	169434.106445	1.05279394091e-05	1.01697397232	17625.3919166	11056.0562134	0.000992145473966	0.0	36863.1587088	65321200.1229	0
75000.0	3900.0	344.158796962	0.362239955781	167645.800781	1.38817402018e-05	1.02227842808	18158.8703785	11525.8056641	0.00117740746627	0.0	48544.8703165	65325893.3976	0
100000.0	3900.0	453.686111135	0.352087976328	165846.948242	1.83086434902e-05	1.02924215794	18857.7329763	12140.397644	0.00139725589455	0.0	63928.6669698	65330587.1781	0
125000.0	3900.0	598.176348745	0.339805893674	164033.361816	2.41553479441e-05	1.03847408295	19772.0008375	12942.8359985	0.0016578213754	0.0	84196.2294932	65335281.4644	0
150000.0	3900.0	788.863540371	0.325261124497	162201.318359	3.18830259971e-05	1.05052375793	20964.8035776	13988.1088257	0.0019656131062	0.0	110943.458037	65339976.2566	0
175000.0	3900.0	1040.64371537	0.308465174129	160343.579102	4.21065884382e-05	1.06610608101	22513.092731	15343.5348511	0.00233174165102	0.0	146301.120687	65344671.5548	0
200000.0	3900.0	1373.30361036	0.289647256067	158450.524902	5.5648364139e-05	1.08654761314	24518.0120586	17092.338562	0.00277094500744	18614177.4884	189599.587258	65349367.3591	0
225000.0	3908.0	1812.05624678	0.271858471689	156573.791504	7.34014022896e-05	1.10958051682	26739.0442716	19021.0906982	0.00335232350013	41078234.4792	238042.453713	65354063.6694	0
250000.0	3927.0	2388.6655877	0.257263817927	154751.501465	9.643274268e-05	1.13244080544	28866.6931119	20854.624939	0.00414583832476	19254719.7917	321073.639509	65358760.4858	-1
275000.0	3929.0	3150.82967218	0.236281511777	152768.078613	0.000127540644712	1.17106831074	32540.4026784	24020.0958252	0.00495013760169	40674160.5519	364096.496409	65363457.8085	0
300000.0	3998.0	4136.8309622	0.237490578072	151299.206543	0.000164621582144	1.17275416851	32365.1591053	23826.2771606	0.00657124193671	33943615.3828	444381.065086	65368155.6374	0
325000.0	4024.0	5425.09965301	0.225075355069	149487.866211	0.000215012761373	1.20255804062	34970.4236162	26033.6303711	0.008111626092	40899752.7183	402481.005644	65372853.9727	0
350000.0	4178.0	7038.2478434	0.251365750812	148729.321289	0.000267715677182	1.15461659431	29976.4467027	21685.7070923	0.0123343884164	33954689.0241	411483.487341	65377552.8144	-1
375000.0	4277.0	9075.19087309	0.259906851773	147551.977539	0.000336998908779	1.1435585022	28655.5689722	20513.1729126	0.0170690724151	40585527.5999	63317.3300866	65382252.1626	-1
400000.0	4669.0	11438.4489261	0.330476450414	148015.74707	0.000386413603337	1.05744743347	20612.0692769	13561.0229492	0.0317313817259	33854977.3437	25394.8351997	65386952.0172	-3
425000.0	4951.0	14225.6644291	0.356377522756	147678.979492	0.000452686094832	1.03484892845	18612.8951372	11836.3815308	0.0447065200814	39099380.0027	0.103350466564	65391652.3785	0
450000.0	5741.0	17157.2888383	0.386542227645	149040.759277	0.000468985490443	1.00872981548	16624.6438354	10155.8860779	0.0689422447309	33500397.6397	0.00877360711384	65396353.2465	-9
475000.0	5893.0	20599.2269261	0.386142733935	148284.472656	0.000549369417513	1.00846970081	16631.6077228	10165.8157349	0.0881708523862	35494609.4482	6.88503873341	65401054.6211	0
500000.0	7121.0	23949.2381487	0.354243921407	150592.358398	0.000526361645825	1.01575756073	18175.9087232	11605.0224304	0.390912788032	37978609.1215	42331.4592182	65405756.5026	-18
525000.0	9427.0	26770.5831767	0.180821076846	157307.263184	0.000435086349171	1.21880483627	42917.6070626	33348.3947754	5.26197149254	7018527.84623	19739255.4418	65410458.8909	-17
550000.0	10290.0	29574.8207733	0.141597729145	161132.15332	0.00043016291329	1.41574060917	65210.6268247	52126.5991211	11.8197549004	2187169.31592	19073603.8705	65415161.7861	-3
575000.0	11125.0	32310.7388653	0.119204424693	166597.473145	0.000417629678395	1.6919053793	96512.4629827	77403.4851074	23.1613810691	944888.564466	20486516.7713	65419865.1883	-5
600000.0	11386.0	35189.1072127	0.115869783075	167917.370605	0.000438766221578	1.77075791359	105348.832267	84257.9772949	28.1604324852	491014.591521	9825156.52139	65424569.0975	-3
625000.0	11807.0	38125.2268264	0.110862277903	171068.17627	0.000446533732656	1.92171001434	122899.04327	97658.6547852	37.1873704111	368297.141641	11874975.0439	65429273.5139	-2
650000.0	12001.0	41218.1383662	0.109745476977	172055.163574	0.000469867501351	1.97617661953	129159.097676	102285.681152	42.3033462044	205748.367432	4280563.52634	65433978.4373	-2
675000.0	12199.0	44466.8517456	0.108815084943	173142.932129	0.000493005813951	2.03146934509	135600.316937	106992.285156	47.8962144252	163257.721025	3678319.52927	65438683.868	-1
700000.0	12353.0	47897.0975785	0.108452586332	173785.327148	0.000520140474691	2.06757378578	139733.255926	109940.83252	52.7830356626	105922.521221	922248.945443	65443389.806	-1
725000.0	12455.0	51547.2466983	0.108603272569	173809.277344	0.000553256938929	2.08010649681	140937.606699	110710.803223	56.5433846617	74712.4316756	898.150539883	65448096.2513	0
750000.0	12554.0	55430.2729964	0.108791083036	173784.057617	0.000588328475715	2.09077858925	141886.379712	111282.60498	60.4378005282	66638.2210178	4048.81638521	65452803.204	0
775000.0	12653.0	59558.0602119	0.108986974792	173786.413574	0.000625077689165	2.10190916061	142908.478354	111908.666992	64.5171208489	59851.9253533	9075.63805808	65457510.6642	0
800000.0	12751.0	63943.0502416	0.109200867962	173797.644043	0.000663690457259	2.11276602745	143912.17904	112520.654297	68.7541047801	54134.6221722	7403.58809969	65462218.6319	0
825000.0	12850.0	68596.8677343	0.109422464489	173822.827148	0.000704063268131	2.12357473373	144916.979434	113129.382324	73.209271918	49049.9067158	5700.58354509	65466927.1071	0
850000.0	12948.0	73533.6058058	0.109669652094	173811.975098	0.000746610055558	2.13297629356	145731.230744	113591.333008	77.8284808806	44286.5762419	13277.9970212	65471636.09	0
875000.0	13046.0	78767.7568984	0.109930070253	173783.92334	0.00079128113839	2.14153599739	146430.64105	113963.342285	82.6469424576	40455.8280949	3937.64373021	65476345.5805	0
900000.0	13145.0	84312.4929223	0.110194947374	173794.250488	0.000837808443066	2.15070962906	147229.153436	114407.8125	87.6987016972	36834.1330325	2944.26329947	65481055.5789	0
925000.0	13243.0	90182.6267371	0.110477106399	173810.778809	0.000886557131707	2.15953397751	148000.501706	114832.788086	92.9229946708	33421.4766876	10946.4295892	65485766.085	0
950000.0	13341.0	96392.9088347	0.110771022415	173828.503418	0.000937540335144	2.16795325279	148729.578224	115225.256348	98.360664713	30524.6124879	10370.9626748	65490477.0989	0
975000.0	13439.0	102959.232302	0.11107686004	173823.815918	0.000990968146652	2.17554807663	149346.43936	115532.055664	104.022097477	27913.3514228	10288.7214546	65495188.6208	0
1000000.0	13537.0	109898.845106	0.111389159566	173797.521973	0.00104694049696	2.18235182762	149858.960517	115760.449219	109.914252417	25555.6952211	10632.1412388	65499900.6506	0
1025000.0	13635.0	117228.554112	0.111706885333	173795.166016	0.00110526900698	2.18927598	150417.406349	116025.744629	116.035641552	23431.6272448	10796.6724688	65504613.1885	0
1050000.0	13733.0	124964.785558	0.112033239354	173810.595703	0.0011660445125	2.1961877346	150996.636728	116307.751465	122.392813578	21514.0233231	10921.4751237	65509326.2344	0
1075000.0	13831.0	133124.771958	0.11236923623	173830.725098	0.00122941753489	2.20278096199	151546.714335	116568.017578	128.994485903	19778.1933311	11232.6257759	65514039.7885	0
1100000.0	13929.0	141726.955538	0.11271521429	173837.023926	0.00129560794448	2.20875000954	152012.304739	116764.086914	135.851745764	18201.9288322	12094.9591155	65518753.8507	0
1125000.0	14027.0	150791.317598	0.113069803277	173812.609863	0.0013648402728	2.21392345428	152356.566035	116867.944336	142.975386145	16766.7043659	13858.6155377	65523468.4212	0
1150000.0	14125.0	160338.344979	0.113432164153	173800.830078	0.0014369195469	2.21900415421	152708.234249	116978.845215	150.363236943	15462.7834313	15917.7875809	65528183.5	0
1175000.0	14223.0	170387.464216	0.113803326723	173808.557129	0.00151181257024	2.22406768799	153081.620559	117107.592773	158.009436199	14351.5640091	2289.34554793	65532899.0871	0
1200000.0	14322.0	180956.712816	0.114180855028	173837.133789	0.00158941725203	2.22916769981	153475.421007	117250.402832	165.959977192	13270.1642011	2873.23653161	65537615.1826	0
1225000.0	14420.0	192068.665909	0.114567693181	173851.5625	0.00167043754118	2.23355793953	153781.169319	117329.870605	174.128938525	12220.5572448	23410.8010258	65542331.7865	0
1250000.0	14518.0	203745.815138	0.114959984546	173845.10498	0.00175489867615	2.23732256889	153995.502134	117341.07666	182.574365604	11322.0469764	27928.3181274	65547048.8989	0
1275000.0	14616.0	216012.399283	0.115360593719	173818.188477	0.00184295481631	2.24073791504	154151.016387	117308.215332	191.303862071	10552.460988	9249.20347189	65551766.5199	0
1300000.0	14715.0	228890.14067	0.115767570582	173820.361328	0.00193397295334	2.2443549633	154357.583232	117313.427734	200.361080019	9797.68825387	12600.1423905	65556484.6494	0
1325000.0	14813.0	242403.773587	0.116182449401	173826.611328	0.00202865589927	2.24755954742	154530.878788	117297.875977	209.650666905	9106.07052961	16971.7513465	65561203.2876	0
1350000.0	14912.0	256574.901014	0.116602594562	173849.658203	0.00212655891119	2.25064277649	154704.97103	117282.751465	219.286553087	8472.75880358	21782.948134	65565922.4345	0
1375000.0	15010.0	271430.68733	0.117027644089	173856.982422	0.00222856874643	2.25301885605	154792.394037	117206.872559	229.17388084	7889.64567829	28481.5673135	65570642.0901	0
1400000.0	15109.0	286995.270052	0.11745990886	173857.995605	0.0023342613531	2.25521183014	154850.864437	117108.26416	239.434709075	7390.53909266	6523.0872954	65575362.2545	0
1425000.0	15208.0	303296.789336	0.117900018361	173839.160156	0.00244413831751	2.25719594955	154867.737531	116978.808594	250.027262396	6893.00681702	12386.596934	65580082.9277	0
1450000.0	15307.0	320363.338327	0.118346042901	173834.04541	0.00255786198977	2.2590482235	154886.826234	116852.990723	260.94513584	6435.01367772	19834.3195517	65584804.1097	0
1475000.0	15406.0	338221.779812	0.118797271883	173841.235352	0.0026755305953	2.26065516472	154893.603814	116720.324707	272.19865737	6012.83549403	28928.1081094	65589525.8007	0
1500000.0	15505.0	356899.886178	0.119252429599	173854.02832	0.00279733467323	2.26190280914	154867.258638	116565.100098	283.800828215	5622.93115894	40013.0836171	65594248.0007	0
1525000.0	15604.0	376426.30556	0.119714751328	173866.796875	0.00292343884212	2.26281404495	154806.878176	116386.608887	295.765655793	5288.8286591	11118.8532143	65598970.7096	0
1550000.0	15704.0	396828.079033	0.120186663812	173880.444336	0.00305363664665	2.26363182068	154735.43214	116199.157715	308.172985133	4953.50223856	20380.2259746	65603693.9276	0
1575000.0	15803.0	418140.546894	0.120661617312	173860.742188	0.00318923412124	2.26409626007	154597.285794	115964.501953	320.922456861	4641.14928568	34600.2256753	65608417.6547	0
1600000.0	15903.0	440394.730268	0.121140801389	173849.682617	0.0033290787087	2.26453900337	154462.488106	115731.945801	334.138849824	4373.77549968	6679.62835193	65613141.891	0
1625000.0	16003.0	463622.626891	0.121623369295	173849.963379	0.00347347895513	2.26471853256	154311.178774	115489.660645	347.745623518	4104.38619312	17200.6496731	65617866.6364	0
1650000.0	16103.0	487855.61262	0.122112939936	173859.851074	0.00362252148989	2.26462173462	154141.19167	115236.230469	361.752348952	3854.5030681	31740.4706836	65622591.891	0
1675000.0	16203.0	513125.841939	0.122612087799	173875.476074	0.00377635274162	2.26428890228	153952.563722	114971.081543	376.168746147	3622.44149136	50894.9312907	65627317.6548	0
1700000.0	16303.0	539467.231309	0.123118180777	173888.586426	0.00393527307097	2.26372361183	153736.561848	114687.158203	391.012805794	3423.52213368	14112.9392271	65632043.928	0
1725000.0	16404.0	566912.122144	0.123629620477	173898.242188	0.00409908261645	2.26306009293	153502.950661	114389.501953	406.373911667	3221.61174468	31448.8269586	65636770.7105	0
1750000.0	16504.0	595503.233333	0.124136890869	173874.87793	0.00426937231168	2.26214694977	153214.671537	114053.918457	422.138905204	3032.38713287	57358.433092	65641498.0024	0
1775000.0	16605.0	625276.187684	0.124650652784	173863.500977	0.00444446141046	2.26114368439	152928.524132	113720.507812	438.432926097	2870.6884308	17113.8178248	65646225.8037	0
1800000.0	16706.0	656267.197332	0.12517340662	173864.697266	0.00462472962681	2.25990915298	152634.125674	113383.935547	455.185670184	2706.04006798	39819.1347705	65650954.1145	0
1825000.0	16807.0	688512.71025	0.125703999267	173874.267578	0.00481038114231	2.25843262672	152324.185205	113038.391113	472.402939751	2552.52639282	70545.1459372	65655682.9347	0
1850000.0	16908.0	722050.739803	0.126240583508	173886.914062	0.00500167607242	2.25671076775	151991.473086	112678.137207	490.082541655	2421.18688842	23205.1902725	65660412.2645	0
1875000.0	17010.0	756916.544912	0.126783623186	173904.980469	0.00519822515344	2.25483083725	151643.342252	112306.640625	508.313282597	2298.24812846	1656.29474412	65665142.1038	0
1900000.0	17112.0	793151.062594	0.127331053441	173914.135742	0.00540093424206	2.25275230408	151266.92972	111916.149902	527.033807006	2172.02825113	9675.48629767	65669872.4527	0
1925000.0	17214.0	830797.58383	0.127881016954	173906.494141	0.00561021306567	2.25060868263	150869.852475	111511.682129	546.26412206	2053.68524109	37854.4680671	65674603.3113	0
1950000.0	17316.0	869902.076791	0.128432660661	173889.880371	0.00582601569477	2.2484061718	150461.407599	111100.439453	566.004359884	1942.77194628	80717.8661576	65679334.6795	0
1975000.0	17418.0	910508.576593	0.128990075988	173882.666016	0.0060478882915	2.24599289894	150042.231323	110683.630371	586.238737646	1848.03757793	27507.2520837	65684066.5575	0
2000000.0	17521.0	952654.292336	0.129555984453	173890.625	0.00627519739282	2.24339175224	149616.62679	110262.95166	607.058164891	1750.70585908	68697.3104474	65688798.9451	0
2025000.0	17623.0	996387.419677	0.130125967947	173895.422363	0.00650964693705	2.24047040939	149159.686141	109823.22998	628.30921255	1659.21579845	126389.401171	65693531.8426	0
2050000.0	17726.0	1041746.48317	0.130708353023	173910.742188	0.00674979401083	2.23736715317	148691.735085	109376.269531	650.164257048	1589.01984928	8238.92223094	65698265.2498	0
2075000.0	17830.0	1088771.52579	0.131300339497	173930.773926	0.00699589509168	2.23415064812	148212.831734	108921.54541	672.638431419	1508.13340966	9120.61458775	65702999.1668	0
2100000.0	17933.0	1137516.97902	0.131888837026	173931.933594	0.00725018435332	2.2308473587	147709.489383	108451.330566	695.553746462	1431.82453029	51301.5013769	65707733.5937	0
2125000.0	18037.0	1188028.68271	0.132477612306	173922.912598	0.00751139305066	2.22764253616	147204.444654	107978.918457	719.098917944	1360.17406453	117782.31026	65712468.5306	0
2150000.0	18140.0	1240365.96503	0.133064550157	173901.000977	0.0077809445429	2.2243437767	146683.327531	107497.65625	743.09713937	1298.78607973	50556.6402691	65717203.9773	0
2175000.0	18245.0	1294565.39348	0.13367019776	173904.455566	0.00805540457804	2.22086048126	146162.053752	107015.905762	767.788754527	1241.33538778	3887.05401943	65721939.934	0
2200000.0	18349.0	1350681.65958	0.134278417548	173906.25	0.00833791818877	2.21714925766	145620.069153	106522.546387	792.936823019	1181.21138358	50597.9504422	65726676.4007	0
2225000.0	18454.0	1408757.68908	0.134897429744	173919.506836	0.00862672368385	2.21325683594	145068.2092	106022.814941	818.731929118	1130.16949268	2997.95358763	65731413.3773	0
2250000.0	18559.0	1468844.63924	0.135520739309	173932.873535	0.00892309071787	2.20918035507	144498.898665	105512.37793	845.107720676	1076.70315075	53198.4537537	65736150.864	0
2275000.0	18664.0	1530994.50578	0.136150834582	173944.287109	0.00922717481444	2.20491433144	143910.795068	104990.332031	872.077528183	1026.24246001	141901.822115	65740888.8608	0
2300000.0	18769.0	1595261.88109	0.136784327231	173948.901367	0.00953940798354	2.20055818558	143309.946401	104460.668945	899.667458706	983.202047783	63041.9892308	65745627.3676	0
2325000.0	18875.0	1661696.80206	0.137421914527	173948.474121	0.00985913266049	2.19624257088	142708.915417	103930.847168	927.993709889	942.439218624	8198.76720622	65750366.3846	0
2350000.0	18981.0	1730360.20103	0.138054403448	173933.569336	0.0101877994894	2.19205904007	142111.167408	103404.174805	956.993241487	899.382060095	81789.7126616	65755105.9117	0
2375000.0	19087.0	1801311.77515	0.138691631555	173922.851562	0.0105245217128	2.18773674965	141504.405554	102872.937012	986.628685321	862.733911198	18085.6302123	65759845.949	0
2400000.0	19194.0	1874597.939	0.139344509012	173926.342773	0.0108678777906	2.18315982819	140883.116319	102332.415771	1016.99089837	824.24175981	108239.686909	65764586.4964	0
2425000.0	19300.0	1950282.4398	0.13999931908	173927.172852	0.0112206107588	2.17840480804	140245.173481	101782.940674	1047.91749559	787.677234725	249937.937064	65769327.5541	0
2450000.0	19407.0	2028414.09914	0.140666303478	173937.353516	0.0115804868983	2.17348766327	139596.920682	101226.599121	1079.6043779	760.26075481	2954.482346	65774069.122	0
2475000.0	19515.0	2109043.05121	0.141343255356	173953.735352	0.011947724488	2.1684627533	138940.282452	100664.324951	1112.07234635	730.771377633	59180.8699548	65778811.2002	0
2500000.0	19623.0	2192228.87941	0.142026119534	173967.285156	0.0123237796288	2.16332054138	138268.525839	100092.108154	1145.24134524	696.200099198	200126.054818	65783553.7886	0
2525000.0	19730.0	2278042.93254	0.142706358887	173967.797852	0.0127104631247	2.15815615654	137586.464377	99514.4165039	1179.04360012	669.551701724	105193.805822	65788296.8873	0
2550000.0	19839.0	2366531.94413	0.143397626473	173971.655273	0.0131040778797	2.15302205086	136907.721093	98938.0004883	1213.7822371	644.335670442	31241.9785169	65793040.4964	0
2575000.0	19947.0	2457774.78928	0.144073914385	173954.699707	0.0135093723657	2.14813613892	136243.710053	98374.0905762	1249.20831063	617.252433885	172650.060565	65797784.6158	0
2600000.0	20056.0	2551831.01425	0.144757021173	173945.373535	0.0139225485327	2.14318561554	135581.439735	97812.4389648	1285.41710576	594.383838792	79427.9457036	65802529.2456	0
2625000.0	20165.0	2648763.09306	0.145450368954	173941.247559	0.0143446522998	2.13795828819	134898.776575	97238.5375977	1322.24272969	572.635056485	13387.1778453	65807274.3857	0
2650000.0	20275.0	2748622.45869	0.146161289594	173948.095703	0.0147742102854	2.13242650032	134194.506252	96650.3723145	1359.78739843	552.039727388	20612.3639198	65812020.0363	0
2675000.0	20385.0	2851471.92635	0.146881199932	173957.60498	0.015212964172	2.12669420242	133474.236979	96052.6000977	1397.98364443	530.004121466	65265.1749776	65816766.1973	0
2700000.0	20495.0	2957376.24383	0.147607925457	173967.919922	0.0156612095452	2.12083148956	132743.208666	95448.7609863	1436.85993876	511.371660579	6359.51156902	65821512.8687	0
2725000.0	20606.0	3066390.87723	0.148346432074	173983.276367	0.0161175830726	2.1148622036	132004.900408	94840.1977539	1476.52874161	491.44156935	157957.917296	65826260.0506	0
2750000.0	20716.0	3178596.04869	0.149078651238	173988.244629	0.0165858327819	2.10897278786	131269.814957	94235.8093262	1516.84798355	474.495056321	68845.1810564	65831007.7429	0
2775000.0	20828.0	3294040.60935	0.149823561073	173998.950195	0.0170612529473	2.10308909416	130537.621557	93632.7514648	1558.11766097	458.433925821	8032.81711789	65835755.9457	0
2800000.0	20939.0	3412810.86116	0.150553932988	173993.066406	0.0175495224539	2.09746789932	129823.633535	93044.2565918	1600.10430087	440.960237221	184038.606183	65840504.659	0
2825000.0	21051.0	3534973.39068	0.151282347784	173982.23877	0.0180474489753	2.09204411507	129127.289961	92468.3654785	1643.02029914	426.233727344	86520.8678525	65845253.8829	0
2850000.0	21163.0	3660605.3367	0.152010110078	173972.705078	0.0185557910299	2.08665251732	128437.645432	91898.6694336	1686.73913059	412.123303394	15387.0684742	65850003.6173	0
2875000.0	21276.0	3789766.72042	0.152745842712	173971.655273	0.0190726677829	2.08119940758	127748.688561	91330.1757812	1731.36271819	398.675208498	21682.2373449	65854753.8622	0
2900000.0	21389.0	3922527.38641	0.153491259537	173973.4375	0.0195997090486	2.07553052902	127042.065267	90750.8483887	1776.79809781	384.089581559	113427.961576	65859504.6177	0
2925000.0	21502.0	4058957.46394	0.154249035958	173977.539062	0.0201369803108	2.06960511208	126313.068278	90157.2692871	1823.05948037	371.79846927	33608.4608036	65864255.8838	0
2950000.0	21616.0	4199115.25214	0.155024679072	173988.525391	0.0206827025977	2.06342434883	125563.904525	89550.2502441	1870.2481048	360.076420863	4039.97998415	65869007.6605	0
2975000.0	21730.0	4343073.76989	0.155807236213	173998.864746	0.0212391169043	2.05712914467	124805.013332	88937.7685547	1918.29587182	347.298038077	186691.476079	65873759.9478	0
3000000.0	21844.0	4490908.46372	0.156593302384	174006.884766	0.0218066015805	2.05079627037	124043.226045	88324.5666504	1967.22807363	336.534532892	93302.3130503	65878512.7458	0
3025000.0	21959.0	4642683.22616	0.157387541169	174016.088867	0.0223834431381	2.04444026947	123281.406711	87711.8835449	2017.14930409	326.242792767	24051.5679492	65883266.0543	0
3050000.0	22074.0	4798478.45567	0.158177397462	174018.518066	0.0229721481446	2.03821659088	122531.333234	87108.5754395	2067.99220203	314.963912817	321047.232538	65888019.8735	0
3075000.0	22189.0	4958378.27806	0.158958002353	174011.645508	0.0235732841247	2.03221797943	121801.052068	86520.2453613	2119.78608985	305.459328883	205146.552344	65892774.2033	0
3100000.0	22305.0	5122454.99229	0.159737650116	174002.905273	0.0241846100835	2.02636814117	121086.86776	85943.6584473	2172.60999609	297.633692318	173307.890639	65897529.0438	0
3125000.0	22422.0	5290776.87844	0.160524012828	174001.635742	0.0248049946094	2.02050185204	120377.898634	85371.496582	2226.39576592	287.658898335	26359.0889136	65902284.395	0
3150000.0	22538.0	5463438.87209	0.161299333867	173996.606445	0.0254391925409	2.01477003098	119683.8162	84811.7370605	2280.89441948	278.057037416	355058.231155	65907040.2569	0
3175000.0	22655.0	5640503.74525	0.162091614002	173998.632812	0.0260824308498	2.00881004333	118972.446492	84240.447998	2336.20891455	271.231841098	82995.5636649	65911796.6295	0
3200000.0	22773.0	5822033.59398	0.162902951678	174007.128906	0.0267346113105	2.00259232521	118240.113641	83654.9865723	2392.33157871	262.466394209	124313.955657	65916553.5128	0
3225000.0	22890.0	6008123.60308	0.163713352374	174010.852051	0.0274007161352	1.9963234663	117502.563815	83067.6025391	2449.11667762	255.104631424	44112.3606089	65921310.9068	0
3250000.0	23009.0	6198822.18743	0.164546418342	174024.121094	0.0280737476714	1.98983716965	116749.353259	82469.140625	2506.77619826	248.122401134	240.424808332	65926068.8116	0
3275000.0	23127.0	6394228.24176	0.165372642645	174030.493164	0.0287612747343	1.98342680931	116002.368763	81876.6845703	2565.11717325	240.3428794	340117.420904	65930827.2271	0
3300000.0	23246.0	6594409.99581	0.16620633675	174038.635254	0.0294587407552	1.97700238228	115256.602536	81285.5651855	2624.29147541	234.885768807	120555.205292	65935586.1533	0
3325000.0	23366.0	6799437.13287	0.167043928652	174046.936035	0.030166360375	1.97063004971	114517.875151	80699.8474121	2684.30619784	227.738470975	130859.133311	65940345.5903	0
3350000.0	23485.0	7009416.94003	0.167863397114	174043.884277	0.0308897870127	1.96453559399	113803.696024	80132.9162598	2745.06038754	221.746345024	48670.3679763	65945105.5381	0
3375000.0	23606.0	7224407.27444	0.168687390305	174042.175293	0.0316216428473	1.95855307579	113103.29248	79575.6164551	2806.76740688	216.039791054	210.0127667	65949865.9966	0
3400000.0	23726.0	7444520.80063	0.169491810348	174031.738281	0.0323693238897	1.95285379887	112430.321598	79039.3188477	2869.21567662	209.620691377	380495.535129	65954626.9659	0
3425000.0	23847.0	7669828.91794	0.170304243492	174027.893066	0.0331266674038	1.94709157944	111757.988486	78504.4189453	2932.49307826	205.179107895	151428.494795	65959388.4459	0
3450000.0	23969.0	7900397.08455	0.17113416599	174030.187988	0.0338933677995	1.94109678268	111068.769199	77958.6181641	2996.58029498	199.276335137	133725.903534	65964150.4368	0
3475000.0	24090.0	8136328.76165	0.171962007433	174029.02832	0.0346751148754	1.93506348133	110377.06636	77412.7929688	3061.39575425	194.358345669	47488.5501449	65968912.9385	0
3500000.0	24213.0	8377671.66201	0.172812805382	174037.695312	0.0354636067641	1.92880022526	109669.510744	76856.0791016	3127.10497055	189.68233162	436.468205186	65973675.951	0
3525000.0	24335.0	8624531.47276	0.173657165153	174041.918945	0.036267505493	1.92259156704	108967.602464	76304.8156738	3193.5828176	184.376097794	464038.180878	65978439.4743	0
3550000.0	24458.0	8876977.09302	0.174510557082	174050.012207	0.0370813213522	1.91632723808	108263.886104	75752.8137207	3260.93320963	180.760286808	127002.604563	65983203.5085	0
3575000.0	24582.0	9135077.96813	0.175370295512	174061.132812	0.0379051598429	1.91005659103	107562.708611	75203.0639648	3329.19219033	175.853796315	218301.879023	65987968.0534	0
3600000.0	24705.0	9398945.54458	0.176215179018	174065.637207	0.0387452855648	1.90398645401	106880.106241	74667.6269531	3398.31280108	171.776753088	112719.044807	65992733.1093	0
3625000.0	24830.0	9668632.69687	0.177069184621	174075.476074	0.0395929710066	1.89792978764	106203.097921	74136.1633301	3468.43052267	167.887656132	31730.1649572	65997498.6759	0
3650000.0	24954.0	9944255.5418	0.177901954201	174076.635742	0.0404577076552	1.89216983318	105553.326749	73625.0610352	3539.47808792	164.081785212	10407.478074	66002264.7534	0
3675000.0	25080.0	10225870.3987	0.178739440478	174080.493164	0.0413305169786	1.88647115231	104913.208888	73120.904541	3611.58840305	160.445515167	90964.7173766	66007031.3418	0
3700000.0	25205.0	10513597.5444	0.179562476406	174072.888184	0.0422209814133	1.88092541695	104285.359339	72626.763916	3684.65805149	156.260303728	298277.442136	66011798.441	0
3725000.0	25331.0	10807515.2237	0.180393545975	174066.723633	0.0431219777965	1.87529551983	103653.133259	72130.4077148	3758.5622177	152.854237045	162863.342977	66016566.051	0
3750000.0	25457.0	11107717.4557	0.181227128971	174061.889648	0.0440359726781	1.86960458755	103019.044065	71634.0576172	3833.21210503	149.55884269	56599.1168027	66021334.1719	0
3775000.0	25584.0	11414272.7081	0.18207064871	174062.329102	0.0449597137049	1.86380589008	102380.160635	71135.2233887	3908.62359595	146.396947301	284.418039358	66026102.8037	0
3800000.0	25711.0	11727271.9138	0.182913394212	174063.720703	0.0458965805592	1.85801041126	101745.009363	70640.1123047	3984.77483195	143.335353196	65057.6539299	66030871.9463	0
3825000.0	25839.0	12046784.1368	0.183762302945	174069.702148	0.046843313612	1.85217678547	101111.031088	70146.5270996	4061.67382113	140.396011513	183960.527608	66035641.5998	0
3850000.0	25967.0	12372901.8281	0.184606321881	174075.939941	0.0478034053231	1.84641849995	100486.967327	69660.8215332	4139.31140976	137.012034419	247169.989609	66040411.7643	0
3875000.0	26095.0	12705719.2251	0.185443337505	174082.03125	0.0487771067128	1.84077215195	99875.9331226	69185.0891113	4217.68275327	134.26271739	105912.287903	66045182.4396	0
3900000.0	26224.0	13045308.1848	0.186279555413	174091.235352	0.0497611254104	1.83520078659	99275.7497143	68717.4438477	4296.79719148	131.61997888	8823.94093834	66049953.6258	0
3925000.0	26353.0	13391765.6194	0.187106954432	174098.950195	0.0507591612404	1.82975494862	98689.2833694	68260.2600098	4376.65074512	128.556462985	686634.879482	66054725.3229	0
3950000.0	26482.0	13745190.1428	0.187930300745	174104.003906	0.0517714943271	1.82433640957	98107.0099581	67807.0556641	4457.25908369	126.076423387	454469.224138	66059497.5309	0
3975000.0	26612.0	14105657.007	0.188757459295	174109.619141	0.0527946540387	1.81889533997	97525.2577555	67354.864502	4538.61447683	124.16527674	416656.043214	66064270.2498	0
4000000.0	26743.0	14473241.8825	0.189587063741	174115.100098	0.053828691307	1.81345975399	96946.1092173	66905.0292969	4620.68866075	121.392178011	92540.5308776	66069043.4796	0
4025000.0	26873.0	14848071.7837	0.190400635821	174112.512207	0.0548812713532	1.80820310116	96382.111313	66466.6992188	4703.539475	118.680770876	973258.971941	66073817.2203	0
4050000.0	27004.0	15230226.043	0.191214002379	174108.325195	0.0559453037567	1.80300951004	95825.0458089	66033.5327148	4787.12941803	116.961140145	103692.229462	66078591.472	0
4075000.0	27136.0	15619783.9455	0.192027349598	174103.808594	0.0570203555981	1.79787445068	95275.0901359	65605.645752	4871.43463356	114.866918181	297440.339848	66083366.2345	0
4100000.0	27268.0	16016845.9797	0.192835835772	174100.463867	0.058109042584	1.79280376434	94733.85182	65184.6313477	4956.39729165	112.407244908	204085.767159	66088141.5079	0
4125000.0	27400.0	16421508.0334	0.193638427637	174098.461914	0.0592114010942	1.78781497478	94203.0352263	64771.6491699	5042.00025508	110.440842982	35443.7721428	66092917.2922	0
4150000.0	27533.0	16833839.4469	0.194441688689	174101.086426	0.060323633079	1.78286147118	93679.7045054	64364.4042969	5128.23139643	108.549415577	54897.500134	66097693.5875	0
4175000.0	27666.0	17253937.429	0.19523889942	174104.02832	0.0614498276263	1.77794373035	93162.9372069	63962.8295898	5215.10125397	106.310874863	541268.675427	66102470.3936	0
4200000.0	27799.0	17681900.4745	0.19603111107	174106.872559	0.0625901739113	1.77303862572	92650.4116188	63565.3198242	5302.62167302	104.530332703	252301.281931	66107247.7107	0
4225000.0	27933.0	18117800.0072	0.196826360394	174112.719727	0.0637406701571	1.76809298992	92138.2866229	63168.8964844	5390.74665351	102.816387924	44303.2804469	66112025.5387	0
4250000.0	28067.0	18561734.9555	0.19761656082	174118.115234	0.0649054272799	1.76318800449	91632.0784791	62777.4841309	5479.49987071	101.148321705	65124.0046986	66116803.8777	0
4275000.0	28202.0	19013776.9047	0.198409095769	174126.025391	0.0660803707433	1.75827646255	91128.386811	62388.3911133	5568.84601352	99.5419536992	310836.764958	66121582.7276	0
4300000.0	28337.0	19474025.9173	0.199195676333	174132.958984	0.0672696987749	1.75344049931	90632.9217333	62005.682373	5658.89092817	97.614631696	237193.951501	66126362.0884	0
4325000.0	28472.0	19942583.1738	0.19997570333	174138.574219	0.0684736296535	1.7487000227	90146.9807388	61630.1269531	5749.64684822	96.0946141575	19577.6516732	66131141.9601	0
4350000.0	28608.0	20419521.8602	0.200756136212	174145.64209	0.069688023359	1.74401092529	89667.5561683	61259.3688965	5841.05658024	94.6285504547	125037.525996	66135922.3428	0
4375000.0	28744.0	20904944.9798	0.201528371879	174150.646973	0.0709172527422	1.73945808411	89200.537234	60897.5524902	5933.12477295	92.8571785177	478318.143271	66140703.2365	0
4400000.0	28880.0	21398958.1716	0.202290667244	174152.661133	0.0721617470845	1.73502647877	88745.0096042	60544.2810059	6025.8567956	91.4679023819	139243.241093	66145484.6411	0
4425000.0	29017.0	21901639.7188	0.203049668236	174153.723145	0.0734174682293	1.73062419891	88294.4631449	60195.1538086	6119.15126152	90.1276092024	27070.3807393	66150266.5566	0
4450000.0	29154.0	22413098.4299	0.203798560939	174150.268555	0.0746889418224	1.72632014751	87853.0957286	59853.0639648	6213.05784529	88.4960036796	694318.381935	66155048.983	0
4475000.0	29291.0	22933444.6956	0.204539431944	174143.603516	0.0759759059292	1.72209656239	87419.6308748	59517.0715332	6307.5121137	87.2251372166	258773.845046	66159831.9205	0
4500000.0	29429.0	23462753.1146	0.205283719812	174140.625	0.0772726125433	1.71784377098	86987.0396425	59182.244873	6402.32672523	86.0027858575	1936.32362858	66164615.3688	0
4525000.0	29567.0	24001123.3286	0.20602451799	174138.439941	0.0785835145507	1.7136272192	86559.5641164	58851.5380859	6497.53207636	84.8129216581	244584.927447	66169399.328	0
4550000.0	29706.0	24548623.0859	0.206769662769	174140.026855	0.0799039480626	1.70939767361	86133.6832961	58522.265625	6592.99485708	83.3684400767	365460.212693	66174183.7982	0
4575000.0	29844.0	25105383.4628	0.207504899313	174139.453125	0.0812433063402	1.70528173447	85717.7382579	58200.3417969	6688.87600968	82.2461365297	27733.7932734	66178968.7794	0
4600000.0	29984.0	25671440.3335	0.2082518145	174145.3125	0.0825874885777	1.7011204958	85301.0209934	57877.8747559	6784.80306988	81.1823756507	193789.694071	66183754.2715	0
4625000.0	30123.0	26246926.6483	0.208986485025	174148.583984	0.0839508284116	1.69708204269	84895.15902	57563.482666	6881.06316171	79.8470158779	452117.814984	66188540.2745	0
4650000.0	30263.0	26831913.0003	0.209719918698	174154.248047	0.0853241726873	1.69303894043	84492.1546359	57251.7089844	6977.40180442	78.8439723939	51324.0764545	66193326.7885	0
4675000.0	30403.0	27426502.578	0.210446163705	174159.350586	0.0867123162607	1.68904554844	84095.2719794	56944.8791504	7073.90081335	77.8675009131	193651.709467	66198113.8135	0
4700000.0	30544.0	28030765.7457	0.211173245675	174166.503906	0.0881103478605	1.68504858017	83700.6504722	56640.1306152	7170.34868831	76.6579521327	469080.652732	66202901.3494	0
4725000.0	30684.0	28644839.8427	0.21188843372	174170.019531	0.0895282573765	1.68115675449	83315.0692512	56342.2668457	7267.00241832	75.7373222276	36857.1622232	66207689.3963	0
4750000.0	30826.0	29268762.1269	0.212613159892	174177.844238	0.0909512164071	1.67721617222	82928.0753721	56043.6157227	7363.36615415	74.8675119404	244071.231399	66212477.9542	0
4775000.0	30967.0	29902671.0785	0.213328081727	174181.652832	0.0923941697692	1.67338943481	82550.0141776	55751.550293	7459.82818005	73.7480934654	433453.491562	66217267.023	0
4800000.0	31109.0	30546638.2257	0.214047390761	174186.572266	0.0938472512644	1.6695792675	82174.1739815	55461.0900879	7556.03552468	72.9291742727	15802.8153951	66222056.6029	0
4825000.0	31251.0	31200769.6617	0.214765056684	174189.624023	0.0953155686148	1.66584718227	81804.3080473	55174.798584	7652.0972257	71.8796784684	1095962.59819	66226846.6937	0
4850000.0	31393.0	31865174.0268	0.215477145049	174190.161133	0.0967995147221	1.66219997406	81441.4345646	54893.560791	7747.99342169	71.1084559152	400428.067068	66231637.2954	0
4875000.0	31536.0	32539927.2416	0.216186460657	174190.124512	0.0982942292467	1.6585893631	81083.0309229	54615.7714844	7843.48081577	70.3702907201	177.801358777	66236428.4082	0
4900000.0	31679.0	33225141.1687	0.216887563274	174186.51123	0.0998050381895	1.65506577492	80732.0257129	54343.4570312	7938.75897778	69.6516738874	418051.327572	66241220.032	0
4925000.0	31823.0	33920891.5593	0.217589232095	174183.325195	0.101326040749	1.65155637264	80383.6159633	54073.2055664	8034.10945443	68.7205754241	312651.278959	66246012.1667	0
4950000.0	31966.0	34627321.2757	0.218282413656	174178.173828	0.102866935777	1.6481205225	80041.6796977	53807.9223633	8129.95351257	67.7989968605	1834361.14132	66250804.8124	0
4975000.0	32110.0	35344496.3946	0.218981512179	174176.159668	0.104416976683	1.64465582371	79699.4328183	53542.7124023	8225.81192901	67.3766200558	599336.543937	66255597.9691	0
5000000.0	32255.0	36072481.1182	0.219687887726	174177.270508	0.105976003397	1.64116299152	79356.5176328	53277.2033691	8321.57617651	66.7446342899	1497519.61114	66260391.6367	0
5025000.0	32400.0	36811376.36	0.220396333636	174178.894043	0.107549407403	1.63768982887	79015.7572675	53013.3666992	8417.35544534	65.9006489801	115428.991973	66265185.8153	0
5050000.0	32545.0	37561283.339	0.221107685028	174181.04248	0.109137188701	1.63423740864	78676.9972743	52751.0070801	8513.10604346	65.0774266583	809337.028341	66269980.505	0
5075000.0	32690.0	38322305.7543	0.221816369877	174183.227539	0.110739776574	1.63081479073	78342.1156801	52491.784668	8608.71699169	64.496482313	146749.359646	66274775.7056	0
5100000.0	32836.0	39094509.8839	0.222527888512	174187.658691	0.11235162674	1.62737858295	78008.3624399	52233.7463379	8703.91080304	63.9411064701	186533.882085	66279571.4172	0
5125000.0	32982.0	39878000.3536	0.223236738549	174191.772461	0.113978385343	1.62397611141	77678.2140053	51978.5705566	8798.79498693	63.1841963533	731952.836962	66284367.6398	0
5150000.0	33128.0	40672881.8354	0.223944164312	174195.507812	0.115620088764	1.62060713768	77351.1605379	51725.7995605	8893.30733825	62.6609572031	87427.6777721	66289164.3734	0
5175000.0	33275.0	41479220.5026	0.224657628164	174201.074219	0.117271039926	1.61722707748	77023.8488358	51472.9309082	8987.06845237	62.1631550104	276725.402872	66293961.618	0
5200000.0	33422.0	42297121.1611	0.225371922693	174205.981445	0.118936950457	1.6138818264	76698.7830789	51221.6369629	9080.26266519	61.4709289192	673128.744436	66298759.3737	0
5225000.0	33569.0	43126689.3017	0.226088141464	174210.131836	0.120617871289	1.61057090759	76375.5253137	50971.5270996	9172.7815108	61.0049212859	59899.0953692	66303557.6404	0
5250000.0	33717.0	43967990.6072	0.226813710322	174215.600586	0.122308003483	1.60725092888	76050.9049287	50720.211792	9264.25932414	60.5638200215	311066.332523	66308356.4181	0
5275000.0	33865.0	44821131.1833	0.227541235469	174219.86084	0.124013269669	1.60396945477	75728.2090201	50470.0622559	9354.85178349	59.9349618722	730117.733351	66313155.7068	0
5300000.0	34013.0	45686220.0244	0.228266088246	174222.436523	0.125734077301	1.60073411465	75408.9060531	50222.3236084	9444.51525103	59.5249373224	90483.3086999	66317955.5066	0
5325000.0	34162.0	46563325.3111	0.228994773794	174225.268555	0.127464503748	1.59750270844	75090.2497758	49975.0213623	9532.80846444	59.1393237359	267749.743199	66322755.8174	0
5350000.0	34311.0	47452556.723	0.229721030219	174226.025391	0.129210529849	1.59431827068	74775.0163941	49730.1513672	9619.94118185	58.5715098051	861565.199977	66327556.6393	0
5375000.0	34460.0	48354024.9997	0.230445020045	174224.389648	0.130972388433	1.59118258953	74463.2806328	49487.7593994	9705.84535088	58.2162523692	151978.7175	66332357.9722	0
5400000.0	34610.0	49267799.7555	0.231173434861	174222.290039	0.132744055009	1.58805513382	74152.283922	49245.8648682	9790.05478054	57.8850219187	198799.33528	66337159.8162	0
5425000.0	34760.0	50193992.0745	0.231901109584	174218.127441	0.134531292133	1.58496999741	73844.2533684	49006.0943604	9872.79407647	57.3769577609	1062712.40041	66341962.1712	0
5450000.0	34910.0	51132709.996	0.232632192786	174214.245605	0.136333110277	1.5818965435	73537.0771191	48767.010498	9953.91541819	57.0769955969	277692.716096	66346765.0373	0
5475000.0	35061.0	52084013.4978	0.233374236706	174213.000488	0.138143062941	1.57878983021	73227.6990073	48526.4373779	10032.8939099	56.8021650958	78772.5478582	66351568.4145	0
5500000.0	35212.0	53048006.0208	0.234117997859	174211.962891	0.139967698487	1.57569825649	72919.6176035	48286.9018555	10110.0455621	56.3557767173	1455329.05241	66356372.3027	0
5525000.0	35363.0	54024791.3886	0.234863095491	174211.05957	0.141807016917	1.57262170315	72612.928336	48048.4954834	10185.2740137	56.1125292303	566145.965832	66361176.702	0
5550000.0	35515.0	55014429.8988	0.235616339241	174212.280273	0.143654688145	1.56951868534	72304.8096742	47809.197998	10258.0658611	55.8938603353	25403.4934267	66365981.6124	0
5575000.0	35667.0	56017024.7673	0.236371472831	174213.500977	0.145517027704	1.56642985344	71997.9204845	47570.8984375	10329.3816863	55.686740132	370625.105729	66370787.0339	0
5600000.0	35820.0	57032634.5286	0.237135672028	174216.73584	0.147387385368	1.56331467628	71689.4302934	47331.5490723	10399.0008881	55.4991833478	1175230.19778	66375592.9664	0
5625000.0	35973.0	58061361.8342	0.237902615605	174219.812012	0.1492723095	1.56021332741	71381.9637806	47093.0114746	10467.3537736	55.14112169	335499.916676	66380399.4101	0
5650000.0	36126.0	59103309.5089	0.23867285206	174222.729492	0.151171785546	1.55712532997	71075.3906824	46855.19104	10534.3745832	54.9741926519	28536.9848604	66385206.3649	0
5675000.0	36280.0	60158535.2849	0.239453532883	174227.319336	0.153079250595	1.554012537	70766.9696393	46616.0675049	10599.5199758	54.8264817837	534632.969702	66390013.8308	0
5700000.0	36434.0	61227142.8562	0.240237218491	174231.37207	0.155001383973	1.55091714859	70459.50121	46377.6489258	10663.2416604	54.511333021	1061919.70011	66394821.8079	0
5725000.0	36588.0	62309237.4276	0.241022837356	174234.741211	0.156938447617	1.54784154892	70153.283379	46140.1733398	10725.4856334	54.3836715497	352495.784764	66399630.2961	0
5750000.0	36743.0	63404878.3731	0.241816957255	174239.196777	0.158883718541	1.54474782944	69845.8463161	45901.8768311	10785.6886983	54.2748468724	6362.23710788	66404439.2955	0
5775000.0	36898.0	64514170.7579	0.242612369858	174242.773438	0.160843890626	1.54167604446	69540.0535892	45664.84375	10844.3363691	54.1753431025	429437.008497	66409248.8061	0
5800000.0	37054.0	65637173.346	0.243415603469	174247.241211	0.162812168128	1.53858840466	69233.4548381	45427.3284912	10900.8251472	54.0946112257	1147895.70721	66414058.8278	0
5825000.0	37210.0	66773990.6107	0.244219622888	174250.610352	0.164795244928	1.53552484512	68928.8344094	45191.3360596	10955.6232443	53.8508038596	652606.470513	66418869.3608	0
5850000.0	37366.0	67924728.4245	0.245024161814	174252.758789	0.166793295648	1.5324857235	68626.3567015	44957.0007324	11008.7143455	53.7897251003	119896.504606	66423680.405	0
5875000.0	37523.0	69089444.955	0.245835978682	174255.432129	0.168799451785	1.52943408489	68323.4858469	44722.4975586	11059.4881421	53.7472935939	131144.719972	66428491.9604	0
5900000.0	37680.0	70268247.2843	0.246648435372	174256.433105	0.170820800122	1.52640771866	68022.5984607	44489.4927979	11108.4590921	53.5436668949	2193395.97776	66433304.027	0
5925000.0	37837.0	71461244.2057	0.247460907078	174255.541992	0.172857515281	1.52340805531	67723.7505161	44258.0352783	11155.6134642	53.5203896357	1327733.0452	66438116.6049	0
5950000.0	37995.0	72668496.5199	0.248279572133	174254.467773	0.174902670551	1.52040231228	67424.7376359	44026.5197754	11200.2991357	53.6849926188	2333169.68233	66442929.6941	0
5975000.0	38154.0	73890063.7822	0.249103612703	174253.015137	0.176956062205	1.51739501953	67125.9531495	43795.2392578	11242.4355091	53.529598936	139258.524236	66447743.2946	0
6000000.0	38312.0	75126103.3958	0.249918666129	174247.973633	0.179031747393	1.51445972919	66832.5860262	43567.9351807	11283.2312928	53.375326495	3542814.29251	66452557.4063	0
6025000.0	38471.0	76376672.0163	0.250742293447	174244.65332	0.181114548468	1.51150131226	66538.0124104	43339.8956299	11321.3530674	53.5771722959	577515.645091	66457372.0294	0
6050000.0	38631.0	77641820.1972	0.251574687015	174243.286133	0.183204072528	1.50851917267	66242.2220023	43111.114502	11356.71042	53.6303344721	1245943.66584	66462187.1638	0
6075000.0	38791.0	78921646.7707	0.252408539528	174242.114258	0.185307537322	1.5055526495	65947.945543	42883.5571289	11389.9269542	53.5265476277	984485.421891	66467002.8095	0
6100000.0	38951.0	80216252.4859	0.253245460992	174240.905762	0.187425146578	1.50259637833	65654.4110386	42656.6070557	11420.995801	53.6005676023	411850.668125	66471818.9666	0
6125000.0	39112.0	81525688.0483	0.254092630345	174241.308594	0.18954963889	1.49961280823	65358.9575529	42428.3569336	11449.1823208	53.6943838717	50655.8470115	66476635.635	0
6150000.0	39273.0	82850053.8296	0.254942232478	174241.564941	0.191688304767	1.4966404438	65064.4565409	42200.9002686	11475.1451149	53.7986408128	144037.103763	66481452.8148	0
6175000.0	39435.0	84189399.1964	0.255800655349	174243.29834	0.19383362087	1.49364554882	64768.6717982	41972.6654053	11498.136511	53.9230350196	549368.24873	66486270.5059	0
6200000.0	39597.0	85543823.1755	0.256660056854	174244.86084	0.195992906811	1.49066543579	64474.4397045	41745.7336426	11518.821356	54.0582728902	1101190.93576	66491088.7085	0
6225000.0	39760.0	86913373.7936	0.257526928463	174247.802734	0.198158668354	1.48766744137	64179.5531875	41518.5211182	11536.4650287	54.2139748283	1745685.8192	66495907.4224	0
6250000.0	39923.0	88298149.173	0.258393292168	174250.463867	0.200338283321	1.48468875885	63886.8211151	41293.0999756	11551.7763796	54.2144101009	914000.54967	66500726.6478	0
6275000.0	40086.0	89698248.378	0.259259126478	174252.832031	0.202531766263	1.48172926903	63596.243947	41069.4702148	11564.8984282	54.3915327813	434576.057791	66505546.3847	0
6300000.0	40250.0	91113720.4196	0.260133751403	174256.164551	0.204731913982	1.47874855995	63304.4198726	40845.111084	11575.0992371	54.5885526627	106959.11572	66510366.633	0
6325000.0	40414.0	92544665.7594	0.261009554597	174258.837891	0.206946235267	1.47578179836	63013.9611666	40621.9177246	11583.2104033	54.7955493802	40977.7847589	66515187.3927	0
6350000.0	40579.0	93991132.9423	0.261892877467	174262.451172	0.209167061257	1.47279787064	62722.7995292	40398.4130859	11588.4513552	55.0224108956	298600.478151	66520008.664	0
6375000.0	40744.0	95453220.9229	0.262775614035	174265.356445	0.211401929846	1.46983373165	62433.7496661	40176.6326904	11591.6581547	55.2592291336	683965.384146	66524830.4468	0
6400000.0	40910.0	96930976.8463	0.263664105966	174269.067383	0.213643012103	1.46685922146	62144.7977675	39955.1239014	11592.027248	55.5160793806	1146810.60767	66529652.7412	0
6425000.0	41076.0	98424499.1794	0.264550216494	174272.094727	0.215898035094	1.46391153336	61858.7333966	39735.9100342	11590.4109605	55.61543597	1882118.13848	66534475.5471	0
6450000.0	41242.0	99933887.0976	0.265432845674	174274.316406	0.218166969717	1.46099376678	61575.9014047	39519.241333	11586.86101	55.8919088234	1329144.83563	66539298.8646	0
6475000.0	41409.0	101459186.783	0.266320403274	174277.124023	0.220442147111	1.45806968212	61293.4768806	39303.0700684	11580.5781013	56.1883364397	856689.930716	66544122.6937	0
6500000.0	41576.0	103000499.755	0.267206766607	174278.759766	0.222731614485	1.45516812801	61013.2430363	39088.659668	11572.4433662	56.4945223145	457334.479539	66548947.0344	0
6525000.0	41744.0	104557873.323	0.268098415541	174280.651855	0.225027441047	1.45225954056	60733.1230009	38874.5117188	11561.660949	56.9897467169	4553665.76369	66553771.8868	0
6550000.0	41913.0	106131352.744	0.268994292719	174282.69043	0.227329350309	1.44934844971	60453.5221926	38660.9130859	11548.2509417	57.1669169838	776.201351549	66558597.2508	0
6575000.0	42081.0	107721092.252	0.269878828427	174281.982422	0.229653247516	1.44650435448	60179.4565976	38451.4465332	11533.9319957	57.5128950412	172376.88441	66563423.1266	0
6600000.0	42251.0	109327081.237	0.270772853922	174282.714844	0.23197507835	1.44363427162	59904.303285	38241.3330078	11516.2163308	57.8895111523	477796.125281	66568249.514	0
6625000.0	42420.0	110949472.536	0.271653432132	174280.566406	0.234318707953	1.44083821774	59635.3322511	38035.8062744	11497.6567911	58.0945962371	3242406.72896	66573076.4131	0
6650000.0	42590.0	112588310.716	0.272534603181	174278.222656	0.236668274738	1.43805503845	59368.0551658	37831.5948486	11476.6319202	58.6628492433	1480097.63542	66577903.824	0
6675000.0	42761.0	114243640.715	0.273419762657	174275.927734	0.239023662289	1.43527328968	59101.1838207	37627.7404785	11453.1553584	59.080473648	2096818.92402	66582731.7467	0
6700000.0	42932.0	115915560.041	0.274303999146	174273.449707	0.241392146563	1.43251001835	58836.1372234	37425.3326416	11428.1080672	59.3351909664	1372775.90574	66587560.1812	0
6725000.0	43103.0	117604162.772	0.275186606824	174270.849609	0.243773800321	1.42976558208	58573.1141951	37224.5544434	11401.5506421	59.7731327962	868033.473742	66592389.1274	0
6750000.0	43275.0	119309485.162	0.276074167604	174269.506836	0.246160227107	1.42700874805	58310.0779441	37023.9837646	11372.6197736	60.232601401	456517.270553	66597218.5856	0
6775000.0	43447.0	121031619.632	0.276958455875	174268.127441	0.248559459578	1.42427194118	58049.5870786	36825.4943848	11342.2429105	60.7029208171	133798.835339	66602048.5555	0
6800000.0	43620.0	122770600.668	0.277846236967	174268.09082	0.250963261351	1.42152416706	57789.631142	36627.6916504	11309.5876232	61.3719455165	6224644.76182	66606879.0374	0
6825000.0	43794.0	124526461.1	0.278736449134	174269.384766	0.253371312283	1.41876757145	57530.5532625	36430.8624268	11274.6864542	61.7094612076	251014.804109	66611710.0311	0
6850000.0	43967.0	126299350.762	0.279616463883	174269.177246	0.255800609011	1.41605627537	57275.9572794	36237.5640869	11239.3500017	62.045109705	4211281.80927	66616541.5368	0
6875000.0	44141.0	128089306.264	0.280500777307	174269.958496	0.258234795183	1.41333150864	57021.4309856	36044.5983887	11201.8733211	62.7605679264	1172323.20599	66621373.5545	0
6900000.0	44316.0	129896362.429	0.281388870756	174271.777344	0.260673288722	1.41059613228	56767.2172062	35852.1240234	11162.2785823	63.3199653641	1763273.4249	66626206.0841	0
6925000.0	44491.0	131720609.949	0.282273258936	174273.31543	0.263124558842	1.40788352489	56515.6766303	35661.807251	11121.4927257	63.7089475155	2063209.78218	66631039.1256	0
6950000.0	44666.0	133562139.026	0.283152939369	174274.54834	0.265588460024	1.40519750118	56267.0170789	35473.7487793	11079.5785071	64.2904125886	1420457.62884	66635872.6793	0
6975000.0	44842.0	135420981.537	0.284034580634	174276.782227	0.268056464847	1.40251219273	56019.4477338	35286.6821289	11035.2775424	65.0819315595	4166967.82442	66640706.7449	0
7000000.0	45019.0	137297166.796	0.284917219681	174279.980469	0.27052819496	1.39983260632	55773.2698511	35100.7781982	10988.2940094	65.7186054608	5150173.34243	66645541.3226	0
7025000.0	45196.0	139190784.971	0.285794650508	174282.714844	0.273012497928	1.39718699455	55530.1595911	34917.1936035	10939.6125724	66.1849344751	56810.0035045	66650376.4125	0
7050000.0	45373.0	141101928.412	0.286667176534	174284.899902	0.275509635685	1.3945723772	55289.878656	34735.7818604	10889.365209	66.8531436701	132943.98772	66655212.0144	0
7075000.0	45551.0	143030629.331	0.287541340498	174287.731934	0.278011051705	1.39196074009	55050.5450323	34555.2154541	10836.7663975	67.5495288516	548882.868049	66660048.1286	0
7100000.0	45729.0	144976976.973	0.288409567462	174290.063477	0.280524895061	1.38937842846	54814.2459144	34377.0141602	10782.8114191	68.0709864303	3989958.55354	66664884.7549	0
7125000.0	45907.0	146941061.323	0.289271262362	174291.845703	0.28305122396	1.38682484627	54581.1088084	34201.3061523	10727.5819901	68.7984139419	2993471.2658	66669721.8934	0
7150000.0	46086.0	148922911.233	0.290132823334	174294.32373	0.285581249045	1.38427078724	54349.3344761	34026.864624	10670.3037971	69.7485804897	2928605.10073	66674559.5442	0
7175000.0	46266.0	150922554.118	0.290993535611	174297.485352	0.288114679279	1.38171577454	54119.0916987	33853.8452148	10611.0476907	70.5350633097	4045422.55906	66679397.7073	0
7200000.0	46446.0	152940078.46	0.291846900726	174299.914551	0.290660565952	1.37918365002	53892.0935122	33683.5021973	10550.85788	71.1400093382	539644.264556	66684236.3826	0
7225000.0	46626.0	154975575.147	0.292693642867	174301.5625	0.293219054583	1.37667548656	53668.1441847	33515.6433105	10489.8000957	71.9569307096	50050.0524654	66689075.5703	0
7250000.0	46807.0	157029074.402	0.293539663089	174303.515625	0.295781326713	1.37416756153	53445.5161091	33349.0234375	10427.0919707	72.8026831619	257170.992496	66693915.2704	0
7275000.0	46988.0	159100663.887	0.294378170486	174304.663086	0.298355909763	1.37168884277	53226.1241641	33184.9639893	10363.7118019	73.6644388167	969134.450133	66698755.4829	0
7300000.0	47170.0	161190370.552	0.295215352225	174306.12793	0.300933897961	1.36921668053	53008.3309285	33022.2900391	10298.8396355	74.5555464435	1970303.31469	66703596.2078	0
7325000.0	47352.0	163298280.117	0.296044060925	174306.762695	0.303523644106	1.36678040028	52793.994806	32862.2467041	10233.474626	75.2559896521	2124124.84649	66708437.4452	0
7350000.0	47534.0	165424477.749	0.296863882346	174306.542969	0.30612538103	1.36438345909	52583.2374605	32704.8950195	10167.6983294	76.1770780724	1001275.728	66713279.195	0
7375000.0	47717.0	167568989.267	0.297681453824	174306.396484	0.308730290271	1.36199963093	52374.147923	32548.8677979	10100.6922485	77.1277125073	186219.911603	66718121.4574	0
7400000.0	47900.0	169731902.912	0.298490497638	174305.053711	0.311347423121	1.35965144634	52168.3735265	32395.3765869	10033.4557262	78.0939053588	243840.391462	66722964.2324	0
7425000.0	48084.0	171913244.298	0.299297095273	174303.649902	0.313967873808	1.35731422901	51964.2945276	32243.2739258	9965.16769627	79.0897335081	1201422.99041	66727807.5199	0
7450000.0	48268.0	174113100.635	0.300094987418	174301.098633	0.316600315273	1.35501098633	51763.505435	32093.7011719	9896.80110838	80.1010934004	2648441.81495	66732651.32	0
7475000.0	48453.0	176331495.026	0.300891295367	174299.194336	0.319235376082	1.35271120071	51564.0969671	31945.3613281	9827.53309981	81.14253364	4487745.28384	66737495.6328	0
7500000.0	48638.0	178568510.652	0.301680535126	174297.302246	0.321881612763	1.35043442249	51367.4893598	31799.2614746	9758.31060734	81.9782030718	334560.241295	66742340.4583	0
7525000.0	48823.0	180824228.195	0.302462322049	174295.483398	0.324539083522	1.34817969799	51173.7304843	31655.480957	9689.18207375	83.0488310641	234405.717123	66747185.7964	0
7550000.0	49009.0	183098669.772	0.303242997232	174294.592285	0.327199202729	1.34592473507	50981.1712674	31512.8692627	9619.40252001	84.1492946258	1418237.30537	66752031.6474	0
7575000.0	49195.0	185391918.983	0.304016011219	174293.518066	0.329870963469	1.34369289875	50791.3510943	31372.4853516	9549.86336732	85.0364143003	2715792.95494	66756878.0111	0
7600000.0	49381.0	187704057.89	0.304781370822	174292.358398	0.332553987391	1.34148430824	50604.2689537	31234.2956543	9480.61872799	86.164819755	1007951.57613	66761724.8876	0
7625000.0	49568.0	190035104.052	0.305544940043	174292.126465	0.335238990374	1.33927679062	50418.4427022	31097.2473145	9410.90483985	87.3233193746	7190.1743904	66766572.2769	0
7650000.0	49755.0	192385135.082	0.306300556194	174291.882324	0.337934761774	1.33709359169	50235.3885146	30962.3596191	9341.60101181	88.4968125777	969978.861699	66771420.1791	0
7675000.0	49943.0	194754163.54	0.307053624778	174292.626953	0.340631813742	1.33491325378	50053.706627	30828.6376953	9271.93201339	89.7008647014	2894090.62228	66776268.5942	0
7700000.0	50131.0	197142264.711	0.307798252795	174293.359375	0.343339284882	1.33275806904	49874.8931104	30697.1130371	9202.78260142	90.6785650852	1216541.0405	66781117.5223	0
7725000.0	50319.0	199549517.093	0.308533881759	174293.884277	0.346057524439	1.33062660694	49698.9064842	30567.8070068	9133.587299	91.9153459299	651.675941168	66785966.9633	0
7750000.0	50508.0	201975936.352	0.309266080136	174295.19043	0.348777510226	1.3284984827	49524.3832336	30439.7888184	9063.1507818	93.1933639135	1251677.77462	66790816.9173	0
7775000.0	50697.0	204421600.48	0.309989848088	174296.337891	0.351508322638	1.32639491558	49352.6279908	30313.949585	8992.38856846	94.247156543	2782175.16569	66795667.3844	0
7800000.0	50886.0	206886586.765	0.310704973601	174297.351074	0.354249757947	1.32431590557	49183.6070912	30190.2801514	8921.35600301	95.5727472555	621652.123207	66800518.3645	0
7825000.0	51076.0	209370908.882	0.311417024441	174299.157715	0.356992648449	1.32224178314	49015.9187437	30067.7947998	8849.349242	96.9402142598	417299.424244	66805369.8577	0
7850000.0	51266.0	211874643.249	0.312121034652	174300.854492	0.359746103641	1.32019424438	48850.93858	29947.4304199	8777.2394111	98.3330666506	2617836.19315	66810221.8641	0
7875000.0	51457.0	214397804.15	0.31282132902	174303.271484	0.362501014024	1.31815314293	48687.4097381	29828.3569336	8704.34085749	99.7681657079	5943638.01608	66815074.3836	0
7900000.0	51648.0	216940471.423	0.313512516345	174305.34668	0.365266983863	1.31613969803	48526.7175507	29711.4990234	8631.50754828	100.964143959	97661.2847357	66819927.4163	0
7925000.0	51839.0	219502723.476	0.314194572574	174307.104492	0.368043780327	1.31415355206	48368.7770518	29596.774292	8558.7950013	102.178954063	4826813.89376	66824780.9623	0
7950000.0	52030.0	222084637.308	0.314867500237	174308.59375	0.370831170585	1.31219553947	48213.5926602	29484.1552734	8486.2756897	103.682923608	1572025.51986	66829635.0215	0
7975000.0	52222.0	224686223.596	0.315536788554	174310.742188	0.373619637685	1.3102465868	48059.8932702	29372.7508545	8413.25304006	105.229723957	86722.943448	66834489.5941	0
8000000.0	52414.0	227307555.472	0.316197271387	174312.62207	0.376418058295	1.30832624435	47908.8470007	29263.3239746	8340.53821442	106.801774249	2432796.37257	66839344.68	0
8025000.0	52607.0	229948639.629	0.316853990303	174315.17334	0.37921697367	1.30641579628	47759.28628	29155.090332	8267.46236715	108.417220719	6462272.88574	66844200.2792	0
8050000.0	52800.0	232609552.019	0.317501689586	174317.272949	0.382026308216	1.30453693867	47612.4722257	29048.9105225	8194.82882673	109.773185144	356897.110645	66849056.3919	0
8075000.0	52993.0	235290367.499	0.31814024174	174318.920898	0.384845887311	1.3026881218	47468.3770939	28944.7814941	8122.68179247	111.146779874	3852197.58279	66853913.0181	0
8100000.0	53186.0	237991161.45	0.318769132647	174320.166016	0.387675972888	1.30086624622	47326.9418363	28842.7062988	8051.07270086	112.828982198	530864.204992	66858770.1578	0
8125000.0	53380.0	240711942.849	0.319393266834	174321.875	0.390506640542	1.29905092716	47187.0278301	28741.9403076	7979.35895274	114.554290477	1316319.94301	66863627.811	0
8150000.0	53574.0	243452784.869	0.320007324386	174323.193359	0.393347465433	1.29725897312	47049.8085369	28643.3105469	7908.27530134	116.303835522	5547037.7911	66868485.9777	0
8175000.0	53769.0	246213693.55	0.320615635247	174325.036621	0.396188697778	1.29546976089	46914.1421599	28546.0754395	7837.17950079	117.794213139	147764.181871	66873344.6581	0
8200000.0	53963.0	248994811.8	0.321208624891	174325.512695	0.399049953558	1.29371953011	46782.2127674	28451.6998291	7767.50742812	119.280449781	4051434.26549	66878203.8521	0
8225000.0	54158.0	251796149.051	0.32179544239	174326.293945	0.40191214066	1.29197514057	46651.8951878	28358.7432861	7697.92224196	121.112276424	300893.685354	66883063.5599	0
8250000.0	54353.0	254617781.261	0.322371523238	174326.489258	0.404784688726	1.2902545929	46524.2760514	28267.9199219	7629.1447148	122.966762481	2267739.97794	66887923.7813	0
8275000.0	54549.0	257459715.184	0.322941042046	174327.01416	0.407657702453	1.28854095936	46398.351967	28178.5675049	7560.55001137	124.864147364	7913949.21104	66892784.5165	0
8300000.0	54745.0	260322022.939	0.323499352161	174326.953125	0.410540669691	1.28685283661	46275.1913462	28091.394043	7492.83530607	126.461237004	1473692.1532	66897645.7655	0
8325000.0	54941.0	263204776.205	0.324046852512	174326.330566	0.413433386711	1.28518986702	46154.7374183	28006.3446045	7426.02059409	128.072062608	1582166.76509	66902507.5283	0
8350000.0	55137.0	266108046.72	0.324582092152	174325.109863	0.416335853515	1.28355371952	46037.220677	27923.6053467	7360.13299708	129.695928124	7932350.65529	66907369.805	0
8375000.0	55333.0	269031909.515	0.325103050352	174323.156738	0.419248826802	1.28194487095	45922.8786354	27843.4051514	7295.214452	131.666603978	1733870.57313	66912232.5956	0
8400000.0	55530.0	271976371.6	0.325616304913	174321.276855	0.422162003815	1.28034567833	45810.4394211	27764.8284912	7230.64621371	133.679046331	1272616.4559	66917095.9002	0
8425000.0	55727.0	274941504.65	0.32611972096	174319.165039	0.425085017923	1.27876937389	45700.4739518	27688.1896973	7167.09798267	135.711077471	7642776.11305	66921959.7188	0
8450000.0	55925.0	277927309.546	0.326619710764	174317.980957	0.428007275332	1.27719652653	45591.5844133	27612.487793	7103.97566118	137.436728674	1720095.90254	66926824.0513	0
8475000.0	56122.0	280933921.059	0.327110878183	174316.052246	0.43094845023	1.27565801144	45485.266785	27538.6230469	7042.49945258	139.150483699	1000949.4932	66931688.898	0
8500000.0	56320.0	283961336.154	0.327602834176	174315.124512	0.433888635598	1.27412223816	45379.5624069	27465.2618408	6981.42493373	141.254121311	2443013.02954	66936554.2587	0
8525000.0	56518.0	287009621.761	0.328090317954	174314.208984	0.436838017777	1.27260601521	45275.9015401	27393.5180664	6920.87247132	143.025876616	497907.764085	66941420.1335	0
8550000.0	56716.0	290078846.361	0.328571815783	174313.305664	0.439796713181	1.27111005783	45174.271658	27323.3612061	6860.74727537	144.820124944	5380176.61912	66946286.5226	0
8575000.0	56914.0	293169077.746	0.329046726426	174312.451172	0.442764547188	1.26963365078	45074.4398487	27254.5501709	6801.08467937	147.006712536	42113.6289561	66951153.4258	0
8600000.0	57113.0	296280314.592	0.329517445914	174312.390137	0.445731799118	1.26816272736	44975.3836862	27186.3372803	6741.34135745	149.247960756	4932494.43097	66956020.8433	0
8625000.0	57312.0	299412622.668	0.329979493033	174312.402344	0.448707956821	1.26671135426	44877.6575155	27118.9758301	6682.1081703	151.141192182	408071.082898	66960888.775	0
8650000.0	57511.0	302566068.836	0.330431982111	174312.463379	0.451693165815	1.26527893543	44780.9960633	27052.2094727	6623.39543898	153.05657008	2356771.88177	66965757.2211	0
8675000.0	57710.0	305740721.513	0.330873811161	174312.5	0.454687746242	1.26386642456	44685.3194391	26985.9405518	6565.24184051	155.382638345	1781723.8597	66970626.1815	0
8700000.0	57910.0	308936580.797	0.33130902446	174313.28125	0.457681715488	1.26245963573	44590.0761969	26919.9127197	6507.12013011	157.369858738	670109.950635	66975495.6564	0
8725000.0	58109.0	312153784.068	0.331731792851	174313.256836	0.460694951471	1.26108717918	44497.0040017	26855.3070068	6450.11490607	159.353845344	5102593.70541	66980365.6456	0
8750000.0	58309.0	315392328.592	0.332149591741	174314.001465	0.463707314339	1.25972008705	44404.756877	26791.3574219	6393.18789175	161.78777719	335987.620852	66985236.1493	0
8775000.0	58509.0	318652279.529	0.33256011179	174314.770508	0.466728466563	1.25837171078	44314.3029608	26728.7689209	6336.88157887	164.252833132	8058010.28626	66990107.1675	0
8800000.0	58710.0	321933630.48	0.33296747142	174316.333008	0.469748221803	1.25702798367	44225.1199561	26667.2973633	6280.69877693	166.359595387	2654459.23547	66994978.7003	0
8825000.0	58910.0	325236515.06	0.333365893895	174317.163086	0.472786719911	1.25571656227	44138.7295797	26607.925415	6225.67026765	168.461400917	67644.8596082	66999850.7476	0
8850000.0	59111.0	328560931.146	0.333761021512	174318.62793	0.475824286696	1.25441324711	44053.5076932	26549.4873047	6170.79867017	171.034350075	6640729.93075	67004723.3096	0
8875000.0	59312.0	331906944.506	0.334148807652	174320.068359	0.478870759252	1.25312900543	43970.154206	26492.4743652	6116.61216828	173.20676376	1841846.90387	67009596.3862	0
8900000.0	59513.0	335274619.262	0.334528424082	174321.435547	0.481925962958	1.25186347961	43888.6263186	26436.8499756	6063.10784906	175.398678551	356615.845833	67014469.9774	0
8925000.0	59714.0	338664018.059	0.334899009796	174322.827148	0.484989723191	1.25061488152	43808.9279338	26382.6507568	6010.30251504	177.609433111	3895268.84747	67019344.0834	0
8950000.0	59915.0	342075204.563	0.335259858715	174324.157715	0.488061865326	1.24938178062	43731.0418869	26329.901123	5958.19257951	179.838919208	9257836.87273	67024218.7042	0
8975000.0	60116.0	345508240.57	0.335609992163	174325.512695	0.491142622195	1.24816417694	43654.9590669	26278.5919189	5906.78736783	182.539418627	182973.019468	67029093.8397	0
9000000.0	60318.0	348963121.023	0.335951385575	174327.453613	0.494221923873	1.2469522953	43580.3239707	26228.5522461	5855.6392113	185.296065678	7653191.46254	67033969.4901	0
9025000.0	60520.0	352439911.701	0.336281718552	174329.260254	0.497310247738	1.2457587719	43507.7028269	26180.1177979	5805.22714961	187.61685363	3184259.71025	67038845.6554	0
9050000.0	60722.0	355938678.379	0.336601518048	174330.908203	0.500407419167	1.24458289146	43437.0567384	26133.2519531	5755.54609451	189.954524602	345337.665512	67043722.3356	0
9075000.0	60924.0	359459486.418	0.33691115508	174332.373047	0.503513496369	1.24342489243	43368.2684172	26087.8479004	5706.61601244	192.307923425	1208972.33856	67048599.5307	0
9100000.0	61126.0	363002404.334	0.337211330959	174333.752441	0.50662830472	1.24228465557	43301.3163688	26043.8751221	5658.42495545	194.676996752	4486042.62695	67053477.2408	0
9125000.0	61328.0	366567487.149	0.337502563876	174334.985352	0.509751727805	1.24116122723	43236.1076299	26001.2664795	5610.98584537	197.548574812	2710142.53439	67058355.466	0
9150000.0	61531.0	370154729.943	0.337787689651	174336.767578	0.512873288244	1.24004375935	43172.0490066	25959.6282959	5563.86503922	199.981870983	320096.511299	67063234.2062	0
9175000.0	61733.0	373764268.547	0.338062452552	174337.744141	0.51601359155	1.23895466328	43110.1602649	25919.5617676	5517.9274942	202.39994595	947355.661348	67068113.4615	0
9200000.0	61936.0	377396120.102	0.33833217714	174339.282227	0.519151974004	1.237870574	43049.3144999	25880.368042	5472.32716947	205.36634936	7871954.70896	67072993.232	0
9225000.0	62139.0	381050325.327	0.338594651496	174340.563965	0.522303860635	1.23680472374	42990.0138128	25842.3065186	5427.52081456	207.330607794	7340310.09889	67077873.5177	0
9250000.0	62341.0	384726992.329	0.338848964861	174341.186523	0.525468902197	1.2357647419	42932.5971432	25805.569458	5383.8379095	209.786565382	11595977.076	67082754.3186	0
9275000.0	62544.0	388426141.487	0.339099548175	174342.358398	0.528631557245	1.23473012447	42876.0672678	25769.5404053	5340.51244596	212.807694936	112.056061211	67087635.6347	0
9300000.0	62747.0	392147821.097	0.339342210877	174343.273926	0.531803118065	1.23371434212	42821.2326219	25734.7839355	5297.95443884	215.851247007	12019036.2299	67092517.4662	0
9325000.0	62951.0	395892024.175	0.339578320281	174344.555664	0.534972990863	1.23270881176	42767.7301699	25701.0894775	5255.78173702	218.410484974	8222247.85927	67097399.813	0
9350000.0	63154.0	399658889.153	0.339804214369	174344.848633	0.53816230502	1.23173248768	42716.437163	25668.9910889	5214.74053079	220.405787635	6927974.38517	67102282.6752	0
9375000.0	63357.0	403448481.1	0.340021946607	174344.799805	0.541360466741	1.23077428341	42666.7549353	25638.0950928	5174.29817552	223.501573863	2537585.58606	67107166.0528	0
9400000.0	63561.0	407260791.189	0.340233886137	174345.129395	0.544556765817	1.2298232317	42618.2379794	25608.1604004	5134.03417785	226.102316004	726615.439807	67112049.9458	0
9425000.0	63764.0	411095956.804	0.340436390938	174344.445801	0.547771982383	1.22889912128	42571.6816214	25579.6112061	5094.65402318	228.689859958	88173.0366756	67116934.3543	0
9450000.0	63968.0	414953966.314	0.340633493394	174344.128418	0.550985278096	1.22798025608	42526.1330353	25551.9073486	5055.44826347	231.325448485	1268878.70881	67121819.2784	0
9475000.0	64171.0	418834955.639	0.340821878626	174342.834473	0.554217491299	1.22708594799	42482.3829881	25525.4806519	5017.11707061	233.946589769	3051222.10656	67126704.718	0
9500000.0	64375.0	422738912.423	0.341005121454	174341.870117	0.55744725978	1.22619616985	42439.5265165	25499.7940063	4978.93984223	237.198302589	7522892.35464	67131590.6732	0
9525000.0	64579.0	426665895.344	0.341181956053	174340.612793	0.560685060918	1.22531878948	42397.8899177	25475.0411987	4941.28097765	239.304118571	7590764.14198	67136477.144	0
9550000.0	64782.0	430616038.624	0.34135122316	174338.427734	0.563941372093	1.22446346283	42357.8140445	25451.3763428	4904.4615635	241.976128584	10142966.1762	67141364.1306	0
9575000.0	64986.0	434589326.317	0.34151595877	174337.036133	0.567194772884	1.22360754013	42318.3926131	25428.3233643	4867.7989217	245.298607753	1834023.8902	67146251.6328	0
9600000.0	65190.0	438585814.204	0.341673783676	174335.827637	0.570455449633	1.22276353836	42280.2931202	25406.2973022	4831.62784356	248.04372746	715374.08551	67151139.6508	0
9625000.0	65394.0	442605565.304	0.341823619898	174334.70459	0.573724682909	1.22193229198	42243.6810015	25385.4705811	4795.94669765	250.805087198	59092.9660608	67156028.1846	0
9650000.0	65598.0	446648641.639	0.341965585623	174333.618164	0.577002181672	1.22111487389	42208.5569826	25365.8035278	4760.75381421	253.582413412	296448.995164	67160917.2343	0
9675000.0	65802.0	450715104.523	0.342100330738	174332.666016	0.580287829507	1.22030997276	42174.8027239	25347.2183228	4726.0371104	256.37590507	989383.789012	67165806.7997	0
9700000.0	66006.0	454805013.303	0.342227838029	174331.799316	0.58358151	1.21951854229	42142.362661	25329.6401978	4691.79507492	259.185201539	1821487.77209	67170696.8811	0
9725000.0	66210.0	458918428.12	0.34234845445	174331.030273	0.586883164942	1.21873962879	42111.1688848	25313.0081177	4658.02104695	262.652370603	12224042.2493	67175587.4784	0
9750000.0	66415.0	463055332.046	0.342463815082	174331.054688	0.590182142332	1.21796405315	42080.8403163	25297.12677	4624.40382571	265.534144566	10999924.2822	67180478.5917	0
9775000.0	66619.0	467215858.679	0.342571698801	174330.566406	0.593499280512	1.21720945835	42051.9033148	25282.1868896	4591.54844941	267.741365821	4456534.09713	67185370.221	0
9800000.0	66823.0	471400066.11	0.342673743175	174330.224609	0.59682445135	1.21646642685	42023.9953932	25268.0099487	4559.1517569	270.612445828	5262765.66599	67190262.3664	0
9825000.0	67027.0	475608011.284	0.342770133793	174330.078125	0.600157189183	1.21573460102	41997.0269257	25254.5074463	4527.1924097	273.499095222	5995045.96683	67195155.0278	0
9850000.0	67231.0	479839751.629	0.342861309491	174330.078125	0.60349755222	1.21501398087	41970.9236014	25241.6091919	4495.684149	277.077377277	7850607.68629	67200048.2053	0
9875000.0	67436.0	484095265.877	0.342948271385	174330.883789	0.606834189966	1.21429610252	41945.3666512	25229.1397095	4464.31675203	280.036101369	7425132.99178	67204941.899	0
9900000.0	67640.0	488374686.631	0.3430290492	174331.225586	0.610189454164	1.2135976553	41920.9063998	25217.3614502	4433.66958638	282.282067185	7642252.41888	67209836.1089	0
9925000.0	67844.0	492678075.858	0.343103044766	174331.616211	0.613552925643	1.21291220188	41897.5248131	25206.3674927	4403.45520661	285.226082354	7937996.14325	67214730.8351	0
9950000.0	68048.0	497005495.892	0.343170614288	174332.055664	0.616924837232	1.21223974228	41875.1987271	25196.1410522	4373.6628196	288.889795669	6973891.25853	67219626.0775	0
9975000.0	68253.0	501356930.133	0.343232564698	174333.166504	0.62029378023	1.21157252789	41853.7144682	25186.5859985	4344.01953307	291.90376673	7130237.04898	67224521.8362	0
10000000.0	68457.0	505732515.463	0.343287541243	174333.740234	0.623681757133	1.21092557907	41833.5256872	25177.9067993	4315.06512103	294.173609007	7908969.0029	67229418.1112	0
10025000.0	68661.0	510132312.075	0.343336633295	174334.375	0.627077766694	1.2102907896	41814.3612509	25169.9676514	4286.52489655	297.169432011	7599748.8259	67234314.9026	0
10050000.0	68865.0	514556377.838	0.343379892021	174335.107422	0.630481517874	1.20966792107	41796.2128878	25162.7578735	4258.37915765	300.914161918	8510561.17915	67239212.2104	0
10075000.0	69070.0	519004693.421	0.343418381492	174336.547852	0.633881776594	1.20904970169	41778.8701555	25156.2011719	4230.37642322	303.979816184	9316933.18603	67244110.0347	0
10100000.0	69274.0	523477392.075	0.343450804811	174337.451172	0.637300661765	1.20844984055	41762.7170466	25150.4364014	4203.02851043	306.270103313	5844264.80006	67249008.3754	0
10125000.0	69478.0	527974530.728	0.343478143017	174338.500977	0.640727055725	1.2078615427	41747.5451594	25145.3765869	4176.07288903	309.3152314	5040591.13536	67253907.2326	0
10150000.0	69682.0	532496163.859	0.343500731258	174339.648438	0.644160725642	1.20728325844	41733.3112216	25141.0064697	4149.49971393	312.372184599	4162256.2639	67258806.6064	0
10175000.0	69886.0	537042346.754	0.343518567659	174340.917969	0.647601787932	1.20671510696	41719.9998799	25137.3123169	4123.30387582	315.440668828	3235243.80073	67263706.4968	0
10200000.0	70090.0	541613132.462	0.343531678877	174342.297363	0.651049835142	1.20615720749	41707.6350872	25134.3139648	4097.48485362	318.520291454	2289170.71185	67268606.9038	0
10225000.0	70294.0	546208579.991	0.343538713204	174343.713379	0.654505682178	1.20561099052	41696.3415774	25132.1075439	4072.04210226	321.61004501	1357693.90841	67273507.8275	0
10250000.0	70498.0	550828749.682	0.343539782447	174345.129395	0.657969561871	1.20507645607	41686.1382628	25130.7174683	4046.96172506	324.710254117	531549.890932	67278409.2678	0
10275000.0	70702.0	555473699.543	0.343534942769	174346.533203	0.661441357806	1.20455312729	41676.9767939	25130.1071167	4022.2477969	327.819997944	4196.03680013	67283311.2249	0
10300000.0	70906.0	560143489.879	0.343524869922	174347.949219	0.664921011776	1.20404100418	41668.8015844	25130.2246094	3997.8954829	330.939022991	535040.041215	67288213.6988	0
10325000.0	71110.0	564838178.086	0.343509621094	174349.34082	0.668408290949	1.2035394907	41661.5781222	25131.0470581	3973.90439776	334.066792633	1657614.38047	67293116.6894	0
10350000.0	71314.0	569557822.578	0.343489478961	174350.756836	0.671903428156	1.20304834843	41655.2496989	25132.5286865	3950.25245111	337.204371808	3253361.57617	67298020.1969	0
10375000.0	71518.0	574302481.543	0.343464895257	174352.160645	0.675406306982	1.20256710052	41649.7665054	25134.62677	3926.94822903	340.350434851	5302892.68337	67302924.2213	0
10400000.0	71722.0	579072210.574	0.343436124978	174353.564453	0.678916403558	1.2020958662	41645.0931899	25137.3077393	3903.96579894	342.66490653	10105478.0775	67307828.7626	0
10425000.0	71925.0	583867147.186	0.34340331081	174354.418945	0.68244576687	1.20164012909	41641.3045069	25140.5578613	3881.53550367	345.782225615	7391240.62435	67312733.8208	0
10450000.0	72129.0	588687267.868	0.343367101594	174355.859375	0.685971113853	1.20118761063	41638.1086648	25144.291687	3859.19170947	349.80665447	14187111.9294	67317639.3961	0
10475000.0	72333.0	593532628.055	0.343327415171	174357.299805	0.689503736794	1.20074474812	41635.6149346	25148.5015869	3837.15347913	352.126248103	2582250.62958	67322545.4883	0
10500000.0	72536.0	598403363.612	0.343284703494	174358.178711	0.693055219017	1.20031654835	41633.8372223	25153.1402588	3815.63069448	355.272340313	813896.964259	67327452.0976	0
10525000.0	72740.0	603299452.142	0.343237508214	174359.594727	0.696603150573	1.19989407063	41632.8201766	25158.3770752	3794.18280753	358.468472121	91478.7132525	67332359.224	0
10550000.0	72943.0	608221036.659	0.343185496072	174360.339355	0.700170639902	1.19948852062	41632.7665265	25164.2440796	3773.24074677	361.632299129	1527545.51684	67337266.8676	0
10575000.0	73147.0	613168096.603	0.343128671452	174361.572266	0.70373469498	1.19908869267	41633.4930156	25170.7321167	3752.36895644	364.846194325	3997049.21266	67342175.0283	0
10600000.0	73350.0	618140771.723	0.343067768723	174362.133789	0.707318191417	1.19870471954	41635.0947102	25177.7770996	3731.97318603	367.124524611	12215574.6648	67347083.7062	0
10625000.0	73553.0	623139122.543	0.343002988587	174362.634277	0.71090948768	1.19833064079	41637.4426622	25185.3424072	3711.84721483	370.308052444	8219407.52174	67351992.9013	0
10650000.0	73756.0	628163207.918	0.342934727997	174363.000488	0.714508874808	1.19796586037	41640.4869261	25193.397522	3691.97570793	373.501189919	4670361.12049	67356902.6137	0
10675000.0	73959.0	633213086.99	0.34286321534	174363.269043	0.718115945347	1.19760966301	41644.1739824	25201.8920898	3672.35573634	376.703939681	1777561.42716	67361812.8435	0
10700000.0	74162.0	638288817.024	0.34278898699	174363.464355	0.721730757505	1.19726133347	41648.4661307	25210.8078003	3652.9844164	379.916059348	30853.2235775	67366723.5905	0
10725000.0	74365.0	643390456.184	0.342712382525	174363.513184	0.725353194866	1.19692099094	41653.3085598	25220.0820923	3633.85890915	383.137395462	1500246.1748	67371634.855	0
10750000.0	74568.0	648518059.644	0.342633573091	174363.476562	0.728982966393	1.19658744335	41658.6567113	25229.6936035	3614.96054328	386.369581956	4583756.31977	67376546.6368	0
10775000.0	74771.0	653671683.707	0.34255309331	174363.317871	0.732620130293	1.19626069069	41664.4697255	25239.6072388	3596.29471013	389.611556536	8738390.13102	67381458.9361	0
10800000.0	74974.0	658851383.345	0.34247128112	174362.988281	0.736264511943	1.19594037533	41670.6919096	25249.7680664	3577.85096229	391.896429444	7313125.2012	67386371.7529	0
10825000.0	75176.0	664057298.32	0.342387831011	174361.987305	0.739928276744	1.19563174248	41677.4547437	25260.2249146	3559.81838096	395.107752071	3462342.3296	67391285.0872	0
10850000.0	75379.0	669289406.989	0.342300594363	174361.291504	0.743588374462	1.19532823563	41684.929044	25271.2280273	3541.81446414	398.371344492	641669.459683	67396198.939	0
10875000.0	75581.0	674547852.251	0.342210833427	174359.802246	0.747268204577	1.19503808022	41693.0375293	25282.6004028	3524.20340526	401.601943133	761624.340923	67401113.3084	0
10900000.0	75784.0	679832610.613	0.342118049905	174358.654785	0.750944134779	1.19475185871	41701.7320189	25294.4213867	3506.61831186	404.885125049	3885308.62654	67406028.1955	0
10925000.0	75986.0	685143824.81	0.342022834445	174357.006836	0.75463950634	1.1944783926	41711.0625714	25306.6223145	3489.41212588	407.127710813	13544651.5526	67410943.6002	0
10950000.0	76188.0	690481551.623	0.341924996028	174355.505371	0.758342503104	1.19421243668	41720.9945595	25319.241333	3472.400929	410.379988101	8067619.37087	67415859.5226	0
10975000.0	76390.0	695845848.244	0.341824678491	174354.211426	0.762052775826	1.19395422935	41731.5078892	25332.2570801	3455.57889586	413.642719159	3520500.65497	67420775.9627	0
11000000.0	76592.0	701236769.926	0.341722276022	174353.076172	0.765770557337	1.1937032938	41742.5303865	25345.6085205	3438.94030242	416.916080108	421901.281748	67425692.9206	0
11025000.0	76794.0	706654372.266	0.341618042837	174352.124023	0.769495498389	1.19345855713	41754.0382615	25359.2956543	3422.48703902	420.199652924	1367306.77999	67430610.3963	0
11050000.0	76996.0	712098710.407	0.341512149184	174351.342773	0.773227657191	1.19322061539	41766.0000819	25373.2788086	3406.20972999	423.494177062	5371742.37664	67435528.3898	0
11075000.0	77198.0	717569838.336	0.341405070629	174350.793457	0.776966975536	1.19298875332	41778.3670891	25387.5274658	3390.10661135	426.799545187	10974375.1316	67440446.9011	0
11100000.0	77400.0	723067809.606	0.341296698377	174350.415039	0.780713453423	1.1927626133	41791.0926772	25401.9973755	3374.17223766	429.05144471	6308679.5613	67445365.9304	0
11125000.0	77601.0	728592764.057	0.341188006346	174349.707031	0.784478965215	1.19254612923	41804.1734475	25416.6473389	3358.57087963	432.326174424	1932942.78108	67450285.4775	0
11150000.0	77803.0	734144673.663	0.341075528198	174349.694824	0.788240053225	1.19233489037	41817.9576628	25431.8374634	3342.96824892	435.655976827	240882.638113	67455205.5427	0
11175000.0	78004.0	739723682.186	0.340960851362	174349.255371	0.79202093184	1.19213533401	41832.3243266	25447.3800659	3327.69019535	437.862224352	23007482.9076	67460126.1258	0
11200000.0	78205.0	745329846.416	0.340843564874	174348.986816	0.79580937745	1.1919438839	41847.2958445	25463.3407593	3312.56561691	442.257713904	9207902.24974	67465047.227	0
11225000.0	78407.0	750963139.312	0.340723231343	174349.365234	0.799593166448	1.19175624847	41862.8599288	25479.7714233	3297.43013006	445.620573894	16547698.3882	67469968.8462	0
11250000.0	78608.0	756623702.672	0.340601433849	174349.365234	0.803396687843	1.19157922268	41878.8704929	25496.434021	3282.60526902	447.834910777	2874959.20561	67474890.9835	0
11275000.0	78809.0	762311593.356	0.340477954514	174349.523926	0.807207543403	1.19140827656	41895.3105157	25513.3789062	3267.92958292	451.165573925	26720.8748408	67479813.6389	0
11300000.0	79010.0	768026866.975	0.340352990418	174349.804688	0.811025849544	1.1912432909	41912.137116	25530.5664062	3253.3945211	453.37699753	24932374.9558	67484736.8125	0
11325000.0	79210.0	773769667.032	0.340227704046	174349.707031	0.814864062704	1.19108688831	41929.2445239	25547.8683472	3239.15526962	456.675625864	16302925.013	67489660.5043	0
11350000.0	79411.0	779539964.818	0.340100744908	174350.317383	0.818697153591	1.19093167782	41946.6964033	25565.4373169	3224.89690012	461.178746306	17121873.3801	67494584.7143	0
11375000.0	79612.0	785337812.406	0.339973274234	174351.049805	0.822537578642	1.19078063965	41964.3866681	25583.1344604	3210.79647647	463.395488291	2983989.34915	67499509.4425	0
11400000.0	79812.0	791163354.666	0.339846339657	174351.391602	0.826397677884	1.19063675404	41982.2025588	25600.8178711	3197.04202005	466.715122596	46540.1631165	67504434.6891	0
11425000.0	80013.0	797016557.213	0.339718564298	174352.441406	0.830252189189	1.19049263	42000.2354965	25618.6676025	3183.32201899	470.084340123	3674846.93515	67509360.454	0
11450000.0	80213.0	802897564.378	0.339590390078	174353.100586	0.83412672393	1.190356493	42018.5386115	25636.6271973	3169.93584103	472.228412318	16670119.9555	67514286.7372	0
11475000.0	80413.0	808806436.11	0.33946005968	174353.808594	0.838009174913	1.19022631645	42037.3014176	25654.8950195	3156.72379337	475.547365546	8826777.57937	67519213.5388	0
11500000.0	80613.0	814743230.092	0.339327907609	174354.663086	0.841899076477	1.19010150433	42056.4950439	25673.4588623	3143.68416586	478.868922338	2757525.24729	67524140.8588	0
11525000.0	80813.0	820708004.024	0.339194267402	174355.615234	0.845796777867	1.18998229504	42076.075769	25692.2668457	3130.80496221	482.194209572	236449.34792	67529068.6973	0
11550000.0	81013.0	826700815.602	0.339059581239	174356.665039	0.849702046253	1.18986821175	42095.9993357	25711.2915039	3118.08807377	485.522594471	4613070.27042	67533997.0543	0
11575000.0	81213.0	832721723.522	0.338924070834	174357.788086	0.853614765219	1.1897585392	42116.1866656	25730.4779053	3105.52172022	487.633370508	15894412.2932	67538925.9297	0
11600000.0	81412.0	838770870.939	0.338788942356	174358.508301	0.857547507621	1.18965637684	42136.5515354	25749.6887207	3093.24713568	490.914331131	7859165.03477	67543855.3237	0
11625000.0	81612.0	844848228.118	0.338652773167	174359.838867	0.861475127749	1.18955540657	42157.1982647	25769.1223145	3080.9737072	495.486322127	32223634.8188	67548785.2363	0
11650000.0	81812.0	850953849.44	0.338516713394	174361.230469	0.865409907419	1.189458251	42178.0107899	25788.6260986	3068.83658195	497.586570973	876537.279944	67553715.6675	0
11675000.0	82011.0	857087881.997	0.33838196408	174362.207031	0.869365059771	1.18936800957	42198.8497306	25808.0383301	3056.97549824	499.626662699	24509298.0049	67558646.6173	0
11700000.0	82210.0	863250380.048	0.338247949389	174363.28125	0.873327255249	1.18928098679	42219.7576934	25827.4475098	3045.2405018	502.919826302	14857488.7509	67563578.0858	0
11725000.0	82409.0	869441400.022	0.338114858499	174364.440918	0.877296784893	1.18919706345	42240.6997375	25846.8231201	3033.63382212	506.218089864	6929174.82236	67568510.073	0
11750000.0	82608.0	875660997.3	0.337982662118	174365.661621	0.881273765117	1.18911707401	42261.7077487	25866.1773682	3022.1410614	509.523446406	1332458.4165	67573442.5789	0
11775000.0	82807.0	881909231.69	0.337849507733	174366.918945	0.885258428752	1.18904352188	42283.0536812	25885.723877	3010.76787047	512.834499225	1401679.95254	67578375.6036	0
11800000.0	83006.0	888186161.134	0.337715479308	174368.225098	0.889250542969	1.18897604942	42304.7303852	25905.4626465	2999.50663934	516.152357235	7278995.73584	67583309.1471	0
11825000.0	83205.0	894491843.404	0.337580769239	174369.580078	0.893250457011	1.1889141798	42326.6768143	25925.3479004	2988.34986873	519.477819701	15794445.4775	67588243.2094	0
11850000.0	83404.0	900826338.722	0.337445786514	174370.959473	0.89725817088	1.18885672092	42348.8314119	25945.3399658	2977.30324336	521.496027681	6359723.0178	67593177.7906	0
11875000.0	83602.0	907189793.526	0.337311671248	174371.862793	0.901286141016	1.18880665302	42371.051304	25965.2709961	2966.48635705	524.778231162	897865.470076	67598112.8907	0
11900000.0	83801.0	913582175.475	0.337176903593	174373.31543	0.905308756046	1.18875789642	42393.5151952	25985.3790283	2955.63737522	528.117539274	2061590.49281	67603048.5097	0
11925000.0	83999.0	920003633.95	0.337043651945	174374.267578	0.909351976588	1.18871462345	42415.9226852	26005.3497314	2945.00914035	530.077320091	24134346.5009	67607984.6476	0
11950000.0	84197.0	926454225.789	0.336911209205	174375.244141	0.913402880542	1.1886742115	42438.366953	26025.289917	2934.47067412	533.375716811	14204204.4488	67612921.3046	0
11975000.0	84395.0	932934009.669	0.33677989809	174376.220703	0.917461235076	1.18863594532	42460.778175	26045.1538086	2924.01486479	536.683681899	6179393.23937	67617858.4806	0
12000000.0	84593.0	939443043.377	0.336649959262	174377.22168	0.921527040191	1.18859934807	42483.1194104	26064.9139404	2913.64429605	540.000552664	800340.986071	67622796.1756	0
12025000.0	84791.0	945981382.563	0.336521659665	174378.222656	0.925600295886	1.18856346607	42505.3282852	26084.5275879	2903.35194904	543.327440584	2113228.62971	67627734.3898	0
12050000.0	84989.0	952549085.179	0.336395373383	174379.248047	0.929680769332	1.18852806091	42527.3749063	26103.9703369	2893.13725417	546.664421988	8466976.54753	67632673.1231	0
12075000.0	85187.0	959146189.832	0.336270098479	174380.285645	0.933766365051	1.1884945631	42549.403716	26123.348999	2882.98698552	548.626159068	15707710.7198	67637612.3755	0
12100000.0	85384.0	965772865.541	0.336145751979	174380.737305	0.937875534873	1.18846678734	42571.4434919	26142.6544189	2873.03951044	551.925081917	7492200.56217	67642552.1472	0
12125000.0	85582.0	972429080.882	0.336020716731	174381.640625	0.941979233176	1.18843972683	42593.7145757	26162.1429443	2863.03519544	555.286002778	1546316.62921	67647492.4381	0
12150000.0	85779.0	979114988.161	0.335897092562	174382.006836	0.946104060858	1.18841838837	42615.9370614	26181.4941406	2853.21921575	558.606953336	1226711.14975	67652433.2482	0
12175000.0	85977.0	985830552.957	0.335773290522	174382.836914	0.950223125983	1.18839764595	42638.3220073	26200.9552002	2843.34323267	561.991082562	7034320.23127	67657374.5777	0
12200000.0	86174.0	992575929.665	0.335651406225	174383.081055	0.954363727942	1.18838143349	42660.550548	26220.2056885	2833.64765767	563.904496291	19147640.228	67662316.4265	0
12225000.0	86371.0	999351176.07	0.335530737716	174383.276367	0.958511955105	1.18836760521	42682.7386276	26239.3615723	2824.00994885	567.252816085	10251333.8163	67667258.7946	0
12250000.0	86568.0	1006156353.63	0.335411523869	174383.374023	0.962667807471	1.1883559227	42704.8421251	26258.3862305	2814.42665028	570.613893873	3436917.15254	67672201.6822	0
12275000.0	86765.0	1012991521.14	0.335293976106	174383.398438	0.966831692494	1.18834662437	42726.830417	26277.2460938	2804.89435057	573.9881163	65007.3872106	67677145.0892	0
12300000.0	86962.0	1019856738.0	0.335178305291	174383.325195	0.971002969891	1.18833863735	42748.6541716	26295.916748	2795.41275163	577.375872077	4187719.0692	67682089.0157	0
12325000.0	87159.0	1026752063.47	0.33506472176	174383.129883	0.975182512775	1.18833231926	42770.2834974	26314.3585205	2785.97849845	580.7772884	11257932.9528	67687033.4616	0
12350000.0	87356.0	1033677558.31	0.334953381846	174382.885742	0.979369622655	1.18832755089	42791.7031421	26332.5500488	2776.58827927	582.710716899	16029081.8366	67691978.4272	0
12375000.0	87552.0	1040633376.06	0.334845377154	174381.982422	0.983577803709	1.18832588196	42812.73989	26350.3326416	2767.35732174	586.080345806	8184201.64683	67696923.9123	0
12400000.0	87749.0	1047619483.09	0.33473749552	174381.469727	0.987780862488	1.18832683563	42833.9347285	26368.1671143	2758.05106325	589.517252221	2283748.4431	67701869.917	0
12425000.0	87945.0	1054636036.19	0.334631231836	174380.297852	0.992005458102	1.18833422661	42855.0534843	26385.8123779	2748.89682478	592.916942369	437658.597977	67706816.4413	0
12450000.0	88142.0	1061683002.46	0.334524902194	174379.455566	0.996224349365	1.18834364414	42876.3425452	26403.5339355	2739.67069472	596.384142637	4999783.28353	67711763.4853	0
12475000.0	88338.0	1068760537.17	0.33442053324	174377.978516	1.00046501029	1.18835794926	42897.4688635	26421.0174561	2730.58945474	598.288689679	26715708.165	67716711.0491	0
12500000.0	88534.0	1075868704.09	0.334317162052	174376.513672	1.00471370388	1.18837511539	42918.574225	26438.4124756	2721.54130466	602.446403887	0.0	67721659.1325	0
