z	T	P	nabla_ad	S	rho	delta	cp	cv	opac	frad	fconv	ftot	dT
0.0	3900.0	93.4023369135	0.388701595377	176030.773926	3.76310449468e-06	1.00610435009	16537.8771864	10098.4580994	0.000517573286798	0.0	9534.66501376	65311815.0903	0
25000.0	3900.0	123.075239309	0.385307031344	174263.085938	4.95926899546e-06	1.00802469254	16731.2906812	10268.9918518	0.000617822206176	0.0	16725.6586615	65316507.3538	0
50000.0	3900.0	162.185058102	0.380944180827	172491.601562	6.53635234826e-06	1.01053524017	16984.6579418	10492.5605774	0.000736398061454	0.0	23107.9793548	65321200.1229	0
75000.0	3900.0	213.739352488	0.37538961526	170715.026855	8.61612559078e-06	1.01387226582	17319.1106719	10786.8560791	0.000875848651617	0.0	30160.5659409	65325893.3976	0
100000.0	3900.0	281.707911716	0.368378710132	168932.080078	1.13595195472e-05	1.01830005646	17758.0601839	11172.820282	0.0010400274036	0.0	39742.2199252	65330587.1781	0
125000.0	3900.0	371.334230264	0.35964906489	167140.05127	1.49797205751e-05	1.02401006222	18332.7982051	11678.8352966	0.00123413851748	0.0	52366.8605144	65335281.4644	0
150000.0	3900.0	489.548666106	0.348927271989	165336.755371	1.97590939166e-05	1.03153014183	19085.4675048	12340.4388428	0.00146478012324	0.0	68962.0985837	65339976.2566	0
175000.0	3900.0	645.519391944	0.336027850636	163517.797852	2.60727084367e-05	1.04147946835	20069.6479306	13203.8497925	0.00173744791673	0.0	90835.4126377	65344671.5548	0
200000.0	3900.0	851.390483577	0.320852042927	161679.077148	3.44198198832e-05	1.05442798138	21352.1493244	14327.355957	0.0020601045678	0.0	119716.644185	65349367.3591	0
225000.0	3900.0	1123.27251425	0.303463823931	159813.891602	4.54666988503e-05	1.0711966753	23015.3549413	15782.3455811	0.00244476566697	0.0	157935.337449	65354063.6694	0
250000.0	3900.0	1482.57840926	0.28415092049	157915.50293	6.01053145033e-05	1.09318590164	25166.7724269	17657.2021484	0.00290739045793	0.0	208804.815854	65358760.4858	0
275000.0	3900.0	1957.84590231	0.263406060751	155972.644043	7.95384451635e-05	1.12156760693	27930.0706323	20057.8079224	0.00346576486145	23427744.9026	263965.19794	65363457.8085	0
300000.0	3918.0	2583.47734253	0.247991086685	154123.291016	0.000104681745938	1.1478729248	30383.2800892	22169.2733765	0.00427754269588	24371911.4034	338287.12341	65368155.6374	0
325000.0	3930.0	3408.47597967	0.230571093208	152186.474609	0.0001380641379	1.18334066868	33694.9998362	25010.7620239	0.00521320344269	27033875.7533	416613.142116	65372853.9727	0
350000.0	3971.0	4486.13356592	0.222824689524	150470.239258	0.000180162459174	1.20454072952	35450.795417	26483.493042	0.00663664591736	28508185.3296	483929.38086	65377552.8144	0
375000.0	4019.0	5887.05809025	0.217788262427	148834.606934	0.000233895249835	1.22118639946	36684.9815392	27494.7723389	0.00848658783422	29891034.5007	494053.692943	65382252.1626	-1
400000.0	4121.0	7671.7794675	0.228381530468	147676.245117	0.000296907444408	1.20117902756	34359.090832	25447.1969604	0.0118277485569	28105872.0371	448357.939524	65386952.0172	-1
425000.0	4253.0	9911.65273046	0.246463904763	146746.618652	0.000370954467144	1.16842365265	30901.6984696	22433.5662842	0.017328142369	29533440.9668	177938.43059	65391652.3785	0
450000.0	4527.0	12591.7440817	0.298078202973	146690.136719	0.000439961581833	1.09322762489	23739.3021444	16245.3903198	0.0296740662425	27993454.6394	8.62232376994e-08	65396353.2465	-3
475000.0	4901.0	15696.1553079	0.347374966499	146854.760742	0.000504729996464	1.04314231873	19275.6269594	12399.8123169	0.0469242745121	27902883.2986	0.0563164535259	65401054.6211	-2
500000.0	5452.0	19125.300115	0.379755036822	147473.815918	0.000551253037884	1.01560163498	17062.4351065	10514.6446228	0.0654595811732	27020268.9158	0.120225090946	65405756.5026	-5
525000.0	5895.0	22961.559347	0.385598454335	147583.984375	0.000612217263551	1.00918483734	16668.9089129	10195.0935364	0.0958566154298	25125289.7494	5.08558258712	65410458.8909	0
550000.0	6638.0	26999.7599836	0.376513507812	148556.274414	0.000637900996026	1.00867533684	17023.4684221	10548.42453	0.228380050546	34822836.6776	12417.1555783	65415161.7861	-9
575000.0	8741.0	30496.9948547	0.236981751581	153582.617188	0.000541814699773	1.1046667099	29436.5170535	21627.5909424	2.71200943955	9478171.83208	10398059.5889	65419865.1883	-10
600000.0	10082.0	33799.0271883	0.154676607342	158648.120117	0.000507105596625	1.33348870277	55661.5275868	44118.9880371	10.206252539	2410310.07304	24428233.5886	65424569.0975	-1
625000.0	10759.0	37125.642334	0.131898981885	162121.105957	0.000508841026203	1.51822113991	76254.4025933	61085.3759766	18.30184203	902087.45009	16291168.5356	65429273.5139	-4
650000.0	11196.0	40558.1385999	0.122674472339	164540.95459	0.000523754522419	1.65111517906	91076.122536	72930.4992676	25.6450045771	570824.453587	16703064.037	65433978.4373	-1
675000.0	11664.0	44052.8030789	0.115412881257	167726.245117	0.00053187437743	1.81074261665	109166.447158	87003.3447266	35.433819828	349035.658226	14392647.699	65438683.868	-2
700000.0	11881.0	47733.2503355	0.113635068112	168770.288086	0.000559551608603	1.87152159214	115974.478315	92137.2070312	41.0619039802	239347.585371	10218514.6808	65443389.806	-1
725000.0	12207.0	51528.2886014	0.110907269944	171055.371094	0.000576020738663	1.97807204723	128361.315614	101391.040039	50.0184577473	180279.977647	9661422.89501	65448096.2513	-1
750000.0	12353.0	55546.0831447	0.110552781832	171518.322754	0.000609368328242	2.00935864449	131798.223508	103844.799805	54.9568340077	130084.311202	5958467.24828	65452803.204	-1
775000.0	12589.0	59728.5389799	0.109498633899	173027.416992	0.000633558499885	2.07587409019	139641.263543	109517.297363	62.7530846289	107169.313069	5718357.83096	65457510.6642	-1
800000.0	12707.0	64160.5580406	0.109552803079	173245.825195	0.000670962720051	2.09432959557	141587.408447	110824.450684	67.5062208327	71236.1767626	1550945.63508	65462218.6319	0
825000.0	12850.0	68831.4367879	0.109464923915	173768.481445	0.000706650837401	2.12224364281	144731.887443	112989.575195	73.2820928492	59726.0832675	1040820.44517	65466927.1071	0
850000.0	12948.0	73786.4254644	0.109712234732	173754.248047	0.000749382593312	2.13160395622	145537.747662	113445.227051	77.9072223591	44078.1312126	14602.9556676	65471636.09	0
875000.0	13046.0	79040.0917296	0.109971667437	173726.916504	0.000794232732915	2.1401860714	146240.879277	113820.532227	82.7315581103	40264.2593585	4883.80900176	65476345.5805	0
900000.0	13145.0	84605.5899062	0.110235806579	173737.866211	0.000840947677716	2.14937925339	147042.484934	114267.797852	87.789694305	36658.5967529	3841.52960899	65481055.5789	0
925000.0	13243.0	90497.8100445	0.110517371418	173754.223633	0.000889897251	2.15820670128	147814.444595	114693.664551	93.0206333776	33261.0842697	12330.6817315	65485766.085	0
950000.0	13341.0	96731.5999925	0.11081102188	173770.593262	0.000941098278417	2.16661524773	148541.155054	115084.667969	98.465638698	30376.791071	11812.0456329	65490477.0989	0
975000.0	13439.0	103322.985156	0.111116833452	173762.683105	0.000994767560769	2.17417883873	149151.165276	115386.437988	104.135285908	27776.5150428	11841.063795	65495188.6208	0
1000000.0	13537.0	110289.312397	0.111428410814	173736.657715	0.00105097444703	2.1809990406	149666.364072	115617.272949	110.035483196	25429.5571937	12257.1758927	65499900.6506	0
1025000.0	13635.0	117647.371271	0.111745360533	173734.997559	0.00110954670163	2.18794202805	150227.929557	115885.314941	116.165409578	23315.2155569	12483.4410402	65504613.1885	0
1050000.0	13733.0	125413.661434	0.112071089283	173750.488281	0.00117058061733	2.19486379623	150808.636399	116168.798828	122.53164186	21406.3736345	12682.0381321	65509326.2344	0
1075000.0	13831.0	133605.53312	0.112406686968	173769.677734	0.00123423251353	2.20145559311	151357.60971	116428.491211	129.14328373	19678.3354216	13104.2738016	65514039.7885	0
1100000.0	13929.0	142241.579955	0.112752532313	173773.449707	0.00130072771753	2.20741152763	151819.147586	116621.691895	136.011290912	18109.0171742	14147.175615	65518753.8507	0
1125000.0	14027.0	151341.987096	0.11310657567	173747.436523	0.00137027564051	2.21258616447	152161.824699	116724.511719	143.146047761	16680.2868472	16120.0820291	65523468.4212	0
1150000.0	14125.0	160927.216186	0.11346827631	173736.51123	0.0014426659618	2.21768951416	152517.362324	116838.708496	150.545113737	15382.5856907	18354.9920729	65528183.5	0
1175000.0	14223.0	171016.632549	0.113838859935	173744.702148	0.00151788606217	2.22276997566	152893.325646	116969.714355	158.20316719	14276.6351511	3692.64399334	65532899.0871	0
1200000.0	14322.0	181628.512385	0.114215853079	173772.961426	0.00159583896675	2.2278778553	153287.922895	117113.415527	166.16664886	13200.3260701	4436.52704496	65537615.1826	0
1225000.0	14420.0	192785.564101	0.114602340123	173785.913086	0.00167723601407	2.23226737976	153592.095694	117191.906738	174.349324472	12155.637938	26563.4713405	65542331.7865	0
1250000.0	14518.0	204510.485903	0.114994200808	173776.342773	0.00176211005964	2.23602771759	153802.51445	117200.20752	182.809655505	11261.1991359	31499.4921473	65547048.8989	0
1275000.0	14616.0	216827.689157	0.115394223466	173749.243164	0.00185057092494	2.23945879936	153960.087114	117169.189453	191.554082512	10495.3042728	11859.8914228	65551766.5199	0
1300000.0	14715.0	229758.831901	0.115800594013	173752.233887	0.00194199856196	2.24309706688	154170.057034	117177.22168	200.626781648	9744.2757755	15561.6598055	65556484.6494	0
1325000.0	14813.0	243328.743842	0.116214924284	173758.825684	0.00203711351787	2.24631595612	154345.772661	117163.793945	209.932490752	9056.09056547	20337.3898499	65561203.2876	0
1350000.0	14912.0	257559.181167	0.116634617181	173781.494141	0.00213547559724	2.24940633774	154520.706783	117149.609375	219.585549152	8425.89210893	25586.1659955	65565922.4345	0
1375000.0	15010.0	272477.521121	0.117059234154	173787.329102	0.00223797974286	2.25179004669	154607.28414	117073.156738	229.491775567	7845.58581667	32846.3081585	65570642.0901	0
1400000.0	15109.0	288108.15658	0.117490916543	173785.327148	0.00234421008827	2.25398993492	154663.332584	116972.753906	239.773418378	7348.77820222	9460.16956493	65575362.2545	0
1425000.0	15208.0	304479.452373	0.117930343702	173766.015625	0.00245461797022	2.25599622726	154682.263043	116844.970703	250.386591818	6853.72816503	16094.2257972	65580082.9277	0
1450000.0	15307.0	321619.419251	0.118375796326	173761.71875	0.0025688734695	2.25786662102	154704.822293	116722.058105	261.325607513	6398.10121595	24248.2847928	65584804.1097	0
1475000.0	15406.0	339554.99642	0.118826512041	173769.396973	0.00268709959528	2.25949192047	154713.890511	116591.19873	272.601672955	5978.09678678	34063.3389981	65589525.8007	0
1500000.0	15505.0	358314.153384	0.119281188689	173782.043457	0.00280949348053	2.26075053215	154689.184616	116437.463379	284.228043399	5590.1813818	45930.7091595	65594248.0007	0
1525000.0	15604.0	377925.772359	0.119743022805	173793.774414	0.00293622724712	2.26167201996	154629.324314	116259.545898	296.218524982	5257.74323654	15248.0136353	65598970.7096	0
1550000.0	15704.0	398417.187949	0.1202141939	173805.102539	0.00306710262521	2.26250553131	154557.44347	116071.826172	308.65417144	4924.06558984	25629.5092062	65603693.9276	0
1575000.0	15803.0	419824.109555	0.120688295833	173782.861328	0.00320341700899	2.26299262047	154419.276635	115837.133789	321.433784941	4613.25062076	41145.773461	65608417.6547	0
1600000.0	15903.0	442177.548262	0.121166936177	173772.827148	0.00334393917001	2.2634563446	154288.018963	115607.373047	334.679687251	4347.30190052	10737.000718	65613141.891	0
1625000.0	16003.0	465509.450186	0.121648964748	173773.815918	0.00348904677594	2.26365232468	154139.76007	115367.602539	348.318236934	4079.35553345	22715.8674869	65617866.6364	0
1650000.0	16103.0	489851.391158	0.122138087455	173783.959961	0.00363883100363	2.26356887817	153971.628997	115115.686035	362.357773749	3830.81568451	38632.2718969	65622591.891	0
1675000.0	16203.0	515235.778339	0.122636652474	173799.21875	0.00379344464818	2.26325440407	153784.662974	114851.818848	376.809468372	3599.98826136	59199.9372356	65627317.6548	0
1700000.0	16303.0	541696.842729	0.123142138828	173811.05957	0.00395320057578	2.26270461082	153569.386451	114568.530273	391.691498259	3402.09157505	19908.9158562	65632043.928	0
1725000.0	16404.0	569267.285557	0.123652596882	173818.261719	0.00411790642829	2.2620704174	153336.47268	114271.289062	407.094016671	3201.21245271	39244.1241334	65636770.7105	0
1750000.0	16504.0	597990.302742	0.124158733102	173792.895508	0.00428912426287	2.26118707657	153050.020238	113937.109375	422.902500925	3012.97252759	67208.3957422	65641498.0024	0
1775000.0	16605.0	627901.38525	0.124672023985	173782.507324	0.00446509875474	2.26020216942	152767.078105	113606.188965	439.238052094	2852.18266017	23999.495641	65646225.8037	0
1800000.0	16706.0	659036.702562	0.125194344611	173784.423828	0.00464628874397	2.25898194313	152475.573806	113271.960449	456.035329707	2688.4654971	48990.2219391	65650954.1145	0
1825000.0	16807.0	691432.971419	0.125724489565	173794.335938	0.00483290114062	2.25752019882	152167.618376	112927.941895	473.295390285	2535.84167574	81878.4297615	65655682.9347	0
1850000.0	16908.0	725128.504177	0.12626053457	173806.70166	0.00502520833834	2.25581669807	151836.780054	112569.116211	491.018904695	2405.25331569	31425.4244639	65660412.2645	0
1875000.0	17010.0	760158.900924	0.126802757219	173823.754883	0.00522282698512	2.25395727158	151490.078559	112198.681641	509.295940889	2283.00890572	319.734253406	65665142.1038	0
1900000.0	17112.0	796565.548851	0.127349138947	173830.871582	0.00542668021808	2.25191068649	151115.496131	111809.521484	528.066280338	2157.4968326	16569.9136301	65669872.4527	0
1925000.0	17214.0	834392.275649	0.127897511814	173819.98291	0.00563718685953	2.24981236458	150720.568634	111406.530762	547.350193503	2039.80291462	48684.7933823	65674603.3113	0
1950000.0	17316.0	873685.252194	0.128448731693	173804.321289	0.005854128176	2.24762797356	150315.342852	110997.717285	567.139952865	1929.57107627	94797.6655486	65679334.6795	0
1975000.0	17418.0	914488.178663	0.12900565197	173797.973633	0.00607717447565	2.24522781372	149899.070448	110583.215332	587.426536858	1835.41300385	37720.3158085	65684066.5575	0
2000000.0	17521.0	956838.515498	0.129571113012	173806.469727	0.00630570229987	2.24263954163	149475.374387	110163.952637	608.300836844	1738.67738079	82626.0462387	65688798.9451	0
2025000.0	17623.0	1000784.80655	0.130140567689	173811.425781	0.00654142831991	2.23973298073	149020.672291	109725.98877	629.607483563	1647.74980159	143837.855685	65693531.8426	0
2050000.0	17726.0	1046365.96457	0.130722260761	173826.293945	0.00678291007716	2.23665094376	148554.656869	109280.444336	651.5234244	1577.9630801	2426.37415472	65698265.2498	0
2075000.0	17830.0	1093622.46123	0.131313288167	173845.117188	0.00703042132955	2.23346471786	148077.795635	108827.111816	674.060492748	1497.56092644	17468.3835186	65702999.1668	0
2100000.0	17933.0	1142609.32373	0.131900334098	173844.116211	0.00728621398594	2.23020482063	147577.306944	108358.862305	697.043387148	1421.69949559	65656.7709881	65707733.5937	0
2125000.0	18037.0	1193373.00961	0.132487220206	173832.324219	0.00754900975153	2.2270526886	147075.889598	107889.013672	720.661930494	1350.46099697	137225.843425	65712468.5306	0
2150000.0	18140.0	1245972.98065	0.133073778954	173811.486816	0.00782003826316	2.22376656532	146557.160109	107409.49707	744.729076038	1289.46140138	65629.3787046	65717203.9773	0
2175000.0	18245.0	1300445.36475	0.13367897393	173815.74707	0.00809601715446	2.22029614449	146038.48048	106929.736328	769.491391925	1232.37549816	11493.0955049	65721939.934	0
2200000.0	18349.0	1356845.20382	0.134286809432	173818.139648	0.008380107829	2.21659660339	145498.637816	106438.012695	794.714424573	1172.63576802	66273.4240022	65726676.4007	0
2225000.0	18454.0	1415215.80923	0.13490527435	173831.616211	0.00867054950504	2.21271944046	144948.887937	105939.84375	820.587629598	1121.91410268	10549.9422597	65731413.3773	0
2250000.0	18559.0	1475608.79889	0.135527824521	173844.702148	0.00896862547961	2.20866465569	144381.83505	105431.018066	847.045988532	1068.78532681	69878.1274775	65736150.864	0
2275000.0	18664.0	1538076.69786	0.136156854313	173855.200195	0.0092745094662	2.20442557335	143796.069994	104910.632324	874.102124426	1018.63993664	165375.749123	65740888.8608	0
2300000.0	18769.0	1602674.7449	0.136788850632	173858.105469	0.00958863893175	2.20010972023	143198.445525	104383.239746	901.783830091	975.858391179	81638.4070347	65745627.3676	0
2325000.0	18875.0	1669453.65435	0.137424309889	173855.041504	0.00991037632048	2.19585394859	142601.691335	103856.335449	930.208376434	935.333956701	18947.4671099	65750366.3846	0
2350000.0	18981.0	1738474.92825	0.138055630346	173839.63623	0.0102410067484	2.19170188904	142007.336473	103332.116699	959.303447227	892.554661686	103030.023773	65755105.9117	0
2375000.0	19087.0	1809797.77897	0.138692521259	173829.858398	0.0105796571006	2.18739008904	141402.62277	102802.34375	989.0354076	856.14937485	31833.4479087	65759845.949	0
2400000.0	19194.0	1883468.66966	0.139344944172	173834.106445	0.0109249995148	2.18282413483	140783.445739	102263.40332	1019.49631011	817.917201299	132201.793633	65764586.4964	0
2425000.0	19300.0	1959551.79803	0.139999300388	173835.400391	0.011279793398	2.17808055878	140147.373919	101715.301514	1050.52562529	781.599164255	282111.208111	65769327.5541	0
2450000.0	19407.0	2038096.45415	0.140665643019	173845.678711	0.0116418041216	2.17317938805	139501.172627	101160.437012	1082.31989194	754.359042874	1386.31911232	65774069.122	0
2475000.0	19515.0	2119153.29729	0.141341693074	173861.755371	0.0120112572404	2.16817831993	138846.874777	100599.780273	1114.90012905	725.062318851	40782.8773414	65778811.2002	0
2500000.0	19623.0	2202782.55622	0.142023291757	173874.438477	0.0123896297737	2.16306805611	138177.988648	100029.559326	1148.18624693	690.723693258	231852.710245	65783553.7886	0
2525000.0	19730.0	2289056.36694	0.142701794939	173873.400879	0.0127787543533	2.15794706345	137499.530795	99454.3701172	1182.10916683	664.246464543	131482.973484	65788296.8873	0
2550000.0	19839.0	2378022.19988	0.143390616137	173874.890137	0.0131749329739	2.15287399292	136825.552195	98881.2133789	1216.97821092	639.187393038	49801.0494956	65793040.4964	0
2575000.0	19947.0	2469759.74373	0.144065293875	173856.958008	0.0135827740451	2.14802479744	136165.171667	98319.8730469	1252.53194401	612.287737262	204682.897416	65797784.6158	0
2600000.0	20056.0	2564327.95973	0.144748038986	173848.571777	0.0139984203997	2.14308166504	135504.741566	97759.5703125	1288.86537805	589.580645484	104738.578776	65802529.2456	0
2625000.0	20165.0	2661789.18486	0.14544102818	173845.239258	0.0144230562	2.13785862923	134823.481809	97186.7126465	1325.82036	567.985391233	28804.5241617	65807274.3857	0
2650000.0	20275.0	2762195.34911	0.146151510987	173852.648926	0.0148552207975	2.13233733177	134121.013543	96599.810791	1363.49954948	547.534527549	7221.95730475	65812020.0363	0
2675000.0	20385.0	2865609.82729	0.14687077961	173862.475586	0.0152966586029	2.12661862373	133402.656123	96003.4057617	1401.8339303	525.656498929	90151.2786898	65816766.1973	0
2700000.0	20495.0	2972097.91271	0.147596653846	173872.717285	0.0157476897584	2.1207754612	132673.807189	95401.0681152	1440.85368206	507.153774692	19946.7547612	65821512.8687	0
2725000.0	20606.0	3081715.74498	0.148333966731	173887.609863	0.016206950022	2.1148352623	131938.099266	94794.2260742	1480.67338648	487.363665856	191919.177919	65826260.0506	0
2750000.0	20716.0	3194544.44553	0.149064632142	173891.61377	0.0166782192537	2.1089823246	131206.271002	94192.0837402	1521.14922881	470.532399026	95416.3390166	65831007.7429	0
2775000.0	20828.0	3310633.55269	0.149807357558	173900.720215	0.0171567808138	2.10315012932	130478.332271	93591.9006348	1562.58568563	454.577857146	23127.5674248	65835755.9457	0
2800000.0	20939.0	3430070.4436	0.150534902113	173892.553711	0.0176483554242	2.09759354591	129769.564251	93006.9763184	1604.74910684	437.221632133	221319.64001	65840504.659	0
2825000.0	21051.0	3552922.38959	0.151261877651	173881.274414	0.0181494942808	2.09220194817	129076.326481	92433.2092285	1647.83672226	422.598409659	116136.813757	65845253.8829	0
2850000.0	21163.0	3679265.77018	0.151989343399	173872.644043	0.0186609959201	2.08681344986	128387.826484	91864.3249512	1691.73014864	408.590870449	33722.587366	65850003.6173	0
2875000.0	21276.0	3809160.57284	0.152724763316	173872.375488	0.0191811013792	2.08136510849	127700.126597	91296.7224121	1736.53153502	395.241483293	6584.90828418	65854753.8622	0
2900000.0	21389.0	3942677.15786	0.153469782987	173874.731445	0.0197114641196	2.07570266724	126994.684794	90718.2006836	1782.15147512	380.764748184	146884.479538	65859504.6177	0
2925000.0	21502.0	4079886.33613	0.154226961214	173879.199219	0.0202521441679	2.06978726387	126267.099756	90125.592041	1828.60243275	368.563630956	57133.7059603	65864255.8838	0
2950000.0	21616.0	4220846.98644	0.155001774594	173890.258789	0.0208013789234	2.06362223625	125519.784055	89519.8486328	1875.98808555	356.926663637	2619.11096189	65869007.6605	0
2975000.0	21730.0	4365632.92421	0.155783162583	173900.366211	0.0213614221138	2.05734848976	124763.139015	88908.9111328	1924.24247178	344.242446322	227366.241439	65873759.9478	0
3000000.0	21844.0	4514320.42963	0.156567722839	173907.714844	0.0219326684601	2.05104637146	124004.200646	88297.6501465	1973.38702698	333.555875376	126293.218887	65878512.7458	0
3025000.0	21959.0	4666974.23374	0.157359930361	173915.808105	0.022513399017	2.04473018646	123245.857811	87687.3168945	2023.53120119	323.336616796	46502.5690141	65883266.0543	0
3050000.0	22074.0	4823675.80698	0.158147135554	173916.625977	0.023106156732	2.03855824471	122500.167589	87086.9995117	2074.60556842	312.139009615	370890.989948	65888019.8735	0
3075000.0	22189.0	4984510.38654	0.158924442172	173907.446289	0.0237115327764	2.03262495995	121775.189574	86502.2521973	2126.6421437	302.699342096	248202.179353	65892774.2033	0
3100000.0	22305.0	5149550.55222	0.159703419424	173899.206543	0.024326833227	2.02678418159	121062.508234	85926.7150879	2179.6943354	294.931922607	136778.626335	65897529.0438	0
3125000.0	22422.0	5318863.54455	0.160489518008	173898.779297	0.0249512340815	2.02091932297	120354.42907	85355.1818848	2233.71434703	285.035959456	49951.6701478	65902284.395	0
3150000.0	22538.0	5492544.65572	0.161264579468	173894.482422	0.0255895392911	2.01518797874	119661.094205	84795.9411621	2288.45245011	275.51042469	408117.340382	65907040.2569	0
3175000.0	22655.0	5670657.32128	0.162056492338	173897.106934	0.0262369831034	2.00923228264	118950.571489	84225.1953125	2344.01457658	268.736223416	54149.8046492	65911796.6295	0
3200000.0	22773.0	5853264.19085	0.162867224605	173905.981445	0.0268934636551	2.00302290916	118219.404087	83640.5029297	2400.38537214	260.040649063	162707.755156	65916553.5128	0
3225000.0	22890.0	6040461.39045	0.163676885754	173909.875488	0.027563997719	1.99676573277	117483.23181	83054.0283203	2457.42639307	252.735942488	72500.4355238	65921310.9068	0
3250000.0	23009.0	6232297.90763	0.164508882836	173923.034668	0.0282415530819	1.99029755592	116731.819935	82456.7565918	2515.35611553	245.806789259	12151.1283747	65926068.8116	0
3275000.0	23127.0	6428873.63174	0.165333764731	173928.979492	0.0289337713184	1.98391115665	115987.055129	81865.7775879	2573.97025143	238.088287256	394812.979436	65930827.2271	0
3300000.0	23246.0	6630257.73885	0.166165657134	173936.364746	0.0296360558423	1.97751843929	115243.97496	81276.4221191	2633.42685036	232.670481797	86300.1951979	65935586.1533	0
3325000.0	23366.0	6836520.88729	0.167000976212	173943.530273	0.0303486485791	1.9711868763	114508.65918	80692.9931641	2693.7333007	225.578351006	171102.960085	65940345.5903	0
3350000.0	23485.0	7047771.7058	0.167817699011	173938.781738	0.0310772556986	1.96514165401	113798.471715	80128.7353516	2754.78856826	219.630349975	78505.7382001	65945105.5381	0
3375000.0	23606.0	7264069.05695	0.168638760864	173935.327148	0.0318143793265	1.95921075344	113102.273942	79574.2675781	2816.80086532	213.966115426	12177.3901114	65949865.9966	0
3400000.0	23726.0	7485525.50508	0.169443126784	173925.769043	0.0325670625898	1.95350813866	112429.606654	79038.1591797	2879.541926	207.60077826	438031.048506	65954626.9659	0
3425000.0	23847.0	7712211.34534	0.170255520645	173922.680664	0.0333294774464	1.94774329662	111757.550711	78503.4179688	2943.1149207	203.194596707	113656.689915	65959388.4459	0
3450000.0	23969.0	7944192.53401	0.171085357982	173925.683594	0.034101336496	1.9417488575	111068.723186	77957.824707	3007.50691471	197.341459885	175427.036154	65964150.4368	0
3475000.0	24090.0	8181573.33681	0.171912979809	173925.097656	0.0348883731931	1.93571650982	110377.486513	77412.2802734	3072.63293348	192.46385373	78346.7038435	65968912.9385	0
3500000.0	24213.0	8424402.0817	0.172763391117	173934.155273	0.0356822456524	1.92945873737	109670.704298	76856.036377	3138.65570998	187.826291687	13899.4907387	65973675.951	0
3525000.0	24335.0	8672785.42924	0.173607166302	173938.635254	0.0364916704712	1.92325878143	108969.696397	76305.3161621	3205.46005606	182.564517552	528849.502434	65978439.4743	0
3550000.0	24458.0	8926793.00489	0.174459760907	173946.75293	0.0373111251974	1.9170075655	108267.189236	75754.0588379	3273.13999262	178.976989999	89869.6869103	65983203.5085	0
3575000.0	24582.0	9186495.11294	0.175318396765	173957.69043	0.0381407226087	1.91075479984	107567.551586	75205.279541	3341.74254699	174.111333929	269261.279113	65987968.0534	0
3600000.0	24705.0	9452004.46689	0.176161965197	173961.669922	0.0389868073398	1.90470695496	106886.746909	74670.9960938	3411.20612492	170.06736087	154301.800941	65992733.1093	0
3625000.0	24830.0	9723374.69397	0.177014318298	173970.715332	0.0398405827582	1.89867866039	106211.979447	74140.9790039	3481.68544303	166.209040835	60639.6354975	65997498.6759	0
3650000.0	24954.0	10000723.4177	0.177844911651	173970.703125	0.0407115949201	1.89295196533	105564.803421	73631.5795898	3553.0981494	162.433480958	441.937865063	66002264.7534	0
3675000.0	25080.0	10284107.9005	0.178679941474	173973.046875	0.041590858018	1.88729405403	104927.786374	73129.4616699	3625.59342673	158.82530162	57730.8411914	66007031.3418	0
3700000.0	25205.0	10573649.8833	0.179500630689	173964.0625	0.0424878817284	1.88178360462	104302.655263	72637.121582	3699.04389698	154.674818006	355180.105253	66011798.441	0
3725000.0	25331.0	10869427.0556	0.180331886369	173958.666992	0.0433951026935	1.87614715099	103670.296161	72140.6433105	3773.31117606	151.29847642	210134.874616	66016566.051	0
3750000.0	25457.0	11171532.1719	0.181165602558	173954.589844	0.0443154203822	1.87044978142	103036.123839	71644.2138672	3848.33427676	148.031751588	91252.551576	66021334.1719	0
3775000.0	25584.0	11480034.3215	0.182009180166	173955.688477	0.0452455860795	1.86464762688	102397.241353	71145.3308105	3924.1294386	144.897157205	11526.8316728	66026102.8037	0
3800000.0	25711.0	11795025.287	0.182851865586	173957.666016	0.0461889940198	1.85884976387	101762.212949	70650.2685547	4000.66183832	141.862330436	34713.2987606	66030871.9463	0
3825000.0	25839.0	12116574.8404	0.183700588167	173964.086914	0.0471423845738	1.85301685333	101128.502958	70156.8115234	4077.9569657	138.94830007	138832.121321	66035641.5998	0
3850000.0	25967.0	12444776.3873	0.184544380015	173970.654297	0.0481092647533	1.84726154804	100504.825417	69671.3012695	4155.99249951	135.594531817	304436.347035	66040411.7643	0
3875000.0	26095.0	12779725.1719	0.185380914699	173976.879883	0.0490899110446	1.84162080288	99894.3638	69195.8984375	4234.76801462	132.868951884	150155.548602	66045182.4396	0
3900000.0	26224.0	13121493.8037	0.186216535398	173986.071777	0.050081005611	1.83605861664	99294.9192186	68728.6682129	4314.29293511	130.248939398	32247.3202275	66049953.6258	0
3925000.0	26353.0	13470180.3786	0.187043156567	173993.530273	0.0510862737428	1.83062458038	98709.366819	68272.0397949	4394.57296232	127.21236833	770302.979035	66054725.3229	0
3950000.0	26482.0	13825884.5698	0.187865620512	173998.132324	0.0521060210303	1.8252222538	98128.2391111	67819.519043	4475.60966851	124.753387044	527880.77509	66059497.5309	0
3975000.0	26612.0	14188682.8076	0.188691580368	174003.015137	0.053136733186	1.81980133057	97547.8420746	67368.1335449	4557.40007829	122.857421725	353235.645291	66064270.2498	0
4000000.0	26743.0	14558651.6997	0.189519799588	174007.48291	0.0541784902452	1.8143901825	96970.3432142	66919.3054199	4639.93114312	120.108238464	137365.125338	66069043.4796	0
4025000.0	26873.0	14935920.0288	0.190331894981	174003.588867	0.055239048379	1.80916237831	96408.2169156	66482.1289062	4723.24107174	117.420253794	1072302.72929	66073817.2203	0
4050000.0	27004.0	15320568.1342	0.191143314192	173997.766113	0.0563112043892	1.80400252342	95853.290629	66050.2624512	4807.29726509	115.713652879	63700.2392758	66078591.472	0
4075000.0	27136.0	15712675.4294	0.191956867114	173993.713379	0.0573939905735	1.798864007	95303.1678478	65622.2045898	4892.04359208	113.638378922	238185.601353	66083366.2345	0
4100000.0	27268.0	16112340.8674	0.192765839479	173991.088867	0.0584904482821	1.79378604889	94761.5396658	65200.8605957	4977.45859572	111.201726069	264633.355229	66088141.5079	0
4125000.0	27400.0	16519660.617	0.193568919571	173989.72168	0.0596007230342	1.7887904644	94230.3563937	64787.5793457	5063.51982446	109.253125727	72457.3910499	66092917.2922	0
4150000.0	27533.0	16934704.7963	0.194372467583	173992.895508	0.0607209658483	1.78383183479	93706.7310866	64380.078125	5150.2094803	107.378919001	21980.0922441	66097693.5875	0
4175000.0	27666.0	17357571.5437	0.195169945151	173996.350098	0.0618552803644	1.7789106369	93189.7960009	63978.3203125	5237.54364522	105.161475563	629377.180755	66102470.3936	0
4200000.0	27799.0	17788360.2306	0.195962292	173999.560547	0.063003921241	1.77400290966	92677.1176479	63580.645752	5325.54009683	103.396989647	321844.181695	66107247.7107	0
4225000.0	27933.0	18227143.0486	0.196757831088	174005.712891	0.0641628212179	1.76905608177	92164.9468035	63184.1369629	5414.13512835	101.698687327	86756.4739411	66112025.5387	0
4250000.0	28067.0	18674020.1297	0.197548001297	174011.254883	0.0653361203149	1.76415288448	91658.8032999	62792.6818848	5503.38217687	100.045509466	27504.2103087	66116803.8777	0
4275000.0	28202.0	19129063.9138	0.198340454283	174019.189453	0.0665197585477	1.75924432278	91155.3076117	62403.6560059	5593.22213143	98.4534884556	241652.243146	66121582.7276	0
4300000.0	28337.0	19592375.3834	0.199126905574	174025.952148	0.0677179486956	1.7544144392	90660.1715337	62021.081543	5683.75480045	96.5442911424	310954.736049	66126362.0884	0
4325000.0	28472.0	20064057.1255	0.199906564515	174031.25	0.0689309017616	1.7496817112	90174.6581202	61645.7275391	5775.02995408	95.0375793726	57218.1788669	66131141.9601	0
4350000.0	28608.0	20544183.2315	0.200686475994	174037.805176	0.0701544777257	1.74500370026	89695.8912946	61275.3295898	5866.94630055	93.5845675685	72690.4777166	66135922.3428	0
4375000.0	28744.0	21032858.0411	0.201458116752	174042.041016	0.0713930930942	1.74046504498	89229.7008861	60913.9770508	5959.54689553	91.8293327133	576368.343564	66140703.2365	0
4400000.0	28880.0	21530188.5659	0.202219528729	174043.066406	0.0726471771486	1.73605024815	88775.076332	60561.2121582	6052.80486014	90.4522030593	206710.794821	66145484.6411	0
4425000.0	29017.0	22036254.3716	0.202977602072	174042.895508	0.0739126844564	1.73166751862	88325.5875126	60212.677002	6146.6447707	89.1233192661	850.520887491	66150266.5566	0
4450000.0	29154.0	22551165.9292	0.203725467529	174037.988281	0.0751941406634	1.72738444805	87885.3166819	59871.1975098	6241.10347482	87.5064325954	812412.060329	66155048.983	0
4475000.0	29291.0	23075033.4244	0.204467002324	174031.787109	0.0764906144468	1.72315382957	87451.3835532	59534.8388672	6336.07454511	86.2476387678	346054.394304	66159831.9205	0
4500000.0	29429.0	23607929.4213	0.205211967032	174029.443359	0.0777968816692	1.71889162064	87018.1981212	59199.5605469	6431.42442816	85.0367371835	32796.0429539	66164615.3688	0
4525000.0	29567.0	24149954.0801	0.205953480278	174027.868652	0.0791174534243	1.71466696262	86590.1861348	58868.4448242	6527.15563904	83.8582192765	167675.946572	66169399.328	0
4550000.0	29706.0	24701175.7991	0.206699149362	174030.004883	0.080447687651	1.71043074131	86163.8966437	58538.848877	6623.14818842	82.4279716564	469033.768006	66174183.7982	0
4575000.0	29844.0	25261726.9061	0.207434806937	174029.89502	0.0817970285425	1.70630919933	85747.6248871	58216.6625977	6719.5637681	81.3163046831	78983.2519695	66178968.7794	0
4600000.0	29984.0	25831643.7359	0.20818210534	174036.157227	0.0831512370496	1.7021433115	85330.6207912	57893.951416	6816.0282177	80.2625896645	119472.752085	66183754.2715	0
4625000.0	30123.0	26411060.4459	0.20891705329	174039.733887	0.0845248287078	1.69810163975	84924.5416459	57579.3579102	6912.8375788	78.9402628022	569488.603217	66188540.2745	0
4650000.0	30263.0	27000048.4423	0.209650669524	174045.617676	0.0859085121192	1.69405627251	84521.3966316	57267.4499512	7009.72113293	77.9466362603	114512.696844	66193326.7885	0
4675000.0	30403.0	27598712.1702	0.210377003979	174050.830078	0.0873071476235	1.69006156921	84124.4181962	56960.5163574	7106.76856274	76.979310641	115685.544621	66198113.8135	0
4700000.0	30544.0	28207122.9652	0.211104053568	174057.971191	0.0887158530531	1.68606495857	83729.7538053	56655.682373	7203.77529869	75.7814679963	594174.994655	66202901.3494	0
4725000.0	30684.0	28825419.3557	0.211819157326	174061.38916	0.090144603746	1.68217504025	83344.2492768	56357.8186035	7300.99183313	74.869302202	98597.8086102	66207689.3963	0
4750000.0	30826.0	29453639.3931	0.212543753526	174068.933105	0.0915784985409	1.67823767662	82957.4146117	56059.2346191	7397.91187698	74.0074834458	154737.284331	66212477.9542	0
4775000.0	30967.0	30091923.1284	0.213258229575	174072.338867	0.0930326641537	1.67441678047	82579.6334473	55767.2973633	7494.94166786	72.8988159385	561798.99172	66217267.023	0
4800000.0	31109.0	30740343.0917	0.213977023166	174076.635742	0.0944971106946	1.67061495781	82204.2413627	55477.0812988	7591.718556	72.087209638	70511.6761937	66222056.6029	0
4825000.0	31251.0	31399006.8483	0.214693886827	174078.918457	0.0959769822657	1.66689383984	81834.9172946	55191.0705566	7688.35208393	71.0477116132	1275986.04892	66226846.6937	0
4850000.0	31393.0	32068024.5582	0.215404949415	174078.491211	0.0974726863205	1.66326022148	81472.8037335	54910.2722168	7784.83083657	70.2832048264	530956.40353	66231637.2954	0
4875000.0	31536.0	32747473.3295	0.216113031805	174077.258301	0.0989793625195	1.6596660614	81115.3156927	54633.013916	7880.89335983	69.5514361709	38719.5595409	66236428.4082	0
4900000.0	31679.0	33437466.4761	0.216812783273	174072.44873	0.100502249552	1.65615820885	80765.170049	54361.1938477	7976.74860119	68.839063337	301366.288975	66241220.032	0
4925000.0	31823.0	34138078.8943	0.217514779717	174069.824219	0.102034813608	1.65264177322	80416.4049931	54090.6799316	8072.6439956	67.9174589211	437340.864636	66246012.1667	0
4950000.0	31966.0	34849451.885	0.218208212774	174065.246582	0.103587371996	1.64919745922	80074.0974986	53825.1586914	8169.03744919	67.0053425019	2061190.76172	66250804.8124	0
4975000.0	32110.0	35571651.9754	0.218907566534	174063.769531	0.105149250885	1.64572608471	79731.5036013	53559.6984863	8265.4383709	66.5866300778	462307.987107	66255597.9691	0
5000000.0	32255.0	36304743.9991	0.219614016286	174065.356445	0.106720159238	1.64222657681	79388.3238212	53294.0124512	8361.75575435	65.9607440345	1310639.93518	66260391.6367	0
5025000.0	32400.0	37048829.6766	0.220322494294	174067.468262	0.108305583126	1.63874781132	79047.3454705	53030.0292969	8458.0903459	65.1253717395	41628.2651884	66265185.8153	0
5050000.0	32545.0	37804011.4021	0.221033904164	174069.970703	0.109905551653	1.63529109955	78708.4258694	52767.5598145	8554.37945737	64.3106702289	987317.436443	66269980.505	0
5075000.0	32690.0	38570393.8285	0.221742537403	174072.485352	0.111520486826	1.63186502457	78373.446718	52508.2641602	8650.55842538	63.7351925203	252829.891659	66274775.7056	0
5100000.0	32836.0	39348044.191	0.222453841256	174077.172852	0.113144793431	1.62842702866	78039.6606131	52250.189209	8746.29173674	63.1852067278	93923.0691191	66279571.4172	0
5125000.0	32982.0	40137068.0856	0.223162385104	174081.469727	0.114784168545	1.62502360344	77709.5263379	51995.0195312	8841.72529925	62.4360118712	908300.583683	66284367.6398	0
5150000.0	33128.0	40937571.4011	0.223869482343	174085.327148	0.116438633995	1.6216545105	77382.5208425	51742.2668457	8936.78709651	61.9177420797	181704.083979	66289164.3734	0
5175000.0	33275.0	41749621.2114	0.224582421558	174090.905762	0.118102514534	1.61827611923	77055.3642216	51489.4775391	9031.09585416	61.4245916896	166681.678765	66293961.618	0
5200000.0	33422.0	42573323.3754	0.225296140356	174095.751953	0.119781514513	1.61493372917	76730.5185245	51238.3178711	9124.83679062	60.7393417883	847966.883695	66298759.3737	0
5225000.0	33569.0	43408784.7959	0.226011535776	174099.682617	0.121475706692	1.61162734032	76407.59319	50988.4094238	9217.91101048	60.2775558796	146967.656992	66303557.6404	0
5250000.0	33717.0	44256072.0453	0.226736146474	174104.858398	0.123179226648	1.60831344128	76083.4317157	50737.3840332	9309.9206637	59.8405239129	195071.759676	66308356.4181	0
5275000.0	33865.0	45115292.4104	0.227462408515	174108.666992	0.124898098875	1.60503911972	75761.2811864	50487.588501	9401.05252902	59.2178990418	909843.929706	66313155.7068	0
5300000.0	34013.0	45986556.5113	0.228185740393	174110.656738	0.126632701722	1.60181283951	75442.6750462	50240.3045654	9491.25260545	58.8114941741	186242.533853	66317955.5066	0
5325000.0	34162.0	46869933.4922	0.228912662887	174112.805176	0.128377083456	1.59859192371	75124.82285	49993.5333252	9580.08793355	58.4291381505	160097.389022	66322755.8174	0
5350000.0	34311.0	47765534.5909	0.229636813599	174112.658691	0.130137297674	1.59542012215	74810.562923	49749.319458	9667.7589468	57.8667571928	1045750.02115	66327556.6393	0
5375000.0	34460.0	48673471.7248	0.230358424691	174110.009766	0.131913548103	1.59229922295	74499.9436094	49507.6782227	9754.18650572	57.5144408678	257265.828176	66332357.9722	0
5400000.0	34610.0	49593815.9129	0.23108415239	174106.774902	0.133699752041	1.58918750286	74190.1895694	49266.6351318	9838.92337745	57.1858030086	108011.704011	66337159.8162	0
5425000.0	34760.0	50526678.1952	0.231811084896	174102.91748	0.135500988108	1.58610033989	73882.2617896	49026.953125	9922.14104394	56.6830291698	1250117.70812	66341962.1712	0
5450000.0	34910.0	51472164.2804	0.232541754409	174099.609375	0.137316819746	1.5830218792	73575.0081628	48787.8479004	10003.7337545	56.385902017	398062.147536	66346765.0373	0
5475000.0	35061.0	52430333.9188	0.233283376266	174098.852539	0.139140931424	1.57991158962	73265.5997208	48547.2595215	10083.1739507	56.1135861759	19147.7860254	66351568.4145	0
5500000.0	35212.0	53401291.7692	0.234026661929	174098.303223	0.140979827847	1.57681632042	72957.5171334	48307.7484131	10160.7791864	55.671815569	1660893.51143	66356372.3027	0
5525000.0	35363.0	54385142.4883	0.234771151101	174097.814941	0.142833596328	1.5737361908	72650.8285414	48069.3695068	10236.4301015	55.4308306512	714187.506918	66361176.702	0
5550000.0	35515.0	55381947.0205	0.235523804261	174099.450684	0.144695761264	1.5706307888	72342.7854831	47830.1422119	10309.6554671	55.2140279905	87631.8819574	66365981.6124	0
5575000.0	35667.0	56391809.5267	0.236278290641	174101.062012	0.146572725498	1.56753981113	72035.9788213	47591.9189453	10381.3869435	55.0087015665	261605.072591	66370787.0339	0
5600000.0	35820.0	57414789.5805	0.237041645323	174104.577637	0.14845788246	1.56442320347	71727.6257204	47352.6794434	10451.4369829	54.8225528096	1016241.63135	66375592.9664	0
5625000.0	35973.0	58450990.6181	0.237807764105	174107.93457	0.150357722305	1.56132078171	71420.3054391	47114.2730713	10520.180735	54.4681734731	455336.80217	66380399.4101	0
5650000.0	36126.0	59500516.7323	0.238577059811	174111.022949	0.152272274136	1.55823290348	71113.9613952	46876.6265869	10587.5979108	54.3025327744	1221.57478101	66385206.3649	0
5675000.0	36280.0	60563426.2193	0.239356730613	174115.771484	0.154194873176	1.55512094498	70805.8084807	46637.6983643	10653.1309238	54.1558909055	417298.833464	66390013.8308	0
5700000.0	36434.0	61639823.9067	0.240139149234	174119.921875	0.156132387929	1.55202710629	70498.6749582	46399.5269775	10717.2219723	53.8438867646	1228561.01697	66394821.8079	0
5725000.0	36588.0	62729816.291	0.24092346151	174123.278809	0.158084963914	1.54895412922	70192.8545536	46162.3443604	10779.8402206	53.717025223	465209.213871	66399630.2961	0
5750000.0	36743.0	63833463.5425	0.241716034097	174127.685547	0.160045834491	1.54586410522	69885.9191409	45924.4140625	10840.4197961	53.6087163003	15246.3383491	66404439.2955	0
5775000.0	36898.0	64950872.1703	0.242509688121	174131.12793	0.162021824508	1.54279732704	69580.7090909	45687.802124	10899.412938	53.5097097248	331822.662411	66409248.8061	0
5800000.0	37054.0	66082101.2337	0.243310942305	174135.351562	0.164006021805	1.53971576691	69274.773661	45450.7629395	10956.2367311	53.4292447568	1019512.83165	66414058.8278	0
5825000.0	37210.0	67227257.0467	0.244112820139	174138.40332	0.166005207575	1.53665888309	68970.8914302	45215.3076172	11011.3738304	53.1876419647	770174.158567	66418869.3608	0
5850000.0	37366.0	68386446.4741	0.244914995431	174140.124512	0.168019600096	1.53362858295	68669.2395507	44981.552124	11064.8079917	53.1264368141	184270.463697	66423680.405	0
5875000.0	37523.0	69559728.5326	0.245724130036	174142.260742	0.170042185346	1.5305866003	68367.3006851	44747.7050781	11115.8893194	53.0837711276	80026.9186702	66428491.9604	0
5900000.0	37680.0	70747211.9348	0.246533701724	174142.651367	0.172080122866	1.52757120132	68067.4235965	44515.4205322	11165.1713056	52.8818431551	2341929.20337	66433304.027	0
5925000.0	37837.0	71949006.7964	0.247342995169	174141.003418	0.174133732799	1.52458417416	67769.725617	44284.7808838	11212.6279707	52.857992835	1438379.21173	66438116.6049	0
5950000.0	37995.0	73165174.8203	0.248158118632	174139.025879	0.17619584105	1.52159333229	67471.9805659	44054.1534424	11257.6038249	53.0197097913	2247463.15364	66442929.6941	0
5975000.0	38154.0	74395776.6701	0.248978307215	174136.633301	0.178266360308	1.51860141754	67174.5367905	43823.8128662	11300.0178175	52.8653746182	174989.790913	66447743.2946	0
6000000.0	38312.0	75640969.9608	0.249792122983	174131.896973	0.180358649231	1.51566553116	66881.3883919	43596.6827393	11341.0599079	52.712482184	3658422.91589	66452557.4063	0
6025000.0	38471.0	76900808.4198	0.250614930046	174129.077148	0.182458024938	1.51270401478	66586.8518247	43368.6859131	11379.3770636	52.9114913797	537836.506639	66457372.0294	0
6050000.0	38631.0	78175342.9512	0.251446431584	174128.198242	0.184564269148	1.50971961021	66291.1197289	43139.956665	11414.9657615	52.9634102026	1203092.95995	66462187.1638	0
6075000.0	38791.0	79464672.7341	0.25227938717	174127.478027	0.186684468645	1.50675046444	65996.8809858	42912.4420166	11448.3778228	52.8604814886	1035236.19968	66467002.8095	0
6100000.0	38951.0	80768899.602	0.253115405138	174126.696777	0.18881901633	1.50379145145	65703.4120973	42685.5621338	11479.6313171	52.9331267596	443724.969597	66471818.9666	0
6125000.0	39112.0	82088074.6585	0.253961549351	174127.502441	0.190960505279	1.50080573559	65408.0257019	42457.3730469	11507.9878173	53.0253260201	63515.6112314	66476635.635	0
6150000.0	39273.0	83422299.5057	0.254810134342	174128.137207	0.193116342416	1.49783217907	65113.6451846	42230.0170898	11534.1092899	53.1278225956	131187.490078	66481452.8148	0
6175000.0	39435.0	84771624.0971	0.255667463766	174130.224609	0.195278902538	1.49483573437	64817.9857998	42001.8951416	11557.2442044	53.2502046928	536277.49737	66486270.5059	0
6200000.0	39597.0	86136148.4175	0.256525670952	174132.080078	0.197455578018	1.49185502529	64523.9167486	41775.0854492	11578.0735191	53.3832307201	1094235.2508	66491088.7085	0
6225000.0	39760.0	87515920.9995	0.257391254401	174135.302734	0.199638772756	1.48885643482	64229.2051964	41548.0224609	11595.8206817	53.5365889027	1749542.99786	66495907.4224	0
6250000.0	39923.0	88911040.8813	0.258256354114	174138.208008	0.201835966436	1.48587739468	63936.6617751	41322.7508545	11611.2363074	53.5365567372	921851.354216	66500726.6478	0
6275000.0	40086.0	90321608.676	0.259120789168	174140.734863	0.20404724637	1.48291838169	63646.3167425	41099.2980957	11624.4514248	53.7109786093	433276.089641	66505546.3847	0
6300000.0	40250.0	91747673.571	0.259993947551	174144.213867	0.206265220186	1.47993791103	63354.7506652	40875.1403809	11634.7558602	53.9049403763	101272.070405	66510366.633	0
6325000.0	40414.0	93189336.813	0.260868159051	174147.021484	0.208497513086	1.47697210312	63064.5846563	40652.1759033	11642.9216138	54.1089252981	49190.9224305	66515187.3927	0
6350000.0	40579.0	94646648.0795	0.261749772124	174150.646973	0.210736441659	1.47399008274	62773.7727527	40428.9337158	11648.2279504	54.3323899464	321820.726943	66520008.664	0
6375000.0	40744.0	96119707.7818	0.262630687493	174153.552246	0.212989543797	1.47102820873	62485.1138774	40207.4462891	11651.4512915	54.5658629055	725130.278349	66524830.4468	0
6400000.0	40910.0	97608563.1766	0.263517270848	174157.23877	0.215248990571	1.46805667877	62196.5963882	39986.2548828	11651.8606684	54.8189190375	1208410.09971	66529652.7412	0
6425000.0	41076.0	99113314.0971	0.264401226319	174160.083008	0.217522494495	1.46511220932	61910.987511	39767.3858643	11650.2616213	54.9165211435	1821565.23829	66534475.5471	0
6450000.0	41242.0	100634060.365	0.265281685455	174162.133789	0.219810113776	1.46219933033	61628.696172	39551.1047363	11646.7061271	55.1890540633	1260861.6172	66539298.8646	0
6475000.0	41409.0	102170849.203	0.266166828815	174164.685059	0.222104019485	1.45928037167	61346.830966	39335.333252	11640.416329	55.4812343598	784012.95536	66544122.6937	0
6500000.0	41576.0	103723783.387	0.26705068922	174165.991211	0.224412389798	1.45638465881	61067.1942628	39121.3500977	11632.2651042	55.7830361159	387532.484538	66548947.0344	0
6525000.0	41744.0	105292910.766	0.267939600545	174167.480469	0.226727221161	1.45348262787	60787.7301306	38907.6721191	11621.4652288	56.2714213845	4776842.86032	66553771.8868	0
6550000.0	41913.0	106878277.391	0.268832588404	174169.042969	0.229048309848	1.45057940483	60508.8393144	38694.5709229	11608.0113466	56.4457930471	20970.7384872	66558597.2508	0
6575000.0	42081.0	108480038.651	0.269714029965	174167.76123	0.231391502894	1.44774365425	60235.5315668	38485.6323242	11593.6310316	56.7869214625	259678.169182	66563423.1266	0
6600000.0	42251.0	110098185.049	0.270604762324	174167.871094	0.233732731431	1.44488286972	59961.1842884	38276.083374	11575.8490908	57.1582121374	613102.839175	66568249.514	0
6625000.0	42420.0	111732871.046	0.271481908699	174164.978027	0.236096064327	1.44209647179	59693.0363806	38071.1242676	11557.231515	57.3600447629	3006508.94891	66573076.4131	0
6650000.0	42590.0	113384141.333	0.27236016157	174162.084961	0.238465188886	1.4393209219	59426.4403454	37867.3797607	11536.1230368	57.9205639408	1720500.854	66577903.824	0
6675000.0	42761.0	115052039.396	0.273244631464	174160.229492	0.240839581238	1.43653476238	59159.4265004	37663.4460449	11512.5374204	58.3325683094	2379094.42287	66582731.7467	0
6700000.0	42932.0	116736661.405	0.274128253313	174158.203125	0.243227259489	1.4337669611	58894.2039739	37460.9283447	11487.3728772	58.5837077701	1157084.71154	66587560.1812	0
6725000.0	43103.0	118438101.291	0.275010197392	174156.018066	0.245628150878	1.4310182333	58631.0115432	37260.0372314	11460.6651452	59.0158959063	675989.266283	66592389.1274	0
6750000.0	43275.0	120156396.39	0.275897126905	174155.090332	0.248033931712	1.42825698853	58367.8272672	37059.3780518	11431.596828	59.4691905087	298774.56648	66597218.5856	0
6775000.0	43447.0	121891639.738	0.276780827513	174154.125977	0.250452663749	1.42551589012	58107.1707257	36860.7818604	11401.0749519	59.9331870356	36284.2047209	66602048.5555	0
6800000.0	43620.0	123643866.099	0.277667854404	174154.467773	0.252875935985	1.42276394367	57847.0746677	36662.8997803	11368.2502821	60.5934499773	6718947.70692	66606879.0374	0
6825000.0	43794.0	125413109.164	0.278557477039	174156.12793	0.255303573795	1.42000293732	57587.8598569	36465.9973145	11333.1929681	60.9262559715	422597.785644	66611710.0311	0
6850000.0	43967.0	127199519.55	0.279436769854	174156.274414	0.25775260292	1.41728818417	57333.1175359	36272.5921631	11297.6731479	61.2573578409	3843361.36123	66616541.5368	0
6875000.0	44141.0	129003134.651	0.28032037615	174157.385254	0.260206521489	1.41455984116	57078.4804089	36079.5593262	11260.0143566	61.963388663	1467372.9884	66621373.5545	0
6900000.0	44316.0	130823988.93	0.281207797165	174159.49707	0.262664951151	1.41182088852	56824.1662152	35887.0269775	11220.2264287	62.5152985321	2110541.22813	66626206.0841	0
6925000.0	44491.0	132662174.785	0.282091368246	174161.279297	0.265136244707	1.40910553932	56572.519773	35696.6278076	11179.2656595	62.89882321	1739154.0611	66631039.1256	0
6950000.0	44666.0	134517783.246	0.282970371763	174162.768555	0.26762028574	1.40641653538	56323.7883237	35508.5388184	11137.1459368	63.4725157733	1126348.12172	66635872.6793	0
6975000.0	44842.0	136390846.265	0.283851162866	174165.209961	0.270108343102	1.40372896194	56076.1580677	35321.4324951	11092.6269718	64.2536158574	4678932.82072	66640706.7449	0
7000000.0	45019.0	138281393.989	0.284732853862	174168.603516	0.272600358585	1.40104758739	55829.9331559	35135.4858398	11045.423524	64.8817192388	5719184.59174	66645541.3226	0
7025000.0	45196.0	140189517.287	0.285609303352	174171.484375	0.275105063338	1.39840054512	55586.8085866	34951.8920898	10996.5010598	65.3417120374	13583.4812426	66650376.4125	0
7050000.0	45373.0	142115309.579	0.286480989805	174173.76709	0.277622777503	1.39578509331	55346.5020366	34770.4498291	10946.0284534	66.0008490631	324721.735101	66655212.0144	0
7075000.0	45551.0	144058802.999	0.287354036579	174176.696777	0.280144653516	1.39317262173	55107.1649364	34589.8712158	10893.1798624	66.6879064129	841917.370545	66660048.1286	0
7100000.0	45729.0	146020088.402	0.288221170695	174179.052734	0.282679218799	1.39058995247	54870.8865583	34411.6729736	10838.9559087	67.2022989831	3500442.98488	66664884.7549	0
7125000.0	45907.0	147999256.732	0.289081718595	174180.859375	0.285226415144	1.38803601265	54637.7659101	34235.9710693	10783.4625879	67.9199451412	2532558.91627	66669721.8934	0
7150000.0	46086.0	149996337.154	0.289942028931	174183.300781	0.287777365884	1.38548219204	54406.0471826	34061.5570068	10725.9213592	68.8573976278	3478035.59492	66674559.5442	0
7175000.0	46266.0	152011356.888	0.290801507066	174186.352539	0.290331721772	1.38292729855	54175.8672081	33888.5772705	10666.3798106	69.6333323517	4678716.53651	66679397.7073	0
7200000.0	46446.0	154044406.417	0.291653562098	174188.671875	0.292898650514	1.38039588928	53948.9418034	33718.270874	10605.8994252	70.2300424086	266666.963365	66684236.3826	0
7225000.0	46626.0	156095577.031	0.292498997528	174190.136719	0.295478384942	1.37788820267	53725.0609432	33550.4516602	10544.557848	71.0359088375	43071.3729012	66689075.5703	0
7250000.0	46807.0	158164899.329	0.293343747657	174191.870117	0.298061990179	1.37538099289	53502.5387948	33383.9050293	10481.5453972	71.8702947306	552144.783523	66693915.2704	0
7275000.0	46988.0	160252462.361	0.294180886951	174192.773438	0.300658051856	1.37290346622	53283.3019679	33219.9554443	10417.8571147	72.7204606264	1411812.51069	66698755.4829	0
7300000.0	47170.0	162358293.324	0.295016634103	174193.896484	0.303257460473	1.37043321133	53065.619551	33057.3272705	10352.6914902	73.5994549084	2541518.70062	66703596.2078	0
7325000.0	47352.0	164482479.068	0.295843766878	174194.128418	0.305868918076	1.3679984808	52851.4239159	32897.3815918	10287.0072814	74.2903358918	1605955.56322	66708437.4452	0
7350000.0	47534.0	166625105.138	0.296661995204	174193.493652	0.308492337354	1.36560440063	52640.8252254	32740.1031494	10220.9093446	75.1990552042	594690.63711	66713279.195	0
7375000.0	47717.0	168786198.338	0.297478179245	174192.822266	0.311119074468	1.36322271824	52431.9021004	32584.185791	10153.5860427	76.136821055	3048.08127298	66718121.4574	0
7400000.0	47900.0	170965847.674	0.298285586682	174190.917969	0.313758268021	1.36087751389	52226.3143772	32430.7983398	10086.0306482	77.0899019954	595475.395725	66722964.2324	0
7425000.0	48084.0	173164079.513	0.299090691858	174188.928223	0.316400721204	1.35854327679	52022.388751	32278.7750244	10017.4177878	78.0722479017	1764243.73235	66727807.5199	0
7450000.0	48268.0	175380980.701	0.299888061345	174186.340332	0.319054874126	1.35623753071	51821.4494873	32129.0863037	9948.71458174	79.0700975646	3384090.24413	66732651.32	0
7475000.0	48453.0	177616573.414	0.300684843614	174184.802246	0.32171147177	1.353931427	51621.6403131	31980.4595947	9879.10492287	80.097681591	5370138.84445	66737495.6328	0
7500000.0	48638.0	179870939.077	0.301474451101	174183.300781	0.3243793617	1.35164809227	51424.630328	31834.0881348	9809.5407133	80.9221311782	59253.4957012	66742340.4583	0
7525000.0	48823.0	182144159.711	0.302256780737	174181.848145	0.327058485709	1.34938716888	51230.455834	31690.0085449	9740.07065052	81.9785283445	606474.655246	66747185.7964	0
7550000.0	49009.0	184436257.087	0.303037707542	174181.311035	0.329740403686	1.34712600708	51037.5344804	31547.15271	9669.94584179	83.0643378871	2035296.71997	66752031.6474	0
7575000.0	49195.0	186747315.748	0.303811346394	174180.615234	0.332433934091	1.34488761425	50847.3140183	31406.4941406	9600.05184929	83.9396701641	2061209.14015	66756878.0111	0
7600000.0	49381.0	189077418.88	0.304577067953	174179.785156	0.335138989612	1.3426733017	50659.8732579	31268.057251	9530.47469288	85.0529411561	550098.579789	66761724.8876	0
7625000.0	49568.0	191426583.881	0.305341079631	174179.89502	0.337845995091	1.34046053886	50473.6827258	31130.7342529	9460.4045857	86.1961080712	167328.472525	66766572.2769	0
7650000.0	49755.0	193794889.037	0.306097049231	174179.956055	0.340563885402	1.33827209473	50290.2751169	30995.5932617	9390.7568527	87.3539651576	1531074.49276	66771420.1791	0
7675000.0	49943.0	196182347.778	0.306850508059	174181.018066	0.343283056282	1.33608627319	50108.2225737	30861.6088867	9320.75195484	88.5418835263	3688022.67652	66776268.5942	0
7700000.0	50131.0	198589035.3	0.307595526093	174182.019043	0.346012675436	1.33392584324	49929.0809683	30729.8553467	9251.25876217	89.5064769062	714284.800138	66781117.5223	0
7725000.0	50319.0	201015031.128	0.308331363826	174182.800293	0.348753354046	1.33178949356	49752.7690316	30600.3173828	9181.72921312	90.7266412566	199570.812802	66785966.9633	0
7750000.0	50508.0	203460351.451	0.309064194332	174184.375	0.351495633367	1.32965600491	49577.9023193	30472.0550537	9110.95144477	91.9875390872	1869721.1977	66790816.9173	0
7775000.0	50697.0	205925074.051	0.309788229225	174185.742188	0.354248913936	1.32754731178	49405.8305526	30346.0083008	9039.83586968	93.0271809699	2094979.23744	66795667.3844	0
7800000.0	50886.0	208409278.31	0.310503596036	174186.950684	0.357012962922	1.32546365261	49236.4728337	30222.0947266	8968.44820303	94.3350779605	232729.367415	66800518.3645	0
7825000.0	51076.0	210912977.602	0.311216154821	174188.964844	0.3597784671	1.32338476181	49068.4916208	30099.407959	8896.08088272	95.6843020038	877389.612359	66805369.8577	0
7850000.0	51266.0	213436249.154	0.311920415935	174190.83252	0.36255462328	1.32133293152	48903.2047481	29978.8269043	8823.62900606	97.0583579319	3413964.41767	66810221.8641	0
7875000.0	51457.0	215979107.518	0.312621300609	174193.383789	0.365332292859	1.31928777695	48739.389961	29859.5397949	8750.37399053	98.4741917799	6993424.13351	66815074.3836	0
7900000.0	51648.0	218541633.22	0.313312656496	174195.556641	0.368121138308	1.31727063656	48578.4137905	29742.46521	8677.18408198	99.6539857556	433769.95735	66819927.4163	0
7925000.0	51839.0	221123905.024	0.313994970755	174197.436523	0.370920839487	1.31528115273	48420.2047995	29627.5299072	8604.10564591	100.852482228	3976991.91971	66824780.9623	0
7950000.0	52030.0	223726001.454	0.31466838839	174198.999023	0.373731396394	1.31331992149	48264.7682241	29514.7155762	8531.23051457	102.336213282	996117.406113	66829635.0215	0
7975000.0	52222.0	226347933.598	0.315337896455	174201.171875	0.376542913727	1.31136846542	48110.8075608	29403.0853271	8457.84889699	103.862237961	420807.627801	66834489.5941	0
8000000.0	52414.0	228989774.465	0.315998760205	174203.100586	0.379364500986	1.30944490433	47959.5282471	29293.4783936	8384.77625259	105.413158618	3229537.75942	66839344.68	0
8025000.0	52607.0	231651531.298	0.316655920976	174205.603027	0.382186699426	1.30753159523	47809.7254398	29185.0646973	8311.34018904	107.006864109	7569776.22336	66844200.2792	0
8050000.0	52800.0	234333280.534	0.317303962124	174207.678223	0.385019317036	1.30564987659	47662.6681373	29078.6956787	8238.34829738	108.344471534	816727.226443	66849056.3919	0
8075000.0	52993.0	237035098.122	0.31794289935	174209.240723	0.387862382922	1.30379796028	47518.3092115	28974.3652344	8165.85398196	109.69931194	3049257.86908	66853913.0181	0
8100000.0	53186.0	239757060.565	0.31857226775	174210.375977	0.390715955291	1.3019734621	47376.6324623	28872.1038818	8093.89094705	111.358868419	156363.234676	66858770.1578	0
8125000.0	53380.0	242499176.2	0.31919674793	174211.962891	0.393570226151	1.30015575886	47236.5148274	28771.1791992	8021.82222452	113.060920242	1982000.76904	66863627.811	0
8150000.0	53574.0	245261519.154	0.319811195448	174213.110352	0.396434770664	1.298361063	47099.0449956	28672.3571777	7950.3777499	114.78699064	6609214.34015	66868485.9777	0
8175000.0	53769.0	248044096.423	0.32041983721	174214.72168	0.399299722631	1.29656934738	46963.1680888	28574.9572754	7878.93804908	116.257006784	527129.176039	66873344.6581	0
8200000.0	53963.0	250847051.253	0.321013134027	174214.978027	0.402184843551	1.29481732845	46831.0148571	28480.3985596	7808.92904076	117.722922066	3225559.28285	66878203.8521	0
8225000.0	54158.0	253670394.834	0.321600395768	174215.466309	0.405070983106	1.29307055473	46700.5023853	28387.2955322	7738.99827048	119.530002536	22112.9165245	66883063.5599	0
8250000.0	54353.0	256514203.163	0.322176718251	174215.356445	0.407967658248	1.29134750366	46572.6623408	28296.3104248	7669.87901077	121.359399736	3064053.91547	66887923.7813	0
8275000.0	54549.0	259378483.316	0.322746392739	174215.50293	0.410864769947	1.28963220119	46446.5576374	28206.8084717	7600.94309611	123.231125178	9132705.81948	66892784.5165	0
8300000.0	54745.0	262263308.775	0.323305400096	174215.014648	0.413771951571	1.28794205189	46323.1744492	28119.4610596	7532.89142978	124.806453678	2169845.46667	66897645.7655	0
8325000.0	54941.0	265168750.977	0.32385316879	174213.964844	0.41668897029	1.28627753258	46202.548443	28034.2681885	7465.74412265	126.395319586	986340.919422	66902507.5283	0
8350000.0	55137.0	268094882.872	0.324388721619	174212.255859	0.419616058934	1.28463995457	46084.8308076	27951.3580322	7399.53657486	127.996824214	6904039.88031	66907369.805	0
8375000.0	55333.0	271041780.432	0.324910669598	174209.790039	0.422553392127	1.28302943707	45970.2878177	27870.9869385	7334.2946368	129.94082149	1122598.9843	66912232.5956	0
8400000.0	55530.0	274009449.893	0.325424831343	174207.971191	0.425490841735	1.28142511845	45857.4789904	27792.1447754	7269.4124349	131.925900565	1930445.7762	66917095.9002	0
8425000.0	55727.0	276997962.073	0.325929757204	174206.188965	0.428437808296	1.27984237671	45747.042592	27715.1580811	7205.53932058	133.930705801	8816029.44582	66921959.7188	0
8450000.0	55925.0	280007316.119	0.32643132368	174205.297852	0.431384250987	1.27826321125	45637.7316441	27639.1662598	7142.10196231	135.632914391	2422709.96689	66926824.0513	0
8475000.0	56122.0	283037648.148	0.326924013759	174203.710938	0.434349582065	1.27671837807	45530.9820173	27564.9902344	7080.30359113	137.323725685	524646.10005	66931688.898	0
8500000.0	56320.0	286088954.853	0.327417273218	174203.039551	0.437314069131	1.27517592907	45424.8100151	27491.2963867	7018.92434368	139.398937987	3210533.85417	66936554.2587	0
8525000.0	56518.0	289161303.894	0.327906306587	174202.441406	0.440287636593	1.27365386486	45320.7360714	27419.2596436	6958.06191441	141.146824968	151419.611162	66941420.1335	0
8550000.0	56716.0	292254764.651	0.328389295222	174201.806641	0.443270837422	1.27215218544	45218.6949769	27348.8067627	6897.63635446	142.916662043	4548992.56597	66946286.5226	0
8575000.0	56914.0	295369405.269	0.328865611916	174201.184082	0.446263176855	1.27067041397	45118.4705495	27279.7119141	6837.66797769	145.07384632	100528.041831	66951153.4258	0
8600000.0	57113.0	298505224.724	0.329337907611	174201.416016	0.449254876003	1.26919388771	45018.9941247	27211.1846924	6777.62561874	147.284813083	5849843.24034	66956020.8433	0
8625000.0	57312.0	301662290.298	0.329801266285	174201.660156	0.452255626442	1.26773667336	44920.863228	27143.5394287	6718.08837016	149.15246159	828064.672477	66960888.775	0
8650000.0	57511.0	304840667.99	0.330255138642	174202.001953	0.455265515484	1.26629889011	44823.7992634	27076.4801025	6659.08143087	151.041781679	1758822.00447	66965757.2211	0
8675000.0	57710.0	308040427.795	0.330698397956	174202.270508	0.458284979686	1.2648806572	44727.751173	27009.9609375	6600.63625001	153.336323654	2407546.71218	66970626.1815	0
8700000.0	57910.0	311261569.444	0.331135005736	174203.234863	0.461303745396	1.26346898079	44632.1162732	26943.6431885	6542.22274416	155.296488147	308739.322942	66975495.6564	0
8725000.0	58109.0	314504231.672	0.331559164516	174203.430176	0.464341952465	1.26209139824	44538.6673108	26878.7689209	6484.93136635	157.25343656	4368853.68603	66980365.6456	0
8750000.0	58309.0	317768411.954	0.331978262619	174204.370117	0.467379257316	1.26071894169	44446.0400996	26814.5507812	6427.71824319	159.654387273	701818.454716	66985236.1493	0
8775000.0	58509.0	321054176.032	0.332390281911	174205.297852	0.47042555525	1.25936508179	44355.2022846	26751.6967773	6371.1218038	162.086161082	9038875.8439	66990107.1675	0
8800000.0	58710.0	324361517.041	0.332798994534	174207.043457	0.473470194265	1.25801646709	44265.664196	26689.9719238	6314.6492944	164.164438329	3309464.77538	66994978.7003	0
8825000.0	58910.0	327690570.641	0.333198866539	174208.02002	0.476534012705	1.25670027733	44178.9140295	26630.3344727	6259.34394421	166.237528015	41262.5568428	66999850.7476	0
8850000.0	59111.0	331041334.11	0.333595375752	174209.655762	0.479596608784	1.25539183617	44093.3301424	26571.6430664	6204.19599065	168.775619935	7509026.7969	67004723.3096	0
8875000.0	59312.0	334413873.48	0.333984585268	174211.206055	0.482668401673	1.25410270691	44009.6155544	26514.364624	6149.72972728	170.918555162	2388115.15621	67009596.3862	0
8900000.0	59513.0	337808254.044	0.334365640992	174212.695312	0.48574898392	1.25283241272	43927.7421968	26458.493042	6095.95579553	173.080533195	114889.441725	67014469.9774	0
8925000.0	59714.0	341224539.911	0.334737709237	174214.135742	0.488838297315	1.25157892704	43847.6975031	26404.0466309	6042.88428385	175.261044379	3324066.22629	67019344.0834	0
8950000.0	59915.0	344662794.201	0.335100004202	174215.576172	0.491935934406	1.25034153461	43769.4622273	26351.0314941	5990.5050157	177.460259343	8539243.49042	67024218.7042	0
8975000.0	60116.0	348123079.608	0.335451681664	174216.992188	0.495042302646	1.24911975861	43693.0450778	26299.4720459	5938.84058533	180.124025874	20667.8637331	67029093.8397	0
9000000.0	60318.0	351605391.287	0.335794500335	174218.969727	0.498147390317	1.24790346622	43618.0680847	26249.1851807	5887.43426545	182.843103756	8444583.10431	67033969.4901	0
9025000.0	60520.0	355109795.719	0.336126221715	174220.776367	0.501261441968	1.24670577049	43545.116195	26200.5004883	5836.76129248	185.132319925	3744902.62337	67038845.6554	0
9050000.0	60722.0	358636359.036	0.336447533591	174222.424316	0.504384515807	1.24552583694	43474.123601	26153.3813477	5786.82942967	187.437935434	613455.081906	67043722.3356	0
9075000.0	60924.0	362185147.213	0.336758861038	174223.901367	0.507516379002	1.24436378479	43405.0072812	26107.7362061	5737.65229517	189.759119294	886302.579584	67048599.5307	0
9100000.0	61126.0	365756225.543	0.337060607366	174225.244141	0.51065714797	1.2432192564	43337.713266	26063.5131836	5689.21163695	192.095920919	4012098.53599	67053477.2408	0
9125000.0	61328.0	369349658.471	0.337353506372	174226.403809	0.513806648087	1.24209237099	43272.18894	26020.6634521	5641.52680576	194.928528881	3165848.38949	67058355.466	0
9150000.0	61531.0	372965436.877	0.337640201291	174228.112793	0.516954460181	1.24097073078	43207.7989546	25978.7872314	5594.16794445	197.328360511	539159.710518	67063234.2062	0
9175000.0	61733.0	376603697.197	0.337916629909	174228.979492	0.520121131558	1.23987782001	43145.5868375	25938.4765625	5547.99848063	199.713163218	699748.33279	67068113.4615	0
9200000.0	61936.0	380264457.749	0.338187921454	174230.419922	0.523285823874	1.23879027367	43084.3902875	25899.0112305	5502.1617306	202.639229541	8460524.95468	67072993.232	0
9225000.0	62139.0	383947726.454	0.338452384113	174231.689453	0.526458607055	1.23771953583	43024.7374832	25860.6964111	5457.08712942	204.579934952	6861790.85493	67077873.5177	0
9250000.0	62341.0	387653672.63	0.338708206909	174231.982422	0.529655721039	1.23667728901	42967.0302006	25823.7243652	5413.21975371	206.998568665	11183758.643	67082754.3186	0
9275000.0	62544.0	391382277.733	0.338960499498	174232.958984	0.532844976988	1.23563909531	42910.1785798	25787.4511719	5369.66963642	209.978534951	53568.4840603	67087635.6347	0
9300000.0	62747.0	395133619.108	0.339204938285	174233.642578	0.536043138709	1.2346200943	42855.0100885	25752.4291992	5326.89097597	212.980631661	12565686.7122	67092517.4662	0
9325000.0	62951.0	398907673.241	0.339442862003	174234.680176	0.539239787031	1.23361086845	42801.1805888	25718.4906006	5284.49953824	215.504760546	8645828.28427	67097399.813	0
9350000.0	63154.0	402704580.577	0.339670693937	174234.692383	0.542455993127	1.23263120651	42749.5276942	25686.1053467	5243.25710869	217.471979419	6694549.4685	67102282.6752	0
9375000.0	63357.0	406524406.84	0.339890458506	174234.338379	0.545681104995	1.23166966438	42699.5156453	25654.9530029	5202.59930841	220.525736231	2741959.0219	67107166.0528	0
9400000.0	63561.0	410367143.063	0.340104219711	174234.326172	0.548904296011	1.23071539402	42650.6703591	25624.7650146	5162.12641999	223.090798896	837437.999304	67112049.9458	0
9425000.0	63764.0	414232927.204	0.340308889475	174233.276367	0.552146928385	1.22978794575	42603.7546516	25595.9320068	5122.54765927	225.642421578	52785.4470929	67116934.3543	0
9450000.0	63968.0	418121747.631	0.340507972821	174232.580566	0.555387232453	1.22886586189	42557.8528291	25567.9428101	5083.13282597	228.242086108	1207614.1275	67121819.2784	0
9475000.0	64171.0	422033743.007	0.340698433153	174230.810547	0.558646861464	1.22796869278	42513.745489	25541.2277222	5044.60834073	230.826871432	3014801.87849	67126704.718	0
9500000.0	64375.0	425968900.23	0.340884036633	174229.406738	0.561904045753	1.22707557678	42470.5060117	25515.2404785	5006.2384103	234.03378351	7615082.98322	67131590.6732	0
9525000.0	64579.0	429927278.412	0.341063213932	174227.868652	0.565169146284	1.22619438171	42428.4862107	25490.1916504	4968.38397956	236.110396425	7677679.30859	67136477.144	0
9550000.0	64782.0	433909011.563	0.341234528609	174225.842285	0.568452698644	1.22533357143	42388.0095115	25466.242981	4931.3680248	238.745980513	10300664.2945	67141364.1306	0
9575000.0	64986.0	437914081.856	0.341401430249	174224.694824	0.571732933167	1.22447216511	42348.209101	25442.9214478	4894.5149953	242.023234409	1783474.85704	67146251.6328	0
9600000.0	65190.0	441942545.053	0.341561179768	174223.742676	0.575020792894	1.22362220287	42309.6864343	25420.5993652	4858.1507325	244.730965281	656104.238738	67151139.6508	0
9625000.0	65394.0	445994465.677	0.341712977341	174222.839355	0.578317325562	1.22278559208	42272.6974814	25399.508667	4822.27901204	247.454687836	26704.5535387	67156028.1846	0
9650000.0	65598.0	450069905.029	0.341857108054	174221.99707	0.581621949095	1.22196292877	42237.1877792	25379.5654297	4786.89815664	250.194256002	380303.586374	67160917.2343	0
9675000.0	65802.0	454168925.098	0.341993831185	174221.228027	0.584935012739	1.22115290165	42203.0588522	25360.7147217	4752.00645371	252.949110467	1138931.42947	67165806.7997	0
9700000.0	66006.0	458291586.957	0.342123268341	174220.568848	0.588256283663	1.22035634518	42170.2523265	25342.8741455	4717.58143961	255.720048869	2036296.37231	67170696.8811	0
9725000.0	66210.0	462437950.094	0.342245989305	174220.031738	0.591585529037	1.21957194805	42138.6784159	25325.9811401	4683.63207258	259.139794394	11902937.0566	67175587.4784	0
9750000.0	66415.0	466607998.093	0.342363376794	174220.251465	0.594911747612	1.21879160404	42107.9584959	25309.8068237	4649.83512033	261.982385394	10637744.5615	67180478.5917	0
9775000.0	66619.0	470801865.882	0.34247329449	174219.970703	0.598256825469	1.21803176403	42078.6595119	25294.619751	4616.80919837	264.158903915	4878594.95511	67185370.221	0
9800000.0	66823.0	475019612.479	0.342577322813	174219.812012	0.601609761361	1.21728360653	42050.3647076	25280.1620483	4584.24433963	266.990489007	5754037.79	67190262.3664	0
9825000.0	67027.0	479261295.068	0.342675646939	174219.824219	0.604970206041	1.2165466547	42023.0267153	25266.3970947	4552.11909117	269.837470696	6552231.13621	67195155.0278	0
9850000.0	67231.0	483526971.177	0.342768761205	174219.995117	0.608338508755	1.21582138538	41996.5693397	25253.2409668	4520.43734627	273.3673291	7329187.76653	67200048.2053	0
9875000.0	67436.0	487816618.723	0.342857750096	174220.97168	0.611703027971	1.21509850025	41970.6522209	25240.5212402	4488.90709794	276.285325024	6864539.57851	67204941.899	0
9900000.0	67640.0	492130372.818	0.342940476095	174221.496582	0.615086173639	1.21439528465	41945.8341308	25228.4835815	4458.1009112	278.500161885	8397324.73227	67209836.1089	0
9925000.0	67844.0	496468296.297	0.34301645321	174222.033691	0.61847793404	1.21370542049	41922.1169851	25217.2454834	4427.72489935	281.403835028	8757295.40978	67214730.8351	0
9950000.0	68048.0	500830451.823	0.343085896952	174222.619629	0.621878018137	1.21302831173	41899.4419551	25206.7626953	4397.7779684	285.017318979	6289907.74598	67219626.0775	0
9975000.0	68253.0	505216821.868	0.343149810034	174223.876953	0.625275075436	1.21235668659	41877.6124682	25196.9543457	4367.97603297	287.990081687	6396365.50539	67224521.8362	0
10000000.0	68457.0	509627545.528	0.34320675399	174224.572754	0.628691515885	1.21170544624	41857.0735387	25188.0126953	4338.86670635	290.228592571	8879675.04381	67229418.1112	0
10025000.0	68661.0	514062682.598	0.343257789357	174225.317383	0.632115988992	1.21106636524	41837.5748945	25179.8294067	4310.17378846	293.183368597	8608936.52972	67234314.9026	0
10050000.0	68865.0	518522293.005	0.343303079453	174226.147461	0.635548203718	1.21043932438	41819.0998639	25172.3800659	4281.88217128	296.876695445	7582880.30768	67239212.2104	0
10075000.0	69070.0	523006355.855	0.343343519108	174227.67334	0.638977100607	1.20981669426	41801.4158438	25165.5700684	4253.72955347	299.90027129	8308487.50266	67244110.0347	0
10100000.0	69274.0	527515006.059	0.343377896089	174228.686523	0.642424507532	1.20921289921	41784.9353539	25159.5611572	4226.23995127	302.158669178	6914142.5874	67249008.3754	0
10125000.0	69478.0	532048301.213	0.343407247054	174229.785156	0.645879830699	1.20862042904	41769.4350925	25154.2617798	4199.13546607	305.162266205	6111075.10619	67253907.2326	0
10150000.0	69682.0	536606296.407	0.343431710025	174231.005859	0.649342313409	1.20803821087	41754.8601856	25149.6337891	4172.42470153	308.176930014	5211542.64939	67258806.6064	0
10175000.0	69886.0	541189047.968	0.343451620394	174232.299805	0.652812188491	1.20746612549	41741.2218404	25145.6985474	4146.09324218	311.202980012	4248219.92453	67263706.4968	0
10200000.0	70090.0	545796608.341	0.343466639065	174233.740234	0.656289281324	1.20690393448	41728.5066997	25142.4407959	4120.13151908	314.240606173	3238544.29192	67268606.9038	0
10225000.0	70294.0	550429038.955	0.343475808412	174235.168457	0.659774348605	1.20635342598	41716.8807399	25139.9963379	4094.55264212	317.287819544	2211022.38856	67273507.8275	0
10250000.0	70498.0	555086399.736	0.343478818089	174236.59668	0.663267332129	1.20581483841	41706.3418277	25138.3590698	4069.34255472	320.345071136	1222552.44288	67278409.2678	0
10275000.0	70702.0	559768749.838	0.343476145943	174237.988281	0.66676834831	1.20528709888	41696.8304218	25137.4984741	4044.49639231	323.412040334	387663.518476	67283311.2249	0
10300000.0	70906.0	564476149.098	0.343468045374	174239.355469	0.670277397148	1.20477068424	41688.3005888	25137.3580933	4020.01379013	326.48809979	50365.0647658	67288213.6988	0
10325000.0	71110.0	569208656.424	0.343454882765	174240.722656	0.673794304021	1.20426487923	41680.7244226	25137.9272461	3995.89436193	329.572690052	796134.583734	67293116.6894	0
10350000.0	71314.0	573966330.606	0.343436884249	174242.089844	0.677318836097	1.20376932621	41674.0344914	25139.1494751	3972.1202575	332.666725095	2092620.17485	67298020.1969	0
10375000.0	71518.0	578749229.962	0.343414444992	174243.432617	0.680851167999	1.20328390598	41668.2002233	25140.9881592	3948.68702791	335.769850678	3866584.72985	67302924.2213	0
10400000.0	71722.0	583557411.344	0.343387847866	174244.750977	0.684391125105	1.2028080225	41663.1484437	25143.397522	3925.58599194	338.051658566	12264928.7518	67307828.7626	0
10425000.0	71925.0	588391013.77	0.343357263453	174245.483398	0.68795029074	1.20234823227	41658.9916199	25146.3760376	3903.03147752	341.126344266	9413520.63474	67312733.8208	0
10450000.0	72129.0	593250012.87	0.343323115422	174246.826172	0.691505498253	1.20189166069	41655.4417568	25149.8474121	3880.56820391	345.09549477	11945159.2653	67317639.3961	0
10475000.0	72333.0	598134465.534	0.343285714964	174248.132324	0.695068039931	1.20144414902	41652.5486485	25153.7704468	3858.41637411	347.382376993	4156464.50541	67322545.4883	0
10500000.0	72536.0	603044508.524	0.343245260834	174248.876953	0.698649848346	1.20101225376	41650.4062902	25158.1314087	3836.78275006	350.484479566	2017147.97943	67327452.0976	0
10525000.0	72740.0	607980119.652	0.343200294898	174250.12207	0.702227698639	1.20058500767	41648.9874808	25163.0722046	3815.2201551	353.636506353	398100.94352	67332359.224	0
10550000.0	72943.0	612941443.745	0.343150624188	174250.683594	0.70582551416	1.20017564297	41648.5587716	25168.6584473	3794.16614415	356.756525956	419347.564213	67337266.8676	0
10575000.0	73147.0	617928459.386	0.34309614053	174251.733398	0.709420011844	1.19977152348	41648.8806893	25174.8428345	3773.18274718	359.925852956	2275299.6043	67342175.0283	0
10600000.0	73350.0	622941308.574	0.343037606023	174252.075195	0.713034009095	1.19938361645	41650.0906146	25181.5887451	3752.68208525	362.17187465	15303573.7386	67347083.7062	0
10625000.0	73553.0	627980051.89	0.342975305278	174252.319336	0.716656097211	1.19900524616	41652.0244234	25188.8458252	3732.44443406	365.311552875	11038960.3289	67351992.9013	0
10650000.0	73756.0	633044749.667	0.342909494724	174252.441406	0.720286101568	1.19863629341	41654.6484321	25196.5774536	3712.46673535	368.460422933	7124327.71511	67356902.6137	0
10675000.0	73959.0	638135460.506	0.342840626792	174252.441406	0.723924080376	1.19827592373	41657.9133216	25204.7546387	3692.75003336	371.617829626	3724449.671	67361812.8435	0
10700000.0	74162.0	643252243.524	0.342768901264	174252.319336	0.727569742594	1.19792366028	41661.7790495	25213.3377075	3673.27516858	374.78533791	1089012.54233	67366723.5905	0
10725000.0	74365.0	648395156.446	0.34269490974	174252.075195	0.731223088223	1.19757902622	41666.1816115	25222.2808838	3654.04342739	377.962342289	184682.073142	67371634.855	0
10750000.0	74568.0	653564255.746	0.342618851085	174251.672363	0.734883942641	1.19724154472	41671.0862393	25231.5475464	3635.04807151	381.149148096	2304796.06336	67376546.6368	0
10775000.0	74771.0	658759598.661	0.342541231617	174251.123047	0.738552364055	1.19691121578	41676.4535436	25241.1071777	3616.28645754	384.345530002	5717843.66612	67381458.9361	0
10800000.0	74974.0	663981240.98	0.342462221251	174250.427246	0.742228177842	1.19658660889	41682.2268775	25250.9246826	3597.74413136	386.598094502	10826429.1244	67386371.7529	0
10825000.0	75176.0	669229323.758	0.342381598347	174248.999023	0.745923316572	1.19627451897	41688.5425845	25261.0229492	3579.61914782	389.764257858	6394407.61489	67391285.0872	0
10850000.0	75379.0	674503824.861	0.342297409754	174247.827148	0.749614846427	1.19596648216	41695.5007004	25271.6339111	3561.51508787	392.982781225	2688621.40677	67396198.939	0
10875000.0	75581.0	679804888.565	0.342210442536	174246.044922	0.753326283302	1.19567263126	41703.1915698	25282.6782227	3543.81385296	396.16787346	239944.910671	67401113.3084	0
10900000.0	75784.0	685132489.93	0.342119584723	174244.98291	0.757033238187	1.19538259506	41711.5570189	25294.2596436	3526.13090721	399.405984896	1370291.07093	67406028.1955	0
10925000.0	75986.0	690486770.672	0.3420261534	174243.481445	0.760759750847	1.19510507584	41720.5898387	25306.2484741	3508.83282988	401.617160468	18472319.8405	67410943.6002	0
10950000.0	76188.0	695867788.229	0.341930097075	174242.199707	0.764494063333	1.1948350668	41730.2255082	25318.6599731	3491.72695532	404.824737734	12357049.4496	67415859.5226	0
10975000.0	76390.0	701275599.542	0.341831475931	174241.040039	0.768235768192	1.19457256794	41740.4165734	25331.4468384	3474.81892772	408.041696623	6980720.88047	67420775.9627	0
11000000.0	76592.0	706710261.604	0.341730712089	174240.075684	0.771984865423	1.19431757927	41751.1556437	25344.6029663	3458.08769363	411.270120634	2650491.54744	67425692.9206	0
11025000.0	76794.0	712171829.828	0.341628171123	174239.27002	0.775741529651	1.19406926632	41762.3854297	25358.0917358	3441.54660015	414.507972771	51036.1675873	67430610.3963	0
11050000.0	76996.0	717660359.403	0.341523856285	174238.671875	0.779505062383	1.19382727146	41774.0458859	25371.862793	3425.18240477	417.7568346	2186097.61067	67435528.3898	0
11075000.0	77198.0	723175904.383	0.341418215548	174238.28125	0.783276045695	1.1935915947	41786.1226871	25385.9054565	3408.98584842	421.017182276	6668172.47347	67440446.9011	0
11100000.0	77400.0	728718520.646	0.341311473622	174238.061523	0.78705418855	1.19336140156	41798.586729	25400.2044678	3392.96646279	423.237439457	10777175.8825	67445365.9304	0
11125000.0	77601.0	734288348.764	0.3412041045	174237.487793	0.790851656348	1.19314157963	41811.3902107	25414.642334	3377.28191291	426.466584903	5271296.25414	67450285.4775	0
11150000.0	77803.0	739885359.845	0.341093224577	174237.609863	0.794644467533	1.19292628765	41824.8819909	25429.6310425	3361.59235793	429.750623597	1160677.41842	67455205.5427	0
11175000.0	78004.0	745509698.256	0.340979949572	174237.316895	0.798457418568	1.19272303581	41838.9976682	25445.0057983	3346.22918834	431.926233368	29973074.084	67460126.1258	0
11200000.0	78205.0	751161424.177	0.340864035014	174237.17041	0.8022779366	1.19252800941	41853.6947643	25460.7727051	3331.02400624	436.26095659	4877980.792	67465047.227	0
11225000.0	78407.0	756840507.277	0.340745043449	174237.695312	0.806093798019	1.1923365593	41868.9792777	25477.0019531	3315.80418092	439.577500114	11062804.4947	67469968.8462	0
11250000.0	78608.0	762547092.65	0.340624696473	174237.817383	0.809929741081	1.19215559959	41884.7078628	25493.47229	3300.90033654	441.760505491	6890578.00185	67474890.9835	0
11275000.0	78809.0	768281235.63	0.340502499476	174238.085938	0.8137729601	1.19198131561	41900.8924033	25510.2355957	3286.14285789	445.04524009	1877078.62645	67479813.6389	0
11300000.0	79010.0	774042995.386	0.340378843247	174238.48877	0.817623746116	1.19181263447	41917.4544283	25527.2384644	3271.53037926	447.225394617	32646315.1199	67484736.8125	0
11325000.0	79210.0	779832515.969	0.340254835158	174238.513184	0.821494497359	1.19165277481	41934.2912832	25544.3466187	3257.20817562	450.479040281	23145244.2603	67489660.5043	0
11350000.0	79411.0	785649765.863	0.340129179712	174239.208984	0.82536006812	1.19149398804	41951.489396	25561.7401123	3242.87033941	454.920347011	11167618.6347	67494584.7143	0
11375000.0	79612.0	791494800.994	0.340002927996	174240.039062	0.829233089462	1.19133925438	41968.9111785	25579.2510986	3228.69132934	457.106267484	7372828.90216	67499509.4425	0
11400000.0	79812.0	797367765.214	0.339877128008	174240.490723	0.833126017824	1.19119179249	41986.4697075	25596.7544556	3214.86374448	460.379564249	2017712.04465	67504434.6891	0
11425000.0	80013.0	803268625.229	0.339750733056	174241.601562	0.837013474666	1.1910443306	42004.2535887	25614.4287109	3201.07077671	463.701670348	512594.495139	67509360.454	0
11450000.0	80213.0	809197526.335	0.339623772071	174242.30957	0.840920838527	1.1909044981	42022.2853176	25632.1990967	3187.60646365	465.81643543	24068876.8352	67514286.7372	0
11475000.0	80413.0	815154528.161	0.339494680098	174243.127441	0.844836467877	1.19077062607	42040.8038955	25650.3051758	3174.3207662	469.089460036	15046801.4814	67519213.5388	0
11500000.0	80613.0	821139690.948	0.339363764144	174244.042969	0.848759547807	1.19064235687	42059.7300065	25668.6798096	3161.20497916	472.365601243	7416426.422	67524140.8588	0
11525000.0	80813.0	827153072.252	0.339231440092	174245.043945	0.852690427564	1.1905194521	42079.0421706	25687.3077393	3148.25745202	475.644416593	1778135.83118	67529068.6973	0
11550000.0	81013.0	833194730.448	0.33909801292	174246.118164	0.856628874317	1.19040155411	42098.7024627	25706.1523438	3135.46623141	478.927362897	866165.503605	67533997.0543	0
11575000.0	81213.0	839264722.461	0.338963731893	174247.277832	0.860575004481	1.1902885437	42118.6389907	25725.1617432	3122.82984133	481.008620133	23727432.6393	67538925.9297	0
11600000.0	81412.0	845363195.312	0.338829830891	174248.022461	0.864541274495	1.19018280506	42138.7458112	25744.1986084	3110.49026158	484.243657399	14336888.6972	67543855.3237	0
11625000.0	81612.0	851490119.249	0.338694941634	174249.365234	0.868502538651	1.19007813931	42159.1278848	25763.4490967	3098.14501395	488.753152359	23583466.3349	67548785.2363	0
11650000.0	81812.0	857645549.438	0.338560132405	174250.78125	0.872471136972	1.18997752666	42179.6760063	25782.7697754	3085.94702087	490.822814901	1094867.41721	67553715.6675	0
11675000.0	82011.0	863829632.091	0.338426631939	174251.745605	0.876459875144	1.18988347054	42200.2476164	25802.0050049	3074.01643	492.834977579	33976280.4946	67558646.6173	0
11700000.0	82210.0	870042424.513	0.338293809704	174252.807617	0.880456180312	1.18979299068	42220.903506	25821.2402344	3062.21937969	496.081830972	23101143.6226	67563578.0858	0
11725000.0	82409.0	876283982.667	0.338161909604	174253.942871	0.884459703229	1.18970608711	42241.6018335	25840.4388428	3050.5412877	499.335448112	13667572.227	67568510.073	0
11750000.0	82608.0	882554363.006	0.338030929603	174255.126953	0.888470560312	1.18962275982	42262.3557794	25859.6191406	3038.98781063	502.594517319	6012519.29188	67573442.5789	0
11775000.0	82807.0	888853625.236	0.337898907717	174256.359863	0.892489333637	1.18954586983	42283.4452973	25878.9886475	3027.55122051	505.859654059	792859.687786	67578375.6036	0
11800000.0	83006.0	895181827.669	0.337766036906	174257.617188	0.896515790373	1.18947505951	42304.8527559	25898.5412598	3016.2272143	509.131402308	2084967.28214	67583309.1471	0
11825000.0	83205.0	901539030.059	0.337632509545	174258.911133	0.900550105143	1.18940973282	42326.5287662	25918.2403564	3005.0115503	512.410088303	8473010.10835	67588243.2094	0
11850000.0	83404.0	907925292.589	0.337498707515	174260.229492	0.904592161532	1.18934953213	42348.4383339	25938.0554199	2993.90004679	514.400497447	13429055.7714	67593177.7906	0
11875000.0	83602.0	914340763.686	0.337365771294	174261.035156	0.908654765226	1.18929600716	42370.3871418	25957.800293	2983.02286237	517.63706888	5626520.30642	67598112.8907	0
11900000.0	83801.0	920785410.898	0.337232261896	174262.37793	0.912712072022	1.18924415112	42392.5907222	25977.7252197	2972.11014027	520.930478044	500281.037467	67603048.5097	0
11925000.0	83999.0	927259384.329	0.337100158588	174263.232422	0.916790333577	1.18919801712	42414.7448103	25997.5128174	2961.42592218	522.861886999	34917247.8903	67607984.6476	0
11950000.0	84197.0	933762742.604	0.336968835534	174264.086914	0.920875812881	1.18915438652	42436.9152436	26017.2607422	2950.82223011	526.115718653	23527610.5853	67612921.3046	0
11975000.0	84395.0	940295544.736	0.336838723848	174264.941406	0.924969208427	1.18911314011	42459.0638394	26036.9384766	2940.31138691	529.377024549	13718370.6684	67617858.4806	0
12000000.0	84593.0	946857847.75	0.336709928964	174265.783691	0.929070054553	1.1890733242	42481.1265634	26056.5032959	2929.88301949	532.647723833	5836751.18232	67622796.1756	0
12025000.0	84791.0	953449708.547	0.336582853125	174266.650391	0.933178584091	1.18903470039	42503.0799606	26075.9307861	2919.53330976	535.928201685	651914.319977	67627734.3898	0
12050000.0	84989.0	960071186.119	0.33645776245	174267.480469	0.937294622418	1.188996315	42524.8553066	26095.1812744	2909.26168494	539.218498313	2286632.25005	67632673.1231	0
12075000.0	85187.0	966722319.617	0.336333654728	174268.310547	0.941415317357	1.18895971775	42546.6074678	26114.364624	2899.05484541	541.152572995	25989850.7474	67637612.3755	0
12100000.0	85384.0	973403281.568	0.336210527885	174268.579102	0.945559993852	1.18892884254	42568.3745775	26133.4777832	2889.04875764	544.406091388	16002683.4211	67642552.1472	0
12125000.0	85582.0	980114038.648	0.336086764037	174269.262695	0.94969937345	1.18889892101	42590.3709975	26152.7648926	2878.98869627	547.720038955	7642616.53155	67647492.4381	0
12150000.0	85779.0	986854744.92	0.335964382987	174269.396973	0.95386011526	1.1888743639	42612.3050414	26171.9116211	2869.11801964	550.994522472	1689089.46104	67652433.2482	0
12175000.0	85977.0	993625365.914	0.335841768337	174269.970703	0.958015152719	1.18885064125	42634.4086577	26191.1712646	2859.19014455	554.330650057	1131453.18362	67657374.5777	0
12200000.0	86174.0	1000426057.99	0.335721124173	174269.946289	0.962191610597	1.18883168697	42656.3566612	26210.2172852	2849.44053283	556.216882706	30828231.9203	67662316.4265	0
12225000.0	86371.0	1007256880.5	0.33560164076	174269.848633	0.966375868302	1.18881499767	42678.2633978	26229.1687012	2839.74287397	559.519622666	20189707.1073	67667258.7946	0
12250000.0	86568.0	1014117893.57	0.33548363772	174269.65332	0.970568100456	1.18880045414	42700.0837686	26247.9858398	2830.10618559	562.833555381	11167329.6158	67672201.6822	0
12275000.0	86765.0	1021009158.8	0.33536732654	174269.348145	0.974768248852	1.18878793716	42721.7748293	26266.6381836	2820.52078021	566.16055525	4143563.08796	67677145.0892	0
12300000.0	86962.0	1027930736.01	0.335252784179	174268.945312	0.978976255283	1.18877732754	42743.3194478	26285.0982666	2810.98635805	569.500664506	68162.3183161	67682089.0157	0
12325000.0	87159.0	1034882685.52	0.335140355221	174268.408203	0.983192236163	1.18876838684	42764.6772959	26303.338623	2801.4964695	572.855081527	3343529.73035	67687033.4616	0
12350000.0	87356.0	1041865066.54	0.335030169301	174267.76123	0.987416133285	1.18876039982	42785.8016491	26321.3256836	2792.05394657	574.760741947	28082041.7162	67691978.4272	0
12375000.0	87552.0	1048878035.92	0.334923238347	174266.479492	0.991661217995	1.18875610828	42806.5659545	26338.9038086	2782.77157236	578.083040906	18384972.0922	67696923.9123	0
12400000.0	87749.0	1055921560.33	0.334816535992	174265.539551	0.995901064016	1.18875408173	42827.4708341	26356.52771	2773.41347778	581.471738604	10070528.4519	67701869.917	0
12425000.0	87945.0	1062995797.88	0.33471129054	174263.928223	1.00016279612	1.18875861168	42848.3152935	26373.9776611	2764.20824997	584.823623263	3661975.62548	67706816.4413	0
12450000.0	88142.0	1070100714.96	0.334605764216	174262.82959	1.00441870745	1.18876552582	42869.381698	26391.5435791	2754.92770533	588.242778807	10322.9349457	67711763.4853	0
12475000.0	88338.0	1077236468.45	0.33450166493	174261.38916	1.00869603921	1.18877756596	42890.3838161	26408.9477539	2745.79589264	590.120279486	41505508.7466	67716711.0491	0
12500000.0	88534.0	1084403117.37	0.334398323569	174260.03418	1.01298117079	1.18879258633	42911.4094597	26426.3092041	2736.69134457	594.540528454	0.0	67721659.1325	0
