\relax 
\providecommand\hyper@newdestlabel[2]{}
\@writefile{toc}{\contentsline {chapter}{\numberline {4}Simulace dynamick\IeC {\'e} diskonexe}{12}{chapter.4}}
\@writefile{lof}{\addvspace {10\p@ }}
\@writefile{lot}{\addvspace {10\p@ }}
\@writefile{toc}{\contentsline {section}{\numberline {4.1}Model klidn\IeC {\'e}ho Slunce}{12}{section.4.1}}
\@writefile{toc}{\contentsline {subsection}{\numberline {4.1.1}Rovnice p\IeC {\v r}enosu energie}{12}{subsection.4.1.1}}
\@writefile{toc}{\contentsline {subsection}{\numberline {4.1.2}Hydrostatick\IeC {\'a} rovnov\IeC {\'a}ha}{12}{subsection.4.1.2}}
\citation{OPAL}
\@writefile{toc}{\contentsline {subsection}{\numberline {4.1.3}Stavov\IeC {\'a} rovnice}{13}{subsection.4.1.3}}
\@writefile{toc}{\contentsline {subsection}{\numberline {4.1.4}Numerick\IeC {\'e} \IeC {\v r}e\IeC {\v s}en\IeC {\'\i }}{13}{subsection.4.1.4}}
\@writefile{toc}{\contentsline {subsection}{\numberline {4.1.5}V\IeC {\'y}sledky}{13}{subsection.4.1.5}}
\@writefile{lof}{\contentsline {figure}{\numberline {4.1}{\ignorespaces Porovn\IeC {\'a}n\IeC {\'\i } vypo\IeC {\v c}ten\IeC {\'e} hodnoty teploty ve Slunci do hloubky $\unit  [12.5]{Mm}$ s hodnotami z modelu S}}{14}{figure.4.1}}
\newlabel{fig:T_bcg}{{4.1}{14}{Porovn^^c3^^a1n^^c3^^ad vypo^^c4^^8dten^^c3^^a9 hodnoty teploty ve Slunci do hloubky $\unit [12.5]{Mm}$ s hodnotami z modelu S}{figure.4.1}{}}
\@writefile{lof}{\contentsline {figure}{\numberline {4.2}{\ignorespaces Porovn\IeC {\'a}n\IeC {\'\i } vypo\IeC {\v c}ten\IeC {\'e} hodnoty teploty ve Slunci do hloubky $\unit  [12.5]{Mm}$ s hodnotami z modelu S}}{14}{figure.4.2}}
\newlabel{fig:P_bcg}{{4.2}{14}{Porovn^^c3^^a1n^^c3^^ad vypo^^c4^^8dten^^c3^^a9 hodnoty teploty ve Slunci do hloubky $\unit [12.5]{Mm}$ s hodnotami z modelu S}{figure.4.2}{}}
\@writefile{lof}{\contentsline {figure}{\numberline {4.3}{\ignorespaces Porovn\IeC {\'a}n\IeC {\'\i } teplotn\IeC {\'\i }ch profil\IeC {\r u} bl\IeC {\'\i }zko povrchu}}{15}{figure.4.3}}
\newlabel{fig:T_bcg_closeup}{{4.3}{15}{Porovn^^c3^^a1n^^c3^^ad teplotn^^c3^^adch profil^^c5^^af bl^^c3^^adzko povrchu}{figure.4.3}{}}
\@setckpt{kap4}{
\setcounter{page}{16}
\setcounter{equation}{8}
\setcounter{enumi}{0}
\setcounter{enumii}{0}
\setcounter{enumiii}{0}
\setcounter{enumiv}{0}
\setcounter{footnote}{0}
\setcounter{mpfootnote}{0}
\setcounter{part}{0}
\setcounter{chapter}{4}
\setcounter{section}{1}
\setcounter{subsection}{5}
\setcounter{subsubsection}{0}
\setcounter{paragraph}{0}
\setcounter{subparagraph}{0}
\setcounter{figure}{3}
\setcounter{table}{0}
\setcounter{parentequation}{0}
\setcounter{Item}{0}
\setcounter{Hfootnote}{0}
\setcounter{bookmark@seq@number}{24}
\setcounter{section@level}{2}
}
