\relax 
\providecommand\hyper@newdestlabel[2]{}
\providecommand\HyperFirstAtBeginDocument{\AtBeginDocument}
\HyperFirstAtBeginDocument{\ifx\hyper@anchor\@undefined
\global\let\oldcontentsline\contentsline
\gdef\contentsline#1#2#3#4{\oldcontentsline{#1}{#2}{#3}}
\global\let\oldnewlabel\newlabel
\gdef\newlabel#1#2{\newlabelxx{#1}#2}
\gdef\newlabelxx#1#2#3#4#5#6{\oldnewlabel{#1}{{#2}{#3}}}
\AtEndDocument{\ifx\hyper@anchor\@undefined
\let\contentsline\oldcontentsline
\let\newlabel\oldnewlabel
\fi}
\fi}
\global\let\hyper@last\relax 
\gdef\HyperFirstAtBeginDocument#1{#1}
\providecommand*\HyPL@Entry[1]{}
\HyPL@Entry{0<</S/D>>}
\HyPL@Entry{4<</S/D>>}
\@input{uvod.aux}
\@input{kap1.aux}
\@input{kap2.aux}
\@input{kap3.aux}
\@input{kap4.aux}
\@input{zaver.aux}
\@input{literatura.aux}
\@writefile{toc}{\contentsline {chapter}{Seznam tabulek}{18}{chapter*.5}}
\@writefile{toc}{\contentsline {chapter}{Seznam pou\IeC {\v z}it\IeC {\'y}ch zkratek}{19}{chapter*.6}}
\@writefile{toc}{\contentsline {chapter}{P\IeC {\v r}\IeC {\'\i }lohy}{20}{chapter*.7}}
