z	T	P	nabla_ad	S	rho	delta	cp	cv	opac	frad	fconv	ftot	dT
0.0	3900.0	291.463269256	0.367401626891	168709.411621	1.17534160182e-05	1.01892483234	17820.7743407	11228.036499	0.00106221768245	0.0	41154.1430815	65311815.0903	0
25000.0	3900.0	384.168246371	0.358442425021	166915.991211	1.5498351047e-05	1.02482700348	18414.8036412	11750.9658813	0.00126038286709	0.0	54172.3407899	65316507.3538	0
50000.0	3900.0	506.437535281	0.347465701433	165110.913086	2.04423198369e-05	1.03260862827	19192.6416857	12434.5558167	0.00149587042319	0.0	71332.8622349	65321200.1229	0
75000.0	3900.0	667.752193745	0.334293447407	163289.794922	2.69734030667e-05	1.04288709164	20209.0083944	13326.0131836	0.00177403930144	0.0	93952.4133211	65325893.3976	0
100000.0	3900.0	880.671859191	0.318843525692	161448.327637	3.5608273663e-05	1.05624890327	21532.8701311	14485.5895996	0.00210346352308	0.0	123825.972087	65330587.1781	0
125000.0	3900.0	1161.86063421	0.301204976746	159579.699707	4.70367140792e-05	1.07357335091	23249.0948826	15986.3845825	0.00249656867114	0.0	163375.763432	65335281.4644	0
150000.0	3900.0	1533.4707473	0.281693020248	157676.818848	6.2182465399e-05	1.09625911713	25467.0867585	17918.5592651	0.00296980962225	56342436.4619	200832.435599	65339976.2566	0
175000.0	3929.0	2020.44769347	0.270312401516	155942.285156	8.14263785287e-05	1.11253464222	26953.587095	19198.487854	0.0037373561236	43396962.8417	260555.726366	65344671.5548	0
200000.0	3936.0	2662.2714321	0.251504118276	154037.084961	0.000107343460343	1.1425498724	29799.860965	21656.300354	0.00450435159949	57971072.9758	303933.075261	65349367.3591	0
225000.0	4005.0	3491.67670222	0.252661822867	152579.882812	0.000138399840921	1.14387226105	29645.5545927	21487.6373291	0.00597513711292	50274553.7017	364588.450314	65354063.6694	0
250000.0	4042.0	4569.56480151	0.243869997989	150907.458496	0.000179694382041	1.162088871	31182.3993148	22787.0422363	0.00750821259228	58956757.6603	330128.99064	65358760.4858	-1
275000.0	4201.0	5915.30606173	0.271358328192	150145.471191	0.000223082736284	1.1213465929	26934.1304246	19075.0076294	0.0115185873854	50018345.5472	323740.86158	65363457.8085	-3
300000.0	4322.0	7598.77443417	0.28599638446	149119.311523	0.000277979893326	1.10396909714	25077.6895309	17443.5211182	0.016481796119	58261825.3725	49596.8957421	65368155.6374	-7
325000.0	4742.0	9538.76804408	0.349607665939	149535.27832	0.00031660346167	1.03938031197	19095.2004233	12262.8097534	0.0293514735657	47512872.6114	45055.705613	65372853.9727	-6
350000.0	4998.0	11829.6636477	0.367382189579	149107.104492	0.000371618511963	1.02519083023	17855.8408802	11194.0742493	0.0398072771876	56282200.4854	0.0140368420871	65377552.8144	-13
375000.0	5842.0	14224.2971416	0.387510608651	150512.597656	0.000382592702408	1.00683259964	16542.0462815	10094.5121765	0.0639449013282	43032507.1506	6.84005188055e-05	65382252.1626	0
400000.0	5874.0	17081.5892496	0.386894506478	149450.57373	0.00045619606226	1.00746166706	16579.7429452	10125.0160217	0.0760205378305	72939842.8005	12.5479890184	65386952.0172	-10
425000.0	7835.0	19565.8061541	0.293011026867	153949.194336	0.000387616751141	1.04794645309	22570.4086347	15564.2410278	0.876540588069	38747093.0758	236275.322543	65391652.3785	-60
450000.0	10285.0	21593.1593805	0.132077697372	164298.388672	0.000310970051487	1.48654580116	74008.3569914	59515.802002	11.0573208549	5735792.0233	40931612.7534	65396353.2465	-22
475000.0	10849.0	23646.7280478	0.118231204461	167947.08252	0.000313923521844	1.68045091629	96247.9494073	77433.5693359	17.8450501452	1455869.24982	11306018.9868	65401054.6211	-24
500000.0	11351.0	25729.6701615	0.110658542094	171629.23584	0.000317523415561	1.86423003674	117700.530162	94139.050293	25.5650224947	806378.620333	9523958.1238	65405756.5026	-5
525000.0	11608.0	27908.0013572	0.108396137718	173291.271973	0.000331594662839	1.95095527172	127850.944191	101797.894287	30.6355109589	370100.165956	2499676.30042	65410458.8909	-4
550000.0	11752.0	30224.8607322	0.107904577076	173744.848633	0.000352389065483	1.98480808735	131644.899465	104563.671875	33.9723838387	201777.724851	257771.799145	65415161.7861	-1
575000.0	11858.0	32700.8835832	0.107876380262	173814.440918	0.000376370337563	2.00205516815	133430.524819	105805.59082	36.7964492053	149281.933028	2356.55154273	65419865.1883	0
600000.0	11958.0	35346.6789851	0.107929644647	173828.833008	0.000401976706144	2.01656317711	134882.334669	106790.087891	39.6775053803	129688.285263	5496.01217066	65424569.0975	0
625000.0	12058.0	38171.6837984	0.108022396978	173811.92627	0.000429040426297	2.02981352806	136146.760962	107621.337891	42.721356758	115705.214988	3031.95484285	65429273.5139	0
650000.0	12158.0	41185.8983393	0.108135266434	173805.041504	0.0004575344974	2.04315304756	137418.281779	108452.91748	45.9310396251	102931.837277	6037.15498573	65433978.4373	0
675000.0	12257.0	44399.6653378	0.108267909219	173813.183594	0.000487553052153	2.05626988411	138683.895097	109279.321289	49.2853979351	91773.6391007	9849.85858746	65438683.868	0
700000.0	12356.0	47823.1591401	0.108414730679	173831.640625	0.00051910927823	2.06900787354	139919.693392	110080.541992	52.8126292496	82402.9311596	7332.68141276	65443389.806	0
725000.0	12455.0	51467.2559208	0.108582287345	173833.947754	0.0005523360187	2.08073019981	141024.007452	110776.843262	56.5191157043	74120.4443048	5266.14324658	65448096.2513	0
750000.0	12554.0	55343.7878373	0.108770510339	173808.984375	0.000587342981362	2.09140014648	141972.788525	111348.474121	60.4112962507	66779.317606	3697.61185974	65452803.204	0
775000.0	12653.0	59464.6342133	0.10896686016	173811.05957	0.000624026256446	2.10252118111	142993.30536	111973.095703	64.4882257856	59979.6337802	8622.50356275	65457510.6642	0
800000.0	12751.0	63842.2154499	0.109181049459	173822.290039	0.000662568083953	2.11337685585	143996.72454	112584.643555	68.7227839281	54251.0388282	6963.41656305	65462218.6319	0
825000.0	12850.0	68488.1244121	0.109402816598	173848.071289	0.000702864042523	2.12419128418	145002.850886	113194.262695	73.175399285	49156.3393626	5274.70805143	65466927.1071	0
850000.0	12948.0	73416.4048197	0.109649858009	173838.708496	0.000745325451135	2.13361477852	145821.090224	113659.155273	77.7918731336	44383.7828472	12677.5534996	65471636.09	0
875000.0	13046.0	78641.5113891	0.109910700491	173810.461426	0.000789912860455	2.14216423035	146518.969724	114029.797363	82.6076601279	40545.1764522	3519.28306408	65476345.5805	0
900000.0	13145.0	84176.6222272	0.11017603983	173820.52002	0.00083635302417	2.15132951736	147316.08208	114472.98584	87.6565370344	36915.9805107	2553.84980042	65481055.5789	0
925000.0	13243.0	90036.5182101	0.110458416079	173837.084961	0.000885009058038	2.1601498127	148086.956959	114897.436523	92.8776043871	33496.3001379	10322.6142951	65485766.085	0
950000.0	13341.0	96235.9042235	0.110752489876	173855.407715	0.000935891307563	2.16857528687	148817.275058	115290.698242	98.3119166518	30593.5587624	9724.06221382	65490477.0989	0
975000.0	13439.0	102790.612014	0.111058366182	173852.172852	0.000989208047031	2.1761841774	149437.148564	115599.682617	103.969573264	27977.1442877	9596.09397125	65495188.6208	0
1000000.0	13537.0	109717.84297	0.111371046561	173825.878906	0.00104507034848	2.18297958374	149948.651355	115827.160645	109.857848411	25614.5714863	9905.3994104	65499900.6506	0
1025000.0	13635.0	117034.411525	0.111689109029	173823.193359	0.00110328630853	2.18989515305	150505.437028	116090.991211	115.975268584	23485.9555195	10043.4922062	65504613.1885	0
1050000.0	13733.0	124756.709551	0.112015670161	173838.562012	0.00116394176075	2.1968023777	151084.068231	116372.387695	122.328327123	21564.2518832	10133.7683949	65509326.2344	0
1075000.0	13831.0	132901.917607	0.112351802267	173859.106445	0.0012271864307	2.2033970356	151634.521265	116632.775879	128.925459487	19824.7598183	10397.0826627	65514039.7885	0
1100000.0	13929.0	141488.40842	0.1126978545	173866.540527	0.00129323564124	2.20937299728	152102.231695	116830.383301	135.777782779	18245.2517609	11179.8017417	65518753.8507	0
1125000.0	14027.0	150536.078262	0.113052577876	173842.980957	0.00136232119985	2.21454405785	152447.110251	116934.643555	142.896054272	16807.0333534	12843.7240197	65523468.4212	0
1150000.0	14125.0	160065.46701	0.113415441532	173830.761719	0.00143425700116	2.21961379051	152797.018248	117044.067383	150.278733317	15500.1995051	14828.0191842	65528183.5	0
1175000.0	14223.0	170095.894615	0.113786889619	173838.269043	0.00150899813889	2.22467303276	153169.222868	117171.679688	157.919335014	14386.5346858	1717.67377383	65532899.0871	0
1200000.0	14322.0	180645.391408	0.114164644297	173866.992188	0.00158644161274	2.22976756096	153562.7967	117314.257812	165.864067609	13302.7423962	2228.03492093	65537615.1826	0
1225000.0	14420.0	191736.45083	0.114551722827	173882.080078	0.00166728796103	2.23415589333	153869.046174	117394.042969	174.026683898	12250.8365353	21999.8202266	65542331.7865	0
1250000.0	14518.0	203391.469046	0.114944106245	173876.977539	0.00175155901161	2.23792362213	154085.188167	117406.555176	182.465348464	11350.4119644	26325.8323281	65547048.8989	0
1275000.0	14616.0	215634.602022	0.115344972523	173850.292969	0.00183942597687	2.24133300781	154239.952103	117372.98584	191.187743198	10579.1267025	8112.69924694	65551766.5199	0
1300000.0	14715.0	228487.598828	0.115752298982	173852.075195	0.00193025425688	2.24493908882	154444.813135	117376.794434	200.237814635	9822.6068401	11300.1621494	65556484.6494	0
1325000.0	14813.0	241975.158132	0.116167415635	173858.129883	0.00202473711397	2.24813580513	154617.158151	117360.461426	209.519846056	9129.39159864	15481.9927463	65561203.2876	0
1350000.0	14912.0	256118.807608	0.116587750023	173881.347656	0.00212242866837	2.25121498108	154790.774655	117344.848633	219.147553954	8494.63126931	20092.846128	65565922.4345	0
1375000.0	15010.0	270945.614692	0.117012926173	173889.331055	0.00222420953833	2.25358843803	154878.428462	117269.055176	229.026476996	7910.19633411	26528.3080948	65570642.0901	0
1400000.0	15109.0	286479.598405	0.117445516119	173891.674805	0.00232965385294	2.25577783585	154937.790699	117171.069336	239.277552881	7410.01948384	5291.69918553	65575362.2545	0
1425000.0	15208.0	302748.792276	0.117885981433	173873.254395	0.00243928275268	2.25775408745	154953.971139	117041.003418	249.860547427	6911.33622488	10780.3690094	65580082.9277	0
1450000.0	15307.0	319781.324742	0.118332286833	173867.700195	0.00255276017924	2.25959706306	154971.573055	116913.989258	260.768420987	6452.24388228	17891.637342	65584804.1097	0
1475000.0	15406.0	337604.032283	0.118783747121	173874.645996	0.00267017003353	2.26119661331	154976.995124	116780.163574	272.011633581	6029.04917447	26643.601546	65589525.8007	0
1500000.0	15505.0	356244.593788	0.119239072193	173887.5	0.00279170217254	2.26243805885	154950.076354	116624.462891	283.602874577	5638.20861045	37362.8434744	65594248.0007	0
1525000.0	15604.0	375731.545772	0.119701672768	173900.732422	0.0029175155305	2.26334428787	154889.548661	116445.812988	295.555624718	5303.33238778	9360.58785248	65598970.7096	0
1550000.0	15704.0	396091.805405	0.120173908898	173915.393066	0.00304740024148	2.26415395737	154818.2236	116258.447266	307.949240571	4967.24581664	18090.7981426	65603693.9276	0
1575000.0	15803.0	417360.531864	0.12064924726	173897.033691	0.00318266347676	2.26460909843	154680.234619	116023.876953	320.685230513	4654.17136074	31694.313151	65608417.6547	0
1600000.0	15903.0	439568.729779	0.121128738676	173885.48584	0.00332219383381	2.26504230499	154543.725077	115789.953613	333.887821331	4386.13483138	5028.10157009	65613141.891	0
1625000.0	16003.0	462748.443756	0.121611506479	173885.424805	0.00346626711689	2.26521110535	154390.958445	115546.557617	347.480175934	4116.06764015	14821.9621253	65617866.6364	0
1650000.0	16103.0	486930.959185	0.122101308445	173895.141602	0.0036149663174	2.26510858536	154219.935784	115292.248535	361.471446899	3865.56048749	28703.8163884	65622591.891	0
1675000.0	16203.0	512148.309835	0.122600705058	173910.913086	0.00376843536287	2.26477074623	154030.58422	115026.44043	375.871078342	3632.92692898	47189.7408609	65627317.6548	0
1700000.0	16303.0	538434.271403	0.123107123024	173924.584961	0.00392696983909	2.26419353485	153814.017803	114742.163086	390.697386051	3433.53060853	11665.1989912	65632043.928	0
1725000.0	16404.0	565821.017189	0.123619024467	173935.36377	0.00409036601923	2.26352143288	153580.279073	114444.348145	406.039636162	3231.1348913	28047.2322698	65636770.7105	0
1750000.0	16504.0	594351.050861	0.124126722008	173913.061523	0.00426022188549	2.26259326935	153291.26674	114108.227539	421.785178228	3041.44887385	52960.853049	65641498.0024	0
1775000.0	16605.0	624060.02285	0.124640710708	173901.23291	0.00443490171165	2.26158022881	153003.740604	113773.828125	438.059293048	2879.33014179	14189.8880059	65646225.8037	0
1800000.0	16706.0	654984.180807	0.125163694727	173902.075195	0.00461474292024	2.26033854485	152707.911152	113436.083984	454.791019267	2714.24945868	35784.0275695	65650954.1145	0
1825000.0	16807.0	687159.864	0.125694521279	173911.474609	0.00479994923808	2.25885486603	152396.793193	113089.599609	471.988179014	2560.32180477	65484.0687911	65655682.9347	0
1850000.0	16908.0	720624.945044	0.126231343553	173924.182129	0.00499077759741	2.25712561607	152063.309768	112728.759766	489.647688837	2428.62902483	19688.8908077	65660412.2645	0
1875000.0	17010.0	755414.525327	0.126774801704	173942.700195	0.00518683191331	2.255235672	151714.360141	112356.628418	507.856956265	2305.36597994	3404.91961746	65665142.1038	0
1900000.0	17112.0	791569.33674	0.127322658069	173952.783203	0.00538901576874	2.25314307213	151337.219446	111965.637207	526.554315243	2178.81422994	6932.19465577	65669872.4527	0
1925000.0	17214.0	829132.423417	0.127873383185	173946.643066	0.00559772479392	2.25097894669	150939.347212	111560.668945	545.760243592	2060.16723532	33163.6586336	65674603.3113	0
1950000.0	17316.0	868149.641748	0.128425314794	173929.724121	0.00581299536861	2.24876761436	150529.446256	111148.303223	565.476374571	1948.94152288	74466.0547463	65679334.6795	0
1975000.0	17418.0	908665.167711	0.128982880409	173922.094727	0.00603432363278	2.24634790421	150109.01963	110730.529785	585.687054148	1853.93647112	23148.6620013	65684066.5575	0
2000000.0	17521.0	950716.112427	0.129549013698	173929.785156	0.00626106975687	2.24373888969	149681.952544	110308.703613	606.480896101	1756.32633642	62543.0345014	65688798.9451	0
2025000.0	17623.0	994350.505804	0.130119234436	173934.509277	0.00649492858429	2.24081087112	149224.370014	109868.54248	627.705188159	1664.57603561	118567.533784	65693531.8426	0
2050000.0	17726.0	1039606.7198	0.130701950104	173949.987793	0.00673445765642	2.23769879341	148755.34027	109420.739746	649.533517025	1594.18507543	11625.7179613	65698265.2498	0
2075000.0	17830.0	1086524.58905	0.131294412735	173970.556641	0.0069799089033	2.23446702957	148275.214227	108965.136719	671.977403868	1513.0744661	5918.64687447	65702999.1668	0
2100000.0	17933.0	1135158.26867	0.131883528809	173972.65625	0.0072335024015	2.23114490509	147770.824239	108494.250488	694.861043953	1436.55728214	45070.3068459	65707733.5937	0
2125000.0	18037.0	1185553.31597	0.132473160337	173965.087891	0.00749397349864	2.22791361809	147264.018055	108020.593262	718.37290742	1364.71358528	109108.507586	65712468.5306	0
2150000.0	18140.0	1237768.96176	0.13306029504	173942.712402	0.00776283923187	2.22460889816	146741.677348	107538.415527	742.33997194	1303.14306301	44023.0748574	65717203.9773	0
2175000.0	18245.0	1291841.99701	0.133666167925	173945.727539	0.0080365989561	2.22111988068	146219.202247	107055.737305	766.998006591	1245.5228773	1412.32261772	65721939.934	0
2200000.0	18349.0	1347826.94212	0.13427461747	173947.241211	0.00831838224258	2.21740269661	145676.23529	106561.657715	792.111912765	1185.21850036	43841.1279056	65726676.4007	0
2225000.0	18454.0	1405766.572	0.13489388088	173960.400391	0.00860642921907	2.21350288391	145123.320072	106061.14502	817.870305706	1134.02793567	736.648438666	65731413.3773	0
2250000.0	18559.0	1465711.81602	0.135517525372	173973.88916	0.0089020068117	2.20941901207	144553.231725	105550.146484	844.20675333	1080.40507936	46012.0863911	65736150.864	0
2275000.0	18664.0	1527714.43281	0.136148085661	173985.693359	0.00920526235859	2.20513987541	143964.002164	105027.307129	871.136808894	1029.79620746	131467.3054	65740888.8608	0
2300000.0	18769.0	1591828.74664	0.136782230687	173991.015625	0.00951661968429	2.20076441765	143361.593525	104496.569824	898.684150447	986.634763715	55001.162481	65745627.3676	0
2325000.0	18875.0	1658104.44048	0.137420788915	173991.772461	0.00983541576716	2.19642305374	142758.646549	103965.405273	926.965193052	945.760002314	4339.78840372	65750366.3846	0
2350000.0	18981.0	1726602.16214	0.138053930872	173977.307129	0.0101631649159	2.19222140312	142159.303608	103437.62207	955.918939436	902.575292695	72536.3616818	65755105.9117	0
2375000.0	19087.0	1797381.81651	0.138691356392	173966.162109	0.0104989903775	2.18789386749	141551.480608	102905.603027	985.510294545	865.813339328	12657.7257566	65759845.949	0
2400000.0	19194.0	1870489.84988	0.139344397907	173969.311523	0.0108414296847	2.18331336975	140929.237712	102364.331055	1015.82693716	827.199272771	97706.4724462	65764586.4964	0
2425000.0	19300.0	1945989.78121	0.139999431231	173969.86084	0.0111932131404	2.17855381966	140290.487634	101814.27002	1046.70549673	790.519529537	235527.233141	65769327.5541	0
2450000.0	19407.0	2023930.23426	0.140666718628	173979.980469	0.0115521006592	2.17362809181	139641.236166	101257.23877	1078.34270686	763.02059293	6783.46540528	65774069.122	0
2475000.0	19515.0	2104361.10292	0.141344074615	173996.508789	0.0119183168863	2.16859388351	138983.515255	100694.171143	1110.75809699	733.441286583	68405.0120102	65778811.2002	0
2500000.0	19623.0	2187341.68084	0.142027523847	174010.424805	0.0122933006423	2.16343569756	138310.444536	100121.09375	1143.87408143	698.760425551	186024.824182	65783553.7886	0
2525000.0	19730.0	2272942.96117	0.142708505015	174011.645508	0.0126788554553	2.15825271606	137626.878867	99542.364502	1177.62046513	672.032015618	93722.9398643	65788296.8873	0
2550000.0	19839.0	2361211.3153	0.143400862244	174016.491699	0.0130712869577	2.15309119225	136945.902783	98964.4165039	1212.29853682	646.742629007	23685.881338	65793040.4964	0
2575000.0	19947.0	2452225.20324	0.144078071602	174000.20752	0.0134753863676	2.14818310738	136279.894808	98399.0905762	1247.6648676	619.574701138	158460.905441	65797784.6158	0
2600000.0	20056.0	2546044.41775	0.144761297845	173990.429688	0.0138874311233	2.14323067665	135616.973972	97836.9873047	1283.8148296	596.630570174	68559.8381149	65802529.2456	0
2625000.0	20165.0	2642731.52829	0.145454797666	173985.925293	0.0143083561852	2.13800024986	134933.303612	97262.2802734	1320.58150073	574.809839213	7700.12486341	65807274.3857	0
2650000.0	20275.0	2742337.78625	0.14616597564	173992.504883	0.0147367136378	2.13246488571	134228.356138	96673.6450195	1358.06259724	554.147257476	28181.6141674	65812020.0363	0
2675000.0	20385.0	2844925.74618	0.146886148302	174001.867676	0.0151742224261	2.12672686577	133507.347824	96075.390625	1396.19659705	532.037395569	54705.4257894	65816766.1973	0
2700000.0	20495.0	2950559.8442	0.147613255399	174012.158203	0.0156211808644	2.120855093	132775.275417	95470.8068848	1435.00428866	513.344996566	2063.88291464	65821512.8687	0
2725000.0	20606.0	3059295.28651	0.148352277237	174027.734375	0.0160762210726	2.11487340927	132035.6846	94861.3464355	1474.60405105	493.349076128	143023.755694	65826260.0506	0
2750000.0	20716.0	3171211.90425	0.149085211343	174033.117676	0.0165430774359	2.10896706581	131299.174073	94256.0119629	1514.85077685	476.348581661	57585.0614475	65831007.7429	0
2775000.0	20828.0	3286358.20953	0.149831075385	174044.506836	0.0170170515048	2.10306024551	130565.08452	93651.6784668	1556.04390495	460.237245202	3074.91249531	65835755.9457	0
2800000.0	20939.0	3404819.99267	0.150562763825	174039.63623	0.0175037948793	2.09740948677	129848.717239	93061.5661621	1597.95010034	442.708230981	167620.779233	65840504.659	0
2825000.0	21051.0	3526663.50293	0.151292039203	174029.248047	0.0180002170964	2.09196686745	129150.680881	92484.5153809	1640.7849015	427.934370846	73877.4639001	65845253.8829	0
2850000.0	21163.0	3651966.15289	0.152019905988	174019.287109	0.0185070985026	2.08657360077	128460.353659	91914.2944336	1684.42575727	413.775102782	8685.24877426	65850003.6173	0
2875000.0	21276.0	3780788.07596	0.152755778186	174017.883301	0.0190224818652	2.08111810684	127770.899311	91345.4772949	1728.96346487	400.281704727	30405.2506403	65854753.8622	0
2900000.0	21389.0	3913198.86742	0.153501393343	174019.384766	0.0195479915419	2.07544779778	127063.772247	90765.7775879	1774.31445247	385.644817638	99018.9121651	65859504.6177	0
2925000.0	21502.0	4049268.37543	0.15425942893	174023.291016	0.0200836802833	2.06951713562	126334.148815	90171.8078613	1820.48518511	373.31232898	24238.3826308	65864255.8838	0
2950000.0	21616.0	4189054.61213	0.155035463363	174034.204102	0.0206277891266	2.06332993507	125584.192571	89564.2456055	1867.58256921	361.550277047	9791.43972371	65869007.6605	0
2975000.0	21730.0	4332630.25659	0.15581851171	174044.65332	0.021182520868	2.05702447891	124824.22649	88951.0253906	1915.53661875	348.727563854	168850.63806	65873759.9478	0
3000000.0	21844.0	4480070.35569	0.156605253281	174052.929688	0.0217482775042	2.05067849159	124061.256228	88337.0300293	1964.37039853	337.927931959	79272.6922446	65878512.7458	0
3025000.0	21959.0	4631438.41285	0.1574003933	174062.597656	0.0223233219003	2.04430484772	123297.865172	87723.2788086	2014.18815024	327.602347622	15486.0409849	65883266.0543	0
3050000.0	22074.0	4786814.34922	0.158191405119	174065.795898	0.0229101533478	2.03805756569	122545.745407	87118.5668945	2064.92467028	316.285362239	298838.425664	65888019.8735	0
3075000.0	22189.0	4946281.77566	0.158973534455	174059.863281	0.0235093411902	2.03203105927	121813.121529	86528.6193848	2116.60687078	306.750204851	186240.961182	65892774.2033	0
3100000.0	22305.0	5109912.74148	0.159753760892	174051.184082	0.0241187954089	2.02617096901	121097.799311	85951.2573242	2169.32297053	298.898081019	191057.095968	65897529.0438	0
3125000.0	22422.0	5277775.97079	0.160540233465	174049.487305	0.0247373336606	2.0203037262	120388.445545	85378.8452148	2222.99807649	288.886563984	17328.6013201	65902284.395	0
3150000.0	22538.0	5449966.35025	0.161315661946	174044.116211	0.0253696234722	2.01457166672	119694.068215	84818.8964844	2277.38855507	279.248751974	331477.651353	65907040.2569	0
3175000.0	22655.0	5626546.38247	0.162108127947	174045.874023	0.0260109172814	2.00861048698	118982.270818	84247.3022461	2332.58729542	272.399834581	97570.4202729	65911796.6295	0
3200000.0	22773.0	5807577.88381	0.162919669334	174054.187012	0.0266611132247	2.00238871574	118249.459915	83661.5539551	2388.59148646	263.602055808	107819.819578	65916553.5128	0
3225000.0	22890.0	5993155.65283	0.163730428527	174057.8125	0.0273251771432	1.99611544609	117511.317319	83073.7609863	2445.25559174	256.213781161	32726.569508	65921310.9068	0
3250000.0	23009.0	6183327.76246	0.164563991567	174071.081543	0.0279961095657	1.98962104321	116757.246217	82474.7253418	2502.79673108	249.206098627	2553.1507173	65926068.8116	0
3275000.0	23127.0	6378192.66842	0.165390797146	174077.612305	0.0286814865831	1.98319959641	116009.303934	81881.640625	2561.01134788	241.397872648	315926.189356	65930827.2271	0
3300000.0	23246.0	6577818.18722	0.166225280835	174086.071777	0.0293767116091	1.97676098347	115262.280097	81289.6789551	2620.05065918	235.922892678	137592.73296	65935586.1533	0
3325000.0	23366.0	6782273.58279	0.1670638893	174094.909668	0.0300820429402	1.97037088871	114522.072277	80702.9785156	2679.93308903	228.749467499	113556.414238	65940345.5903	0
3350000.0	23485.0	6991665.52362	0.167884575512	174092.578125	0.0308030867018	1.96425461769	113806.141496	80134.8876953	2740.5491843	222.736529134	36605.1501466	65945105.5381	0
3375000.0	23606.0	7206051.37767	0.168710107215	174091.796875	0.0315324796247	1.95824539661	113103.574084	79576.1291504	2802.11172222	217.010642004	2661.36191418	65949865.9966	0
3400000.0	23726.0	7425543.69583	0.169514552622	174081.091309	0.0322778469126	1.95254540443	112430.330045	79039.654541	2864.42495644	210.566348495	354921.74926	65954626.9659	0
3425000.0	23847.0	7650214.40994	0.170327052156	174076.843262	0.0330328402924	1.94678449631	111757.853918	78504.6630859	2927.56134606	206.108526413	169972.212161	65959388.4459	0
3450000.0	23969.0	7880128.86986	0.171157029886	174078.808594	0.033797154174	1.94079053402	111068.440979	77958.7402344	2991.5112227	200.182266474	115856.652101	65964150.4368	0
3475000.0	24090.0	8115390.13815	0.171984994351	174077.380371	0.0345764601661	1.93475627899	110376.541245	77412.8234863	3056.18683868	195.245101779	35146.9834213	65968912.9385	0
3500000.0	24213.0	8356045.66691	0.172835949118	174085.839844	0.0353624673153	1.92849087715	109668.670818	76855.9143066	3121.74312101	190.551564808	2441.5234407	65973675.951	0
3525000.0	24335.0	8602200.73634	0.173680521232	174089.953613	0.0361638158211	1.92227888107	108966.365024	76304.4128418	3188.06847844	185.224571005	435204.178324	65978439.4743	0
3550000.0	24458.0	8853923.82479	0.17453428855	174098.022461	0.0369750268874	1.91600871086	108262.125772	75752.0935059	3255.27398362	181.5950813	145432.452361	65983203.5085	0
3575000.0	24582.0	9111284.03157	0.175394466768	174109.204102	0.0377961914637	1.90973007679	107560.269285	75201.9104004	3323.37071609	176.669719185	196002.063537	65987968.0534	0
3600000.0	24705.0	9374392.21033	0.176239998454	174113.903809	0.0386335923395	1.90365076065	106876.859408	74665.9545898	3392.32949029	172.577227006	95165.3224061	65992733.1093	0
3625000.0	24830.0	9643300.88436	0.177094768643	174124.084473	0.0394784765376	1.89758145809	106198.855274	74133.8500977	3462.28574298	168.673386656	20740.7688574	65997498.6759	0
3650000.0	24954.0	9918125.61347	0.177928413481	174125.744629	0.0403402882512	1.89180624485	105547.918765	73621.9848633	3533.15700743	164.8537908	19469.5868881	66002264.7534	0
3675000.0	25080.0	10198922.1645	0.178767079031	174130.297852	0.0412101435359	1.88608956337	104906.424469	73116.9311523	3605.09895954	161.203828472	107809.821882	66007031.3418	0
3700000.0	25205.0	10485810.0645	0.179591415896	174123.571777	0.0420975229645	1.88052296638	104277.032043	72621.7773438	3677.98481565	157.002910681	273274.71639	66011798.441	0
3725000.0	25331.0	10778867.8548	0.180422443545	174117.028809	0.0429956489825	1.87489593029	103644.821571	72125.4394531	3751.71806175	153.583016883	142604.633115	66016566.051	0
3750000.0	25457.0	11078189.9119	0.181255918264	174111.84082	0.0439067152911	1.86920762062	103010.783732	71629.1259766	3826.19420613	150.274254586	42635.5909816	66021334.1719	0
3775000.0	25584.0	11383844.6174	0.18209942203	174111.975098	0.0448274877272	1.86341106892	102371.907504	71130.3222656	3901.43336359	147.099370252	5119.51858247	66026102.8037	0
3800000.0	25711.0	11695922.5349	0.182942147278	174113.098145	0.0457613277831	1.85761666298	101736.74415	70635.2233887	3977.40520976	144.025364032	80994.2566134	66030871.9463	0
3825000.0	25839.0	12014492.4116	0.183791114147	174118.847656	0.0467049831059	1.85178339481	101102.657278	70141.5893555	4054.12191698	141.074135802	206108.755796	66035641.5998	0
3850000.0	25967.0	12339646.3465	0.184635284582	174124.926758	0.0476619388792	1.84602415562	100478.432874	69655.8044434	4131.57432653	137.676042984	222234.786623	66040411.7643	0
3875000.0	26095.0	12671478.1003	0.185472399427	174130.908203	0.0486324424855	1.84037554264	99867.1606181	69179.9316406	4209.75758111	134.915612358	87322.6475095	66045182.4396	0
3900000.0	26224.0	13010059.0265	0.18630894625	174140.136719	0.0496131906402	1.83480036259	99266.6688059	68712.1154785	4288.6809812	132.26226834	1978.79286185	66049953.6258	0
3925000.0	26353.0	13355485.6114	0.187136640358	174147.912598	0.0506079013576	1.82934892178	98679.7757886	68254.6813965	4368.3453294	129.185851563	649249.825497	66054725.3229	0
3950000.0	26482.0	13707855.9279	0.187960416989	174153.173828	0.0516168147442	1.82392394543	98097.0209381	67801.184082	4448.74697013	126.696189475	422029.496966	66059497.5309	0
3975000.0	26612.0	14067244.818	0.18878807918	174159.069824	0.0526364892721	1.81847405434	97514.6550919	67348.6206055	4529.89726065	124.7780332	446936.680153	66064270.2498	0
4000000.0	26743.0	14433727.3795	0.189618261998	174164.990234	0.0536669758731	1.81302762032	96934.7986881	66898.3642578	4611.77329806	121.993350133	73997.8169362	66069043.4796	0
4025000.0	26873.0	14807430.0032	0.19043258662	174162.976074	0.0547158851987	1.80775785446	96369.9699161	66459.5336914	4694.40755903	119.27106416	929023.279602	66073817.2203	0
4050000.0	27004.0	15188431.3502	0.191246732535	174159.533691	0.0557761559321	1.80254995823	95811.9536225	66025.769043	4777.77750814	117.545469987	124182.441219	66078591.472	0
4075000.0	27136.0	15576810.5477	0.192060235689	174155.065918	0.0568475734326	1.79741132259	95261.7674877	65597.7722168	4861.86998558	115.44270593	326103.652116	66083366.2345	0
4100000.0	27268.0	15972668.6508	0.192868520474	174151.379395	0.0579326588195	1.79234421253	94720.7142449	65176.9104004	4946.62237705	112.972285712	178051.829386	66088141.5079	0
4125000.0	27400.0	16376101.5923	0.193670937862	174149.084473	0.059031372075	1.78735816479	94190.0532176	64764.0563965	5032.02336609	110.99729295	21676.6312777	66092917.2922	0
4150000.0	27533.0	16787178.4684	0.194474036399	174151.464844	0.0601398933213	1.78240668774	93666.8310039	64356.9213867	5118.03330231	109.098010679	73025.999143	66097693.5875	0
4175000.0	27666.0	17205996.1749	0.195271094756	174154.138184	0.0612623407505	1.77749121189	93150.1948681	63955.4626465	5204.690407	106.84953048	502320.848601	66102470.3936	0
4200000.0	27799.0	17632652.5676	0.196063183302	174156.762695	0.0623988598818	1.77258789539	92637.804153	63558.0871582	5291.99543715	105.061359884	222261.767414	66107247.7107	0
4225000.0	27933.0	18067218.7981	0.19685839773	174162.487793	0.0635454853182	1.76764285564	92125.683771	63161.6821289	5379.89656339	103.340191736	28303.6650695	66112025.5387	0
4250000.0	28067.0	18509793.3679	0.197648502009	174167.785645	0.064706277044	1.76273822784	91619.4876443	62770.300293	5468.42911587	101.665035263	85735.7408933	66116803.8777	0
4275000.0	28202.0	18960447.5508	0.198441049585	174175.683594	0.0658772114548	1.75782501698	91115.7218477	62381.2072754	5557.54592833	100.051953493	344578.338916	66121582.7276	0
4300000.0	28337.0	19419280.54	0.199227770471	174182.641602	0.0670624649501	1.75298702717	90620.1279547	61998.4375	5647.35232206	98.116338064	205732.684395	66126362.0884	0
4325000.0	28472.0	19886393.27	0.200007820435	174188.378906	0.0682622339809	1.74824285507	90134.021803	61622.8210449	5737.89168884	96.5896793356	7332.46772951	66131141.9601	0
4350000.0	28608.0	20361858.4363	0.200788504509	174195.703125	0.0694723858032	1.74354934692	89654.3299443	61251.9104004	5829.05053267	95.117781656	152101.606675	66135922.3428	0
4375000.0	28744.0	20845778.3631	0.201561067183	174201.013184	0.0706972932676	1.73899006844	89186.966498	60889.9169922	5920.88397671	93.3386533209	435466.107572	66140703.2365	0
4400000.0	28880.0	21338258.0392	0.202323649419	174203.442383	0.0719373565516	1.73455166817	88731.0691408	60536.4440918	6013.36525921	91.9438120861	111275.062824	66145484.6411	0
4425000.0	29017.0	21839375.1711	0.203083055724	174205.078125	0.0731885811547	1.73014044762	88280.0343413	60187.0483398	6106.40598521	90.5981731596	45521.6642646	66150266.5566	0
4450000.0	29154.0	22349238.1355	0.203832472543	174202.294922	0.0744554417906	1.72582626343	87838.1144892	59844.6411133	6200.06251611	88.9596056837	642178.5348	66155048.983	0
4475000.0	29291.0	22867956.7841	0.204573331151	174195.654297	0.0757379239076	1.72160255909	87404.6643226	59508.6914062	6294.26393555	87.6833826094	221691.74039	66159831.9205	0
4500000.0	29429.0	23395606.4752	0.205317142553	174192.358398	0.0770302067394	1.71735405922	86972.322916	59174.0356445	6388.83731208	86.4555854185	3856.20012453	66164615.3688	0
4525000.0	29567.0	23932287.0617	0.206057736986	174189.916992	0.0783366413089	1.71314120293	86545.0984384	58843.536377	6483.79935605	85.2604048201	282987.925152	66169399.328	0
4550000.0	29706.0	24478066.0494	0.20680259229	174191.235352	0.079652563727	1.70891523361	86119.4431052	58514.4348145	6579.02425588	83.8091439066	320873.828456	66174183.7982	0
4575000.0	29844.0	25033073.9596	0.207537529457	174190.454102	0.0809873308754	1.70480251312	85703.7267831	58192.6940918	6674.64360757	82.6820191562	10878.769945	66178968.7794	0
4600000.0	29984.0	25597346.4338	0.208284286949	174196.118164	0.082326863776	1.70064306259	85287.0971107	57870.300293	6770.32938909	81.61347926	231815.174633	66183754.2715	0
4625000.0	30123.0	26171015.7399	0.209018895354	174199.21875	0.0836855033413	1.69660627842	84881.3348153	57555.9936523	6866.33136126	80.2720269415	401509.646077	66188540.2745	0
4650000.0	30263.0	26754152.0675	0.209752284204	174204.748535	0.0850540454849	1.69256448746	84478.4256437	57244.3054199	6962.41788391	79.2645968842	28535.3035478	66193326.7885	0
4675000.0	30403.0	27346858.2026	0.210478394659	174209.790039	0.0864373214426	1.68857192993	84081.5991991	56937.5366211	7058.66316105	78.2838600296	233797.704232	66198113.8135	0
4700000.0	30544.0	27949204.0594	0.211205401955	174216.918945	0.087830456323	1.68457508087	83687.004903	56632.824707	7154.85614633	77.068757807	414860.919799	66202901.3494	0
4725000.0	30684.0	28561326.4967	0.211920658291	174220.483398	0.0892433745321	1.6806832552	83301.4346512	56334.9853516	7251.25327283	76.1441115738	16038.114045	66207689.3963	0
4750000.0	30826.0	29183262.2986	0.212645519046	174228.417969	0.0906612694962	1.67674124241	82914.3887502	56036.328125	7347.35169808	75.2706531194	289331.910156	66212477.9542	0
4775000.0	30967.0	29815149.3928	0.213360506933	174232.409668	0.0920990714803	1.6729118824	82536.1974227	55744.2016602	7443.55489397	74.1461391892	378245.604309	66217267.023	0
4800000.0	31109.0	30457058.5281	0.214080144286	174237.548828	0.0935469215619	1.66909849644	82160.2130241	55453.6804199	7539.49441996	73.3238262965	1602.39053111	66222056.6029	0
4825000.0	31251.0	31109095.2577	0.214798162231	174240.942383	0.0950099056354	1.66536128521	81790.0192936	55167.1875	7635.29553035	72.2696098293	1016599.56148	66226846.6937	0
4850000.0	31393.0	31771367.7624	0.215510625538	174241.931152	0.0964884238783	1.66170787811	81426.8483711	54885.8032227	7730.93023765	71.4951703086	344661.994482	66231637.2954	0
4875000.0	31536.0	32443951.1044	0.216220630098	174242.39502	0.097977637779	1.65809059143	81068.0709732	54607.7880859	7826.14719287	70.7540377887	10403.1022887	66236428.4082	0
4900000.0	31679.0	33126956.6454	0.216922223969	174239.39209	0.0994828442344	1.65455889702	80716.6139216	54335.2050781	7921.15391595	70.0325587899	475870.544832	66241220.032	0
4925000.0	31823.0	33820459.9147	0.217624094855	174236.14502	0.100998426205	1.65105056763	80368.2101704	54064.9658203	8016.24893489	69.0970972197	260481.432515	66246012.1667	0
4950000.0	31966.0	34524604.7413	0.21831704437	174230.725098	0.102533915197	1.64761769772	80026.4539974	53799.8168945	8111.84429747	68.1710505355	1733043.6883	66250804.8124	0
4975000.0	32110.0	35239457.3501	0.219016067742	174228.479004	0.104078513687	1.64415681362	79684.3582383	53534.7045898	8207.44413503	67.7470040131	665894.473907	66255597.9691	0
5000000.0	32255.0	35965081.4978	0.219722367331	174229.309082	0.105632061604	1.64066720009	79341.5842836	53269.2871094	8302.94896456	67.1121827093	1585823.68471	66260391.6367	0
5025000.0	32400.0	36701577.6682	0.220430734794	174230.761719	0.107199870399	1.63719630241	79000.9120592	53005.5114746	8398.48617522	66.2640701469	156962.034554	66265185.8153	0
5050000.0	32545.0	37449046.6885	0.221142098755	174232.702637	0.108782056486	1.63374626637	78662.2416027	52743.2189941	8493.97549799	65.4369288579	731673.475757	66269980.505	0
5075000.0	32690.0	38207591.7919	0.221850910702	174234.741211	0.11037895456	1.63032543659	78327.4177725	52484.0332031	8589.3338675	64.8533391444	105094.00301	66274775.7056	0
5100000.0	32836.0	38977278.9406	0.222562462345	174239.013672	0.111985049443	1.62689042091	77993.6982392	52226.0192871	8684.26566843	64.2955324216	235460.357961	66279571.4172	0
5125000.0	32982.0	39758212.0372	0.223271414164	174243.041992	0.113605987281	1.62348842621	77663.5412434	51970.8496094	8778.89713874	63.5349926952	655464.369498	66284367.6398	0
5150000.0	33128.0	40550495.3901	0.223978988299	174246.716309	0.115241782623	1.62011945248	77336.4725998	51718.0725098	8873.1567876	63.0094228047	52483.1090359	66289164.3734	0
5175000.0	33275.0	41354194.7347	0.224692674414	174252.246094	0.116886774777	1.61673867702	77009.1039029	51465.1733398	8966.66607662	62.509424747	333073.521398	66293961.618	0
5200000.0	33422.0	42169414.297	0.225407216399	174257.202148	0.118546638987	1.61339223385	76683.9315482	51213.8183594	9059.60893226	61.8139205823	597465.06861	66298759.3737	0
5225000.0	33569.0	42996259.0425	0.226123781775	174261.425781	0.120221462566	1.6100795269	76360.5373776	50963.6199951	9151.87714326	61.3458786506	29548.8649276	66303557.6404	0
5250000.0	33717.0	43834794.3375	0.226849825159	174267.016602	0.121905424749	1.60675740242	76035.7378833	50712.1917725	9243.09573988	60.9029538638	369843.645367	66308356.4181	0
5275000.0	33865.0	44685125.6117	0.227577928125	174271.447754	0.123604404507	1.60347270966	75712.7886973	50461.8835449	9333.44025578	60.2711674662	652311.120411	66313155.7068	0
5300000.0	34013.0	45547361.0106	0.228303338169	174274.255371	0.125318852952	1.60023343563	75393.1924344	50213.9526367	9422.8571165	59.8594333352	54754.0377221	66317955.5066	0
5325000.0	34162.0	46421568.6001	0.229032812224	174277.416992	0.127042862005	1.59699761868	75074.1779879	49966.40625	9510.89564321	59.4723083229	323125.742776	66322755.8174	0
5350000.0	34311.0	47307857.2704	0.229760040317	174278.515625	0.128782368847	1.59380757809	74758.5229893	49721.2585449	9597.7964569	58.9018314037	781058.244552	66327556.6393	0
5375000.0	34460.0	48206336.8499	0.230485112367	174277.331543	0.130537591758	1.59066545963	74446.273351	49478.5186768	9683.44971766	58.5452494976	110168.164035	66332357.9722	0
5400000.0	34610.0	49117076.469	0.231214800732	174275.769043	0.132302506245	1.58753025532	74134.7151517	49236.2457275	9767.41121813	58.2128497927	246372.350266	66337159.8162	0
5425000.0	34760.0	50040187.1139	0.231943198054	174271.704102	0.134083180455	1.58444273472	73826.4075102	48996.2799072	9849.92670064	57.7023642637	980716.64482	66341962.1712	0
5450000.0	34910.0	50975777.3948	0.232674392184	174267.614746	0.135878479341	1.58137118816	73519.2610234	48757.2113037	9930.81653444	57.4011716364	227448.944046	66346765.0373	0
5475000.0	35061.0	51923907.7864	0.233416705771	174266.125488	0.137681912747	1.57826697826	73209.9071783	48516.6290283	10009.5897697	57.1251062886	113893.579969	66351568.4145	0
5500000.0	35212.0	52884681.7493	0.234160790368	174264.855957	0.139499970828	1.57517695427	72901.8241044	48277.0904541	10086.5400669	56.6765021217	1365024.0126	66356372.3027	0
5525000.0	35363.0	53858202.3603	0.234906081902	174263.745117	0.141332653584	1.57210159302	72595.1185322	48038.6688232	10161.5601441	56.4322515249	502773.703589	66361176.702	0
5550000.0	35515.0	54844529.4411	0.235659601848	174264.782715	0.143173616379	1.56900024414	72286.9959621	47799.3530273	10234.1600405	56.212667314	6839.17978006	66365981.6124	0
5575000.0	35667.0	55843766.0562	0.23641509317	174265.83252	0.145029189298	1.56591248512	71980.0679904	47561.0168457	10305.2870388	56.0046933958	424033.727661	66370787.0339	0
5600000.0	35820.0	56855970.305	0.237179601725	174268.896484	0.146892736666	1.56279826164	71671.5330562	47321.6217041	10374.7210625	55.8163934861	1249881.58822	66375592.9664	0
5625000.0	35973.0	57881244.2745	0.237946937935	174271.838379	0.148770792293	1.55969715118	71363.9750652	47083.0230713	10442.8799586	55.4566701833	285333.55109	66380399.4101	0
5650000.0	36126.0	58919690.4703	0.238717543398	174274.645996	0.150663341628	1.55660963058	71057.3263755	46845.1385498	10509.7094485	55.2891679794	52876.034064	66385206.3649	0
5675000.0	36280.0	59971365.8805	0.239498735899	174279.150391	0.15256376355	1.55349624157	70748.7757761	46605.9143066	10574.6790888	55.1409587345	590998.546321	66390013.8308	0
5700000.0	36434.0	61036374.0531	0.240282938146	174283.154297	0.154478853801	1.55040061474	70441.1705905	46367.388916	10638.2163952	54.8243853526	989012.154336	66394821.8079	0
5725000.0	36588.0	62114819.5329	0.241069216796	174286.499023	0.156408787007	1.54732406139	70134.7765006	46129.7821045	10700.2907926	54.6963207831	305239.980809	66399630.2961	0
5750000.0	36743.0	63206761.3428	0.241864033365	174290.991211	0.158346811077	1.54422867298	69827.1234553	45891.3330078	10760.3406222	54.5871653961	21649.1595714	66404439.2955	0
5775000.0	36898.0	64312304.2252	0.242660205454	174294.604492	0.160299692652	1.54115509987	69521.0968999	45654.1290283	10818.8267045	54.4874352758	476331.816057	66409248.8061	0
5800000.0	37054.0	65431506.3	0.243464265124	174299.169922	0.162260592333	1.53806471825	69214.1950155	45416.3970947	10875.1348394	54.4067181345	1208237.29288	66414058.8278	0
5825000.0	37210.0	66564471.4786	0.244269260959	174302.67334	0.164236262208	1.53499805927	68909.2462426	45180.1696777	10929.7917917	54.161790654	601131.871079	66418869.3608	0
5850000.0	37366.0	67711304.9546	0.245074900773	174305.004883	0.166226847796	1.53195536137	68606.3935866	44945.5627441	10982.7456547	54.1006424117	93991.9308238	66423680.405	0
5875000.0	37523.0	68872064.5523	0.245887919348	174307.885742	0.168225378729	1.52889931202	68303.1302541	44710.7818604	11033.3633374	54.0584046593	157027.713568	66428491.9604	0
5900000.0	37680.0	70046856.8235	0.246701648629	174309.143066	0.170239058207	1.52586817741	68001.7811569	44477.4505615	11082.1942722	53.8539688529	2126356.71313	66433304.027	0
5925000.0	37837.0	71235789.9052	0.247515581611	174308.581543	0.172268046299	1.52286291122	67702.4233394	44245.6329346	11129.2127138	53.8309220426	1278458.02587	66438116.6049	0
5950000.0	37995.0	72438923.907	0.248335844142	174307.873535	0.174305372639	1.5198507309	67402.8537866	44013.7237549	11173.7680959	53.996863403	2372429.35527	66442929.6941	0
5975000.0	38154.0	73656318.2378	0.249161591026	174306.848145	0.176350862603	1.51683628559	67103.4348899	43781.9976807	11215.7677142	53.8410158461	123747.714325	66447743.2946	0
6000000.0	38312.0	74888129.0503	0.249977858836	174301.977539	0.178418704309	1.51389741898	66809.6951865	43554.4281006	11256.4420094	53.6861878167	3492810.55945	66452557.4063	0
6025000.0	38471.0	76134414.7904	0.250801921982	174298.4375	0.180493865628	1.51094055176	66515.1193061	43326.373291	11294.4484715	53.889479128	594159.187981	66457372.0294	0
6050000.0	38631.0	77395226.6906	0.251634727251	174296.862793	0.182575706276	1.50795972347	66219.300807	43097.567749	11329.7217991	53.9431055894	1263053.04861	66462187.1638	0
6075000.0	38791.0	78670663.0189	0.252468948089	174295.446777	0.184671385796	1.50499498844	65925.0262642	42869.9981689	11362.859396	53.8388798319	963303.337868	66467002.8095	0
6100000.0	38951.0	79960823.8096	0.253306255565	174294.067383	0.186781195225	1.50203979015	65631.4641173	42643.0206299	11393.8293894	53.9136031426	398865.076856	66471818.9666	0
6125000.0	39112.0	81265759.7373	0.254153878595	174294.262695	0.188897829503	1.49905705452	65335.9693989	42414.730835	11421.9488637	54.0081270657	45705.5346384	66476635.635	0
6150000.0	39273.0	82585570.836	0.255003968569	174294.32373	0.191028579138	1.49608516693	65041.4175232	42187.2436523	11447.8247632	54.1132712075	149037.434209	66481452.8148	0
6175000.0	39435.0	83920306.1972	0.255862979627	174295.910645	0.193165978999	1.49309098721	64745.5917678	41958.9691162	11470.7488264	54.2386020624	553190.598904	66486270.5059	0
6200000.0	39597.0	85270064.2017	0.25672283209	174297.314453	0.195317217731	1.49011182785	64451.3026015	41731.9732666	11491.3844016	54.3748011177	1102229.0884	66491088.7085	0
6225000.0	39760.0	86634892.6589	0.257590255073	174300.097656	0.197474932065	1.48711395264	64156.3303275	41504.7027588	11508.9607757	54.5316948451	1741627.86773	66495907.4224	0
6250000.0	39923.0	88014889.4983	0.258457300452	174302.661133	0.199646397959	1.48413527012	63863.5066568	41279.2114258	11524.2229695	54.5323641927	912463.050454	66500726.6478	0
6275000.0	40086.0	89410152.8643	0.259323740864	174304.907227	0.201831746381	1.48117613792	63572.8460688	41055.5084229	11537.2883842	54.71079736	437062.831392	66505546.3847	0
6300000.0	40250.0	90820731.6247	0.260198980099	174308.154297	0.204023672268	1.47819507122	63280.9129814	40831.0699463	11547.4775184	54.9090795609	110674.553234	66510366.633	0
6325000.0	40414.0	92246726.048	0.261075499566	174310.81543	0.206229655305	1.47522783279	62990.3079838	40607.7667236	11555.5439538	55.1175939645	36755.5206801	66515187.3927	0
6350000.0	40579.0	93688183.9609	0.261959596816	174314.355469	0.2084421576	1.47224342823	62698.9958564	40384.1430664	11560.7723877	55.3459570727	286797.893394	66520008.664	0
6375000.0	40744.0	95145204.3031	0.262843096927	174317.272949	0.210668629734	1.4692786932	62409.8156993	40162.2619629	11563.9461343	55.584461724	663807.602886	66524830.4468	0
6400000.0	40910.0	96617833.4388	0.263732560109	174321.020508	0.21290127188	1.46630299091	62120.6621991	39940.6036377	11564.3016482	55.8430597795	1116291.3243	66529652.7412	0
6425000.0	41076.0	98106169.6927	0.264619582348	174324.060059	0.215147709241	1.46335363388	61834.3930804	39721.2463379	11562.6892265	55.9431982659	1912105.21	66534475.5471	0
6450000.0	41242.0	99610311.167	0.265503179414	174326.391602	0.217408058234	1.46043467522	61551.3677987	39504.4250488	11559.1223838	56.2216050143	1362741.81538	66539298.8646	0
6475000.0	41409.0	101130304.375	0.266391766563	174329.272461	0.219674606342	1.45750796795	61268.6732753	39288.0615234	11552.8418316	56.5200271945	892010.398456	66544122.6937	0
6500000.0	41576.0	102666250.041	0.267279304089	174331.030273	0.221955328016	1.45460391045	60988.1697077	39073.4588623	11544.7265797	56.8282187602	491631.276639	66548947.0344	0
6525000.0	41744.0	104218195.176	0.268172140993	174333.081055	0.224242408876	1.45169246197	60707.7682479	38859.1094971	11533.9573233	57.3266214631	4450648.52796	66553771.8868	0
6550000.0	41913.0	105786184.858	0.269069340315	174335.339355	0.226535499678	1.44877803326	60427.8441522	38645.2880859	11520.5667995	57.5051021786	10510.1074057	66558597.2508	0
6575000.0	42081.0	107370371.972	0.269955152333	174334.875488	0.228850462008	1.445931077	60153.4792564	38435.5926514	11506.2695464	57.8533976848	136454.729651	66563423.1266	0
6600000.0	42251.0	108970746.106	0.270850698853	174335.888672	0.231163372518	1.44305622578	59877.9507568	38225.2349854	11488.5711418	58.2325739533	419379.957755	66568249.514	0
6625000.0	42420.0	110587459.742	0.271732822939	174334.04541	0.233497936279	1.44025635719	59608.6205639	38019.4396973	11470.0561552	58.4390909523	3352763.68587	66573076.4131	0
6650000.0	42590.0	112220556.685	0.272615643962	174332.067871	0.235838408116	1.43746852875	59340.9459771	37814.956665	11449.0691848	59.0109948377	1372235.28398	66577903.824	0
6675000.0	42761.0	113870081.962	0.273501651813	174329.80957	0.238184846239	1.43468594551	59073.9646654	37611.0290527	11425.6490053	59.4312699704	1966983.61712	66582731.7467	0
6700000.0	42932.0	115536133.938	0.274386059896	174327.099609	0.240544526605	1.43192458153	58808.9987089	37408.6853027	11400.6618686	59.6876218022	1479332.10513	66587560.1812	0
6725000.0	43103.0	117218806.775	0.275268997861	174324.255371	0.242917245487	1.42918217182	58546.027583	37207.9315186	11374.1432482	60.1284384739	964267.704437	66592389.1274	0
6750000.0	43275.0	118918137.202	0.276156818314	174322.741699	0.245294737397	1.42642772198	58283.1080214	37007.4432373	11345.2819247	60.5907740319	538280.779237	66597218.5856	0
6775000.0	43447.0	120634217.1	0.277041527193	174321.166992	0.247685005888	1.42369294167	58022.6809048	36808.984375	11314.9780823	61.0640204625	193029.699285	66602048.5555	0
6800000.0	43620.0	122367080.395	0.277929455034	174320.97168	0.250079785474	1.42094707489	57762.8063803	36611.2426758	11282.4012928	61.7371645281	5997232.76706	66606879.0374	0
6825000.0	43794.0	124116760.075	0.27881999751	174322.058105	0.252478872426	1.41819262505	57503.803331	36414.4561768	11247.5840203	62.0768084397	180842.714617	66611710.0311	0
6850000.0	43967.0	125883404.918	0.279700372853	174321.679688	0.254899001447	1.41548323631	57249.2679266	36221.1914062	11212.3202	62.4146731625	4389010.24608	66616541.5368	0
6875000.0	44141.0	127667051.704	0.280584955154	174322.32666	0.257323961705	1.41275990009	56994.8034631	36028.2684326	11174.933648	63.1345514757	1042320.4122	66621373.5545	0
6900000.0	44316.0	129467734.573	0.281473412555	174323.999023	0.259753403952	1.41002631187	56740.6749556	35835.8520508	11135.4341316	63.6973927398	1606837.81807	66626206.0841	0
6925000.0	44491.0	131285544.472	0.282358009931	174325.378418	0.262195448158	1.40731525421	56489.1535956	35645.5352783	11094.7341804	64.0889045527	2221280.56853	66631039.1256	0
6950000.0	44666.0	133120571.001	0.283238162124	174326.501465	0.264650094323	1.40463030338	56240.5372093	35457.5195312	11052.9086727	64.6740440474	1567338.23541	66635872.6793	0
6975000.0	44842.0	134972845.71	0.284120161789	174328.637695	0.267108727712	1.40194606781	55993.0091272	35270.4803467	11008.6901714	65.4705896181	3933982.42758	66640706.7449	0
7000000.0	45019.0	136842398.023	0.285003217435	174331.738281	0.269571144599	1.39926767349	55746.8462591	35084.5794678	10961.8198361	66.1112064477	4890276.21365	66645541.3226	0
7025000.0	45196.0	138729317.5	0.285881022952	174334.411621	0.272046105238	1.3966230154	55503.7787857	34901.0284424	10913.2437053	66.5805298842	120396.620101	66650376.4125	0
7050000.0	45373.0	140633695.746	0.286754018436	174336.523438	0.27453378425	1.39400935173	55263.5047839	34719.6136475	10863.105531	67.2529586549	64336.5456141	66655212.0144	0
7075000.0	45551.0	142555564.823	0.287628614298	174339.306641	0.277025683317	1.39139795303	55024.1976532	34539.0777588	10810.6216918	67.9537443285	426809.704022	66660048.1286	0
7100000.0	45729.0	144495014.071	0.288497369183	174341.601562	0.279529951513	1.38881587982	54787.9105446	34360.8917236	10756.7850743	68.4785604524	4226412.6152	66664884.7549	0
7125000.0	45907.0	146452132.687	0.289359589606	174343.395996	0.282046705252	1.38626241684	54554.7533463	34185.1745605	10701.688952	69.2104943321	3218345.70701	66669721.8934	0
7150000.0	46086.0	148426949.342	0.29022159726	174345.861816	0.284567126073	1.38370847702	54322.9688395	34010.7299805	10644.5373234	70.1665833366	2683100.63793	66674559.5442	0
7175000.0	46266.0	150419490.766	0.291082837115	174349.023438	0.287090864731	1.3811532259	54092.7074346	33837.7044678	10585.4126853	70.9580292675	3761417.87592	66679397.7073	0
7200000.0	46446.0	152429845.562	0.291936767488	174351.513672	0.289627001621	1.37862145901	53865.6838483	33667.3400879	10525.3451731	71.5669337373	686364.522582	66684236.3826	0
7225000.0	46626.0	154458104.063	0.292783970618	174353.222656	0.292175653158	1.37611329556	53641.705278	33499.4598389	10464.4350307	72.3889407792	128725.772454	66689075.5703	0
7250000.0	46807.0	156504296.461	0.293630719416	174355.273438	0.2947281464	1.37360453606	53419.0229384	33332.8155518	10401.8671176	73.2400156251	147951.724198	66693915.2704	0
7275000.0	46988.0	158568510.092	0.294469789196	174356.542969	0.297292863252	1.37112545967	53199.5922931	33168.7316895	10338.6175731	74.1072848888	783536.833634	66698755.4829	0
7300000.0	47170.0	160650771.237	0.295307576034	174358.129883	0.29986089794	1.36865282059	52981.7499759	33006.0272217	10273.9024852	75.0039416816	1723559.78064	66703596.2078	0
7325000.0	47352.0	162751165.393	0.29613694967	174358.898926	0.302440777887	1.36621570587	52767.3542196	32845.9503174	10208.6733302	75.7089220537	2379692.87084	66708437.4452	0
7350000.0	47534.0	164869777.132	0.296957454547	174358.898926	0.305032415781	1.36381840706	52556.5514154	32688.5650635	10143.0453089	76.6358434855	1210766.47891	66713279.195	0
7375000.0	47717.0	167006631.935	0.297775817046	174358.947754	0.307627225993	1.36143302917	52347.3834297	32532.5073242	10076.1906304	77.5924896194	319210.186134	66718121.4574	0
7400000.0	47900.0	169161817.895	0.298585417075	174357.861328	0.310234318022	1.35908389091	52141.5536434	32378.9855957	10009.1062166	78.5647658293	120486.989576	66722964.2324	0
7425000.0	48084.0	171335360.859	0.299392806299	174356.726074	0.312844553264	1.35674536228	51937.3487514	32226.7974854	9940.97299546	79.5669010227	966982.357028	66727807.5199	0
7450000.0	48268.0	173527346.627	0.300191424366	174354.455566	0.315466837492	1.3544408083	51736.5289245	32077.2247314	9872.73987705	80.5848168617	2326297.12733	66732651.32	0
7475000.0	48453.0	175737799.576	0.300987488899	174352.392578	0.318092002999	1.35214388371	51537.2934928	31929.0008545	9803.65103775	81.6325750428	4094234.42888	66737495.6328	0
7500000.0	48638.0	177966802.713	0.301776539229	174350.354004	0.320728169754	1.34986960888	51340.8545067	31783.026123	9734.57538775	82.4736246822	506718.895878	66742340.4583	0
7525000.0	48823.0	180214437.479	0.302558169698	174348.364258	0.323375570588	1.34761857986	51147.309142	31639.3859863	9665.61499606	83.5508641759	105604.369347	66747185.7964	0
7550000.0	49009.0	182480725.518	0.303338594486	174347.265625	0.326025678078	1.34536612034	50954.8979131	31496.875	9595.9946317	84.658196335	1157715.75615	66752031.6474	0
7575000.0	49195.0	184765750.222	0.304111390959	174346.032715	0.328687281581	1.34313738346	50765.2543648	31356.6070557	9526.60377619	85.5510184215	3039702.6442	66756878.0111	0
7600000.0	49381.0	187069593.819	0.304876655293	174344.714355	0.331360264681	1.34093093872	50578.3561086	31218.5668945	9457.52778869	86.6863606216	1251565.99121	66761724.8876	0
7625000.0	49568.0	189392272.792	0.305640012184	174344.348145	0.334035081323	1.33872663975	50392.7036277	31081.6253662	9387.97338768	87.8521131182	87034.7519009	66766572.2769	0
7650000.0	49755.0	191733865.136	0.306395271073	174343.933105	0.336720753694	1.33654606342	50209.8548456	30946.8933105	9318.81796818	89.0330185372	739396.922632	66771420.1791	0
7675000.0	49943.0	194094383.533	0.307148243721	174344.53125	0.339407590218	1.33436775208	50028.2827648	30813.2476807	9249.31888408	90.2445060448	2546230.32431	66776268.5942	0
7700000.0	50131.0	196473902.047	0.307892495022	174345.117188	0.342104758602	1.33221530914	49849.6399701	30681.8389893	9180.31795999	91.2284847893	1477324.11499	66781117.5223	0
7725000.0	50319.0	198872499.452	0.308628052742	174345.532227	0.344812695403	1.33008646965	49673.8511451	30552.6794434	9111.28156438	92.4730094667	69702.6350003	66785966.9633	0
7750000.0	50508.0	201290191.129	0.309360265148	174346.728516	0.347522436641	1.32796061039	49499.4738788	30424.7589111	9041.01706484	93.7589055498	991601.530178	66790816.9173	0
7775000.0	50697.0	203727054.269	0.310083626317	174347.753906	0.35024274257	1.32585978508	49327.8851183	30299.0356445	8970.40796626	94.8194853129	3121626.66571	66795667.3844	0
7800000.0	50886.0	206183166.209	0.310798586288	174348.657227	0.35297384602	1.32378304005	49159.0040828	30175.4577637	8899.52948707	96.1534627239	840534.416824	66800518.3645	0
7825000.0	51076.0	208658540.782	0.311510534628	174350.366211	0.355706259143	1.32171094418	48991.479899	30053.0975342	8827.69889398	97.529402704	245360.15562	66805369.8577	0
7850000.0	51266.0	211153254.003	0.312214433638	174351.989746	0.358449236955	1.31966555119	48826.6363558	29932.8308105	8755.74625626	98.9310912255	2272301.19141	66810221.8641	0
7875000.0	51457.0	213667319.967	0.312914540683	174354.321289	0.361193728168	1.31762635708	48663.2269929	29813.8397217	8683.01667848	100.375163795	5472897.7817	66815074.3836	0
7900000.0	51648.0	216200818.041	0.313605530781	174356.323242	0.363949133316	1.31561458111	48502.6845529	29697.1008301	8610.35234488	101.578694619	9228.80781353	66819927.4163	0
7925000.0	51839.0	218753825.685	0.314287285715	174358.056641	0.366715248674	1.31363022327	48344.8808185	29582.4768066	8537.80863696	102.801197693	5237036.22061	66824780.9623	0
7950000.0	52030.0	221326420.394	0.314960114327	174359.49707	0.369492045138	1.3116736412	48189.8075252	29469.9462891	8465.44855495	104.31470532	1868032.94485	66829635.0215	0
7975000.0	52222.0	223918612.472	0.3156291793	174361.59668	0.372269831132	1.30972623825	48036.2257491	29358.6334229	8392.58668907	105.871337349	4411.69801585	66834489.5941	0
8000000.0	52414.0	226530474.684	0.316289429248	174363.48877	0.375057570636	1.30780696869	47885.3088442	29249.3164062	8320.05048044	107.453136441	2091170.51709	66839344.68	0
8025000.0	52607.0	229162013.804	0.316946076373	174366.015625	0.377845804906	1.30589795113	47735.8535636	29141.1651611	8247.13602695	109.078837821	5968172.38992	66844200.2792	0
8050000.0	52800.0	231813304.899	0.317593671606	174368.115234	0.380644283723	1.30402076244	47589.1662286	29035.0799561	8174.66311208	110.443522011	190633.807144	66849056.3919	0
8075000.0	52993.0	234484423.216	0.318231773238	174369.799805	0.383453210816	1.30217325687	47445.2013943	28931.0516357	8102.68471977	111.825759235	4243827.63816	66853913.0181	0
8100000.0	53186.0	237175443.87	0.31886066282	174371.069336	0.386272382457	1.30035305023	47303.8718739	28829.0466309	8031.2519212	113.518435507	749857.562227	66858770.1578	0
8125000.0	53380.0	239886375.215	0.319484547445	174372.851562	0.389092223486	1.29853868484	47164.0753773	28728.3813477	7959.68850551	115.254837344	1039653.79036	66863627.811	0
8150000.0	53574.0	242617289.695	0.320098321216	174374.243164	0.391922076233	1.29674804211	47026.961928	28629.8309326	7888.76276406	117.015542358	5077547.64667	66868485.9777	0
8175000.0	53769.0	245368193.888	0.320706267273	174376.159668	0.394752365537	1.29495990276	46891.3934783	28532.6690674	7817.84238222	118.515234446	35662.1180452	66873344.6581	0
8200000.0	53963.0	248139229.567	0.321299346402	174376.733398	0.397602503654	1.29321110249	46759.565319	28438.3636475	7748.32520072	120.011056642	4452838.31391	66878203.8521	0
8225000.0	54158.0	250930407.312	0.321886026378	174377.624512	0.400453718612	1.29146802425	46629.359993	28345.489502	7678.89499624	121.854550646	488832.077099	66883063.5599	0
8250000.0	54353.0	253741801.085	0.322461960857	174377.978516	0.403315149015	1.28974819183	46501.835569	28254.7515869	7610.27911333	123.720751235	1927060.97723	66887923.7813	0
8275000.0	54549.0	256573417.851	0.323031127808	174378.637695	0.406177015975	1.28803575039	46376.0177833	28165.4815674	7541.83747188	125.630267701	7375115.94374	66892784.5165	0
8300000.0	54745.0	259425330.318	0.323589425179	174378.723145	0.409048923757	1.28634810448	46252.9223643	28078.3630371	7474.28215562	127.237479095	1182151.28805	66897645.7655	0
8325000.0	54941.0	262297609.32	0.324136629529	174378.295898	0.411930348491	1.28468620777	46132.6053987	27993.4295654	7407.61661829	128.858719597	1886627.11494	66902507.5283	0
8350000.0	55137.0	265190325.351	0.324671763917	174377.294922	0.41482161032	1.28305089474	46015.1639834	27910.748291	7341.88425003	130.49290809	8424779.81879	66907369.805	0
8375000.0	55333.0	268103554.361	0.325192430342	174375.561523	0.417723145802	1.28144276142	45900.9188598	27830.6335449	7277.10269438	132.476397467	2045923.32291	66912232.5956	0
8400000.0	55530.0	271037302.252	0.325705284484	174373.937988	0.420625146944	1.27984476089	45788.6159949	27752.1606445	7212.69475903	134.501400741	999657.149385	66917095.9002	0
8425000.0	55727.0	273991641.182	0.326207961091	174371.740723	0.423536868766	1.27827072144	45678.7932849	27675.6256104	7149.29644893	136.546292215	7121323.42093	66921959.7188	0
8450000.0	55925.0	276966573.553	0.326707356466	174370.397949	0.426448124927	1.2767008543	45570.1216848	27600.0793457	7086.32312926	138.28283176	1421648.77623	66926824.0513	0
8475000.0	56122.0	279962233.244	0.327197843303	174368.359375	0.429378123954	1.27516579628	45464.0368435	27526.3763428	7024.9842554	140.00759519	1255156.70334	66931688.898	0
8500000.0	56320.0	282978616.821	0.327689062651	174367.272949	0.432307104347	1.27363276482	45358.4847997	27453.112793	6964.05398699	142.124507929	2111866.1565	66936554.2587	0
8525000.0	56518.0	286015792.034	0.328175801848	174366.235352	0.435245252447	1.27211904526	45255.007898	27381.5063477	6903.64460925	143.9074984	698336.602576	66941420.1335	0
8550000.0	56716.0	289073826.577	0.328656675204	174365.185547	0.438192568254	1.27062594891	45153.6076943	27311.5203857	6843.66156659	145.713163392	5779735.58139	66946286.5226	0
8575000.0	56914.0	292152787.763	0.329130953237	174364.18457	0.441149168182	1.2691526413	45053.9898793	27242.8588867	6784.14010303	147.913534189	146127.178067	66951153.4258	0
8600000.0	57113.0	295252674.01	0.329601007371	174364.013672	0.444105127826	1.26768422127	44955.1180785	27174.7802734	6724.53824547	150.168930362	4524130.46503	66956020.8433	0
8625000.0	57312.0	298373552.048	0.330062405918	174363.879395	0.447069935035	1.26623535156	44857.5683031	27107.5469971	6665.43806308	152.074344759	249377.552369	66960888.775	0
8650000.0	57511.0	301515487.572	0.330514106823	174363.842773	0.450043764431	1.26480519772	44761.1020909	27040.927124	6606.86455056	154.001882312	2651788.131	66965757.2211	0
8675000.0	57710.0	304678548.458	0.330955346124	174363.793945	0.453026907053	1.26339530945	44665.6292741	26974.8077393	6548.84171303	156.342833741	1513470.71072	66970626.1815	0
8700000.0	57910.0	307862734.891	0.331389962409	174364.440918	0.456009467598	1.26199150085	44570.5578423	26908.8897705	6490.86519203	158.342498381	867540.610324	66975495.6564	0
8725000.0	58109.0	311068183.833	0.331812018778	174364.343262	0.459011236671	1.26062119007	44477.657608	26844.4122314	6433.99530411	160.339083009	5456712.82708	66980365.6456	0
8750000.0	58309.0	314294892.586	0.332229046215	174364.96582	0.462012074422	1.25925648212	44385.5788313	26780.5786133	6377.19655334	162.788602327	199959.293781	66985236.1493	0
8775000.0	58509.0	317542925.883	0.332638839487	174365.649414	0.465021730633	1.25791072845	44295.3050262	26718.1152344	6321.02413972	165.269248998	7617335.78328	66990107.1675	0
8800000.0	58710.0	320812276.999	0.333045545878	174367.114258	0.468029786134	1.25656926632	44206.299127	26656.7718506	6264.9681725	167.389650721	2370688.80824	66994978.7003	0
8825000.0	58910.0	324103080.044	0.333443466111	174367.871094	0.471056700917	1.25526046753	44120.0731643	26597.5097656	6210.07066892	169.504824552	163055.543712	66999850.7476	0
8850000.0	59111.0	327415331.935	0.33383784775	174369.287109	0.474082597066	1.25395929813	44035.017192	26539.1967773	6155.33656265	172.093911835	6253692.37896	67004723.3096	0
8875000.0	59312.0	330749097.899	0.334224960285	174370.654297	0.477117369883	1.25267755985	43951.831913	26482.3028564	6101.27243743	174.280366748	1607387.18603	67009596.3862	0
8900000.0	59513.0	334104442.779	0.334603895675	174371.972656	0.480160902953	1.2514141798	43870.491023	26426.8188477	6047.8956603	176.486239545	494459.272015	67014469.9774	0
8925000.0	59714.0	337481429.277	0.334973792636	174373.31543	0.483212934341	1.25016760826	43790.9492141	26372.7386475	5995.20964857	178.71128214	4168164.69672	67019344.0834	0
8950000.0	59915.0	340880119.512	0.335334052136	174374.633789	0.486273318529	1.24893689156	43713.2165418	26320.0927734	5943.22404432	180.954985317	9596946.58575	67024218.7042	0
8975000.0	60116.0	344300575.32	0.335683480944	174375.927734	0.489342201035	1.24772143364	43637.3108409	26268.9178467	5891.94150684	183.672664932	288339.568758	67029093.8397	0
9000000.0	60318.0	347742792.124	0.336024216345	174377.844238	0.492409686558	1.24651169777	43562.826389	26218.9849854	5840.91549076	186.446830551	7294958.26169	67033969.4901	0
9025000.0	60520.0	351206834.504	0.336353802515	174379.626465	0.495486077853	1.2453199625	43490.3613066	26170.6634521	5790.62382989	188.782470535	2936769.67683	67038845.6554	0
9050000.0	60722.0	354692768.543	0.336672847384	174381.25	0.498571433127	1.24414622784	43419.8635255	26123.9044189	5741.06144636	191.13504936	240094.834635	67043722.3356	0
9075000.0	60924.0	358200658.971	0.336981857646	174382.739258	0.50166551955	1.24299001694	43351.2366668	26078.6224365	5692.24825392	193.50351585	1369784.99254	67048599.5307	0
9100000.0	61126.0	361730569.886	0.337281264547	174384.106445	0.504768278915	1.2418513298	43284.4351591	26034.7686768	5644.17233228	195.887772448	4710706.90955	67053477.2408	0
9125000.0	61328.0	365282564.678	0.337571748918	174385.36377	0.507879594807	1.24073016644	43219.3835758	25992.2668457	5596.84656825	198.777678728	2508162.37383	67058355.466	0
9150000.0	61531.0	368856639.641	0.337856039134	174387.182617	0.510989222676	1.2396146059	43155.4978298	25950.7598877	5549.83840961	201.226519653	232610.770779	67063234.2062	0
9175000.0	61733.0	372452935.677	0.338130122776	174388.208008	0.514117418788	1.23852682114	43093.7510181	25910.8032227	5504.010631	203.660094109	1071075.82017	67068113.4615	0
9200000.0	61936.0	376071433.563	0.338398836005	174389.63623	0.517248932738	1.23744606972	43033.1015997	25871.7407227	5458.54928865	206.642195602	7531800.54945	67072993.232	0
9225000.0	62139.0	379712206.814	0.338660784914	174391.113281	0.520383240655	1.23638045788	42973.8897754	25833.7615967	5413.81413521	208.622675832	7531604.82056	67077873.5177	0
9250000.0	62341.0	383375367.848	0.338914376103	174391.931152	0.523530819919	1.23534107208	42916.6031072	25797.1343994	5370.20027316	211.097909404	11703589.9393	67082754.3186	0
9275000.0	62544.0	387060910.579	0.33916390432	174393.078613	0.526686548255	1.23430907726	42860.2716787	25761.2487793	5327.01380015	214.134821635	15451.0163845	67087635.6347	0
9300000.0	62747.0	390768896.539	0.339405752826	174394.067383	0.529845769051	1.23329508305	42805.5945965	25726.6113281	5284.56336238	217.197629107	11770708.3849	67092517.4662	0
9325000.0	62951.0	394499319.077	0.339641153103	174395.458984	0.533003418241	1.23229110241	42752.2436307	25693.0389404	5242.47998792	219.77378385	8025131.51183	67097399.813	0
9350000.0	63154.0	398252315.515	0.339866139396	174395.861816	0.53618021775	1.23131644726	42701.096621	25661.0473633	5201.54265203	221.781860657	7038693.98034	67102282.6752	0
9375000.0	63357.0	402027951.296	0.340083068634	174395.935059	0.539365923032	1.2303596735	42651.5812485	25630.2856445	5161.19698469	224.897504378	2441471.36459	67107166.0528	0
9400000.0	63561.0	405826216.84	0.340294007641	174396.42334	0.542549765669	1.22941052914	42603.2390856	25600.4852295	5121.02368909	227.515274919	676846.922146	67112049.9458	0
9425000.0	63764.0	409647248.589	0.340495561296	174395.88623	0.545752700418	1.22848761082	42556.8239319	25572.0535278	5081.74333023	230.119171077	108284.427493	67116934.3543	0
9450000.0	63968.0	413491034.758	0.340691625352	174395.751953	0.548953248654	1.22757041454	42511.4515867	25544.4854736	5042.63138777	232.771870128	1297875.39211	67121819.2784	0
9475000.0	64171.0	417357711.449	0.340878994452	174394.628906	0.552172889002	1.22667789459	42467.8577088	25518.1716919	5004.38638522	235.410195883	3068514.8926	67126704.718	0
9500000.0	64375.0	421247266.053	0.341061244842	174393.87207	0.555390084628	1.22578942776	42425.1593689	25492.6177979	4966.30602966	238.682534569	7476151.01424	67131590.6732	0
9525000.0	64579.0	425159756.845	0.341237054942	174392.822266	0.558615080081	1.22491323948	42383.705445	25468.0145264	4928.73189948	240.802425608	7553465.09107	67136477.144	0
9550000.0	64782.0	429095317.884	0.341405209577	174390.771484	0.561858934816	1.22405982018	42343.8004336	25444.4824219	4892.00599342	243.491353656	10070990.3032	67141364.1306	0
9575000.0	64986.0	433053932.748	0.341568912478	174389.294434	0.565099529922	1.22320652008	42304.5871859	25421.5789795	4855.43113049	246.835254753	1861434.89708	67146251.6328	0
9600000.0	65190.0	437035658.471	0.341725839722	174388.012695	0.568347633816	1.22236466408	42266.6437746	25399.6627808	4819.34666207	249.598076795	746417.081834	67151139.6508	0
9625000.0	65394.0	441040559.054	0.341874718436	174386.755371	0.57160446886	1.22153651714	42230.2450579	25378.9810181	4783.75095923	252.377158138	77758.6291474	67156028.1846	0
9650000.0	65598.0	445068694.4	0.342015834169	174385.571289	0.574869278353	1.2207211256	42195.2821765	25359.4360352	4748.64235488	255.172429277	258992.328527	67160917.2343	0
9675000.0	65802.0	449120126.076	0.342149502459	174384.49707	0.578142353334	1.21991932392	42161.7207163	25340.9759521	4714.01397111	257.98362743	919628.591148	67165806.7997	0
9700000.0	66006.0	453194914.698	0.34227604088	174383.520508	0.581423519179	1.21913003922	42129.4589089	25323.5290527	4679.85390981	260.810978427	1722062.1118	67170696.8811	0
9725000.0	66210.0	457293118.862	0.342395824804	174382.678223	0.584712426644	1.21835327148	42098.4341862	25307.0266724	4646.16073939	264.30042941	12374799.4813	67175587.4784	0
9750000.0	66415.0	461414721.538	0.342510210458	174382.592773	0.587998598348	1.21758067608	42068.2886923	25291.2597656	4612.62405023	267.200853224	11174900.0865	67180478.5917	0
9775000.0	66619.0	465559855.83	0.342617199836	174382.006836	0.591303221881	1.21682810783	42039.5220976	25276.4511108	4579.85236666	269.422039048	4267049.08517	67185370.221	0
9800000.0	66823.0	469728580.362	0.34271826319	174381.604004	0.594615354203	1.21608734131	42011.7886002	25262.399292	4547.53320547	272.311776954	5037772.69198	67190262.3664	0
9825000.0	67027.0	473920950.85	0.342813726202	174381.347656	0.597935402766	1.21535813808	41984.9854576	25249.0081787	4515.65530353	275.216715947	5740762.69044	67195155.0278	0
9850000.0	67231.0	478137024.598	0.342903971937	174381.262207	0.601262785494	1.21463954449	41959.0480107	25236.2304688	4484.22241505	278.818061196	8100319.87722	67200048.2053	0
9875000.0	67436.0	482376780.497	0.34298997379	174381.982422	0.604586617555	1.21392405033	41933.6631248	25223.8845825	4452.93010004	281.795892045	7693294.37481	67204941.899	0
9900000.0	67640.0	486640350.906	0.343069845234	174382.250977	0.607928843237	1.21322774887	41909.3668961	25212.2299194	4422.36110282	284.056257539	7294725.20778	67209836.1089	0
9925000.0	67844.0	490927797.561	0.343143016208	174382.580566	0.611279450823	1.21254444122	41886.151157	25201.3565063	4392.21896514	287.019280702	7567218.20412	67214730.8351	0
9950000.0	68048.0	495239182.316	0.343209646618	174382.93457	0.614638323896	1.2118742466	41863.9919484	25191.2475586	4362.49780914	290.7066041	7301435.14117	67219626.0775	0
9975000.0	68253.0	499574488.603	0.343270571642	174383.984375	0.617994111963	1.21120917797	41842.6771786	25181.817627	4332.92543811	293.740170126	7487599.96978	67224521.8362	0
10000000.0	68457.0	503933853.342	0.343324689174	174384.49707	0.621369108558	1.21056413651	41822.632206	25173.2467651	4304.04497209	296.024492248	7467620.62703	67229418.1112	0
10025000.0	68661.0	508317335.422	0.343372892307	174385.083008	0.624751963187	1.2099313736	41803.6205177	25165.4159546	4275.57294146	299.039761882	7142352.40854	67234314.9026	0
10050000.0	68865.0	512724992.931	0.343415344755	174385.766602	0.62814244302	1.20931053162	41785.6336249	25158.3236694	4247.49911416	302.808372323	8955084.74244	67239212.2104	0
10075000.0	69070.0	517156806.398	0.343452801591	174387.133789	0.631529605016	1.2086943388	41768.4528938	25151.8875122	4219.56329305	305.893893672	9801660.19286	67244110.0347	0
10100000.0	69274.0	521612908.761	0.34348435941	174388.012695	0.634935335256	1.20809626579	41752.4514863	25146.2371826	4192.28528339	308.19882944	5366816.67519	67249008.3754	0
10125000.0	69478.0	526093356.414	0.343510830822	174389.025879	0.638348516077	1.20750975609	41737.4336512	25141.2963867	4165.39398896	311.263717807	4569522.16218	67253907.2326	0
10150000.0	69682.0	530598203.458	0.343532466707	174390.136719	0.64176885644	1.20693361759	41723.3628941	25137.0437622	4138.88876581	314.34021335	3702333.75501	67258806.6064	0
10175000.0	69886.0	535127505.786	0.343549321515	174391.369629	0.645196414553	1.2063678503	41710.2169456	25133.4625244	4112.75991473	317.428387518	2794476.32941	67263706.4968	0
10200000.0	70090.0	539681314.359	0.343561506404	174392.724609	0.648631015792	1.20581150055	41697.9881613	25130.5633545	4087.00242862	320.528083761	1883757.53116	67268606.9038	0
10225000.0	70294.0	544259690.332	0.343567697672	174394.140625	0.65207364969	1.20526707172	41686.8524294	25128.4759521	4061.61584742	323.638209766	1012782.05599	67273507.8275	0
10250000.0	70498.0	548862692.085	0.343567697672	174395.532227	0.655524141621	1.20473456383	41676.8230721	25127.2171021	4036.59968723	326.758227171	281690.640766	67278409.2678	0
10275000.0	70702.0	553490378.393	0.343562097379	174396.948242	0.658982316963	1.20421338081	41667.8176814	25126.7120361	4011.94903782	329.887943458	94362.7139168	67283311.2249	0
10300000.0	70906.0	558142808.02	0.343550981761	174398.339844	0.662448408548	1.20370340347	41659.8065009	25126.9500732	3987.65907667	333.026958598	855864.137226	67288213.6988	0
10325000.0	71110.0	562820038.726	0.343534661396	174399.780273	0.665922183543	1.20320367813	41652.7417369	25127.8915405	3963.72071546	336.175470646	2123146.28264	67293116.6894	0
10350000.0	71314.0	567522129.212	0.343513616043	174401.196289	0.669403758366	1.20271468163	41646.5829709	25129.4921875	3940.13370632	339.332767201	3844801.82012	67298020.1969	0
10375000.0	71518.0	572249135.45	0.343488016216	174402.624512	0.672892783768	1.20223534107	41641.2647182	25131.7123413	3916.88057787	342.49985819	6020298.93597	67302924.2213	0
10400000.0	71722.0	577001114.648	0.343458313947	174404.052734	0.67638931796	1.20176613331	41636.7579991	25134.5123291	3893.95706862	344.829201191	9156688.77328	67307828.7626	0
10425000.0	71925.0	581778203.771	0.343424455125	174404.956055	0.679904886056	1.20131254196	41633.1385776	25137.8814697	3871.58002783	347.966928334	6513330.97822	67312733.8208	0
10450000.0	72129.0	586580377.243	0.343387173151	174406.396484	0.683416379616	1.20086205006	41630.1058921	25141.7327881	3849.28931528	352.017545527	15271354.5997	67317639.3961	0
10475000.0	72333.0	591407692.719	0.343346554574	174407.910156	0.686935323756	1.20042097569	41627.790333	25146.081543	3827.30763338	354.352069217	1944450.11174	67322545.4883	0
10500000.0	72536.0	596260284.306	0.34330279846	174408.862305	0.690472777933	1.19999480247	41626.1854252	25150.8453369	3805.84007457	357.518461718	393743.100253	67327452.0976	0
10525000.0	72740.0	601138130.065	0.343254615004	174410.327148	0.694006856065	1.19957399368	41625.3285072	25156.2026978	3784.44722128	360.735129422	403737.542141	67332359.224	0
10550000.0	72943.0	606041371.416	0.343201474367	174411.157227	0.697560200933	1.19917047024	41625.4737815	25162.2192383	3763.55476403	363.919803898	2179326.53879	67337266.8676	0
10575000.0	73147.0	610969987.984	0.343143661891	174412.475586	0.701110227965	1.19877302647	41626.3977645	25168.8476562	3742.72833327	367.15522246	4893658.26748	67342175.0283	0
10600000.0	73350.0	615924120.372	0.343081715503	174413.146973	0.704679870978	1.19839072227	41628.1717325	25176.0269165	3722.38496387	369.448228328	10876869.2459	67347083.7062	0
10625000.0	73553.0	620903826.934	0.343015808006	174413.720703	0.708257080987	1.19801855087	41630.6998338	25183.7295532	3702.30663553	372.652678723	7022684.62564	67351992.9013	0
10650000.0	73756.0	625909166.954	0.342946392631	174414.208984	0.711842207238	1.19765555859	41633.9381278	25191.9326782	3682.48620447	375.866472799	3664155.45995	67356902.6137	0
10675000.0	73959.0	630940199.043	0.342873753944	174414.599609	0.715435249731	1.19730114937	41637.8109488	25200.5691528	3662.91666218	379.089804546	1060686.02767	67361812.8435	0
10700000.0	74162.0	635996980.409	0.342798316307	174414.904785	0.719035626389	1.1969550848	41642.3008874	25209.6298218	3643.59113193	382.32318868	199953.832396	67366723.5905	0
10725000.0	74365.0	641079568.704	0.342720447488	174415.112305	0.722643686458	1.196616292	41647.3351941	25219.0567017	3624.51082445	385.565811959	2342873.67853	67371634.855	0
10750000.0	74568.0	646188018.696	0.342640430732	174415.222168	0.726259138901	1.19628465176	41652.8812039	25228.8223267	3605.66107454	388.818891875	5791651.37977	67376546.6368	0
10775000.0	74771.0	651322387.072	0.342558716712	174415.209961	0.729882158339	1.19595980644	41658.902854	25238.8946533	3587.03932073	392.082146525	10253144.166	67381458.9361	0
10800000.0	74974.0	656482728.248	0.342475587523	174415.075684	0.733511988074	1.19564127922	41665.3444336	25249.2263794	3568.64303954	394.38200929	5865840.53299	67386371.7529	0
10825000.0	75176.0	661669180.403	0.342390821652	174414.233398	0.737161259167	1.19533467293	41672.3173698	25259.8419189	3550.65296822	397.614565847	2333997.00325	67391285.0872	0
10850000.0	75379.0	666881723.136	0.342302242562	174413.73291	0.74080680497	1.19503283501	41680.0013077	25271.0144043	3532.69152708	400.899772684	89539.5356474	67396198.939	0
10875000.0	75581.0	672120497.451	0.342211140556	174412.451172	0.74447208317	1.19474422932	41688.3164709	25282.5500488	3515.12968988	404.150858951	1642620.80596	67401113.3084	0
10900000.0	75784.0	677385480.613	0.342116849967	174411.499023	0.748133461457	1.19446015358	41697.2481168	25294.5541382	3497.58219216	407.456207799	5316174.99973	67406028.1955	0
10925000.0	75986.0	682676814.751	0.342020798478	174409.838867	0.751814455725	1.19418847561	41706.7291042	25306.8634033	3480.42034439	409.713331912	11436209.2063	67410943.6002	0
10950000.0	76188.0	687994558.787	0.341922152887	174408.26416	0.755502958782	1.19392466545	41716.8135486	25319.5877075	3463.45298324	412.986609106	6293321.62484	67415859.5226	0
10975000.0	76390.0	693338768.733	0.341821084872	174406.860352	0.759198796004	1.19366824627	41727.4596997	25332.6950073	3446.67051409	416.270818759	2204468.89481	67420775.9627	0
11000000.0	76592.0	698709499.973	0.341717821501	174405.651855	0.762902025599	1.19341874123	41738.6233861	25346.1578369	3430.07858054	419.564862085	17026.8003528	67425692.9206	0
11025000.0	76794.0	704106808.181	0.341612923272	174404.626465	0.766612414736	1.19317603111	41750.2671905	25359.9380493	3413.6639671	422.87009077	2549983.79908	67430610.3963	0
11050000.0	76996.0	709530747.464	0.341506254225	174403.78418	0.770330138039	1.19294011593	41762.3691758	25374.0158081	3397.4286205	426.185802302	7140806.24939	67435528.3898	0
11075000.0	77198.0	714981372.151	0.341398317925	174403.149414	0.774054788053	1.19270980358	41774.8597803	25388.3544922	3381.36701523	429.512542524	13209210.6941	67440446.9011	0
11100000.0	77400.0	720458736.145	0.341289422316	174402.685547	0.77778659761	1.19248604774	41787.7360398	25402.9251099	3365.47002474	431.779578068	4523699.13084	67445365.9304	0
11125000.0	77601.0	725962977.442	0.341179902332	174401.916504	0.781537324656	1.19227087498	41800.9234066	25417.6498413	3349.90890364	435.075502112	803444.527006	67450285.4775	0
11150000.0	77803.0	731494068.948	0.341066902572	174401.806641	0.785283977166	1.19206118584	41814.829792	25432.9284668	3334.34651315	438.426665452	1118501.35951	67455205.5427	0
11175000.0	78004.0	737052152.468	0.340951510926	174401.342773	0.789049779996	1.19186353683	41829.3307708	25448.5595703	3319.10421844	440.647928836	19988305.2762	67460126.1258	0
11200000.0	78205.0	742637287.03	0.340833566146	174400.98877	0.792823499069	1.19167387486	41844.4266205	25464.6148682	3304.01866385	445.071671702	11508336.4835	67465047.227	0
11225000.0	78407.0	748249444.122	0.340712520075	174401.318359	0.796592445113	1.19148790836	41860.1166167	25481.1264038	3288.922229	448.456292369	19338713.1	67469968.8462	0
11250000.0	78608.0	753888764.331	0.340590177097	174401.269531	0.800381181762	1.19131243229	41876.2404046	25497.8729248	3274.13921335	450.684513066	1449552.40747	67474890.9835	0
11275000.0	78809.0	759555305.205	0.340466042638	174401.342773	0.80417713616	1.19114351273	41892.8136578	25514.9047852	3259.50137682	454.036706683	765045.010059	67479813.6389	0
11300000.0	79010.0	765249122.273	0.340340534955	174401.574707	0.80798054114	1.19098007679	41909.771391	25532.1899414	3245.00380188	456.262523288	21602893.1589	67484736.8125	0
11325000.0	79210.0	770970357.756	0.340214595446	174401.44043	0.811803562101	1.19082546234	41926.9947617	25549.5697021	3230.79772709	459.583092065	13410215.9804	67489660.5043	0
11350000.0	79411.0	776718981.758	0.340087094582	174401.977539	0.815621693619	1.19067192078	41944.570011	25567.2225952	3216.57614648	464.115202327	20155380.7115	67494584.7143	0
11375000.0	79612.0	782495049.54	0.339958972828	174402.661133	0.819446984679	1.19052267075	41962.3829504	25585.0036621	3202.5121042	466.346461473	1441783.29368	67499509.4425	0
11400000.0	79812.0	788298701.909	0.339831470715	174402.990723	0.823291833512	1.19038045406	41980.3234056	25602.7740479	3188.79663765	469.687145903	899533.225517	67504434.6891	0
11425000.0	80013.0	794129906.626	0.339703156273	174403.979492	0.827131443657	1.19023776054	41998.4665663	25620.7061768	3175.10853524	473.078575126	5691339.11402	67509360.454	0
11450000.0	80213.0	799988807.897	0.339574388847	174404.56543	0.830990727991	1.19010317326	42016.8823453	25638.7420654	3161.75689578	475.236696933	13559141.7589	67514286.7372	0
11475000.0	80413.0	805875463.85	0.339443466365	174405.297852	0.834857928567	1.18997478485	42035.7737216	25657.0983887	3148.57893733	478.57716806	6340059.09659	67519213.5388	0
11500000.0	80613.0	811789931.059	0.339310750768	174406.079102	0.838732463308	1.18985188007	42055.0831598	25675.7354736	3135.56951143	481.920841011	1177112.35401	67524140.8588	0
11525000.0	80813.0	817732269.332	0.339176602942	174407.019043	0.842614797875	1.1897342205	42074.7850076	25694.631958	3122.72698093	485.267194978	1379370.14605	67529068.6973	0
11550000.0	81013.0	823702535.178	0.339041300466	174408.032227	0.846504757646	1.18962156773	42094.8197743	25713.7329102	3110.03948942	488.617683785	6927687.16252	67533997.0543	0
11575000.0	81213.0	829700785.791	0.338905174838	174409.155273	0.850401935168	1.18951380253	42115.136894	25733.0047607	3097.50897378	490.741849044	12631087.791	67538925.9297	0
11600000.0	81412.0	835727165.69	0.338769514181	174409.863281	0.854319194332	1.1894133091	42135.6188926	25752.2979736	3085.26267216	494.044660927	5324877.73401	67543855.3238	0
11625000.0	81612.0	841781643.573	0.338632786466	174411.157227	0.858231447637	1.18931400776	42156.387196	25771.8139648	3073.02092454	498.6461429	36518403.6294	67548785.2363	0
11650000.0	81812.0	847864275.038	0.338496169072	174412.561035	0.862150802277	1.18921864033	42177.3189242	25791.3970947	3060.91848908	500.759589705	2476516.81308	67553715.6675	0
11675000.0	82011.0	853975205.844	0.338360890188	174413.549805	0.866090296768	1.1891297102	42198.270381	25810.8917236	3049.08800887	502.813133622	20492431.5087	67558646.6173	0
11700000.0	82210.0	860114490.289	0.338226264874	174414.599609	0.870037009008	1.18904423714	42219.2958376	25830.380249	3037.38662553	506.1270691	11477221.1623	67563578.0858	0
11725000.0	82409.0	866282183.251	0.338092645986	174415.74707	0.873990706168	1.18896234035	42240.3691644	25849.8382568	3025.80323583	509.447996601	4367903.99508	67568510.073	0
11750000.0	82608.0	872478341.706	0.337959922341	174416.967773	0.877951912116	1.18888354301	42261.4851454	25869.2718506	3014.3434505	512.774339556	118887.688299	67573442.5789	0
11775000.0	82807.0	878703023.135	0.337826241671	174418.249512	0.881920859683	1.18881142139	42282.9471794	25888.9038086	3002.99630707	516.107491943	3324865.27554	67578375.6036	0
11800000.0	83006.0	884956286.373	0.337691660748	174419.580078	0.885897316039	1.18874537945	42304.7300035	25908.7127686	2991.76414406	519.446880938	10310210.0787	67583309.1471	0
11825000.0	83205.0	891238190.162	0.337556453513	174420.959473	0.88988133939	1.18868505955	42326.8018244	25928.6834717	2980.64271716	522.792895798	19653088.881	67588243.2094	0
11850000.0	83404.0	897548791.732	0.3374208659	174422.351074	0.893873162568	1.1886292696	42349.0819208	25948.7640381	2969.62132126	524.82501411	3736458.94859	67593177.7906	0
11875000.0	83602.0	903888238.946	0.337286282225	174423.291016	0.897885125596	1.18858039379	42371.4140621	25968.7744141	2958.83234425	528.128646743	31725.4996019	67598112.8907	0
11900000.0	83801.0	910256498.08	0.337150992827	174424.780273	0.90189196635	1.18853318691	42394.0012199	25988.9709473	2948.00811775	531.490208591	4329818.74744	67603048.5097	0
11925000.0	83999.0	916653718.262	0.337017165899	174425.769043	0.905919005163	1.18849134445	42416.5316148	26009.0240479	2937.40731708	533.463047867	19627337.4566	67607984.6476	0
11950000.0	84197.0	923079957.301	0.336884202802	174426.806641	0.909953727387	1.18845236301	42439.0965813	26029.0496826	2926.89605333	536.783036535	10458175.7068	67612921.3046	0
11975000.0	84395.0	929535272.338	0.336752371989	174427.832031	0.913995900191	1.18841564655	42461.6251647	26048.9959717	2916.47043529	540.11204688	3435868.91421	67617858.4806	0
12000000.0	84593.0	936019719.251	0.336621860039	174428.90625	0.918045465369	1.18838024139	42484.0884188	26068.8415527	2906.12662428	543.450628715	115429.276839	67622796.1756	0
12025000.0	84791.0	942533356.823	0.336493068938	174429.980469	0.922102597542	1.18834602833	42506.4272233	26088.5467529	2895.86083319	546.799207786	4566756.93012	67627734.3898	0
12050000.0	84989.0	949076240.118	0.336366237629	174431.054688	0.926167005673	1.18831241131	42528.5980386	26108.0688477	2885.67249387	550.15789556	12088187.3369	67632673.1231	0
12075000.0	85187.0	955648408.173	0.336240418364	174432.165527	0.93023624504	1.18827974796	42550.7352102	26127.5360107	2875.55157178	552.132105858	11583753.788	67637612.3755	0
12100000.0	85384.0	962250029.931	0.336115528173	174432.739258	0.934328883886	1.1882532835	42572.9030923	26146.9329834	2865.62660556	555.453312272	4355513.64674	67642552.1472	0
12125000.0	85582.0	968881072.938	0.335989977106	174433.728027	0.938416167628	1.1882276535	42595.3034377	26166.5100098	2855.64810331	558.836251755	68193.8562568	67647492.4381	0
12150000.0	85779.0	975541689.509	0.335865783859	174434.204102	0.942524406128	1.18820750713	42617.6487416	26185.949707	2845.85745043	562.179023621	3547679.06209	67652433.2482	0
12175000.0	85977.0	982231844.27	0.33574146739	174435.119629	0.946627056692	1.1881878376	42640.1512111	26205.5023193	2836.00694897	565.585288781	10712758.7203	67657374.5777	0
12200000.0	86174.0	988951690.688	0.335619015368	174435.473633	0.95075101126	1.18817341328	42662.5198292	26224.8474121	2826.33949332	567.510900096	14430373.0257	67662316.4265	0
12225000.0	86371.0	995701288.839	0.33549783342	174435.778809	0.954882474616	1.1881608963	42684.8287388	26244.0917969	2816.72664079	570.881267998	6489649.37641	67667258.7946	0
12250000.0	86568.0	1002480697.15	0.335378052976	174436.022949	0.959021621384	1.18815052509	42707.0583697	26263.2080078	2807.16805817	574.264425356	1041261.01508	67672201.6822	0
12275000.0	86765.0	1009289975.61	0.335259939109	174436.169434	0.963168800808	1.18814253807	42729.1761716	26282.1624756	2797.6603429	577.660795028	1695709.89232	67677145.0892	0
12300000.0	86962.0	1016129182.42	0.335143756183	174436.254883	0.967323663644	1.18813586235	42751.1251453	26300.9216309	2788.20319762	581.070594757	7601657.20285	67682089.0157	0
12325000.0	87159.0	1022998377.38	0.335029634075	174436.230469	0.971485918853	1.18813097477	42772.8926298	26319.4641113	2778.79327601	584.49465007	15828016.1374	67687033.4616	0
12350000.0	87356.0	1029897619.12	0.334917809349	174436.108398	0.975656264927	1.1881275177	42794.4303184	26337.7441406	2769.42727483	586.440989872	11296967.3046	67691978.4272	0
12375000.0	87552.0	1036827061.46	0.334809319796	174435.388184	0.979847623967	1.18812692165	42815.5915836	26355.6182861	2760.22012454	589.832711267	4508955.46503	67696923.9123	0
12400000.0	87749.0	1043786670.03	0.334700927216	174435.046387	0.984033569694	1.18812930584	42836.9135215	26373.5412598	2750.94088792	593.291678279	244378.339784	67701869.917	0
12425000.0	87945.0	1050776603.03	0.334594206292	174434.04541	0.98824093584	1.18813765049	42858.1618673	26391.2841797	2741.81024881	596.713861474	2682609.52821	67706816.4413	0
12450000.0	88142.0	1057796825.11	0.334487393355	174433.447266	0.992442830466	1.18814873695	42879.5835339	26409.09729	2732.60790345	600.203861615	8880262.92412	67711763.4853	0
12475000.0	88338.0	1064847492.5	0.334382594614	174432.165527	0.996666261926	1.18816435337	42900.8374938	26426.6693115	2723.55007464	602.121291107	20657787.3675	67716711.0491	0
12500000.0	88534.0	1071928668.45	0.334279007102	174430.712891	1.00089784246	1.18818247318	42922.0161439	26444.1162109	2714.52823086	606.153760792	0.0	67721659.1325	0
