z	T	P	nabla_ad	S	rho	delta	cp	cv	opac	frad	fconv	ftot	dT
0.0	3900.0	296.89160096	0.366861110538	168589.733887	1.19726148995e-05	1.0192719698	17855.7161472	11258.8096619	0.00107443911953	0.0	41905.8540777	65311815.0903	0
25000.0	3900.0	391.326241668	0.35777393056	166795.141602	1.57876396401e-05	1.02528131008	18460.5171859	11791.1827087	0.00127487731195	0.0	55183.5207957	65316507.3538	0
50000.0	3900.0	515.879015434	0.34665471453	164988.671875	2.08243164934e-05	1.03321158886	19252.3717537	12486.9842529	0.00151306384569	0.0	72652.4978249	65321200.1229	0
75000.0	3900.0	680.210306748	0.333332061772	163165.991211	2.74781832843e-05	1.04367566109	20287.0593093	13394.4229126	0.00179433343853	0.0	95699.6264301	65325893.3976	0
100000.0	3900.0	897.118432035	0.317730661499	161322.583008	3.62759422501e-05	1.05726897717	21634.1866507	14574.2965698	0.00212758451042	0.0	126134.492825	65330587.1781	0
125000.0	3900.0	1183.58619928	0.299954909904	159451.660156	4.79208956961e-05	1.07490849495	23380.1359941	16100.7217407	0.0025254796258	0.0	166439.43517	65335281.4644	0
150000.0	3900.0	1562.1924078	0.280332629255	157545.861816	6.33551309193e-05	1.09799277782	25636.0007474	18065.4632568	0.00300472616775	54656960.7402	204563.018287	65339976.2566	0
175000.0	3929.0	2058.36457746	0.268908907779	155808.911133	8.29668493907e-05	1.11454951763	27147.4205524	19366.4733887	0.00378135704114	42095595.1881	265402.750588	65344671.5548	0
200000.0	3936.0	2712.35793161	0.250070323455	153902.819824	0.000109383691438	1.14506828785	30039.6724337	21863.1454468	0.00455770156929	59183023.3521	305472.363534	65349367.3591	0
225000.0	4009.0	3556.44293923	0.252515763331	152475.0	0.000140832497664	1.14429759979	29669.4323502	21506.1416626	0.00608229209982	50501158.8953	366490.129975	65354063.6694	0
250000.0	4047.0	4653.14894792	0.243701153633	150802.209473	0.000182810424576	1.16263115406	31216.5206041	22814.1998291	0.00764280221322	59395936.2134	324166.22179	65358760.4858	0
275000.0	4212.0	6018.83830891	0.273354329387	150096.813965	0.000226300244321	1.11875677109	26668.8540837	18843.3044434	0.0118776530347	53286056.7843	285656.419869	65363457.8085	-4
300000.0	4353.0	7715.58761405	0.293180776676	149201.245117	0.000279869340147	1.09513676167	24238.7480862	16716.6351318	0.0174872947631	58402347.2961	39654.4476502	65368155.6374	-10
325000.0	4775.0	9667.89983886	0.353427764904	149591.479492	0.000318327607829	1.03619968891	18816.6927451	12022.6402283	0.0303257397927	49903945.0134	15714.6716769	65372853.9727	-10
350000.0	5066.0	11949.0479603	0.372359206664	149316.479492	0.000369416568446	1.02121758461	17534.0056353	10919.3878174	0.0413274939416	55222141.5931	0.00799917956364	65377552.8144	-24
375000.0	5842.0	14367.8631399	0.387481682794	150449.060059	0.000386456633805	1.00688016415	16544.245775	10096.1677551	0.0644323978025	42037770.4508	4.96172903195e-05	65382252.1626	0
400000.0	5934.0	17214.5590661	0.386781407804	149607.983398	0.000453997870409	1.00710487366	16576.393934	10125.5744934	0.0815067142092	80512652.5988	26.5582839522	65386952.0172	-24
425000.0	8096.0	19622.7125088	0.268588048391	154754.02832	0.000374880130494	1.06743741035	25062.6718191	17786.1526489	1.20802807168	32233810.8072	631661.699201	65391652.3785	-75
450000.0	10365.0	21632.8786419	0.129611593272	164841.125488	0.000308189783027	1.51282119751	77033.5042671	61994.6411133	11.7926628211	5207034.72468	39898726.1963	65396353.2465	-17
475000.0	10944.0	23658.8500834	0.116160865322	168811.987305	0.000309524494924	1.72024798393	100919.815299	81135.2844238	19.1395778234	1338637.19734	11232181.5011	65401054.6211	-23
500000.0	11371.0	25735.7128372	0.110352910075	171839.929199	0.000316557276392	1.87330305576	118792.314619	94978.9672852	25.9023482489	715653.958093	7456002.02325	65405756.5026	-5
525000.0	11623.0	27909.1919203	0.108219336284	173448.742676	0.000330829465156	1.95738828182	128640.726744	102396.813965	30.8964919859	354276.975337	2207252.75268	65410458.8909	-3
550000.0	11756.0	30224.51081	0.107857705214	173790.576172	0.000352147054627	1.98662233353	131869.460115	104732.946777	34.0514403217	190177.154106	132542.524357	65415161.7861	-1
575000.0	11858.0	32700.5028616	0.107876235986	173814.599609	0.00037636564798	2.00206017494	133431.167392	105806.079102	36.7963280027	146371.420736	3295.00360318	65419865.1883	0
600000.0	11958.0	35346.264929	0.107929433574	173829.003906	0.000401971647079	2.01656770706	134883.014023	106790.625	39.6773964698	129690.273457	5492.87164428	65424569.0975	0
625000.0	12058.0	38171.2349794	0.108022063131	173812.109375	0.000429035026173	2.02981901169	136147.437788	107621.838379	42.7212394925	115706.988936	3028.12443439	65429273.5139	0
650000.0	12158.0	41185.4097737	0.108135032252	173805.212402	0.000457528699371	2.04315710068	137418.877708	108453.393555	45.9309135494	102933.424221	6033.66327754	65433978.4373	0
675000.0	12257.0	44399.1355728	0.108267741535	173813.378906	0.000487546799377	2.05627441406	138684.55144	109279.833984	49.2852085389	91775.1687733	9846.53958662	65438683.868	0
700000.0	12356.0	47822.5853055	0.108414618587	173831.848145	0.00051910262755	2.06901288033	139920.304028	110080.981445	52.8124552917	82404.2583248	7330.29317708	65443389.806	0
725000.0	12455.0	51466.6360111	0.108582163661	173834.155273	0.000552328913273	2.08073568344	141024.606178	110777.258301	56.5189605654	74121.6012819	5263.75558735	65448096.2513	0
750000.0	12554.0	55343.1177403	0.108770352378	173809.191895	0.000587335421187	2.09140586853	141973.403989	111348.901367	60.4110640994	66780.4338155	3695.0856959	65452803.204	0
775000.0	12653.0	59463.9107273	0.108966701628	173811.242676	0.000624018127837	2.10252642632	142994.064611	111973.681641	64.4880133699	59980.6126575	8619.0199742	65457510.6642	0
800000.0	12751.0	63841.4355431	0.109180901672	173822.460938	0.000662559443754	2.1133813858	143997.349352	112585.119629	68.722519837	54251.9547784	6960.20579986	65462218.6319	0
825000.0	12850.0	68487.2835931	0.10940264538	173848.278809	0.000702854777046	2.12419605255	145003.527667	113194.775391	73.1751180832	49157.1762761	5271.21891242	65466927.1071	0
850000.0	12948.0	73415.4986126	0.10964976628	173838.928223	0.000745315446693	2.13361907005	145821.74834	113659.655762	77.7915314854	44384.5735442	12673.8338194	65471636.09	0
875000.0	13046.0	78640.5348927	0.10991052768	173810.644531	0.000789902287579	2.14216804504	146519.614457	114030.310059	82.6072973297	40545.8972216	3515.83602101	65476345.5805	0
900000.0	13145.0	84175.5704717	0.110175808302	173820.739746	0.000836341769173	2.15133452415	147316.774788	114473.510742	87.6562483053	36916.5989027	2549.92087825	65481055.5789	0
925000.0	13243.0	90035.3874236	0.110458276449	173837.280273	0.000884996893546	2.16015505791	148087.616942	114897.912598	92.8772984605	33496.8708867	10317.4972952	65485766.085	0
950000.0	13341.0	96234.6886199	0.110752337803	173855.627441	0.000935878517794	2.16857910156	148817.940206	115291.210938	98.3115388542	30594.0944242	9718.88572524	65490477.0989	0
975000.0	13439.0	102789.306573	0.111058213269	173852.380371	0.000989194518297	2.17618870735	149437.941068	115600.317383	103.969173725	27977.6344313	9590.81951289	65495188.6208	0
1000000.0	13537.0	109716.43978	0.111370904615	173826.086426	0.00104505568288	2.18298530579	149949.430912	115827.734375	109.857486554	25615.0153163	9899.42689007	65499900.6506	0
1025000.0	13635.0	117032.907031	0.111688930581	173823.413086	0.0011032710745	2.18990015984	150506.212795	116091.577148	115.974886577	23486.357176	10037.1175762	65504613.1885	0
1050000.0	13733.0	124755.097924	0.112015550499	173838.769531	0.00116392561722	2.19680714607	151084.776886	116372.924805	122.327857034	21564.6338468	10128.4455944	65509326.2344	0
1075000.0	13831.0	132900.191915	0.112351633733	173859.350586	0.00122716903661	2.20340204239	151635.27272	116633.337402	128.924893269	19825.127886	10389.6122322	65514039.7885	0
1100000.0	13929.0	141486.560389	0.112697757601	173866.760254	0.00129321711029	2.2093770504	152102.804075	116830.79834	135.777186467	18245.5933348	11173.4318136	65518753.8507	0
1125000.0	14027.0	150534.101805	0.113052541309	173843.200684	0.00136230187309	2.21455001831	152447.829276	116935.131836	142.895426698	16807.345607	12839.1753805	65523468.4212	0
1150000.0	14125.0	160063.307301	0.113415331127	173830.981445	0.0014342359691	2.21961855888	152797.702051	117044.567871	150.27807332	15500.4948801	14820.2828415	65528183.5	0
1175000.0	14223.0	170093.514411	0.113786753794	173838.513184	0.00150897540152	2.22467660904	153169.935411	117172.241211	157.91864146	14386.8146477	1713.49243637	65532899.0871	0
1200000.0	14322.0	180642.84908	0.11416450757	173867.224121	0.00158641762482	2.22977256775	153563.429566	117314.697266	165.863248108	13303.0092719	2223.31952565	65537615.1826	0
1225000.0	14420.0	191733.739421	0.114551547628	173882.312012	0.00166726204043	2.23416161537	153869.72522	117394.506836	174.025824067	12251.0875268	21985.9961421	65542331.7865	0
1250000.0	14518.0	203388.594732	0.114943992844	173877.22168	0.00175153184045	2.23792886734	154085.684363	117406.848145	182.464246601	11350.6565848	26313.3766277	65547048.8989	0
1275000.0	14616.0	215631.538249	0.115344820265	173850.549316	0.00183939710041	2.24133729935	154240.622224	117373.486328	191.186798578	10579.3450532	8102.35267852	65551766.5199	0
1300000.0	14715.0	228484.33397	0.115752196759	173852.331543	0.00193022401618	2.24494481087	154445.516878	117377.270508	200.236935226	9822.80387028	11290.4322552	65556484.6494	0
1325000.0	14813.0	241971.681792	0.116167248329	173858.374023	0.00202470550903	2.24814105034	154617.707771	117360.803223	209.518925882	9129.57420071	15468.5815954	65561203.2876	0
1350000.0	14912.0	256115.109974	0.116587594467	173881.616211	0.00212239501707	2.25121927261	154791.408674	117345.300293	219.14647119	8494.80792576	20077.1721045	65565922.4345	0
1375000.0	15010.0	270941.68099	0.117012782539	173889.550781	0.00222417452278	2.25359368324	154878.881722	117269.299316	229.025219692	7910.36429176	26512.2444538	65570642.0901	0
1400000.0	15109.0	286475.416105	0.11744537142	173891.955566	0.00232961588154	2.25578308105	154938.488739	117171.54541	239.2762393	7410.18094315	5280.10576654	65575362.2545	0
1425000.0	15208.0	302744.35002	0.1178858489	173873.510742	0.00243924341703	2.25775909424	154954.717772	117041.52832	249.859038581	6911.48941501	10766.8790812	65580082.9277	0
1450000.0	15307.0	319776.610501	0.118332166649	173867.96875	0.00255271879723	2.25960111618	154972.218098	116914.453125	260.766989427	6452.38390145	17875.5419582	65584804.1097	0
1475000.0	15406.0	337599.024546	0.118783572194	173874.926758	0.0026701270599	2.26120185852	154977.731032	116780.67627	272.009990971	6029.18261608	26622.5211475	65589525.8007	0
1500000.0	15505.0	356239.281707	0.119238977278	173887.768555	0.00279165647044	2.26244235039	154950.723222	116624.926758	283.601006279	5638.33805719	37342.455256	65594248.0007	0
1525000.0	15604.0	375725.912914	0.119701577115	173901.025391	0.00291746755465	2.26334786415	154890.027979	116446.130371	295.553677679	5303.45453532	9347.33249384	65598970.7096	0
1550000.0	15704.0	396085.83403	0.120173812489	173915.686035	0.00304734976453	2.2641582489	154818.8762	116258.898926	307.947549999	4967.35536484	18073.2901339	65603693.9276	0
1575000.0	15803.0	417354.209066	0.12064917785	173897.338867	0.0031826104987	2.26461195946	154680.743211	116024.243164	320.682941878	4654.28205079	31674.3260711	65608417.6547	0
1600000.0	15903.0	439562.033888	0.121128626737	173885.778809	0.00332213767251	2.26504659653	154544.401446	115790.429688	333.885805065	4386.23546712	5014.16738475	65613141.891	0
1625000.0	16003.0	462741.356906	0.121611393646	173885.693359	0.00346620845448	2.26521468163	154391.504181	115546.936035	347.477886829	4116.164417	14801.5988094	65617866.6364	0
1650000.0	16103.0	486923.458686	0.122101223136	173895.43457	0.00361490538126	2.26511311531	154220.532136	115292.63916	361.469264062	3865.6489926	28681.3444327	65622591.891	0
1675000.0	16203.0	512140.378195	0.12260061905	173911.218262	0.003768370334	2.26477503777	154031.204674	115026.867676	375.86880855	3633.01155943	47158.0658992	65627317.6548	0
1700000.0	16303.0	538425.890978	0.123107007398	173924.87793	0.00392690253648	2.26419830322	153814.564769	114742.492676	390.69524121	3433.60830505	11644.3616937	65632043.928	0
1725000.0	16404.0	565812.164865	0.123618922451	173935.668945	0.00409029553339	2.26352334023	153580.863523	114444.812012	406.037184189	3231.21008416	28019.2982361	65636770.7105	0
1750000.0	16504.0	594341.700259	0.124126707314	173913.378906	0.00426014821642	2.26259708405	153291.766867	114108.544922	421.782168073	3041.52317487	52935.6510789	65641498.0024	0
1775000.0	16605.0	624050.153983	0.124640651446	173901.538086	0.0044348244046	2.26158356667	153004.247424	113774.157715	438.055926266	2879.4024639	14169.1713637	65646225.8037	0
1800000.0	16706.0	654973.771144	0.125163605086	173902.368164	0.00461466288471	2.26034092903	152708.4845	113436.523438	454.788023228	2714.31441509	35753.6147862	65650954.1145	0
1825000.0	16807.0	687148.891465	0.12569446101	173911.791992	0.00479986510982	2.25885772705	152397.430827	113090.075684	471.984810575	2560.38495279	65447.6041277	65655682.9347	0
1850000.0	16908.0	720613.387902	0.126231313161	173924.511719	0.00499068937643	2.2571284771	152063.826665	112729.11377	489.643925563	2428.69062212	19665.7471769	65660412.2645	0
1875000.0	17010.0	755402.343697	0.126774656095	173942.993164	0.00518674005434	2.25523757935	151714.961806	112357.104492	507.85277424	2305.42579315	3424.12368594	65665142.1038	0
1900000.0	17112.0	791556.515196	0.127322596229	173953.088379	0.00538891981705	2.25314760208	151337.968948	111966.174316	526.550268317	2178.86977061	6912.80016986	65669872.4527	0
1925000.0	17214.0	829118.924731	0.127873305215	173946.948242	0.00559762429475	2.25098276138	150939.902346	111561.035156	545.756049055	2060.22005753	33126.5523581	65674603.3113	0
1950000.0	17316.0	868135.439107	0.128425267607	173930.041504	0.00581289077672	2.24876976013	150529.714089	111148.425293	565.47171807	1948.99263964	74421.4698457	65679334.6795	0
1975000.0	17418.0	908650.226394	0.128982832811	173922.424316	0.00603421358392	2.24634981155	150109.52096	110730.895996	585.682552747	1853.98453138	23115.340208	65684066.5575	0
2000000.0	17521.0	950700.397399	0.129548941674	173930.114746	0.00626095516054	2.24374294281	149682.654138	110309.191895	606.476567827	1756.37101774	62491.1773921	65688798.9451	0
2025000.0	17623.0	994333.992949	0.130119169849	173934.838867	0.00649480944048	2.24081397057	149224.934263	109868.933105	627.700019226	1664.62027893	118503.39185	65693531.8426	0
2050000.0	17726.0	1039589.37302	0.130701901229	173950.292969	0.00673433351039	2.23770022392	148755.95767	109421.240234	649.528168342	1594.22759181	11654.0775957	65698265.2498	0
2075000.0	17830.0	1086506.3701	0.131294371636	173970.861816	0.00697977930031	2.23446989059	148275.739654	108965.50293	671.971870368	1513.11502137	5895.20692694	65702999.1668	0
2100000.0	17933.0	1135139.14877	0.131883454165	173972.973633	0.00723336688679	2.23114871979	147771.411952	108494.641113	694.855703475	1436.59523677	45014.6179733	65707733.5937	0
2125000.0	18037.0	1185533.25078	0.132473143601	173965.41748	0.00749383343646	2.22791481018	147264.430109	108020.898438	718.367386238	1364.74958124	109048.241622	65712468.5306	0
2150000.0	18140.0	1237747.91161	0.133060269713	173943.066406	0.00776269189373	2.22461175919	146742.061953	107538.623047	742.333859029	1303.17852826	43971.1420182	65717203.9773	0
2175000.0	18245.0	1291819.92688	0.133666133847	173946.069336	0.00803644616099	2.22112131119	146219.642239	107056.054688	766.991269567	1245.55749865	1395.32485806	65721939.934	0
2200000.0	18349.0	1347803.79993	0.134274583081	173947.583008	0.00831822489999	2.21740460396	145676.769327	106562.060547	792.104955149	1185.25133005	43790.0981335	65726676.4007	0
2225000.0	18454.0	1405742.32147	0.134893846173	173960.72998	0.00860626551002	2.21350574493	145123.794177	106061.437988	817.86222386	1134.06071354	723.147842614	65731413.3773	0
2250000.0	18559.0	1465686.41408	0.135517499101	173974.21875	0.0089018349172	2.20942091942	144553.637004	105550.415039	844.200728478	1080.43365272	45952.2684303	65736150.864	0
2275000.0	18664.0	1527687.84776	0.136148059145	173986.035156	0.00920508500712	2.20514059067	143964.307604	105027.526855	871.129635386	1029.82452847	131383.430681	65740888.8608	0
2300000.0	18769.0	1591800.91013	0.136782212844	173991.369629	0.00951643505687	2.20076608658	143362.126466	104496.960449	898.676256741	986.662571795	54937.7269875	65745627.3676	0
2325000.0	18875.0	1658075.31707	0.137420788915	173992.114258	0.00983522477327	2.19642496109	142759.044138	103965.673828	926.957050936	945.786675816	4314.57417777	65750366.3846	0
2350000.0	18981.0	1726571.69193	0.13805393996	173977.685547	0.010162963008	2.19222354889	142159.699565	103437.878418	955.910543001	902.601152291	72458.5216453	65755105.9117	0
2375000.0	19087.0	1797349.95592	0.138691338048	173966.503906	0.0104987848317	2.1878964901	141551.912782	102905.871582	985.501097172	865.838370794	12616.7960456	65759845.949	0
2400000.0	19194.0	1870456.54924	0.139344407166	173969.641113	0.0108412150439	2.18331432343	140929.585013	102364.575195	1015.81689919	827.223824422	97624.5352032	65764586.4964	0
2425000.0	19300.0	1945954.98852	0.139999431231	173970.214844	0.0111929912237	2.17855477333	140290.831484	101814.51416	1046.69630286	790.542146519	235411.788243	65769327.5541	0
2450000.0	19407.0	2023893.8967	0.140666709192	173980.322266	0.011551872376	2.17362904549	139641.515912	101257.421875	1078.3332351	763.042373697	6817.49262747	65774069.122	0
2475000.0	19515.0	2104323.16418	0.141344074615	173996.850586	0.0119180776892	2.16859436035	138983.92685	100694.500732	1110.74712096	733.4632546	68486.636521	65778811.2002	0
2500000.0	19623.0	2187302.07611	0.142027504609	174010.791016	0.0122930523503	2.16343712807	138310.753409	100121.276855	1143.86277815	698.781444003	185893.199833	65783553.7886	0
2525000.0	19730.0	2272901.63278	0.142708514726	174011.999512	0.0126785998873	2.15825295448	137627.135828	99542.5354004	1177.60753542	672.052940876	93631.1954588	65788296.8873	0
2550000.0	19839.0	2361168.18973	0.143400881855	174016.882324	0.0130710213853	2.15309023857	136946.142549	98964.5996094	1212.28788845	646.761450209	23626.4983704	65793040.4964	0
2575000.0	19947.0	2452180.20447	0.144078101297	174000.585938	0.0134751098813	2.14818263054	136280.191194	98399.3103027	1247.65253871	619.593536319	158341.644613	65797784.6158	0
2600000.0	20056.0	2545997.49935	0.144761327823	173990.795898	0.013887140085	2.14323091507	135617.191928	97837.1154785	1283.80355305	596.648314734	68451.2524184	65802529.2456	0
2625000.0	20165.0	2642682.63023	0.14545483802	173986.303711	0.0143080615089	2.1380007267	134933.715594	97262.6098633	1320.56700138	574.827988829	7658.38391233	65807274.3857	0
2650000.0	20275.0	2742286.82466	0.146165996015	173992.871094	0.0147364080476	2.13246560097	134228.644287	96673.8220215	1358.04917744	554.164224893	28254.4329141	65812020.0363	0
2675000.0	20385.0	2844872.66927	0.146886168878	174002.246094	0.015173905922	2.12672710419	133507.550239	96075.5065918	1396.18126748	532.054334746	54608.7343628	65816766.1973	0
2700000.0	20495.0	2950504.58251	0.14761330735	174012.524414	0.0156208570843	2.120855093	132775.574103	95471.0266113	1434.99010855	513.360709697	2037.55393568	65821512.8687	0
2725000.0	20606.0	3059237.76946	0.14835230872	174028.076172	0.0160758881975	2.11487364769	132035.954402	94861.5356445	1474.58947964	493.364166866	142907.417694	65826260.0506	0
2750000.0	20716.0	3171152.06263	0.149085264335	174033.483887	0.0165427318279	2.10896682739	131299.383754	94256.1523438	1514.83414452	476.363763702	57499.0816535	65831007.7429	0
2775000.0	20828.0	3286295.94328	0.149831150318	174044.885254	0.0170166949829	2.10306024551	130565.313687	93651.8310547	1556.02511188	460.252446455	3045.23430745	65835755.9457	0
2800000.0	20939.0	3404755.24491	0.150562828682	174040.026855	0.0175034256245	2.09740948677	129848.966333	93061.7248535	1597.93431008	442.721945209	167491.800851	65840504.659	0
2825000.0	21051.0	3526596.16121	0.151292137433	174029.626465	0.0179998351086	2.09196662903	129150.806361	92484.564209	1640.76688647	427.948151023	73787.8741844	65845253.8829	0
2850000.0	21163.0	3651896.1226	0.152019994146	174019.65332	0.0185067074199	2.08657312393	128460.528436	91914.4165039	1684.40541367	413.788844175	8643.78863387	65850003.6173	0
2875000.0	21276.0	3780715.29417	0.152755856073	174018.261719	0.0190220780496	2.08111834526	127771.115648	91345.6176758	1728.94448168	400.294597265	30473.4866607	65854753.8622	0
2900000.0	21389.0	3913123.24568	0.153501471992	174019.73877	0.0195475731743	2.07544708252	127063.937612	90765.8935547	1774.29691945	385.65688231	98906.1349228	65859504.6177	0
2925000.0	21502.0	4049189.82656	0.154259497011	174023.681641	0.0200832510018	2.06951618195	126334.250266	90171.862793	1820.46519705	373.324407492	24168.1132996	65864255.8838	0
2950000.0	21616.0	4188973.06376	0.15503553213	174034.570312	0.0206273398362	2.06332945824	125584.372247	89564.3676758	1867.56206405	361.562121863	9855.82125833	65869007.6605	0
2975000.0	21730.0	4332545.59355	0.155818592752	174045.043945	0.0211820697587	2.05702376366	124824.407305	88951.1535645	1915.51558708	348.738819605	168735.220156	65873759.9478	0
3000000.0	21844.0	4479982.50603	0.156605358532	174053.295898	0.021747804567	2.05067777634	124061.425468	88337.1520996	1964.34667391	337.939362138	79165.1623435	65878512.7458	0
3025000.0	21959.0	4631347.27824	0.157400511436	174062.988281	0.0223228344112	2.04430341721	123297.948267	87723.3337402	2014.16382395	327.613458588	15425.086098	65883266.0543	0
3050000.0	22074.0	4786719.82544	0.158191536378	174066.162109	0.0229096476687	2.0380563736	122545.890848	87118.6767578	2064.89973122	316.296163585	298656.641486	65888019.8735	0
3075000.0	22189.0	4946183.75954	0.158973630862	174060.253906	0.0235088282352	2.0320289135	121813.211462	86528.6987305	2116.58363145	306.760266122	186093.373681	65892774.2033	0
3100000.0	22305.0	5109811.09795	0.159753882587	174051.574707	0.024118260626	2.02616882324	121097.888034	85951.3244629	2169.29438881	298.908646838	191215.836685	65897529.0438	0
3125000.0	22422.0	5277670.61939	0.160540344072	174049.87793	0.0247367825068	2.02030229568	120388.501714	85378.8696289	2222.97122831	288.896489728	17248.4723812	65902284.395	0
3150000.0	22538.0	5449857.19084	0.16131581085	174044.494629	0.0253690595855	2.01457047462	119694.131936	84818.927002	2277.35854954	279.258638278	331300.97366	65907040.2569	0
3175000.0	22655.0	5626433.31501	0.162108253255	174046.276855	0.0260103333858	2.00860881805	118982.341473	84247.3510742	2332.55912367	272.40923959	97712.8094049	65911796.6295	0
3200000.0	22773.0	5807460.74739	0.162919808556	174054.56543	0.0266605165962	2.00238704681	118249.524936	83661.5905762	2388.56263832	263.611138642	107687.399915	65916553.5128	0
3225000.0	22890.0	5993034.34488	0.163730581922	174058.178711	0.0273245605058	1.99611341953	117511.354968	83073.7915039	2445.22337449	256.222939018	32634.0741574	65921310.9068	0
3250000.0	23009.0	6183202.20774	0.164564120701	174071.472168	0.0279954838334	1.98961913586	116757.297602	82474.7680664	2502.76375571	249.214952189	2589.6349666	65926068.8116	0
3275000.0	23127.0	6378062.73535	0.165390953668	174078.00293	0.0286808317469	1.98319792747	116009.356585	81881.6833496	2560.97479366	241.406829891	315697.795122	65930827.2271	0
3300000.0	23246.0	6577683.73858	0.16622543894	174086.462402	0.029376045859	1.97675931454	115262.337053	81289.7216797	2620.01901561	235.931088855	137735.198904	65935586.1533	0
3325000.0	23366.0	6782134.53048	0.167064009078	174095.288086	0.0300813608192	1.97036910057	114522.123938	80703.0151367	2679.89777981	228.757668568	113395.365534	65940345.5903	0
3350000.0	23485.0	6991521.7004	0.167884750229	174092.96875	0.0308023845719	1.96425235271	113806.163563	80134.9060059	2740.51608541	222.744296524	36514.0525585	65945105.5381	0
3375000.0	23606.0	7205902.73288	0.168710310799	174092.224121	0.0315317556669	1.9582426548	113103.581666	79576.1352539	2802.07480325	217.018483798	2698.05341127	65949865.9966	0
3400000.0	23726.0	7425389.97465	0.169514799259	174081.506348	0.0322771047649	1.95254290104	112430.361976	79039.6789551	2864.38721647	210.573964447	354772.946643	65954626.9659	0
3425000.0	23847.0	7650055.50216	0.170327259661	174077.22168	0.0330320872308	1.94678211212	111757.863723	78504.675293	2927.52277423	206.115940913	170078.640207	65959388.4459	0
3450000.0	23969.0	7879964.66043	0.171157253387	174079.211426	0.0337963756465	1.94078791142	111068.47096	77958.770752	2991.47180831	200.189515417	115745.707456	65964150.4368	0
3475000.0	24090.0	8115220.50878	0.171985163603	174077.770996	0.0345756598108	1.93475425243	110376.534579	77412.8051758	3056.14321664	195.252408208	35040.8073431	65968912.9385	0
3500000.0	24213.0	8355870.46192	0.172836177025	174086.218262	0.03536164877	1.92848825455	109668.645341	76855.8959961	3121.69856327	190.558695574	2471.77287668	65973675.951	0
3525000.0	24335.0	8602019.79877	0.173680722605	174090.332031	0.03616297181	1.92227602005	108966.349152	76304.4067383	3188.02647433	185.231334478	434964.804133	65978439.4743	0
3550000.0	24458.0	8853737.06055	0.174534520959	174098.413086	0.0369741683244	1.91600608826	108262.109737	75752.0812988	3255.22394584	181.602089509	145542.960776	65983203.5085	0
3575000.0	24582.0	9111091.27219	0.175394657466	174109.594727	0.0377953183488	1.90972793102	107560.262427	75201.9042969	3323.32328044	176.67632222	195860.385579	65987968.0534	0
3600000.0	24705.0	9374193.32533	0.176240190995	174114.306641	0.0386326792068	1.90364789963	106876.836962	74665.9423828	3392.27734579	172.583958928	94992.4500436	65992733.1093	0
3625000.0	24830.0	9643095.72697	0.177094963056	174124.475098	0.039477545215	1.89757847786	106198.820398	74133.8317871	3462.23632455	168.679773489	20644.0980049	65997498.6759	0
3650000.0	24954.0	9917914.0199	0.177928685209	174126.123047	0.0403393423767	1.8918030262	105547.872784	73621.9665527	3533.10657743	164.860009387	19515.4835147	66002264.7534	0
3675000.0	25080.0	10198703.9289	0.178767399043	174130.712891	0.0412091612816	1.88608634472	104906.388913	73116.9128418	3605.0435445	161.210148906	107899.834251	66007031.3418	0
3700000.0	25205.0	10485585.0993	0.179591631208	174123.974609	0.0420965225203	1.88051974773	104276.966201	72621.7346191	3677.93231847	157.008882974	273049.04681	66011798.441	0
3725000.0	25331.0	10778635.876	0.180422660855	174117.443848	0.0429946230724	1.87489271164	103644.77453	72125.4089355	3751.66039298	153.589042445	142417.435585	66016566.051	0
3750000.0	25457.0	11077950.8316	0.181256153252	174112.280273	0.0439056711912	1.86920452118	103010.732941	71629.1015625	3826.13959351	150.279973186	42534.8646511	66021334.1719	0
3775000.0	25584.0	11383598.2865	0.182099675023	174112.365723	0.0448264181614	1.86340796947	102371.847565	71130.279541	3901.3733935	147.105141264	5165.75715367	66026102.8037	0
3800000.0	25711.0	11695668.7529	0.182942402618	174113.48877	0.0457602363895	1.85761356354	101736.657992	70635.168457	3977.34407188	144.031013018	81100.0960893	66030871.9463	0
3825000.0	25839.0	12014231.0708	0.183791355754	174119.238281	0.0467038698844	1.85178029537	101102.57489	70141.5344238	4054.06405106	141.079512087	206256.475768	66035641.5998	0
3850000.0	25967.0	12339377.2371	0.184635495904	174125.317383	0.0476607892779	1.84602069855	100478.353098	69655.7556152	4131.51081888	137.681480139	221988.911771	66040411.7643	0
3875000.0	26095.0	12671200.9613	0.185472661878	174131.311035	0.0486312783323	1.84037196636	99867.0803069	69179.888916	4209.69287168	134.920915926	87220.2955349	66045182.4396	0
3900000.0	26224.0	13009773.7157	0.186309211075	174140.50293	0.0496119937452	1.83479702473	99266.5843081	68712.0666504	4288.61505862	132.267492305	1944.49575451	66049953.6258	0
3925000.0	26353.0	13355191.9508	0.187136874143	174148.303223	0.0506066826347	1.82934570312	98679.6945555	68254.6325684	4368.27338609	129.191090327	648972.297819	66054725.3229	0
3950000.0	26482.0	13707553.6929	0.187960669683	174153.564453	0.0516155669175	1.82392048836	98096.9469523	67801.1413574	4448.67858712	126.701199967	421805.113354	66059497.5309	0
3975000.0	26612.0	14066933.8577	0.18878828312	174159.472656	0.0526352014276	1.81847059727	97514.5789336	67348.5778809	4529.82763026	124.783004266	447293.059415	66064270.2498	0
4000000.0	26743.0	14433407.469	0.18961851917	174165.380859	0.0536656589247	1.81302440166	96934.7019368	66898.2971191	4611.69734568	121.998353054	73833.6180071	66069043.4796	0
4025000.0	26873.0	14807100.9792	0.19043281142	174163.378906	0.0547145536984	1.80775439739	96369.8665789	66459.4726562	4694.3353999	119.275800092	928649.994561	66073817.2203	0
4050000.0	27004.0	15188092.9856	0.191247081345	174159.94873	0.0557747844141	1.80254590511	95811.8476435	66025.7080078	4777.70406751	117.550167362	124275.59658	66078591.472	0
4075000.0	27136.0	15576462.6149	0.192060464348	174155.493164	0.0568461800867	1.79740786552	95261.6804842	65597.7233887	4861.79525234	115.447310099	326367.693407	66083366.2345	0
4100000.0	27268.0	15972311.0428	0.192868804274	174151.806641	0.0579312181799	1.79234039783	94720.5972115	65176.8310547	4946.54634105	112.976831719	177816.835737	66088141.5079	0
4125000.0	27400.0	16375734.0219	0.193671152487	174149.487305	0.0590299241594	1.78735494614	94189.9545377	64763.9953613	5031.9404925	111.001843663	21563.5473141	66092917.2922	0
4150000.0	27533.0	16786800.9002	0.19447439708	174151.867676	0.0601384163019	1.78240311146	93666.7071552	64356.842041	5117.95463151	109.102367207	73062.0362235	66097693.5875	0
4175000.0	27666.0	17205608.1623	0.195271331125	174154.541016	0.0612608200754	1.77748763561	93150.0723601	63955.3833008	5204.61040416	106.853825284	501947.441792	66102470.3936	0
4200000.0	27799.0	17632254.0751	0.196063384933	174157.177734	0.0623973101028	1.77258455753	92637.7128495	63558.026123	5291.91409233	105.065584316	221937.186112	66107247.7107	0
4225000.0	27933.0	18066809.5107	0.196858674915	174162.902832	0.0635438991594	1.76763904095	92125.5688523	63161.6210938	5379.81386741	103.344359811	28181.385579	66112025.5387	0
4250000.0	28067.0	18509373.0822	0.197648744169	174168.212891	0.0647046617814	1.76273441315	91619.3749128	62770.2392578	5468.33905502	101.669247605	85939.3058134	66116803.8777	0
4275000.0	28202.0	18960016.0075	0.198441312468	174176.074219	0.0658755743643	1.7578214407	91115.6148517	62381.1462402	5557.45439979	100.056087757	344816.970202	66121582.7276	0
4300000.0	28337.0	19418837.6651	0.199227921883	174183.056641	0.0670607914799	1.75298345089	90620.0651074	61998.4130859	5647.25931448	98.1204024787	205345.736333	66126362.0884	0
4325000.0	28472.0	19885938.6166	0.20000814471	174188.806152	0.0682605168549	1.74823915958	90133.8788977	61622.7294922	5737.79719014	96.5936999197	7270.52626036	66131141.9601	0
4350000.0	28608.0	20361391.8934	0.200788735199	174196.09375	0.0694706250215	1.74354553223	89654.2011199	61251.8371582	5828.95453266	95.1217590656	152428.698189	66135922.3428	0
4375000.0	28744.0	20845299.6612	0.201561299652	174201.416016	0.070695510658	1.73898637295	89186.8826006	60889.8803711	5920.78646427	93.3425441649	435048.495581	66140703.2365	0
4400000.0	28880.0	21337766.9101	0.20232388365	174203.833008	0.0719355593901	1.73454749584	88730.9218961	60536.3647461	6013.26622368	91.9476234197	111078.746437	66145484.6411	0
4425000.0	29017.0	21838871.3805	0.20308333105	174205.480957	0.0731867257855	1.73013675213	88279.8950227	60186.9506836	6106.30541737	90.6019620745	45688.2788373	66150266.5566	0
4450000.0	29154.0	22348721.3774	0.203832730092	174202.722168	0.0744535500417	1.72582268715	87837.9914274	59844.5495605	6199.95359852	88.9634288452	641709.775055	66155048.983	0
4475000.0	29291.0	22867426.81	0.204573590576	174196.069336	0.0757360030548	1.72159850597	87404.5634938	59508.6364746	6294.16027383	87.6870506161	221396.026116	66159831.9205	0
4500000.0	29429.0	23395063.0543	0.20531744407	174192.773438	0.0770282640588	1.71735036373	86972.2430009	59173.9990234	6388.73209281	86.4591897765	3899.82295812	66164615.3688	0
4525000.0	29567.0	23931729.9321	0.206058020436	174190.332031	0.0783346476965	1.71313726902	86544.9647003	58843.4509277	6483.69257283	85.2639789252	283262.682845	66169399.328	0
4550000.0	29706.0	24477495.0458	0.2068028574	174191.650391	0.0796505337348	1.70891153812	86119.3585551	58514.3920898	6578.90868101	83.8127522394	320537.457379	66174183.7982	0
4575000.0	29844.0	25032488.8509	0.207537816993	174190.844727	0.0809852645034	1.7047983408	85703.6054908	58192.6269531	6674.53368128	82.6854905884	10785.3758573	66178968.7794	0
4600000.0	29984.0	25596746.9615	0.208284597244	174196.508789	0.0823247537483	1.70063900948	85287.0052483	57870.2575684	6770.20302011	81.6170944497	232060.220877	66183754.2715	0
4625000.0	30123.0	26170401.4874	0.209019187009	174199.609375	0.0836833351059	1.69660246372	84881.2297759	57555.9387207	6866.21073921	80.275517004	401058.235977	66188540.2745	0
4650000.0	30263.0	26753522.8783	0.209752535951	174205.175781	0.0850518699735	1.69256055355	84478.3064199	57244.2443848	6962.3032182	79.2679298472	28381.399096	66193326.7885	0
4675000.0	30403.0	27346213.8609	0.210478648153	174210.205078	0.0864351022756	1.68856799603	84081.4898089	56937.4816895	7058.53916028	78.2872452044	234123.336053	66198113.8135	0
4700000.0	30544.0	27948544.2772	0.211205678473	174217.333984	0.0878282080521	1.68457138538	83686.9099531	56632.7758789	7154.73045571	77.0720845909	414545.108619	66202901.3494	0
4725000.0	30684.0	28560650.875	0.211920851025	174220.898438	0.0892410680535	1.6806794405	83301.3253042	56334.9243164	7251.11792737	76.147500857	15841.0231428	66207689.3963	0
4750000.0	30826.0	29182570.6199	0.212645734663	174228.833008	0.0906589120859	1.6767373085	82914.2783869	56036.2670898	7347.22262586	75.2739327381	289852.815573	66212477.9542	0
4775000.0	30967.0	29814441.2478	0.213360767416	174232.8125	0.0920966849662	1.67290794849	82536.084781	55744.152832	7443.42413174	74.1493631432	377808.668361	66217267.023	0
4800000.0	31109.0	30456333.7214	0.214080384676	174237.95166	0.09354451322	1.66909456253	82160.0712395	55453.6010742	7539.36197233	73.3270021969	1541.15693758	66222056.6029	0
4825000.0	31251.0	31108353.4694	0.214798426237	174241.357422	0.0950074318098	1.66535711288	81789.8918852	55167.1264648	7635.16139977	72.2727612305	1015946.67575	66226846.6937	0
4850000.0	31393.0	31770608.6453	0.215510935591	174242.346191	0.0964859282249	1.66170418262	81426.7266808	54885.7299805	7730.78593896	71.4983540894	344407.737449	66231637.2954	0
4875000.0	31536.0	32443174.5112	0.216220897612	174242.822266	0.09797506209	1.65808618069	81067.936225	54607.7148438	7826.00111694	70.7572185494	10565.7413914	66236428.4082	0
4900000.0	31679.0	33126162.2271	0.216922560535	174239.831543	0.0994802321657	1.65455508232	80716.4855375	54335.1257324	7921.01476365	70.0356279744	476241.84526	66241220.032	0
4925000.0	31823.0	33819647.2166	0.217624320687	174236.584473	0.100995770481	1.65104627609	80368.1087966	54064.9230957	8016.09931069	69.1002039189	259936.511555	66246012.1667	0
4950000.0	31966.0	34523773.526	0.218317339824	174231.164551	0.10253120854	1.6476136446	80026.3214786	53799.7436523	8111.69288897	68.1741226175	1732189.78903	66250804.8124	0
4975000.0	32110.0	35238607.1987	0.219016365091	174228.894043	0.104075785202	1.64415252209	79684.2284926	53534.6313477	8207.29995342	67.7499702659	666330.85209	66255597.9691	0
5000000.0	32255.0	35964212.2322	0.219722666601	174229.748535	0.105629267637	1.64066302776	79341.4553406	53269.2199707	8302.79398907	67.1152105863	1586553.16727	66260391.6367	0
5025000.0	32400.0	36700688.9244	0.220431012827	174231.176758	0.107197047328	1.6371922493	79000.8024647	53005.4626465	8398.32941652	66.2670521163	157295.291541	66265185.8153	0
5050000.0	32545.0	37448138.1517	0.221142401905	174233.117676	0.108779189759	1.63374221325	78662.1292309	52743.1640625	8493.81695697	65.4398748017	731175.110443	66269980.505	0
5075000.0	32690.0	38206663.205	0.22185116886	174235.144043	0.110376029625	1.63032102585	78327.2734611	52483.9538574	8589.18297716	64.8561970805	104726.809681	66274775.7056	0
5100000.0	32836.0	38976329.9221	0.222562722162	174239.428711	0.111982095405	1.62688624859	77993.5781413	52225.958252	8684.11311041	64.2983580503	235859.704417	66279571.4172	0
5125000.0	32982.0	39757242.3021	0.223271675638	174243.457031	0.113602975034	1.62348437309	77663.4295664	51970.7946777	8778.73327962	63.5378633025	654810.265716	66284367.6398	0
5150000.0	33128.0	40549504.5598	0.223979227512	174247.143555	0.115238733997	1.62011539936	77336.3543842	51718.0114746	8872.99116912	63.0122658422	52203.6197966	66289164.3734	0
5175000.0	33275.0	41353182.6295	0.224692963302	174252.661133	0.11688368977	1.61673474312	77008.9876732	51465.1123047	8966.50855762	62.5121727713	333413.005663	66293961.618	0
5200000.0	33422.0	42168380.4608	0.225407507127	174257.617188	0.118543488497	1.61338829994	76683.8162454	51213.7634277	9059.43983362	61.8167172058	596929.189646	66298759.3737	0
5225000.0	33569.0	42995203.1354	0.226124074355	174261.84082	0.120218246593	1.61007547379	76360.4152816	50963.55896	9151.71637063	61.3485974434	29322.2009321	66303557.6404	0
5250000.0	33717.0	43833716.0265	0.226850193236	174267.431641	0.121902150568	1.60675323009	76035.618761	50712.1307373	9242.92321644	60.9057264741	370211.554211	66308356.4181	0
5275000.0	33865.0	44684024.3887	0.227578175088	174271.862793	0.123601115774	1.60346841812	75712.6588976	50461.819458	9333.26604606	60.2738961583	651657.34556	66313155.7068	0
5300000.0	34013.0	45546236.5544	0.22830366127	174274.658203	0.125315506011	1.60022962093	75393.0770245	50213.8885498	9422.6812378	59.8621494014	54557.9958429	66317955.5066	0
5325000.0	34162.0	46420420.5402	0.229033137393	174277.844238	0.127039442305	1.59699344635	75074.0469899	49966.3360596	9510.71812126	59.475019331	323570.04686	66322755.8174	0
5350000.0	34311.0	47306685.165	0.229760342383	174278.955078	0.128778905491	1.59380352497	74758.3968466	49721.1914062	9597.61731293	58.9045149581	780394.380498	66327556.6393	0
5375000.0	34460.0	48205140.5607	0.230485441673	174277.770996	0.130534070195	1.59066152573	74446.1466838	49478.4454346	9683.26897497	58.5479217418	109855.26351	66332357.9722	0
5400000.0	34610.0	49115855.4849	0.231215132127	174276.196289	0.132298955577	1.58752596378	74134.5586158	49236.1572266	9767.22890828	58.2154987204	246672.086099	66337159.8162	0
5425000.0	34760.0	50038941.0779	0.231943480234	174272.155762	0.134079557029	1.58443856239	73826.2575106	48996.194458	9849.74285063	57.705000709	979874.243999	66341962.1712	0
5450000.0	34910.0	50974506.0299	0.23267480522	174268.041992	0.135874797706	1.58136701584	73519.1185252	48757.131958	9930.63117462	57.4037984147	227230.214278	66346765.0373	0
5475000.0	35061.0	51922611.0609	0.233417069487	174266.552734	0.137678216561	1.57826304436	73209.7745687	48516.5527344	10009.4029396	57.1277061963	114032.409669	66351568.4145	0
5500000.0	35212.0	52883358.8764	0.23416107797	174265.283203	0.139496172778	1.57517302036	72901.6962803	48277.0172119	10086.3518005	56.6791031697	1363959.36052	66356372.3027	0
5525000.0	35363.0	53856852.9088	0.234906450274	174264.160156	0.141328840982	1.5720975399	72594.9906101	48038.6016846	10161.3704774	56.4348272497	502492.774028	66361176.702	0
5550000.0	35515.0	54843153.11	0.235659972588	174265.209961	0.143169760122	1.56899595261	72286.8536321	47799.2736816	10233.9690188	56.215230658	6790.19526478	66365981.6124	0
5575000.0	35667.0	55842362.3979	0.236415439639	174266.259766	0.145025202073	1.56590843201	71979.9254189	47560.9313965	10305.0833749	56.0073400268	424679.883885	66370787.0339	0
5600000.0	35820.0	56854538.9515	0.237179950439	174269.32373	0.146888749441	1.56279397011	71671.3851072	47321.5423584	10374.5274172	55.8189504624	1250381.78916	66375592.9664	0
5625000.0	35973.0	57879784.7323	0.237947315906	174272.277832	0.148766703205	1.55969321728	71363.8411449	47082.9437256	10442.6850411	55.4592296504	284874.950644	66380399.4101	0
5650000.0	36126.0	58918202.2692	0.238717950995	174275.061035	0.150659208884	1.55660545826	71057.1781653	46845.0531006	10509.5132836	55.2917166469	53052.5068116	66385206.3649	0
5675000.0	36280.0	59969848.8514	0.239499118817	174279.56543	0.15255958715	1.55349230766	70748.6383756	46605.8410645	10574.4701009	55.1435580524	591398.75851	66390013.8308	0
5700000.0	36434.0	61034827.8889	0.240283296045	174283.581543	0.154474619194	1.55039620399	70441.0184192	46367.3095703	10638.0178317	54.8269116021	988370.442332	66394821.8079	0
5725000.0	36588.0	62113243.8942	0.24106957704	174286.914062	0.15640447964	1.54731965065	70134.6176153	46129.6936035	10700.0910704	54.6988480757	304748.657249	66399630.2961	0
5750000.0	36743.0	63205155.8386	0.241864423884	174291.40625	0.158342460054	1.54422438145	69826.966455	45891.2414551	10760.1397792	54.5896842954	21786.7922501	66404439.2955	0
5775000.0	36898.0	64310668.3761	0.242660598547	174295.031738	0.160295283422	1.54115045071	69520.9208247	45654.0344238	10818.6247698	54.4899511188	476700.231473	66409248.8061	0
5800000.0	37054.0	65429839.3296	0.243464717356	174299.584961	0.162256110343	1.53806066513	69214.0308245	45416.2963867	10874.9318538	54.4092365623	1208541.69509	66414058.8278	0
5825000.0	37210.0	66562773.4592	0.244269716187	174303.100586	0.164231736562	1.53499400616	68909.1014042	45180.0842285	10929.5877859	54.164294144	600944.281861	66418869.3608	0
5850000.0	37366.0	67709575.2976	0.245075330369	174305.419922	0.166222278494	1.53195118904	68606.2402424	44945.4742432	10982.5286022	54.1031988341	93891.7208269	66423680.405	0
5875000.0	37523.0	68870302.7102	0.245888294138	174308.300781	0.168220736668	1.5288952589	68302.9597677	44710.6781006	11033.1573984	54.0609054571	157323.837013	66428491.9604	0
5900000.0	37680.0	70045062.6189	0.246702054925	174309.570312	0.170234328834	1.52586376667	68001.6066602	44477.3529053	11081.9874218	53.8564702365	2125528.12891	66433304.027	0
5925000.0	37837.0	71233962.9275	0.247516019806	174309.033203	0.172263273271	1.52285838127	67702.2568932	44245.5383301	11128.9927666	53.8334774903	1278055.90085	66438116.6049	0
5950000.0	37995.0	72437063.6194	0.248336285246	174308.300781	0.174300512299	1.51984620094	67402.6752286	44013.6260986	11173.5350001	53.999495579	2373036.51437	66442929.6941	0
5975000.0	38154.0	73654424.0628	0.249162035068	174307.287598	0.176345958607	1.51683175564	67103.2566657	43781.8939209	11215.5583706	53.8435181035	123559.902222	66447743.2946	0
6000000.0	38312.0	74886200.7547	0.249978365386	174302.429199	0.178413727554	1.51389312744	66809.5130652	43554.3151855	11256.2195477	53.6887464175	3492496.50603	66452557.4063	0
6025000.0	38471.0	76132451.8705	0.250802416881	174298.876953	0.180488816113	1.51093578339	66514.9225723	43326.2573242	11294.2376593	53.8919926879	594369.425034	66457372.0294	0
6050000.0	38631.0	77393228.5614	0.251635195249	174297.277832	0.182570598554	1.50795567036	66219.1348333	43097.4609375	11329.5103286	53.9456216404	1263418.39045	66462187.1638	0
6075000.0	38791.0	78668629.284	0.252469434391	174295.874023	0.18466624897	1.50499045849	65924.8232966	42869.8760986	11362.6348312	53.841441529	963228.09229	66467002.8095	0
6100000.0	38951.0	79958754.1862	0.253306729801	174294.494629	0.186775956536	1.5020352602	65631.2783835	42642.9077148	11393.6042126	53.9161808589	398581.413367	66471818.9666	0
6125000.0	39112.0	81263653.6242	0.254154433013	174294.689941	0.18889256171	1.49905252457	65335.7806641	42414.6179199	11421.7356717	54.010641347	45800.873431	66476635.635	0
6150000.0	39273.0	82583427.7695	0.25500448019	174294.750977	0.191023209482	1.4960808754	65041.2396768	42187.1337891	11447.6110883	54.1158024075	149138.666783	66481452.8148	0
6175000.0	39435.0	83918125.6682	0.25586341666	174296.337891	0.193160536583	1.49308657646	64745.4014389	41958.8531494	11470.5221294	54.2412022399	553695.735714	66486270.5059	0
6200000.0	39597.0	85267845.9725	0.256723382059	174297.729492	0.195311746211	1.49010717869	64451.1137125	41731.8725586	11491.1572968	54.3773990525	1102001.85682	66491088.7085	0
6225000.0	39760.0	86632636.4267	0.257590808765	174300.537109	0.197469373234	1.48710942268	64156.1435234	41504.5959473	11508.7333235	54.5343076956	1741509.20967	66495907.4224	0
6250000.0	39923.0	88012594.4804	0.258457810098	174303.076172	0.199640810024	1.484131217	63863.3332864	41279.1046143	11523.9952157	54.534968328	912513.63248	66500726.6478	0
6275000.0	40086.0	89407818.7617	0.259324237899	174305.334473	0.201826027478	1.48117172718	63572.6585377	41055.3924561	11537.0730394	54.7133688657	436724.630992	66505546.3847	0
6300000.0	40250.0	90818358.0538	0.260199545062	174308.59375	0.204017895157	1.47819054127	63280.7117021	40830.947876	11547.249305	54.9117196271	110664.723721	66510366.633	0
6325000.0	40414.0	92244312.2501	0.26107601959	174311.242676	0.206223834539	1.47522342205	62990.1236835	40607.6538086	11555.315581	55.120239029	36785.3341138	66515187.3927	0
6350000.0	40579.0	93685729.5357	0.261960071285	174314.794922	0.208436293178	1.47223901749	62698.8118793	40384.0332031	11560.5439116	55.3486081063	286907.163881	66520008.664	0
6375000.0	40744.0	95142709.1539	0.262843656959	174317.700195	0.210662692552	1.46927428246	62409.6178927	40162.1398926	11563.7175954	55.5871268518	663572.249474	66524830.4468	0
6400000.0	40910.0	96615296.7967	0.263733090772	174321.435547	0.212895247387	1.46629846096	62120.4665307	39940.4846191	11564.0857992	55.8456823881	1116305.20422	66529652.7412	0
6425000.0	41076.0	98103591.3214	0.264620116586	174324.462891	0.215141670196	1.46334898472	61834.1924263	39721.1212158	11562.4607125	55.9458742574	1912469.58776	66534475.5471	0
6450000.0	41242.0	99607690.3643	0.265503750839	174326.782227	0.217401888222	1.46042954922	61551.1415614	39504.2907715	11558.9066314	56.2242500534	1362837.57992	66539298.8646	0
6475000.0	41409.0	101127640.633	0.266392291062	174329.699707	0.219668392674	1.457503438	61268.4834692	39287.9516602	11552.6261965	56.5226809551	892017.338371	66544122.6937	0
6500000.0	41576.0	102663542.886	0.26727991725	174331.45752	0.221949041588	1.45459938049	60987.969157	39073.3337402	11544.4984207	56.830951501	492022.948526	66548947.0344	0
6525000.0	41744.0	104215444.011	0.268172758257	174333.520508	0.224236035137	1.45168757439	60707.5571807	38858.984375	11533.7293771	57.3293839323	4449821.03383	66553771.8868	0
6550000.0	41913.0	105783389.367	0.269069944455	174335.766602	0.226529111387	1.44877362251	60427.6521857	38645.1629639	11520.339118	57.5078603964	10669.9120093	66558597.2508	0
6575000.0	42081.0	107367531.393	0.269955864707	174335.290527	0.228843971854	1.44592618942	60153.2581033	38435.458374	11506.0421474	57.856181857	135859.336734	66563423.1266	0
6600000.0	42251.0	108967860.222	0.270851415961	174336.303711	0.231156765949	1.44305157661	59877.7251386	38225.0915527	11488.3567064	58.2353252368	418715.737128	66568249.514	0
6625000.0	42420.0	110584527.989	0.271733386285	174334.484863	0.233491300605	1.44025146961	59608.3907974	38019.3054199	11469.8294719	58.4419067443	3353057.7125	66573076.4131	0
6650000.0	42590.0	112217578.552	0.27261629957	174332.495117	0.235831772443	1.43746387959	59340.7172895	37814.8132324	11448.8429163	59.0138215419	1370747.12543	66577903.824	0
6675000.0	42761.0	113867057.091	0.273502293855	174330.236816	0.23817809415	1.43468093872	59073.739321	37610.8947754	11425.4231996	59.4341293817	1965772.31435	66582731.7467	0
6700000.0	42932.0	115533061.719	0.274386813797	174327.526855	0.240537658101	1.43191981316	58808.781025	37408.5540771	11400.4365567	59.6905058366	1480761.24842	66587560.1812	0
6725000.0	43103.0	117215686.757	0.275269684359	174324.707031	0.242910318775	1.42917740345	58545.8098856	37207.800293	11373.9184605	60.1313414458	965219.672528	66592389.1274	0
6750000.0	43275.0	118914968.635	0.276157436518	174323.168945	0.245287723374	1.42642307281	58282.8815154	37007.2937012	11345.0701637	60.5936376173	538660.377409	66597218.5856	0
6775000.0	43447.0	120630999.324	0.277042185962	174321.606445	0.247677962761	1.42368781567	58022.4390197	36808.8409424	11314.7544638	61.066963787	193628.972354	66602048.5555	0
6800000.0	43620.0	122363812.577	0.277930210116	174321.374512	0.250072684139	1.42094242573	57762.5896078	36611.1083984	11282.1783181	61.7401378569	5993851.45581	66606879.0374	0
6825000.0	43794.0	124113442.388	0.278820757439	174322.485352	0.252471654676	1.41818797588	57503.5877529	36414.3218994	11247.3617337	62.0798100002	179986.212345	66611710.0311	0
6850000.0	43967.0	125880037.034	0.279701007024	174322.094727	0.254891754594	1.41547846794	57249.0425817	36221.0510254	11212.0986103	62.4176812443	4390570.93474	66616541.5368	0
6875000.0	44141.0	127663632.944	0.280585593342	174322.741699	0.25731662754	1.41275525093	56994.5920201	36028.1402588	11174.7127972	63.1375987594	1041299.30536	66621373.5545	0
6900000.0	44316.0	129464264.564	0.281474054792	174324.414062	0.259745924268	1.4100215435	56740.4226185	35835.6903076	11135.2140614	63.7004858958	1606184.27028	66626206.0841	0
6925000.0	44491.0	131282022.211	0.282358732243	174325.817871	0.262187910266	1.40731072426	56488.9424371	35645.4071045	11094.5149146	64.09201376	2222716.29502	66631039.1256	0
6950000.0	44666.0	133116996.444	0.283238755058	174326.928711	0.264642498223	1.40462577343	56240.3316871	35457.3913574	11052.6902335	64.677178621	1567805.37181	66635872.6793	0
6975000.0	44842.0	134969217.942	0.284120739175	174329.052734	0.267101102509	1.40194177628	55992.7894751	35270.3338623	11008.4846929	65.4736807466	3932807.53991	66640706.7449	0
7000000.0	45019.0	136838716.48	0.285003856514	174332.15332	0.269563432084	1.39926338196	55746.6524101	35084.4604492	10961.6031971	66.1144045865	4888438.38497	66645541.3226	0
7025000.0	45196.0	138725581.9	0.285881665974	174334.838867	0.272038305411	1.39661800861	55503.558912	34900.9033203	10913.0280263	66.5837547657	120861.878048	66650376.4125	0
7050000.0	45373.0	140629905.421	0.286754724205	174336.950684	0.274525897112	1.39400482178	55263.3146856	34719.5037842	10862.9027699	67.2561461782	63815.8462085	66655212.0144	0
7075000.0	45551.0	142551719.093	0.287629245481	174339.746094	0.27701765066	1.39139342308	55023.9874206	34538.9465332	10810.4080409	67.9570578163	426543.984493	66660048.1286	0
7100000.0	45729.0	144491112.606	0.288498004184	174342.016602	0.279521860648	1.38881123066	54787.6831101	34360.7513428	10756.5724874	68.4818960012	4227085.82011	66664884.7549	0
7125000.0	45907.0	146448174.559	0.289360268334	174343.798828	0.282038556179	1.38625776768	54554.5460123	34185.0494385	10701.477454	69.2138619406	3219629.39062	66669721.8934	0
7150000.0	46086.0	148422933.82	0.290222320201	174346.264648	0.284558889689	1.38370394707	54322.7629385	34010.6048584	10644.3269548	70.170001039	2681372.58264	66674559.5442	0
7175000.0	46266.0	150415417.759	0.291083422946	174349.450684	0.287082511932	1.38114857674	54092.4949935	33837.5823975	10585.2034853	70.9614962401	3761316.23054	66679397.7073	0
7200000.0	46446.0	152425714.692	0.291937498999	174351.940918	0.289618619718	1.37861657143	53865.4593206	33667.2088623	10525.1371602	71.5704194183	687522.180457	66684236.3826	0
7225000.0	46626.0	154453914.857	0.29278472682	174353.625488	0.292167183943	1.37610840797	53641.4596759	33499.307251	10464.2282216	72.3924698542	129457.239205	66689075.5703	0
7250000.0	46807.0	156500047.865	0.293631397772	174355.688477	0.294719618978	1.37360012531	53418.8025255	33332.6751709	10401.6501244	73.243662688	147380.589251	66693915.2704	0
7275000.0	46988.0	158564201.742	0.294470636827	174356.945801	0.297284248518	1.37112104893	53199.386871	33168.6065674	10338.4132504	74.1108970349	781473.480522	66698755.4829	0
7300000.0	47170.0	160646402.64	0.295308366119	174358.520508	0.299852224998	1.36864805222	52981.5407583	33005.9082031	10273.6994416	75.0075934784	1721143.89901	66703596.2078	0
7325000.0	47352.0	162746735.748	0.296137723291	174359.326172	0.302431959426	1.36621153355	52767.135774	32845.8099365	10208.4827842	75.7125427951	2381507.01843	66708437.4452	0
7350000.0	47534.0	164865285.945	0.296958190411	174359.326172	0.305023568217	1.36381387711	52556.3256009	32688.4246826	10142.8448514	76.6395810295	1212343.51395	66713279.195	0
7375000.0	47717.0	167002079.09	0.297776556971	174359.350586	0.307618378429	1.36142885685	52347.1748641	32532.3730469	10076.0025571	77.5961696367	320644.834226	66718121.4574	0
7400000.0	47900.0	169157202.685	0.29858630982	174358.276367	0.310225354042	1.35907936096	52141.3391606	32378.8543701	10008.8974167	78.5686749829	119013.696928	66722964.2324	0
7425000.0	48084.0	171330682.173	0.29939349017	174357.15332	0.312835531076	1.3567404747	51937.1322703	32226.6723633	9940.7765315	79.570768296	965328.794065	66727807.5199	0
7450000.0	48268.0	173522604.097	0.300192176345	174354.870605	0.315457640681	1.35443627834	51736.3056998	32077.0843506	9872.55560123	80.5886704175	2324233.57524	66732651.32	0
7475000.0	48453.0	175732992.923	0.30098828807	174352.832031	0.318082689773	1.35213899612	51537.0629727	31928.8604736	9803.44652391	81.6366682057	4091516.55124	66737495.6328	0
7500000.0	48638.0	177961931.31	0.301777255746	174350.769043	0.320718856528	1.34986531734	51340.6522851	31782.901001	9734.38300284	82.4776496106	507971.333925	66742340.4583	0
7525000.0	48823.0	180209500.553	0.302558955406	174348.754883	0.323366228258	1.34761369228	51147.069155	31639.2364502	9665.42397402	83.5549293329	104424.957619	66747185.7964	0
7550000.0	49009.0	182475722.575	0.303339384253	174347.680664	0.326016190229	1.34536194801	50954.6904134	31496.7437744	9595.80498557	84.6623332765	1155478.74609	66752031.6474	0
7575000.0	49195.0	184760680.766	0.304112162706	174346.472168	0.328677735524	1.34313285351	50765.0547615	31356.4880371	9526.41550143	85.5551939814	3042717.13422	66756878.0111	0
7600000.0	49381.0	187064456.771	0.304877408768	174345.141602	0.33135060221	1.34092664719	50578.1532142	31218.4356689	9457.34087909	86.690601742	1253460.58779	66761724.8876	0
7625000.0	49568.0	189387068.094	0.30564081398	174344.775391	0.334025360644	1.33872187138	50392.4966522	31081.5063477	9387.78785268	87.8564060677	88076.7906653	66766572.2769	0
7650000.0	49755.0	191728591.973	0.306396054454	174344.372559	0.336710858392	1.33654177189	50209.6396598	30946.7559814	9318.6337999	89.0373947016	737936.924758	66771420.1791	0
7675000.0	49943.0	194089041.295	0.307149188406	174344.958496	0.339397665812	1.33436381817	50028.1037542	30813.1378174	9249.13608932	90.2489284996	2541724.76406	66776268.5942	0
7700000.0	50131.0	196468489.913	0.307893421689	174345.544434	0.342094688676	1.33221077919	49849.4520323	30681.7382812	9180.1365289	91.2329732399	1480351.41919	66781117.5223	0
7725000.0	50319.0	198867017.325	0.308628779454	174345.959473	0.344802625477	1.33008217812	49673.6477433	30552.557373	9111.10149765	92.4775377698	70417.6354178	66785966.9633	0
7750000.0	50508.0	201284637.965	0.309360949677	174347.143555	0.347512192093	1.32795643806	49499.2706644	30424.6337891	9040.83838675	93.7635225857	990784.926992	66790816.9173	0
7775000.0	50697.0	203721429.896	0.310084382823	174348.181152	0.350232527126	1.32585501671	49327.6783688	30298.916626	8970.23068363	94.8241249844	3124704.81842	66795667.3844	0
7800000.0	50886.0	206177470.558	0.310799346287	174349.072266	0.35296351416	1.32377874851	49158.809709	30175.3417969	8899.35360522	96.158177683	842386.120978	66800518.3645	0
7825000.0	51076.0	208652772.658	0.311511274977	174350.78125	0.355695839971	1.32170677185	48991.2833437	30052.9754639	8827.51473947	97.5342942322	244206.741254	66805369.8577	0
7850000.0	51266.0	211147412.475	0.312215061134	174352.404785	0.358438759577	1.31966125965	48826.4444718	29932.7178955	8755.58282925	98.9358296889	2270747.2965	66810221.8641	0
7875000.0	51457.0	213661404.683	0.312915334411	174354.736328	0.361183163477	1.31762230396	48663.0682161	29813.7481689	8682.84507558	100.380083609	5468353.21696	66815074.3836	0
7900000.0	51648.0	216194828.235	0.313606328018	174356.738281	0.36393845221	1.31561017036	48502.4710799	29696.9696045	8610.18217804	101.583683421	8746.76334629	66819927.4163	0
7925000.0	51839.0	218747761.001	0.314288109973	174358.47168	0.366704596672	1.31362605095	48344.6865369	29582.3638916	8537.63990381	102.806215617	5242733.48812	66824780.9623	0
7950000.0	52030.0	221320280.174	0.31496080021	174359.912109	0.369481247617	1.31166958809	48189.6218193	29469.8364258	8465.28125186	104.319815434	1870226.5899	66829635.0215	0
7975000.0	52222.0	223912396.047	0.315629939356	174362.011719	0.3722589463	1.30972206593	48036.0279083	29358.5113525	8392.42082595	105.876525464	4014.30973862	66834489.5941	0
8000000.0	52414.0	226524181.443	0.31629024019	174363.891602	0.375046627596	1.30780291557	47885.1266397	29249.206543	8319.88605085	107.458395394	2087125.83992	66839344.68	0
8025000.0	52607.0	229155643.158	0.316946842784	174366.40625	0.377834716346	1.30589413643	47735.6793473	29141.0583496	8246.97303838	109.084194864	5963740.81705	66844200.2792	0
8050000.0	52800.0	231806856.306	0.317594296862	174368.530273	0.38063316606	1.30401659012	47588.9968349	29034.9853516	8174.5015558	110.448930691	189725.405929	66849056.3919	0
8075000.0	52993.0	234477896.164	0.318232570025	174370.214844	0.38344191853	1.30216896534	47444.9898909	28930.9234619	8102.524586	111.831262607	4247629.24414	66853913.0181	0
8100000.0	53186.0	237168837.538	0.318861438519	174371.484375	0.386261002859	1.30034863949	47303.6879493	28828.9459229	8031.09319916	113.524023443	751903.217479	66858770.1578	0
8125000.0	53380.0	239879688.506	0.319485301847	174373.254395	0.389080727473	1.29853463173	47163.9128164	28728.2897949	7959.53119778	115.260520632	1037681.24926	66863627.811	0
8150000.0	53574.0	242610522.843	0.320099005231	174374.658203	0.391910492908	1.29674375057	47026.7678942	28629.7149658	7888.60685804	117.021313573	5075111.11461	66868485.9777	0
8175000.0	53769.0	245361346.263	0.320707223632	174376.574707	0.394740724005	1.29495584965	46891.2280787	28532.5775146	7817.67929431	118.521202118	34369.7169916	66873344.6581	0
8200000.0	53963.0	248132300.275	0.321300084785	174377.160645	0.397590862121	1.29320693016	46759.3941821	28438.2751465	7748.17207017	120.016942489	4457113.89787	66878203.8521	0
8225000.0	54158.0	250923395.118	0.321886693352	174378.051758	0.400441931561	1.29146373272	46629.1924183	28345.401001	7678.74323785	121.860545784	490133.10818	66883063.5599	0
8250000.0	54353.0	253734706.107	0.322462704594	174378.405762	0.403303245548	1.28974413872	46501.6535342	28254.6386719	7610.12035539	123.726983911	1924288.95848	66887923.7813	0
8275000.0	54549.0	256566239.716	0.323032048325	174379.02832	0.406165141612	1.28803157806	46375.8363084	28165.3808594	7541.68842216	125.6364235	7365850.63671	66892784.5165	0
8300000.0	54745.0	259418067.953	0.323590174126	174379.174805	0.409036816563	1.28634405136	46252.7326745	28078.2501221	7474.12623472	127.243899666	1179908.96606	66897645.7655	0
8325000.0	54941.0	262290262.534	0.324137330913	174378.735352	0.411918212194	1.28468203545	46132.4219416	27993.3197021	7407.47022118	128.865062913	1889168.27359	66902507.5283	0
8350000.0	55137.0	265182893.12	0.324672341957	174377.734375	0.414809328504	1.28304719925	46015.006214	27910.6536865	7341.73109108	130.499494117	8425723.56984	66907369.805	0
8375000.0	55333.0	268096036.002	0.325193186727	174376.000977	0.417710805777	1.2814385891	45900.7429583	27830.5297852	7276.95887663	132.482929355	2049017.76505	66912232.5956	0
8400000.0	55530.0	271029696.768	0.325705891502	174374.365234	0.420612690505	1.2798409462	45788.4446836	27752.0568848	7212.55221418	134.508042288	998685.497903	66917095.9002	0
8425000.0	55727.0	273983948.533	0.326208671466	174372.180176	0.423524354119	1.27826690674	45678.6326208	27675.5340576	7149.14730755	136.553175631	7116950.25835	66921959.7188	0
8450000.0	55925.0	276958793.08	0.32670804357	174370.812988	0.426435552072	1.2766970396	45569.9461593	27599.9755859	7086.18308189	138.28964186	1419139.04805	66926824.0513	0
8475000.0	56122.0	279954364.116	0.327198455897	174368.798828	0.429365376476	1.27516162395	45463.8458852	27526.260376	7024.84542028	140.014519005	1256092.68315	66931688.898	0
8500000.0	56320.0	282970658.656	0.327689702687	174367.675781	0.432294327766	1.27362835407	45358.3331023	27453.0456543	6963.91635603	142.131517411	2109707.21052	66936554.2587	0
8525000.0	56518.0	286007743.713	0.32817641811	174366.638184	0.435232272139	1.27211511135	45254.8422197	27381.4147949	6903.50059241	143.914792482	698857.543412	66941420.1335	0
8550000.0	56716.0	289065687.402	0.328657396285	174365.625	0.438179646153	1.27062213421	45153.4425856	27311.4227295	6843.52631496	145.720340413	5784454.53253	66946286.5226	0
8575000.0	56914.0	292144557.316	0.329131547264	174364.587402	0.441136129666	1.26914870739	45053.8366939	27242.779541	6783.99857917	147.920991798	146832.134109	66951153.4258	0
8600000.0	57113.0	295244351.968	0.329601732602	174364.428711	0.44409185648	1.26768040657	44954.9666659	27174.697876	6724.39796497	150.176550877	4521306.05684	66956020.8433	0
8625000.0	57312.0	298365137.265	0.330063107206	174364.306641	0.447056663688	1.26623177528	44857.4175771	27107.4554443	6665.30633369	152.081864847	248058.673053	66960888.775	0
8650000.0	57511.0	301506979.362	0.330514783988	174364.282227	0.450030376669	1.26480138302	44760.9370178	27040.8325195	6606.73397876	154.009507347	2654056.58694	66965757.2211	0
8675000.0	57710.0	304669946.938	0.330955972869	174364.18457	0.453013461083	1.26339113712	44665.4458061	26974.7039795	6548.71228794	156.350564144	1511737.1593	66970626.1815	0
8700000.0	57910.0	307854038.83	0.331390590801	174364.868164	0.455995847005	1.26198732853	44570.391505	26908.8012695	6490.72978617	158.350531418	868380.198994	66975495.6564	0
8725000.0	58109.0	311059392.391	0.331812622522	174364.746094	0.458997616079	1.260617733	44477.5151209	26844.329834	6433.86108462	160.347186015	5458945.25818	66980365.6456	0
8750000.0	58309.0	314286005.23	0.332229756741	174365.393066	0.461998337414	1.25925290585	44385.4257486	26780.4870605	6377.07052048	162.796660025	198607.944577	66985236.1493	0
8775000.0	58509.0	317533941.887	0.332639551767	174366.052246	0.465007906314	1.25790691376	44295.1472372	26718.0297852	6320.899217	165.277428709	7612378.83066	66990107.1675	0
8800000.0	58710.0	320803196.269	0.333046286346	174367.529297	0.468015932711	1.25656580925	44206.1473101	26656.6802979	6264.84435762	167.397913802	2366373.38341	66994978.7003	0
8825000.0	58910.0	324093901.552	0.333443996281	174368.286133	0.471042701975	1.25525689125	44119.9155096	26597.4151611	6209.94112072	169.513398291	163411.115194	66999850.7476	0
8850000.0	59111.0	327406055.367	0.333838432318	174369.689941	0.474068510812	1.25395560265	44034.8803854	26539.1265869	6155.20815625	172.102615585	6251120.54447	67004723.3096	0
8875000.0	59312.0	330739722.203	0.334225572842	174371.069336	0.477103167213	1.25267374516	43951.6866473	26482.2265625	6101.14515887	174.289190666	1605648.03767	67009596.3862	0
8900000.0	59513.0	334094967.296	0.334604482928	174372.387695	0.480146612972	1.25141048431	43870.3316162	26426.7272949	6047.76949523	176.49517394	495433.363035	67014469.9774	0
8925000.0	59714.0	337471852.763	0.334974488199	174373.706055	0.483198557049	1.25016379356	43790.8027155	26372.6623535	5995.09116493	178.720131645	4172028.34376	67019344.0834	0
8950000.0	59915.0	340870441.368	0.335334641955	174375.024414	0.486258883029	1.24893319607	43713.0714655	26320.0164795	5943.1000628	180.964132393	9600171.05606	67024218.7042	0
8975000.0	60116.0	344290795.32	0.335684045127	174376.342773	0.48932764912	1.24771785736	43637.163568	26268.8323975	5891.81859512	183.681958885	289159.814865	67029093.8397	0
9000000.0	60318.0	347732909.156	0.336024781674	174378.259277	0.492395018227	1.24650788307	43562.6801752	26218.9086914	5840.80005645	186.456069699	7292517.0665	67033969.4901	0
9025000.0	60520.0	351196848.682	0.3363544229	174380.01709	0.495471351314	1.2453161478	43490.2160351	26170.59021	5790.49667403	188.792227254	2933767.10128	67038845.6554	0
9050000.0	60722.0	354682678.963	0.336673387874	174381.665039	0.498556590173	1.24414241314	43419.7110015	26123.8250732	5740.94798547	191.144517404	239446.096958	67043722.3356	0
9075000.0	60924.0	358190464.888	0.33698234498	174383.154297	0.501650560182	1.24298655987	43351.1056327	26078.5552979	5692.129508	193.513323062	1370095.30909	67048599.5307	0
9100000.0	61126.0	361720270.582	0.337281834114	174384.521484	0.504753203131	1.24184775352	43284.2939795	26034.6923828	5644.05458927	195.897709772	4712398.55648	67053477.2408	0
9125000.0	61328.0	365272176.226	0.337572292297	174385.766602	0.507864519022	1.24072659016	43219.2604086	25992.2058105	5596.72981251	198.787726283	2506217.40155	67058355.466	0
9150000.0	61531.0	368846149.191	0.337856692288	174387.585449	0.510973914061	1.23961102962	43155.3588788	25950.6866455	5549.7226345	201.236746332	231638.114271	67063234.2062	0
9175000.0	61733.0	372442366.282	0.338130586177	174388.61084	0.514102168381	1.23852336407	43093.618048	25910.7330322	5503.89581191	203.670384279	1071373.47997	67068113.4615	0
9200000.0	61936.0	376060770.013	0.338399573167	174390.197754	0.517228327226	1.23744130135	43032.9172658	25871.6461182	5458.40545234	206.655873398	7601757.10435	67072993.232	0
9225000.0	62139.0	379701435.08	0.33866130446	174391.52832	0.520367815625	1.23637712002	42973.7702312	25833.7005615	5413.70714172	208.632983165	7533344.50323	67077873.5177	0
9250000.0	62341.0	383364491.639	0.338914704729	174392.224121	0.523520633578	1.23533880711	42916.5251409	25797.0947266	5370.12951857	211.104798209	11790587.6065	67082754.3186	0
9275000.0	62544.0	387049925.593	0.339164260856	174393.481445	0.526670948602	1.2343057394	42860.1588063	25761.1968994	5326.90267339	214.145631459	15268.5033239	67087635.6347	0
9300000.0	62747.0	390757801.433	0.339406274661	174394.482422	0.529830111191	1.2332918644	42805.4650124	25726.5380859	5284.44731907	217.208817534	11766935.8494	67092517.4662	0
9325000.0	62951.0	394488113.223	0.339641703164	174395.861816	0.532987585757	1.23228752613	42752.118355	25692.9779053	5242.37638052	219.784655881	8022328.47714	67097399.813	0
9350000.0	63154.0	398240998.352	0.33986649741	174396.276855	0.536164268851	1.23131322861	42700.9762217	25660.9863281	5201.43985368	221.792841148	7036365.07477	67102282.6752	0
9375000.0	63357.0	402016521.579	0.340083564979	174396.362305	0.539349915925	1.23035645485	42651.4481089	25630.2124023	5161.08931703	224.908870824	2440244.02681	67107166.0528	0
9400000.0	63561.0	405814673.81	0.34029453221	174396.826172	0.542533525731	1.22940683365	42603.0949442	25600.4089355	5120.91685948	227.526831686	676639.634581	67112049.9458	0
9425000.0	63764.0	409635591.588	0.340496003562	174396.289062	0.545736285858	1.22848427296	42556.7038099	25571.9940186	5081.64289947	230.130640645	107654.846328	67116934.3543	0
9450000.0	63968.0	413479263.294	0.340692123475	174396.166992	0.548936950509	1.2275673151	42511.3321488	25544.4198608	5042.5261935	232.783637309	1298916.47072	67121819.2784	0
9475000.0	64171.0	417345825.142	0.340879437715	174395.056152	0.552156299818	1.22667467594	42467.741583	25518.1137085	5004.28748327	235.421921288	3066835.70797	67126704.718	0
9500000.0	64375.0	421235263.054	0.341061633111	174394.287109	0.555373437237	1.22578585148	42425.0437439	25492.5643921	4966.20242761	238.694668515	7478705.56526	67131590.6732	0
9525000.0	64579.0	425147637.124	0.341237554661	174393.225098	0.558598490898	1.22491014004	42383.5981393	25467.9656982	4928.62908127	240.814600556	7555484.44698	67136477.144	0
9550000.0	64782.0	429083080.99	0.34140557084	174391.19873	0.561842112802	1.22405660152	42343.7047095	25444.4381714	4891.90394134	243.503723715	10067360.36	67141364.1306	0
9575000.0	64986.0	433041576.934	0.341569385353	174389.733887	0.5650826497	1.22320330143	42304.4729538	25421.5179443	4855.3298414	246.847777736	1861141.51376	67146251.6328	0
9600000.0	65190.0	437023184.232	0.341726257348	174388.40332	0.568330753595	1.22236120701	42266.5391989	25399.621582	4819.24612574	249.610697334	746143.573955	67151139.6508	0
9625000.0	65394.0	441027965.182	0.341875136426	174387.17041	0.571587414015	1.22153317928	42230.1324538	25378.9276123	4783.65116547	252.389953592	77865.3245323	67156028.1846	0
9650000.0	65598.0	445055980.306	0.342016280393	174385.998535	0.574852107093	1.22071802616	42195.174314	25359.3826294	4748.54329352	255.185374886	258988.111758	67160917.2343	0
9675000.0	65802.0	449107291.5	0.342149921121	174384.924316	0.578125123866	1.21991586685	42161.6162625	25340.9317017	4713.91563213	257.996698006	919596.942649	67165806.7997	0
9700000.0	66006.0	453181958.023	0.342276403988	174383.947754	0.581406056881	1.21912682056	42129.3506833	25323.4786987	4679.75114526	260.824539206	1719988.62548	67170696.8811	0
9725000.0	66210.0	457280039.792	0.342396299972	174383.093262	0.584695022553	1.21835029125	42098.341324	25306.9839478	4646.06891708	264.313520244	12372127.9099	67175587.4784	0
9750000.0	66415.0	461401518.846	0.342510518124	174383.007812	0.587980961427	1.21757745743	42068.1882764	25291.2200928	4612.52782634	267.214442467	11179368.0895	67180478.5917	0
9775000.0	66619.0	465546529.954	0.342617563669	174382.421875	0.591285410337	1.21682536602	42039.4383427	25276.4129639	4579.75682642	269.43577566	4263738.63863	67185370.221	0
9800000.0	66823.0	469715129.794	0.342718543227	174382.006836	0.594597659074	1.21608448029	42011.6897399	25262.3519897	4547.43833944	272.325561888	5035239.3918	67190262.3664	0
9825000.0	67027.0	473907375.304	0.34281420253	174381.738281	0.597917474806	1.21535480022	41984.8735788	25248.9562988	4515.56110251	275.230709631	5741001.75852	67195155.0278	0
9850000.0	67231.0	478123323.27	0.342904308345	174381.677246	0.601244857535	1.21463668346	41958.9600776	25236.1953735	4484.12886975	278.832191726	8101728.89903	67200048.2053	0
9875000.0	67436.0	482362952.192	0.342990338416	174382.397461	0.604568631388	1.21392130852	41933.5700914	25223.8418579	4452.83720752	281.810154427	7693233.29123	67204941.899	0
9900000.0	67640.0	486626395.298	0.343070069723	174382.653809	0.607910740655	1.21322488785	41909.2838136	25212.1932983	4422.268848	284.070642262	7290496.19192	67209836.1089	0
9925000.0	67844.0	490913714.017	0.343143325013	174382.983398	0.611261115409	1.21254146099	41886.0650814	25201.3198853	4392.12251674	287.034193105	7563254.27717	67214730.8351	0
9950000.0	68048.0	495224970.201	0.343209927458	174383.349609	0.614619930275	1.21187138557	41863.9047728	25191.2078857	4362.41159287	290.72104956	7304946.08255	67219626.0775	0
9975000.0	68253.0	499560146.948	0.343270936864	174384.399414	0.617975718342	1.21120607853	41842.5787248	25181.7764282	4332.83980628	293.754718589	7487289.64621	67224521.8362	0
10000000.0	68457.0	503919380.808	0.343325054511	174384.912109	0.621350540314	1.21056139469	41822.5511427	25173.2086182	4303.95991103	296.039189189	7466466.55202	67229418.1112	0
10025000.0	68661.0	508302731.928	0.343373201525	174385.473633	0.624733336736	1.20992851257	41803.540705	25165.385437	4275.48374879	299.054916346	7140432.60016	67234314.9026	0
10050000.0	68865.0	512710257.482	0.343415569697	174386.169434	0.628123641945	1.2093077898	41785.5570712	25158.2931519	4247.41050714	302.823753223	8960178.21049	67239212.2104	0
10075000.0	69070.0	517141937.877	0.343453082829	174387.548828	0.631510862149	1.20869135857	41768.3647797	25151.8493652	4219.47526879	305.909353992	9802486.78236	67244110.0347	0
10100000.0	69274.0	521597907.021	0.343484584442	174388.427734	0.634916301351	1.20809364319	41752.3754685	25146.2036133	4192.19782818	308.21449847	5361854.41341	67249008.3754	0
10125000.0	69478.0	526078221.106	0.343511084022	174389.428711	0.638329365756	1.20750701427	41737.3536363	25141.2612915	4165.31166806	311.27920776	4565365.54447	67253907.2326	0
10150000.0	69682.0	530582933.192	0.343532691802	174390.551758	0.641749589704	1.20693087578	41723.2843958	25137.008667	4138.8024245	314.356208316	3697740.42211	67258806.6064	0
10175000.0	69886.0	535112099.046	0.343549518492	174391.772461	0.645177206025	1.20636463165	41710.129277	25133.4320068	4112.66960296	317.444808895	2791538.34899	67263706.4968	0
10200000.0	70090.0	539665771.71	0.343561731537	174393.164062	0.648611632641	1.20580875874	41697.9049498	25130.5297852	4086.91716972	320.544349314	1881056.4118	67268606.9038	0
10225000.0	70294.0	544244009.926	0.343567979098	174394.555664	0.652054091915	1.20526432991	41686.7825215	25128.453064	4061.53111811	323.654668758	1010915.31243	67273507.8275	0
10250000.0	70498.0	548846873.953	0.343567979098	174395.935059	0.655504409224	1.20473194122	41676.7506598	25127.1881104	4036.51547978	326.774880295	280148.161895	67278409.2678	0
10275000.0	70702.0	553474421.289	0.343562294371	174397.338867	0.658962526359	1.20421075821	41667.7427876	25126.6815186	4011.8653446	329.904733113	95821.2897163	67283311.2249	0
10300000.0	70906.0	558126711.669	0.3435511506	174398.754883	0.662428501528	1.20370054245	41659.735327	25126.9271851	3987.57589017	333.043914207	859343.590011	67288213.6988	0
10325000.0	71110.0	562803802.134	0.343534942769	174400.158691	0.665902276523	1.20320105553	41652.669042	25127.8640747	3963.63802834	336.192533855	2124580.55611	67293116.6894	0
10350000.0	71314.0	567505751.305	0.343513841114	174401.586914	0.669383560307	1.2027118206	41646.5069443	25129.4647217	3940.05151124	339.350085446	3850043.98761	67298020.1969	0
10375000.0	71518.0	572232615.749	0.343488269383	174403.027344	0.672872643918	1.20223271847	41641.1995029	25131.690979	3916.79886787	342.517254851	6023203.32377	67302924.2213	0
10400000.0	71722.0	576984452.132	0.343458482695	174404.467773	0.676369061694	1.20176374912	41636.7037132	25134.4985962	3893.88011215	344.846343538	9150058.39734	67307828.7626	0
10425000.0	71925.0	581761396.754	0.343424623841	174405.34668	0.679884338751	1.20131003857	41633.0823986	25137.8677368	3871.49926285	347.984703813	6504844.96014	67312733.8208	0
10450000.0	72129.0	586563425.756	0.343387369942	174406.835938	0.683395774104	1.20085966587	41630.0587071	25141.7221069	3849.20901531	352.035503246	15279852.2626	67317639.3961	0
10475000.0	72333.0	591390595.309	0.343346723212	174408.325195	0.686914543621	1.20041823387	41627.725653	25146.0632324	3827.22779197	354.370181379	1938723.27315	67322545.4883	0
10500000.0	72536.0	596243040.638	0.343302967055	174409.265137	0.690451997798	1.19999229908	41626.1337197	25150.8331299	3805.76068099	357.536680313	391034.516499	67327452.0976	0
10525000.0	72740.0	601120739.144	0.343254783552	174410.742188	0.6939858431	1.19957149029	41625.2767714	25156.1920166	3784.37242905	360.753181584	407157.305281	67332359.224	0
10550000.0	72943.0	606023832.157	0.343201670945	174411.584473	0.697539246175	1.19916820526	41625.4121929	25162.1932983	3763.47625257	363.938328515	2182978.99679	67337266.8676	0
10575000.0	73147.0	610952300.307	0.343143718037	174412.902832	0.701089156792	1.19877016544	41626.3247561	25168.8247681	3742.65436554	367.173513747	4902253.62788	67342175.0283	0
10600000.0	73350.0	615906283.134	0.343081743567	174413.562012	0.704658508766	1.19838833809	41628.1192128	25176.0101318	3722.31139818	369.466730197	10861008.3576	67347083.7062	0
10625000.0	73553.0	620885839.362	0.343015892163	174414.111328	0.708235776983	1.1980162859	41630.6538094	25183.7173462	3702.22940176	372.671662557	7013303.50373	67351992.9013	0
10650000.0	73756.0	625891028.481	0.342946420672	174414.624023	0.711820786819	1.19765305519	41633.883246	25191.9204712	3682.40938417	375.885624881	3655190.66997	67356902.6137	0
10675000.0	73959.0	630921908.243	0.34287386606	174415.014648	0.715413654689	1.19729864597	41637.7599013	25200.5615234	3662.84025013	379.109156112	1055693.99429	67361812.8435	0
10700000.0	74162.0	635978537.488	0.342798428374	174415.319824	0.719013914932	1.19695270061	41642.2571996	25209.6221924	3643.51512302	382.342709417	202825.002575	67366723.5905	0
10725000.0	74365.0	641060972.576	0.342720503496	174415.527344	0.722621916793	1.19661390781	41647.2880071	25219.0475464	3624.43521358	385.585471185	2349999.61468	67371634.855	0
10750000.0	74568.0	646169269.058	0.342640486714	174415.625	0.72623725282	1.19628250599	41652.8449322	25228.8146973	3605.58585689	388.838720985	5801286.85056	67376546.6368	0
10775000.0	74771.0	651303481.782	0.342558772667	174415.625	0.72985998122	1.19595777988	41658.8724575	25238.8946533	3586.96449155	392.102239754	10267759.9368	67381458.9361	0
10800000.0	74974.0	656463666.72	0.342475587523	174415.50293	0.733489869162	1.19563889503	41665.3040247	25249.2263794	3568.56859413	394.402129779	5854011.04129	67386371.7529	0
10825000.0	75176.0	661649962.594	0.342390877553	174414.648438	0.73713902384	1.19533228874	41672.2814389	25259.8449707	3550.58279648	397.634418105	2326564.43933	67391285.0872	0
10850000.0	75379.0	666862347.186	0.342302242562	174414.147949	0.740784336813	1.1950302124	41679.955409	25271.0098267	3532.61783164	400.920295658	86224.3251207	67396198.939	0
10875000.0	75581.0	672100963.649	0.342211140556	174412.878418	0.744449556805	1.19474220276	41688.2914651	25282.5515747	3515.05250143	404.171963368	1650870.51368	67401113.3084	0
10900000.0	75784.0	677365787.926	0.342116822061	174411.901855	0.748110760469	1.19445776939	41697.2177488	25294.5632935	3497.50922914	407.477072196	5329992.31242	67406028.1955	0
10925000.0	75986.0	682656962.316	0.342020798478	174410.241699	0.751791754737	1.19418632984	41706.7070935	25306.8740845	3480.34773938	409.734251013	11420939.8702	67410943.6002	0
10950000.0	76188.0	687974545.832	0.341922152887	174408.679199	0.755480024964	1.19392228127	41716.7807699	25319.5922852	3463.3807322	413.007761732	6279148.29458	67415859.5226	0
10975000.0	76390.0	693318594.402	0.3418210013	174407.287598	0.759175803978	1.19366621971	41727.4282047	25332.6904297	3446.60239736	416.291652926	2193201.97958	67420775.9627	0
11000000.0	76592.0	698689163.309	0.341717821501	174406.079102	0.762878800742	1.19341671467	41738.6018488	25346.1624146	3430.00702571	419.586388179	19149.2539024	67425692.9206	0
11025000.0	76794.0	704086307.984	0.341612839802	174405.041504	0.766589131672	1.19317400455	41750.2390243	25359.9380493	3413.5927547	422.891756241	2562396.34822	67430610.3963	0
11050000.0	76996.0	709510083.214	0.341506282031	174404.211426	0.770306738559	1.19293797016	41762.3384048	25374.0158081	3397.35774678	426.207639589	7154399.84567	67435528.3898	0
11075000.0	77198.0	714960542.824	0.341398345714	174403.552246	0.774031388573	1.1927074194	41774.8184753	25388.3529663	3381.29276405	429.534959096	13223598.4784	67440446.9011	0
11100000.0	77400.0	720437740.512	0.341289394546	174403.125	0.777763081715	1.19248366356	41787.6976385	25402.923584	3365.39981772	431.801640859	4511549.39756	67445365.9304	0
11125000.0	77601.0	725941815.979	0.341179902332	174402.34375	0.781513866968	1.19226884842	41800.9048124	25417.6589966	3349.84269922	435.097160056	798416.593991	67450285.4775	0
11150000.0	77803.0	731472740.71	0.341066736165	174402.258301	0.785260112025	1.19205904007	41814.8071026	25432.9376221	3334.27695539	438.449136327	1129677.1389	67455205.5427	0
11175000.0	78004.0	737030656.065	0.340951427779	174401.733398	0.789025973063	1.19186139107	41829.308432	25448.5748291	3319.03497865	440.670417132	19966348.5041	67460126.1258	0
11200000.0	78205.0	742615620.98	0.340833427664	174401.403809	0.792799517512	1.19167172909	41844.4103076	25464.6286011	3303.94973876	445.094419876	11529171.8996	67465047.227	0
11225000.0	78407.0	748227607.978	0.340712409367	174401.721191	0.796568463556	1.19148588181	41860.0996433	25481.1416626	3288.85361884	448.479149349	19359470.2643	67469968.8462	0
11250000.0	78608.0	753866756.875	0.34059006647	174401.660156	0.800356734544	1.19131040573	41876.2305132	25497.8912354	3274.06731679	450.70817647	1437366.44375	67474890.9835	0
11275000.0	78809.0	759533125.797	0.340465987364	174401.745605	0.804152805358	1.19114124775	41892.7992429	25514.9261475	3259.43338041	454.059916356	772206.501754	67479813.6389	0
11300000.0	79010.0	765226769.743	0.340340424489	174401.989746	0.807955977507	1.19097793102	41909.7467306	25532.1990967	3244.9361079	456.285913244	21574901.189	67484736.8125	0
11325000.0	79210.0	770947832.07	0.340214485062	174401.855469	0.81177894026	1.19082307816	41926.9676993	25549.5834351	3230.73032946	459.606619399	13387581.6763	67489660.5043	0
11350000.0	79411.0	776696281.884	0.34008698428	174402.392578	0.81559701357	1.19066977501	41944.5458795	25567.2348022	3216.50904553	464.138928896	20179003.2861	67494584.7143	0
11375000.0	79612.0	782472174.032	0.339958835055	174403.076172	0.8194220718	1.19052040577	41962.3664282	25585.0234985	3202.44529663	466.370368745	1430047.38088	67499509.4425	0
11400000.0	79812.0	788275650.994	0.339831305512	174403.393555	0.823266804218	1.1903783083	41980.3078534	25602.7923584	3188.73011621	469.711224163	910055.579804	67504434.6891	0
11425000.0	80013.0	794106679.027	0.339703046221	174404.394531	0.82710623974	1.19023573399	41998.454788	25620.7244873	3175.04229935	473.102860361	5709575.32337	67509360.454	0
11450000.0	80213.0	799965401.108	0.339574278878	174404.980469	0.830965465866	1.1901011467	42016.8660451	25638.7573242	3161.69093841	475.261058986	13535349.2546	67514286.7372	0
11475000.0	80413.0	805851877.251	0.339443356481	174405.688477	0.834832550026	1.18997263908	42035.762724	25657.119751	3148.51671181	478.601175214	6321753.94601	67519213.5388	0
11500000.0	80613.0	811766165.201	0.33931064097	174406.518555	0.838706968352	1.18984973431	42055.0742559	25675.7568359	3135.50754301	481.94501511	1166760.85793	67524140.8588	0
11525000.0	80813.0	817708322.68	0.339176465803	174407.421875	0.84258930292	1.18973219395	42074.7725322	25694.6502686	3122.66183776	485.292001799	1389782.75469	67529068.6973	0
11550000.0	81013.0	823678406.662	0.339041163436	174408.447266	0.846478855237	1.18961954117	42094.8050911	25713.7512207	3109.97461092	488.642829148	6949829.479	67533997.0543	0
11575000.0	81213.0	829676475.363	0.338905065302	174409.570312	0.850376149174	1.18951189518	42115.1323255	25733.026123	3097.44095582	490.767506557	12609154.8134	67538925.9297	0
11600000.0	81412.0	835702671.189	0.338769350009	174410.27832	0.8542931173	1.18941128254	42135.6117431	25752.3193359	3085.19831053	494.070048275	5304192.47066	67543855.3237	0
11625000.0	81612.0	841756965.7	0.338632595086	174411.572266	0.858205370605	1.1893119812	42156.3770233	25771.8353271	3072.95681829	498.671697315	36555067.1428	67548785.2363	0
11650000.0	81812.0	847839413.224	0.338496005165	174412.976074	0.862124725245	1.18921673298	42177.3150093	25791.4215088	3060.8546353	500.785183255	2489788.56894	67553715.6675	0
11675000.0	82011.0	853950156.905	0.338360671819	174413.94043	0.866063986905	1.18912768364	42198.266426	25810.9161377	3049.02440189	502.838898126	20459275.2192	67558646.6173	0
11700000.0	82210.0	860089255.207	0.338226101228	174415.002441	0.87001058273	1.18904221058	42219.2843087	25830.4016113	3037.3199278	506.153557125	11452656.6157	67563578.0858	0
11725000.0	82409.0	866256760.814	0.338092455216	174416.162109	0.873964163475	1.1889603138	42240.3609994	25849.8596191	3025.74011459	509.474096903	4349330.06185	67568510.073	0
11750000.0	82608.0	872452730.383	0.337959731721	174417.382812	0.877925311215	1.18888163567	42261.4757221	25869.2932129	3014.28056832	512.800574007	113619.184904	67573442.5789	0
11775000.0	82807.0	878677223.757	0.337826023992	174418.676758	0.881894025952	1.18880939484	42282.9428181	25888.9282227	3002.9336616	516.13396281	3343140.93031	67578375.6036	0
11800000.0	83006.0	884930295.951	0.337691443242	174419.995117	0.885870307684	1.18874335289	42304.7322733	25908.7463379	2991.70173291	519.473554531	10337651.66	67583309.1471	0
11825000.0	83205.0	891212007.322	0.337556263348	174421.374512	0.889854389243	1.1886831522	42326.800479	25928.7109375	2980.58053802	522.819635648	19681366.988	67588243.2094	0
11850000.0	83404.0	897522415.968	0.337420703033	174422.77832	0.893845863175	1.18862736225	42349.0768923	25948.7884521	2969.55937202	524.851991984	3717801.45444	67593177.7906	0
11875000.0	83602.0	903861669.0	0.337286065241	174423.706055	0.897857709788	1.18857884407	42371.423578	25968.8049316	2958.77062009	528.155790839	35958.6791587	67598112.8907	0
11900000.0	83801.0	910229734.626	0.337150776018	174425.195312	0.901864259504	1.18853151798	42394.0056953	25988.9984131	2947.94661939	531.517624881	4353337.46605	67603048.5097	0
11925000.0	83999.0	916626760.266	0.337016949261	174426.196289	0.905891531147	1.18848979473	42416.5458777	26009.0576172	2937.34603986	533.490355951	19595508.8444	67607984.6476	0
11950000.0	84197.0	923052803.02	0.336883986335	174427.22168	0.909925904125	1.18845081329	42439.1025088	26029.0771484	2926.83820893	536.810059024	10428462.8852	67612921.3046	0
11975000.0	84395.0	929507921.175	0.336752155692	174428.259277	0.913967844099	1.1884137392	42461.6270662	26049.0264893	2916.40959483	540.139894564	3414114.03554	67617858.4806	0
12000000.0	84593.0	935992170.473	0.336621643909	174429.333496	0.918017467484	1.18837845325	42484.0924543	26068.8720703	2906.06599961	543.478540482	121756.462011	67622796.1756	0
12025000.0	84791.0	942505608.577	0.336492852973	174430.407715	0.922074308619	1.18834412098	42506.4316939	26088.5772705	2895.79724321	546.827991151	4590314.58234	67627734.3898	0
12050000.0	84989.0	949048291.158	0.336365967877	174431.469727	0.926138600335	1.18831038475	42528.602906	26108.102417	2885.6122959	550.186246727	12123267.3333	67632673.1231	0
12075000.0	85187.0	955620258.208	0.336240202724	174432.592773	0.930207665078	1.18827807903	42550.749382	26127.5726318	2875.49158494	552.160588335	11550333.7791	67637612.3755	0
12100000.0	85384.0	962221679.088	0.336115285758	174433.14209	0.934300303925	1.18825149536	42572.9119309	26146.9665527	2865.56682576	555.48189132	4332160.60669	67642552.1472	0
12125000.0	85582.0	968852519.939	0.335989734872	174434.155273	0.938387471251	1.18822586536	42595.3107034	26166.5435791	2855.59166699	558.864386123	62480.1991125	67647492.4381	0
12150000.0	85779.0	975512933.216	0.335865541804	174434.594727	0.942495535128	1.1882058382	42617.6635115	26185.9863281	2845.79808303	562.207972786	3569874.88872	67652433.2482	0
12175000.0	85977.0	982202884.19	0.335741171764	174435.546875	0.946598185692	1.1881865263	42640.1774708	26205.5419922	2835.95090082	565.613717239	10745186.8489	67657374.5777	0
12200000.0	86174.0	988922526.03	0.335618773669	174435.913086	0.950721907429	1.18817150593	42662.5324707	26224.8840332	2826.28053309	567.540112384	14394690.1736	67662316.4265	0
12225000.0	86371.0	995671917.702	0.335497538223	174436.193848	0.954853312578	1.18815910816	42684.8493914	26244.1345215	2816.66788109	570.91061296	6461120.00686	67667258.7946	0
12250000.0	86568.0	1002451118.09	0.335377784807	174436.450195	0.958992459346	1.18814897537	42707.0830263	26263.2507324	2807.10949788	574.293868521	1027541.81467	67672201.6822	0
12275000.0	86765.0	1009260187.59	0.335259697927	174436.59668	0.963139347732	1.18814086914	42729.1958795	26282.2052002	2797.60198094	577.690511254	1712706.79838	67677145.0892	0
12300000.0	86962.0	1016099184.81	0.335143488388	174436.682129	0.967293861322	1.18813431263	42751.1501861	26300.9643555	2788.14503295	581.100619874	7634438.97576	67682089.0157	0
12325000.0	87159.0	1022968170.3	0.335029339701	174436.657715	0.971456291154	1.18812942505	42772.9208044	26319.5068359	2778.73530764	584.524669884	15865061.6022	67687033.4616	0
12350000.0	87356.0	1029867201.01	0.334917568659	174436.547852	0.975626404397	1.18812596798	42794.4516125	26337.7838135	2769.37254249	586.470529238	11264060.169	67691978.4272	0
12375000.0	87552.0	1036796430.35	0.334808999084	174435.839844	0.979817472398	1.18812561035	42815.6202468	26355.657959	2760.16254362	589.863167104	4479376.5662	67696923.9123	0
12400000.0	87749.0	1043755826.97	0.334700606711	174435.48584	0.98400330171	1.1881275177	42836.9295231	26373.5809326	2750.88350058	593.322305245	233337.882903	67701869.917	0
12425000.0	87945.0	1050745545.97	0.334593885991	174434.49707	0.988210784271	1.18813633919	42858.1952245	26391.3269043	2741.75606228	596.743861453	2704465.05896	67706816.4413	0
12450000.0	88142.0	1057765552.66	0.334487126608	174433.874512	0.992412446067	1.18814694881	42879.6019575	26409.1400146	2732.55089855	600.234759369	8911774.00009	67711763.4853	0
12475000.0	88338.0	1064816003.72	0.334382274719	174432.60498	0.996635877527	1.18816280365	42900.8674907	26426.7181396	2723.49624898	602.151548307	20614423.8622	67716711.0491	0
12500000.0	88534.0	1071896961.98	0.334278714046	174431.140137	1.00086710881	1.18818092346	42922.0397007	26444.1589355	2714.47160312	606.183804858	0.0	67721659.1325	0
