z	T	P	nabla_ad	S	rho	delta	cp	cv	opac	frad	fconv	ftot	dT
0.0	3900.0	281.179205394	0.368431551934	168944.40918	1.13381748434e-05	1.01826584339	17754.6401779	11169.8104858	0.00103881597588	0.0	39738.2060707	65311815.0903	0
25000.0	3900.0	370.607610485	0.359717231634	167153.015137	1.49503627256e-05	1.02396392822	18328.1054227	11674.6994019	0.00123264312963	0.0	52276.3604446	65316507.3538	0
50000.0	3900.0	488.55140705	0.349014608623	165350.378418	1.97187564055e-05	1.03146636486	19079.213893	12334.9563599	0.00146293097994	0.0	68821.6098336	65321200.1229	0
75000.0	3900.0	644.152262878	0.336135622897	163532.104492	2.60173287359e-05	1.04139232635	20061.0295035	13196.295166	0.00173518168291	0.0	90643.2404805	65325893.3976	0
100000.0	3900.0	849.518043103	0.320980534408	161694.140625	3.43438237849e-05	1.05431056023	21340.5466892	14317.2012329	0.00205731243909	0.0	119452.342906	65330587.1781	0
125000.0	3900.0	1120.70982803	0.303615418231	159829.772949	4.53624409147e-05	1.07103931904	22999.7104288	15768.6660767	0.00244130409485	0.0	157573.26785	65335281.4644	0
150000.0	3900.0	1479.07255674	0.284323199851	157932.23877	5.99622538289e-05	1.09297204018	25145.7965613	17638.9358521	0.00290306426806	59771970.2553	193765.768994	65339976.2566	0
175000.0	3929.0	1948.64130917	0.273029089616	156202.075195	7.85103040357e-05	1.10870850086	26585.1287182	18879.0176392	0.00365322306822	46045382.8401	251376.093322	65344671.5548	0
200000.0	3936.0	2567.43080207	0.2542930671	154299.658203	0.000103482264535	1.13776099682	29343.3388047	21262.3168945	0.00440236509204	59908074.399	295362.719158	65349367.3591	0
225000.0	4001.0	3367.50609934	0.254801434828	152830.700684	0.000133505125177	1.14006137848	29297.7288071	21189.4287109	0.00582328214056	47907398.0662	365305.565342	65354063.6694	-2
250000.0	4031.0	4410.31794145	0.243218979215	151089.733887	0.000173909242562	1.16281139851	31293.3303642	22887.9211426	0.00721530461965	59399451.7398	333345.685487	65358760.4858	-1
275000.0	4191.0	5713.79980348	0.270345348563	150308.239746	0.000216163414279	1.12237679958	27064.8855257	19192.0715332	0.0110294057419	47621076.6026	359626.42489	65363457.8085	0
300000.0	4287.0	7359.23022059	0.27771306295	149100.927734	0.000272067353535	1.11465096474	26109.2247869	18338.4231567	0.0151402395513	59464085.2236	62653.3281038	65368155.6374	0
325000.0	4701.0	9257.79258617	0.345443401381	149562.695312	0.000310169752993	1.04283475876	19404.759658	12530.532074	0.0279071691698	47742795.5203	60811.2324224	65372853.9727	-4
350000.0	4943.0	11515.9363654	0.362791405736	149037.060547	0.000366851224953	1.02888441086	18163.2661557	11457.3875427	0.037749425514	58129081.0212	0.0144641326646	65377552.8144	0
375000.0	5792.0	13862.5147482	0.387665550029	150576.635742	0.000375118418106	1.00695466995	16539.4468666	10090.7035828	0.0609269294411	47521209.4969	0.000513783191299	65382252.1626	-15
400000.0	5860.0	16659.6598475	0.386985282985	149543.603516	0.000446756132533	1.00750017166	16577.3148934	10122.1855164	0.073147392374	53371574.9551	1.16006539393	65386952.0172	0
425000.0	7199.0	19326.4415633	0.343742693231	152242.431641	0.00041865709477	1.01978635788	18785.9173758	12160.9153748	0.396088477087	55631835.961	16489.2419645	65391652.3785	-41
450000.0	9839.0	21460.0492282	0.149132738998	161478.869629	0.000328151742224	1.35202264786	58558.2257848	46683.2794189	7.53127259477	7902261.07532	29011515.1841	65396353.2465	-40
475000.0	10574.0	23595.2815422	0.125519601215	165534.411621	0.000326975282405	1.56750977039	83106.8740885	66889.3920898	14.2893543992	2154892.84413	14750836.8093	65401054.6211	-15
500000.0	11274.0	25700.4348975	0.111851602402	170857.019043	0.000321055949826	1.83059811592	113671.754645	91028.9428711	24.3206468992	1054230.65718	15113871.9031	65405756.5026	-7
525000.0	11530.0	27905.0504077	0.109388607384	172459.594727	0.000335739400725	1.91661477089	123657.748361	98607.7392578	29.2560767963	433077.986736	3591488.27329	65410458.8909	-7
550000.0	11738.0	30227.4058633	0.108070737555	173584.655762	0.000353252772811	1.97844195366	130857.987304	103970.10498	33.6967772813	263854.64549	1352956.5742	65415161.7861	-1
575000.0	11858.0	32703.6504891	0.10787758998	173813.220215	0.000376404074132	2.00202322006	133426.153589	105802.185059	36.7972168316	159459.17652	63142.9934505	65419865.1883	0
600000.0	11958.0	35349.6838176	0.107930833342	173827.563477	0.00040201305751	2.01653051376	134877.873019	106786.633301	39.6783548921	129673.782045	5514.27827283	65424569.0975	0
625000.0	12058.0	38174.9460615	0.108023565459	173810.60791	0.000429079477726	2.02978038788	136142.086298	107617.700195	42.7222948935	115692.143882	3047.96036543	65429273.5139	0
650000.0	12158.0	41189.4354746	0.108136470813	173803.723145	0.000457576419421	2.04311871529	137413.61816	108449.34082	45.9320734591	102920.09035	6056.93593935	65433978.4373	0
675000.0	12257.0	44403.4977877	0.108268982405	173811.901855	0.000487597844767	2.05623674393	138679.352999	109275.830078	49.2864802131	91763.1933561	9870.90667552	65438683.868	0
700000.0	12356.0	47827.3076542	0.108415918873	173830.334473	0.000519157538292	2.06897377968	139915.000066	110076.940918	52.8138469708	82393.3713378	7354.92489856	65443389.806	0
725000.0	12455.0	51471.7449081	0.108583501702	173832.556152	0.000552387859898	2.08069610596	141019.048667	110772.998047	56.520511973	74111.6572738	5287.87177548	65448096.2513	0
750000.0	12554.0	55348.6418787	0.108771593512	173807.580566	0.000587398290008	2.09136557579	141967.911467	111344.73877	60.4127555079	66771.4168654	3716.34136133	65452803.204	0
775000.0	12653.0	59469.8786616	0.10896798122	173809.667969	0.000624085203071	2.10248637199	142988.564816	111969.506836	64.4898189262	59972.4869508	8647.47491844	65457510.6642	0
800000.0	12751.0	63847.8766458	0.109182129456	173820.898438	0.000662631009618	2.11334300041	143991.992138	112581.054688	68.7245571373	54244.4873323	6987.28803647	65462218.6319	0
825000.0	12850.0	68494.2291307	0.109403900986	173846.655273	0.000702931174601	2.12415671349	144998.141803	113190.734863	73.177327555	49150.3496041	5297.73928353	65466927.1071	0
850000.0	12948.0	73422.9849643	0.109651039032	173837.219238	0.000745397414903	2.13357782364	145815.863725	113655.200195	77.7938803466	44378.3527863	12711.8454491	65471636.09	0
875000.0	13046.0	78648.5991824	0.109911714324	173808.972168	0.000789989712757	2.14212822914	146513.995257	114026.074219	82.6098823017	40540.1415661	3541.54174616	65476345.5805	0
900000.0	13145.0	84184.2499869	0.110177046988	173819.042969	0.000836434878693	2.15129542351	147311.270324	114469.372559	87.6589431476	36911.3546765	2574.91345501	65481055.5789	0
925000.0	13243.0	90044.7206213	0.110459509859	173835.595703	0.000885096028469	2.160115242	148082.094995	114893.798828	92.8802048044	33492.0710357	10358.3156847	65485766.085	0
950000.0	13341.0	96244.7185326	0.110753542695	173853.894043	0.000935983734962	2.16854095459	148812.336548	115286.987305	98.3146692207	30589.6812212	9759.93175488	65490477.0989	0
975000.0	13439.0	102800.078716	0.111059436588	173850.57373	0.000989306727206	2.17614817619	149431.919424	115595.76416	103.972484238	27973.5704441	9634.90839413	65495188.6208	0
1000000.0	13537.0	109728.001466	0.111372111173	173824.267578	0.00104517516775	2.18294548988	149943.69009	115823.461914	109.861044869	25611.2574409	9946.46418892	65499900.6506	0
1025000.0	13635.0	117045.308226	0.111690084557	173821.606445	0.00110339760795	2.18986058235	150500.558819	116087.37793	115.978706707	23482.89034	10084.8503469	65504613.1885	0
1050000.0	13733.0	124768.388635	0.112016639435	173836.987305	0.00116405999506	2.19676756859	151079.095294	116368.713379	122.332020742	21561.4105567	10177.5490095	65509326.2344	0
1075000.0	13831.0	132914.424638	0.112352789405	173857.519531	0.00122731148622	2.20336174965	151629.52558	116629.089355	128.929423081	19822.1303991	10443.2760277	65514039.7885	0
1100000.0	13929.0	141501.795856	0.112698823503	173864.880371	0.00129336854116	2.20933747292	152097.075428	116826.574707	135.781733412	18242.8461729	11229.8613678	65518753.8507	0
1125000.0	14027.0	150550.467977	0.113053589555	173841.247559	0.00136246308102	2.21450805664	152441.911874	116930.79834	142.900525818	16804.7572802	12901.107867	65523468.4212	0
1150000.0	14125.0	160080.855303	0.113416410646	173829.052734	0.00143440729516	2.21957945824	152791.932705	117040.307617	150.283518387	15498.0819498	14889.9862281	65528183.5	0
1175000.0	14223.0	170112.264569	0.113787803352	173836.608887	0.00150915627728	2.22463798523	153164.245777	117168.066406	157.924450067	14384.5612589	1748.34089992	65532899.0871	0
1200000.0	14322.0	180662.869643	0.114165539248	173865.307617	0.00158660895977	2.22973418236	153557.769116	117310.546875	165.869439994	13300.9084738	2262.92629966	65537615.1826	0
1225000.0	14420.0	191755.102511	0.114552536256	173880.322266	0.00166746485775	2.23412227631	153863.827995	117390.161133	174.032416213	12249.1334003	22075.0479304	65542331.7865	0
1250000.0	14518.0	203411.36391	0.114945000858	173875.183105	0.00175174659489	2.23788928986	154080.241565	117402.990723	182.471358742	11348.8226996	26415.3765584	65547048.8989	0
1275000.0	14616.0	215655.81275	0.11534584801	173848.510742	0.00183962413303	2.24129772186	154234.903507	117369.360352	191.194145747	10577.6329391	8175.22813327	65551766.5199	0
1300000.0	14715.0	228510.197279	0.115753116773	173850.305176	0.00193046298591	2.24490594864	154439.892291	117373.22998	200.244740116	9821.20510338	11370.3699568	65556484.6494	0
1325000.0	14813.0	241999.216837	0.116168252172	173856.359863	0.00202495721169	2.24810433388	154612.225348	117356.835938	209.527207594	9128.07858442	15564.434478	65561203.2876	0
1350000.0	14912.0	256144.411246	0.116588657441	173879.56543	0.00212266058952	2.25118327141	154785.871412	117341.259766	219.155374076	8493.40006806	20190.2934911	65565922.4345	0
1375000.0	15010.0	270972.847176	0.11701378799	173887.5	0.00222445464715	2.25355887413	154873.468235	117265.368652	229.03464964	7909.04249476	26639.8266178	65570642.0901	0
1400000.0	15109.0	286508.551331	0.117446371165	173889.819336	0.00232991214943	2.25574707985	154933.002158	117167.590332	239.286485416	7408.92141687	5359.48945943	65575362.2545	0
1425000.0	15208.0	302779.563734	0.117886736876	173871.325684	0.00243955582846	2.25772333145	154949.142985	117037.5	249.869737866	6910.30841598	10868.0747672	65580082.9277	0
1450000.0	15307.0	319814.00866	0.118333061362	173865.808105	0.00255304667007	2.2595641613	154966.72312	116910.534668	260.778442128	6451.27192428	17999.066693	65584804.1097	0
1475000.0	15406.0	337638.721616	0.11878446029	173872.766113	0.00267047153102	2.26116681099	154972.216752	116776.696777	272.022086791	6028.13683506	26768.6389488	65589525.8007	0
1500000.0	15505.0	356281.389489	0.119239804399	173885.620117	0.00279201844933	2.26240730286	154945.354917	116621.09375	283.613928928	5637.35018619	37508.7608207	65594248.0007	0
1525000.0	15604.0	375770.55771	0.119702383337	173898.828125	0.00291784863293	2.26331448555	154884.873077	116442.456055	295.567469487	5302.51445281	9456.49824102	65598970.7096	0
1550000.0	15704.0	396133.146136	0.120174611312	173913.439941	0.00304775016957	2.26412534714	154813.70275	116255.224609	307.961920159	4966.4710104	18215.5386087	65603693.9276	0
1575000.0	15803.0	417404.33204	0.120649955241	173894.98291	0.00318303227687	2.26457953453	154675.548594	116020.544434	320.698434496	4653.44050595	31855.8674366	65608417.6547	0
1600000.0	15903.0	439615.109452	0.121129410319	173883.47168	0.00332257968694	2.26501393318	154539.050188	115786.584473	333.901935531	4385.44008442	5115.24964686	65613141.891	0
1625000.0	16003.0	462797.527876	0.121612141173	173883.422852	0.00346667161466	2.26518249512	154386.326355	115543.237305	347.495055481	4115.41114244	14949.3493325	65617866.6364	0
1650000.0	16103.0	486982.876148	0.122101976698	173893.151855	0.00361539014193	2.26508188248	154215.412372	115288.989258	361.487322468	3864.9375907	28871.8744623	65622591.891	0
1675000.0	16203.0	512203.194562	0.122601321449	173908.935547	0.00376888010578	2.26474356651	154026.170235	115023.291016	375.887999041	3632.3347112	47393.7408585	65627317.6548	0
1700000.0	16303.0	538492.266295	0.123107730065	173922.558594	0.00392743640987	2.26416730881	153809.636468	114739.038086	390.714974191	3432.96816972	11798.4351296	65632043.928	0
1725000.0	16404.0	565882.272014	0.123619665715	173933.300781	0.00409085532738	2.26349329948	153575.724853	114441.137695	406.058360803	3230.59943443	28238.9809156	65636770.7105	0
1750000.0	16504.0	594415.729943	0.124127250982	173910.9375	0.0042607348405	2.26256656647	153286.825787	114105.090332	421.804397418	3040.94414557	53197.2481521	65641498.0024	0
1775000.0	16605.0	624128.288598	0.124641258889	173899.108887	0.00443543831352	2.26155614853	152999.395009	113770.690918	438.07997528	2878.84587892	14348.4270144	65646225.8037	0
1800000.0	16706.0	655056.20048	0.125164247517	173899.963379	0.00461530453322	2.26031351089	152703.810642	113433.227539	454.813240507	2713.78657893	36010.7690902	65650954.1145	0
1825000.0	16807.0	687235.803087	0.125695048633	173909.387207	0.00480053495266	2.25883078575	152392.704623	113086.71875	472.011499637	2559.88293709	65764.8356782	65655682.9347	0
1850000.0	16908.0	720704.983514	0.126231890618	173922.094727	0.00499138968735	2.25710225105	152059.337598	112725.976562	489.671882004	2428.21122778	19884.7297246	65660412.2645	0
1875000.0	17010.0	755498.836492	0.126775253862	173940.600586	0.00518747037859	2.25521278381	151710.509491	112353.967285	507.882327957	2304.96708697	3299.8531604	65665142.1038	0
1900000.0	17112.0	791658.122948	0.127323106412	173950.598145	0.0053896837926	2.25312280655	151333.38813	111962.915039	526.581199188	2178.43295416	7074.71244751	65669872.4527	0
1925000.0	17214.0	829225.89289	0.127873835416	173944.372559	0.00559842465009	2.2509572506	150935.39325	111557.897949	545.788108122	2059.80452876	33421.3209173	65674603.3113	0
1950000.0	17316.0	868248.01359	0.128425715885	173927.490234	0.0058137270571	2.24874806404	150525.521881	111145.483398	565.506177087	1948.59354075	74813.8075356	65679334.6795	0
1975000.0	17418.0	908768.64477	0.128983292923	173919.897461	0.00603508578934	2.24632835388	150105.268292	110727.880859	585.717921835	1853.60465069	23389.6602093	65684066.5575	0
2000000.0	17521.0	950824.911682	0.129549405833	173927.587891	0.00626186192676	2.24372005463	149678.266246	110306.091309	606.513192657	1756.01063694	62880.6593546	65688798.9451	0
2025000.0	17623.0	994464.854397	0.13011963003	173932.299805	0.00649575531497	2.24079155922	149220.614196	109865.881348	627.73930419	1664.27372699	119008.251901	65693531.8426	0
2050000.0	17726.0	1039726.84448	0.130702292229	173947.77832	0.00673531667417	2.23767948151	148751.6972	109418.188477	649.568462834	1593.89600031	11430.9737494	65698265.2498	0
2075000.0	17830.0	1086650.72705	0.131294741529	173968.310547	0.00698080611983	2.23445034027	148271.788868	108962.731934	672.014663955	1512.79611422	6085.41556037	65702999.1668	0
2100000.0	17933.0	1135290.68379	0.131883827385	173970.385742	0.00723444100004	2.23113036156	147767.546341	108491.943359	694.900717359	1436.2888972	45419.900495	65707733.5937	0
2125000.0	18037.0	1185692.28523	0.132473444853	173962.70752	0.00749495120544	2.22789716721	147260.595918	108018.225098	718.413923247	1364.45765581	109597.033321	65712468.5306	0
2150000.0	18140.0	1237914.7628	0.133060531428	173940.368652	0.00776385604695	2.22459340096	146738.317105	107536.05957	742.382763729	1302.89728843	44382.7260242	65717203.9773	0
2175000.0	18245.0	1291994.89299	0.133666397951	173943.408203	0.00803765396995	2.22110629082	146216.066912	107053.540039	767.041798689	1245.288291	1528.07662259	65721939.934	0
2200000.0	18349.0	1347987.21032	0.134274832401	173944.946289	0.00831947818369	2.21738791466	145673.165855	106559.558105	792.158008509	1184.99341033	44209.9473233	65726676.4007	0
2225000.0	18454.0	1405934.48998	0.134894071768	173958.093262	0.00860756790644	2.21348810196	145120.197939	106058.996582	817.918349441	1133.81131324	833.960702153	65731413.3773	0
2250000.0	18559.0	1465887.69229	0.135517691758	173971.557617	0.0089031909738	2.20940637589	144550.213812	105548.034668	844.258198051	1080.19555537	46405.3644064	65736150.864	0
2275000.0	18664.0	1527898.58747	0.136148218243	173983.374023	0.00920649108593	2.20512700081	143960.879464	105025.109863	871.189894694	1029.59602554	132033.534275	65740888.8608	0
2300000.0	18769.0	1592021.4829	0.136782328821	173988.647461	0.00951789843384	2.20075321198	143358.700392	104494.543457	898.739901719	986.441011867	55436.946504	65745627.3676	0
2325000.0	18875.0	1658306.11934	0.137420851949	173989.331055	0.00983674817689	2.19641423225	142755.862162	103963.439941	927.023716615	945.572198679	4535.73016823	65750366.3846	0
2350000.0	18981.0	1726813.14694	0.138053958135	173974.87793	0.0101645482573	2.19221258163	142156.692364	103435.827637	955.979815795	902.394989194	73047.8301247	65755105.9117	0
2375000.0	19087.0	1797602.45647	0.138691356392	173963.708496	0.0105004255602	2.18788671494	141548.909057	102903.771973	985.573596447	865.63939896	12946.611308	65759845.949	0
2400000.0	19194.0	1870720.49576	0.139344425683	173966.882324	0.01084291398	2.18330430984	140926.700405	102362.609863	1015.89162868	827.033368325	98293.0293413	65764586.4964	0
2425000.0	19300.0	1946230.80127	0.139999431231	173967.492676	0.0111947501864	2.17854523659	140287.954667	101812.536621	1046.77330401	790.359789928	236325.81301	65769327.5541	0
2450000.0	19407.0	2024181.99504	0.140666680887	173977.575684	0.0115536950034	2.17361998558	139638.724797	101255.511475	1078.41493176	762.864205546	6542.65757922	65774069.122	0
2475000.0	19515.0	2104623.98075	0.141344036509	173994.116211	0.0119199658002	2.16858553886	138981.106944	100692.547607	1110.83249301	733.290713992	67880.116731	65778811.2002	0
2500000.0	19623.0	2187616.07322	0.14202742766	174008.02002	0.0122950141304	2.16342926025	138308.107307	100119.476318	1143.95069547	698.616251478	186811.795134	65783553.7886	0
2525000.0	19730.0	2273229.30054	0.142708398192	174009.16748	0.012680630789	2.1582467556	137624.547077	99540.7470703	1177.69933943	671.892926897	94363.1405349	65788296.8873	0
2550000.0	19839.0	2361510.03629	0.143400685743	174013.989258	0.013073127775	2.15308713913	136943.777521	98962.9394531	1212.38106492	646.60754339	24092.5909362	65793040.4964	0
2575000.0	19947.0	2452536.76289	0.14407783404	173997.668457	0.0134772908496	2.14818000793	136277.798555	98397.6257324	1247.75254325	619.443619353	159230.329244	65797784.6158	0
2600000.0	20056.0	2546369.28562	0.14476107801	173987.890625	0.0138893974508	2.14322781563	135614.902281	97835.546875	1283.90504557	596.504187529	69145.6102691	65802529.2456	0
2625000.0	20165.0	2643070.16834	0.145454555543	173983.422852	0.0143103970913	2.13799762726	134931.341767	97260.9436035	1320.67430036	574.687477233	7997.49956662	65807274.3857	0
2650000.0	20275.0	2742690.61706	0.146165710769	173990.014648	0.0147388172991	2.13246273994	134226.459458	96672.3388672	1358.15952193	554.028623494	27739.5139899	65812020.0363	0
2675000.0	20385.0	2845293.25471	0.146885860238	173999.389648	0.0151763961185	2.12672472	133505.443504	96074.0844727	1396.29624335	531.923229387	55275.1864062	65816766.1973	0
2700000.0	20495.0	2950942.53237	0.147612943696	174009.692383	0.0156234309543	2.12085366249	132773.521171	95469.6228027	1435.10828035	513.233871548	2262.9740414	65821512.8687	0
2725000.0	20606.0	3059693.64487	0.148351941416	174025.219727	0.0160785421031	2.11487269402	132033.997338	94860.2111816	1474.7141508	493.241031019	143842.163033	65826260.0506	0
2750000.0	20716.0	3171626.46457	0.1490848404	174030.59082	0.0165454766829	2.10896801949	131297.498389	94254.8339844	1514.96221822	476.244471361	58195.8761065	65831007.7429	0
2775000.0	20828.0	3286789.51046	0.149830668608	174041.967773	0.0170195307874	2.10306143761	130563.500626	93650.5859375	1556.15837672	460.136350813	3309.78322327	65835755.9457	0
2800000.0	20939.0	3405268.61476	0.15056226659	174037.036133	0.0175063632923	2.09741258621	129847.31809	93060.6079102	1598.07116421	442.609746888	168534.879632	65840504.659	0
2825000.0	21051.0	3527130.0179	0.151291493482	174026.611328	0.018002865545	2.09197092056	129149.29891	92483.5510254	1640.90921061	427.839002373	74559.574418	65845253.8829	0
2850000.0	21163.0	3652451.16445	0.152019343984	174016.650391	0.0185098324437	2.08657860756	128459.090761	91913.4155273	1684.55522227	413.682191708	9025.6206841	65850003.6173	0
2875000.0	21276.0	3781292.1634	0.152755221854	174015.307617	0.0190253012988	2.0811226368	127769.694603	91344.6716309	1729.09825152	400.191187289	29884.0508363	65854753.8622	0
2900000.0	21389.0	3913722.62247	0.153500820332	174016.809082	0.019550898287	2.07545232773	127062.516028	90764.9108887	1774.45472287	385.557000956	99821.1108929	65859504.6177	0
2925000.0	21502.0	4049812.35398	0.154258838898	174020.739746	0.0200866725208	2.06952238083	126332.914109	90170.9289551	1820.63110456	373.226802339	24735.5385433	65864255.8838	0
2950000.0	21616.0	4189619.4421	0.155034844457	174031.640625	0.0206308686757	2.06333613396	125583.085005	89563.458252	1867.73226372	361.467335691	9434.09972341	65869007.6605	0
2975000.0	21730.0	4333216.57581	0.155817863383	174042.089844	0.0211857004615	2.05703020096	124823.180581	88950.3234863	1915.69226032	348.646897776	169838.728508	65873759.9478	0
3000000.0	21844.0	4480678.80309	0.15660459839	174050.341797	0.0217515498662	2.05068516731	124060.264864	88336.3464355	1964.53000795	337.84964214	80042.5325848	65878512.7458	0
3025000.0	21959.0	4632069.69864	0.157399684488	174059.985352	0.0223266943067	2.04431223869	123296.913876	87722.6135254	2014.35623081	327.525532438	15932.0039365	65883266.0543	0
3050000.0	22074.0	4787469.16391	0.15819061757	174063.134766	0.0229136276175	2.03806734085	122545.026559	87118.0725098	2065.09698473	316.211018324	300041.899321	65888019.8735	0
3075000.0	22189.0	4946960.85409	0.158972666794	174057.15332	0.0235129336943	2.03204107285	121812.454605	86528.1738281	2116.78582216	306.677408515	187303.849315	65892774.2033	0
3100000.0	22305.0	5110616.8638	0.159752823847	174048.4375	0.0241224915953	2.02618193626	121097.182396	85950.8239746	2169.50876089	298.826689308	190058.642155	65897529.0438	0
3125000.0	22422.0	5278505.83467	0.160539336329	174046.777344	0.0247411317105	2.02031517029	120387.851456	85378.4301758	2223.18846383	288.817480955	17806.0862663	65902284.395	0
3150000.0	22538.0	5450722.70569	0.161314743714	174041.467285	0.0253735306615	2.01458287239	119693.475507	84818.4753418	2277.58360065	279.181840985	332797.125775	65907040.2569	0
3175000.0	22655.0	5627329.98563	0.162107200671	174043.237305	0.026014931791	2.00862193108	118981.763921	84246.9482422	2332.78962976	272.334176105	96731.0294082	65911796.6295	0
3200000.0	22773.0	5808389.44514	0.162918745407	174051.513672	0.0266652350547	2.00240039825	118248.919156	83661.1633301	2388.80130155	263.538159687	108719.846395	65916553.5128	0
3225000.0	22890.0	5993995.94735	0.163729469817	174055.163574	0.0273294135695	1.99612689018	117510.811848	83073.4069824	2445.47306926	256.151282855	33326.4498275	65921310.9068	0
3250000.0	23009.0	6184197.61731	0.16456298433	174068.444824	0.0280004660453	1.98963320255	116756.825623	82474.432373	2503.01932623	249.145167041	2303.03333788	65926068.8116	0
3275000.0	23127.0	6379092.83965	0.165389792806	174074.975586	0.0286859540211	1.98321211338	116008.909084	81881.3659668	2561.23912055	241.338813962	317225.976613	65930827.2271	0
3300000.0	23246.0	6578749.54178	0.166224213633	174083.422852	0.0293813172902	1.97677493095	115261.975712	81289.453125	2620.29231362	235.864156086	136612.094254	65935586.1533	0
3325000.0	23366.0	6783237.02341	0.167062718144	174092.236328	0.0300867741316	1.97038578987	114521.864504	80702.8198242	2680.18026659	228.692403368	114468.966264	65940345.5903	0
3350000.0	23485.0	6992661.97781	0.167883379381	174089.84375	0.0308079543174	1.96427059174	113806.025483	80134.7961426	2740.80195265	222.6807986	37252.3969761	65945105.5381	0
3375000.0	23606.0	7207081.79429	0.168708831432	174089.038086	0.0315374782076	1.95826196671	113103.554785	79576.0986328	2802.37324554	216.95599788	2406.35709543	65949865.9966	0
3400000.0	23726.0	7426608.95962	0.169513319451	174078.320312	0.0322829837387	1.95256245136	112430.339785	79039.642334	2864.69544082	210.512964954	356399.627534	65954626.9659	0
3425000.0	23847.0	7651315.45546	0.170325779468	174074.072266	0.0330381080857	1.94680178165	111757.884656	78504.675293	2927.84422162	206.055753104	168899.066424	65959388.4459	0
3450000.0	23969.0	7881266.61629	0.171155758733	174076.086426	0.0338025529345	1.94080770016	111068.457579	77958.7280273	2991.79699256	200.131176533	116841.352627	65964150.4368	0
3475000.0	24090.0	8116565.53988	0.171983682662	174074.658203	0.0345820008079	1.93477380276	110376.563267	77412.8051758	3056.47543091	195.195388019	35804.7754543	65968912.9385	0
3500000.0	24213.0	8357259.68117	0.172834667149	174083.14209	0.0353681389242	1.92850792408	109668.72483	76855.9387207	3122.04133152	190.502809951	2177.23204933	65973675.951	0
3525000.0	24335.0	8603454.2739	0.173679226704	174087.255859	0.0361696365871	1.92229628563	108966.441231	76304.4433594	3188.38002621	185.176666855	436831.999266	65978439.4743	0
3550000.0	24458.0	8855217.94692	0.174532952213	174095.336914	0.0369809931726	1.91602671146	108262.240919	75752.142334	3255.58852441	181.548241774	144378.056229	65983203.5085	0
3575000.0	24582.0	9112619.69487	0.175393117227	174106.494141	0.0378023105441	1.90974855423	107560.408877	75201.9775391	3323.70278457	176.62347349	197253.05091	65987968.0534	0
3600000.0	24705.0	9375770.55876	0.176238606248	174111.206055	0.038639860577	1.90366947651	106877.036692	74666.0461426	3392.66472407	172.532181351	96122.4658923	65992733.1093	0
3625000.0	24830.0	9644722.9377	0.1770933629	174121.362305	0.0394848902943	1.89760100842	106199.094132	74133.9782715	3462.62788992	168.629323935	21304.2059429	65997498.6759	0
3650000.0	24954.0	9919592.45755	0.177926949185	174122.973633	0.0403468802688	1.89182651043	105548.221356	73622.1618652	3533.51391723	164.810207724	18900.1604423	66002264.7534	0
3675000.0	25080.0	10200434.9089	0.178765616137	174127.514648	0.0412168956245	1.88611137867	104906.82867	73117.1630859	3605.46313673	161.161140252	106782.13509	66007031.3418	0
3700000.0	25205.0	10487369.9294	0.179589785687	174120.715332	0.0421044533141	1.88054537773	104277.493824	72622.052002	3678.36039425	156.961040036	274658.466024	66011798.441	0
3725000.0	25331.0	10780475.9542	0.180420782692	174114.196777	0.0430027430411	1.87491822243	103645.289406	72125.7202148	3752.10116964	153.542001673	143698.174613	66016566.051	0
3750000.0	25457.0	11079847.4408	0.181254336025	174109.04541	0.0439139621449	1.86923003197	103011.277896	71629.4250488	3826.58912061	150.233949585	43385.4649172	66021334.1719	0
3775000.0	25584.0	11385552.6718	0.182097793407	174109.179688	0.0448349092039	1.86343336105	102372.393323	71130.6030273	3901.8317597	147.060003964	4759.11993672	66026102.8037	0
3800000.0	25711.0	11697682.2871	0.182940535463	174110.314941	0.0457689238829	1.85763883591	101737.21529	70635.5041504	3977.82009871	143.986441237	80051.1594664	66030871.9463	0
3825000.0	25839.0	12016305.1039	0.183789455123	174116.064453	0.0467127538286	1.85180556774	101103.12361	70141.8640137	4054.54926009	141.035801432	204858.657883	66035641.5998	0
3850000.0	25967.0	12341513.1443	0.184633675305	174122.167969	0.0476698769489	1.84604632854	100478.904032	69656.0791016	4132.00983386	137.638608511	223622.169305	66040411.7643	0
3875000.0	26095.0	12673400.1086	0.185470791927	174128.173828	0.0486405624542	1.84039795399	99867.6508141	69180.2185059	4210.20595233	134.878724175	88357.9036582	66045182.4396	0
3900000.0	26224.0	13012037.613	0.186307291114	174137.402344	0.0496214961458	1.83482289314	99267.1899004	68712.4267578	4289.13775837	132.226047576	2271.97283529	66049953.6258	0
3925000.0	26353.0	13357522.0247	0.187134937086	174145.166016	0.0506163924001	1.82937204838	98680.3364276	68255.0048828	4368.81059142	129.150424769	651282.521419	66054725.3229	0
3950000.0	26482.0	13709951.492	0.187958749227	174150.415039	0.0516254949616	1.82394707203	98097.5798964	67801.5136719	4449.23056567	126.661118466	423860.577073	66059497.5309	0
3975000.0	26612.0	14069400.9314	0.188786345714	174156.298828	0.0526453659404	1.81849765778	97515.2649335	67348.9868164	4530.38967753	124.74343398	445238.618557	66064270.2498	0
4000000.0	26743.0	14435945.3034	0.189616496109	174162.17041	0.0536760417162	1.8130518198	96935.4241209	66898.7304688	4612.26955109	121.959621999	74960.9733729	66069043.4796	0
4025000.0	26873.0	14809711.1356	0.190430822822	174160.15625	0.0547251693206	1.80778312683	96370.6618273	66459.9365234	4694.9178588	119.237868225	931568.345448	66073817.2203	0
4050000.0	27004.0	15190777.1993	0.191244901304	174156.652832	0.0557856474188	1.80257534981	95812.680415	66026.2084961	4778.30736329	117.512438435	122996.14707	66078591.472	0
4075000.0	27136.0	15579222.5732	0.19205831849	174152.172852	0.0568572686461	1.79743719101	95262.5062852	65598.2116699	4862.40916657	115.410221834	324578.294072	66083366.2345	0
4100000.0	27268.0	15975148.2795	0.192866693527	174148.510742	0.0579425613978	1.79236972332	94721.4831256	65177.3803711	4947.17638886	112.940329278	179507.436667	66088141.5079	0
4125000.0	27400.0	16378650.1964	0.193669113567	174146.228027	0.0590414856561	1.78738379478	94190.770941	64764.4714355	5032.58694264	110.965851584	22409.9199751	66092917.2922	0
4150000.0	27533.0	16789797.5632	0.194472269077	174148.620605	0.0601502142672	1.78243231773	93667.5582968	64357.3486328	5118.61213183	109.066955922	71892.0311799	66097693.5875	0
4175000.0	27666.0	17208687.1313	0.195269294737	174151.306152	0.0612728472333	1.77751708031	93150.9286766	63955.8837891	5205.27332192	106.819245401	504408.968619	66102470.3936	0
4200000.0	27799.0	17635416.93	0.196061350321	174153.955078	0.0624095991952	1.77261376381	92638.5301584	63558.4960938	5292.59975215	105.031287185	223880.778865	66107247.7107	0
4225000.0	27933.0	18070057.9502	0.196856605285	174159.680176	0.0635564283584	1.76766836643	92126.4032492	63162.097168	5380.50500861	103.310714756	29118.1957155	66112025.5387	0
4250000.0	28067.0	18512708.8438	0.197646695148	174164.990234	0.0647174601909	1.76276350021	91620.1877547	62770.703125	5469.05357857	101.63586137	84522.3516495	66116803.8777	0
4275000.0	28202.0	18963440.8953	0.198439228204	174172.900391	0.0658886128804	1.75785076618	91116.4465049	62381.6101074	5558.18056764	100.023218344	342697.574335	66121582.7276	0
4300000.0	28337.0	19422353.4127	0.199225877841	174179.846191	0.0670740992064	1.75301301479	90620.8744303	61998.8586426	5648.00341801	98.0880106266	207350.166375	66126362.0884	0
4325000.0	28472.0	19889547.2897	0.200006027403	174185.583496	0.0682741010678	1.74826848507	90134.7301279	61623.2116699	5738.54692259	96.5618637651	7919.83637939	66131141.9601	0
4350000.0	28608.0	20365095.2185	0.200786659005	174192.883301	0.0694844784448	1.74357521534	89655.0788396	61252.34375	5829.72257702	95.090264785	150607.309286	66135922.3428	0
4375000.0	28744.0	20849099.5535	0.201559188078	174198.168945	0.0707096332917	1.73901700974	89187.7727983	60890.3747559	5921.56660874	93.311606046	437730.767489	66140703.2365	0
4400000.0	28880.0	21341665.2596	0.202321834144	174200.585938	0.0719499512343	1.73457801342	88731.8118981	60536.8591309	6014.06515681	91.9170192689	112837.028148	66145484.6411	0
4425000.0	29017.0	21842870.2262	0.203081187465	174202.185059	0.0732014304958	1.73016810417	88280.8497637	60187.4938965	6107.12341721	90.5716289807	44389.4785378	66150266.5566	0
4450000.0	29154.0	22352822.7093	0.203830610281	174199.377441	0.0744685457903	1.72585403919	87838.9604509	59845.111084	6200.79095166	88.9335030801	645157.793062	66155048.983	0
4475000.0	29291.0	22871632.6581	0.204571335595	174192.724609	0.0757512825658	1.72163045406	87405.5070599	59509.1552734	6295.01035033	87.6575247382	223591.228169	66159831.9205	0
4500000.0	29429.0	23399375.4875	0.205315373668	174189.453125	0.077043834608	1.71738195419	86973.1899146	59174.5300293	6389.59494199	86.4300433189	3272.87215758	66164615.3688	0
4525000.0	29567.0	23936150.9398	0.206055914825	174187.036133	0.0783504874562	1.71316826344	86545.9081992	58843.9819336	6484.57536697	85.2351362148	280749.439504	66169399.328	0
4550000.0	29706.0	24482026.5774	0.20680073654	174188.354492	0.0796666863607	1.70894253254	86120.2500111	58514.8742676	6579.8044394	83.7843512394	323379.824509	66174183.7982	0
4575000.0	29844.0	25037132.8714	0.207535660493	174187.573242	0.0810016936157	1.704829216	85704.4993903	58193.1152344	6675.44245961	82.6574656449	11654.0047818	66178968.7794	0
4600000.0	29984.0	25601505.5485	0.208282466569	174193.261719	0.0823414957267	1.70066976547	85287.8791891	57870.7275391	6771.13969324	81.5892117046	229596.428679	66183754.2715	0
4625000.0	30123.0	26175276.8484	0.209017041279	174196.362305	0.0837004045025	1.69663310051	84882.1401888	57556.439209	6867.16069522	80.2480435591	404278.906381	66188540.2745	0
4650000.0	30263.0	26758517.1353	0.209750396116	174201.916504	0.0850692085805	1.69259083271	84479.1900153	57244.7265625	6963.26646883	79.2408104953	29637.4553263	66193326.7885	0
4675000.0	30403.0	27351329.0128	0.210476577973	174206.958008	0.0864527537487	1.6885985136	84082.3704168	56937.9516602	7059.51572536	78.2604334117	231498.007919	66198113.8135	0
4700000.0	30544.0	27953782.4907	0.211203593967	174214.086914	0.0878461723914	1.68460202217	83687.7887214	56633.2397461	7155.72818577	77.0455794903	417876.373223	66202901.3494	0
4725000.0	30684.0	28566014.51	0.211918816623	174217.651367	0.089259352535	1.68070971966	83302.1979476	56335.3942871	7252.13706124	76.1212035724	17006.0349915	66207689.3963	0
4750000.0	30826.0	29188061.8224	0.212643707881	174225.561523	0.0906775385374	1.67676782608	82915.1462643	56036.730957	7348.2552671	75.2478944256	286732.680873	66212477.9542	0
4775000.0	30967.0	29820062.3083	0.213358726981	174229.553223	0.0921156315599	1.67293894291	82536.9758816	55744.6166992	7444.47029396	74.1236939253	381354.089162	66217267.023	0
4800000.0	31109.0	30462086.9104	0.21407824304	174234.692383	0.0935637799557	1.66912567616	82160.9958706	55454.0893555	7540.42989755	73.3015197229	2090.31960222	66222056.6029	0
4825000.0	31251.0	31114241.135	0.214796270211	174238.061523	0.0950270623434	1.66538929939	81790.834829	55167.6086426	7636.24289465	72.2475976141	1020914.86851	66226846.6937	0
4850000.0	31393.0	31776633.2881	0.215508787384	174239.001465	0.0965058934526	1.6617358923	81427.6552346	54886.2182617	7731.88946802	71.4733599979	347856.90496	66231637.2954	0
4875000.0	31536.0	32449338.5149	0.216218712935	174239.465332	0.0979954056675	1.6581183672	81068.9128069	54608.2458496	7827.11823747	70.7324328619	9482.70648402	66236428.4082	0
4900000.0	31679.0	33132467.9624	0.216920339219	174236.425781	0.0995009031612	1.65458726883	80717.4457363	54335.6384277	7922.14544687	70.0110845815	472534.56029	66241220.032	0
4925000.0	31823.0	33826097.3202	0.217622130141	174233.178711	0.101016805274	1.65107905865	80369.0752378	54065.423584	8017.24356673	69.0759549101	263278.016763	66246012.1667	0
4950000.0	31966.0	34530370.2892	0.218315112578	174227.783203	0.102552599856	1.6476457119	80027.3163107	53800.2868652	8112.85969807	68.1500993595	1738688.42286	66250804.8124	0
4975000.0	32110.0	35245353.2102	0.219014146432	174225.524902	0.104097518488	1.6441848278	79685.197822	53535.1501465	8208.47150235	67.7261580006	661984.773136	66255597.9691	0
5000000.0	32255.0	35971109.8593	0.219720456629	174226.416016	0.105651371996	1.64069473743	79342.4277225	53269.744873	8303.99740414	67.0914444557	1580662.8301	66260391.6367	0
5025000.0	32400.0	36707740.6153	0.22042885809	174227.844238	0.107219486381	1.63722419739	79001.7516192	53005.9570312	8399.53745624	66.2436549725	154423.431833	66265185.8153	0
5050000.0	32545.0	37455346.4458	0.221140139963	174229.821777	0.108801978058	1.6337736845	78663.0607004	52743.6523438	8495.04805909	65.4166870268	735830.98004	66269980.505	0
5075000.0	32690.0	38214030.4885	0.221848962802	174231.860352	0.110399196274	1.63035273552	78328.2370176	52484.4665527	8590.4184698	64.8332615714	107270.151258	66274775.7056	0
5100000.0	32836.0	38983858.846	0.222560525549	174236.14502	0.112005625851	1.62691783905	77994.5132254	52226.4465332	8685.37179424	64.2755339175	232586.525688	66279571.4172	0
5125000.0	32982.0	39764935.4506	0.223269441239	174240.161133	0.113626883831	1.62351596355	77664.3823297	51971.295166	8780.01531788	63.5152182803	659593.695989	66284367.6398	0
5150000.0	33128.0	40557364.5417	0.22397700285	174243.835449	0.115263021144	1.62014698982	77337.3076665	51718.5119629	8874.28697271	62.9897895147	54266.6278194	66289164.3734	0
5175000.0	33275.0	41361212.0395	0.224690652218	174249.389648	0.116908333439	1.61676597595	77009.9310439	51465.6066895	8967.81801841	62.4898695666	329978.010852	66293961.618	0
5200000.0	33422.0	42176582.0274	0.225405229775	174254.333496	0.118568539619	1.61341953278	76684.7624509	51214.2578125	9060.76286601	61.794632158	601601.455378	66298759.3737	0
5225000.0	33569.0	43003579.5884	0.226121758119	174258.532715	0.120243712445	1.61010718346	76361.3883439	50964.0716553	9153.052879	61.3266486236	31042.4675372	66303557.6404	0
5250000.0	33717.0	43842270.0404	0.226847837562	174264.111328	0.121928016597	1.60678482056	76036.5905568	50712.6495361	9244.28319441	60.8838475438	366348.534818	66308356.4181	0
5275000.0	33865.0	44692758.7279	0.227575853662	174268.54248	0.123627352878	1.60350048542	75713.660567	50462.3474121	9334.63931681	60.2522390437	656584.286815	66313155.7068	0
5300000.0	34013.0	45555154.2573	0.228301300167	174271.337891	0.12534216512	1.60026156902	75394.0831948	50214.4317627	9424.06766486	59.8406125	56705.4847736	66317955.5066	0
5325000.0	34162.0	46429524.3737	0.229030711153	174274.499512	0.127066494315	1.59702575207	75075.0699955	49966.8823242	9512.12794573	59.4535441923	319965.415792	66322755.8174	0
5350000.0	34311.0	47315978.0023	0.229757875539	174275.57373	0.128806379507	1.59383642673	74759.4527688	49721.7529297	9599.0294796	58.8832868783	785505.883227	66327556.6393	0
5375000.0	34460.0	48214625.1875	0.230482857912	174274.365234	0.130562009872	1.59069442749	74447.2335443	49479.0466309	9684.70437757	58.526717025	112456.817102	66332357.9722	0
5400000.0	34610.0	49125535.1536	0.231212455506	174272.77832	0.132327302708	1.58755970001	74135.6745974	49236.7645264	9768.68748232	58.1943374453	243581.022752	66337159.8162	0
5425000.0	34760.0	50048818.627	0.231940786723	174268.713379	0.134108326165	1.58447265625	73827.4138798	48996.8261719	9851.21374676	57.6840075862	985085.750884	66341962.1712	0
5450000.0	34910.0	50984584.2895	0.232672068883	174264.63623	0.135903974297	1.58140063286	73520.2532541	48757.7575684	9932.11415008	57.3829054736	230231.878251	66346765.0373	0
5475000.0	35061.0	51932892.9368	0.233414315664	174263.122559	0.137707786052	1.57829642296	73210.9124848	48517.1844482	10010.8976783	57.1069113994	111828.457711	66351568.4145	0
5500000.0	35212.0	52893847.3316	0.234158332708	174261.877441	0.139526237035	1.57520616055	72902.8371068	48277.6519775	10087.8691063	56.658367097	1369961.38593	66356372.3027	0
5525000.0	35363.0	53867551.0758	0.234903661196	174260.778809	0.141359283589	1.57213103771	72596.1300765	48039.2242432	10162.8990684	56.4141871812	506315.064142	66361176.702	0
5550000.0	35515.0	54854063.9991	0.235657192069	174261.828613	0.143200624734	1.56902945042	72287.9964286	47799.899292	10235.4972927	56.194722609	7696.5862177	66365981.6124	0
5575000.0	35667.0	55853488.8232	0.236412667915	174262.902832	0.145056517795	1.5659416914	71981.0739157	47561.5722656	10306.6335848	55.9868266202	421117.61929	66370787.0339	0
5600000.0	35820.0	56865884.1846	0.237177133936	174265.966797	0.146920530824	1.5628272295	71672.5429527	47322.1832275	10376.0880737	55.7984820306	1245362.7893	66375592.9664	0
5625000.0	35973.0	57891351.836	0.237944454152	174268.920898	0.148798935697	1.55972623825	71364.9965818	47083.5906982	10444.2559506	55.4388764386	288110.692059	66380399.4101	0
5650000.0	36126.0	58929994.3686	0.238715043501	174271.728516	0.150691863382	1.55663859844	71058.3451017	46845.703125	10511.0942462	55.2714205223	51380.9299055	66385206.3649	0
5675000.0	36280.0	59981869.0767	0.239496192264	174276.245117	0.152592692757	1.55352556705	70749.8087431	46606.4910889	10576.0724472	55.1232416242	587767.204185	66390013.8308	0
5700000.0	36434.0	61047079.2416	0.240280377826	174280.249023	0.154508161359	1.55042946339	70442.2029233	46367.9718018	10639.6298073	54.8067043886	993019.858335	66394821.8079	0
5725000.0	36588.0	62125729.5509	0.241066639692	174283.59375	0.156438472914	1.54735291004	70135.8065526	46130.3619385	10701.712452	54.6786768543	307766.32008	66399630.2961	0
5750000.0	36743.0	63217879.0027	0.241861411346	174288.061523	0.158376948093	1.54425811768	69828.1775892	45891.9250488	10761.77026	54.5695279846	20591.1788854	66404439.2955	0
5775000.0	36898.0	64323632.2354	0.242657453834	174291.699219	0.160330237122	1.54118394852	69522.1514365	45654.7302246	10820.2522326	54.4698777391	473827.450842	66409248.8061	0
5800000.0	37054.0	65443047.26	0.243461551767	174296.240234	0.162291558809	1.53809440136	69215.2683205	45416.998291	10876.5797289	54.389110682	1204588.31868	66414058.8278	0
5825000.0	37210.0	66576228.6216	0.244266501178	174299.743652	0.164267650689	1.53502762318	68910.3494671	45180.7952881	10931.243943	54.144247647	604239.806709	66418869.3608	0
5850000.0	37366.0	67723281.1927	0.245072036842	174302.062988	0.166258643731	1.53198492527	68607.5140907	44946.2097168	10984.2048417	54.0831104221	95404.8123123	66423680.405	0
5875000.0	37523.0	68884262.6909	0.245884978724	174304.956055	0.168257567566	1.52892971039	68304.274542	44711.4318848	11034.8292494	54.0408829458	155665.194976	66428491.9604	0
5900000.0	37680.0	70059279.9805	0.246698601449	174306.188965	0.170271669049	1.52589833736	68002.9436145	44478.125	11083.6788414	53.836442688	2129504.41973	66433304.027	0
5925000.0	37837.0	71248441.0935	0.247512485079	174305.615234	0.172301137354	1.52289354801	67703.6279136	44246.3317871	11130.7035816	53.8133747874	1281212.60984	66438116.6049	0
5950000.0	37995.0	72451806.1213	0.248332697646	174304.882812	0.174338842044	1.51988184452	67404.0900794	44014.4470215	11175.2526624	53.9793253484	2370511.33141	66442929.6941	0
5975000.0	38154.0	73669434.5897	0.249158305162	174303.845215	0.176384812221	1.51686787605	67104.7055324	43782.7453613	11217.2578608	53.8235017263	124514.673504	66447743.2946	0
6000000.0	38312.0	74901482.8423	0.249974551407	174298.962402	0.178453105036	1.51392912865	66810.988416	43555.1879883	11257.9499208	53.6686491883	3495797.31513	66452557.4063	0
6025000.0	38471.0	76148009.0251	0.250798562719	174295.422363	0.180528644705	1.51097214222	66516.3974569	43327.1209717	11295.9614742	53.8718805802	593517.481915	66457372.0294	0
6050000.0	38631.0	77409064.1583	0.251631375834	174293.835449	0.182610994671	1.50799167156	66220.6076947	43098.3306885	11331.2519684	53.925398378	1261733.20873	66462187.1638	0
6075000.0	38791.0	78684746.681	0.25246558961	174292.456055	0.184707081644	1.50502598286	65926.2964011	42870.7519531	11364.3690855	53.8213243214	964688.703121	66467002.8095	0
6100000.0	38951.0	79975156.9527	0.253302844178	174291.064453	0.186817313079	1.50207102299	65632.7579867	42643.7927246	11395.3557052	53.8959599968	399547.411385	66471818.9666	0
6125000.0	39112.0	81280345.2496	0.25415045974	174291.28418	0.188934413018	1.49908792973	65337.2519761	42415.4968262	11423.4789464	53.9904368792	46051.6032485	66476635.635	0
6150000.0	39273.0	82600411.8601	0.255000495798	174291.357422	0.191065584659	1.49611675739	65042.7251061	42188.0096436	11449.3583123	54.095543935	148797.736702	66481452.8148	0
6175000.0	39435.0	83935405.7945	0.25585942099	174292.956543	0.193203421077	1.49312245846	64746.8918144	41959.7381592	11472.2980424	54.2207678837	553304.957144	66486270.5059	0
6200000.0	39597.0	85285425.5301	0.256719328059	174294.360352	0.195355154574	1.49014294147	64452.6067849	41732.7545166	11492.9237859	54.3569601943	1101855.12465	66491088.7085	0
6225000.0	39760.0	86650518.8543	0.257586711503	174297.167969	0.197513305466	1.48714506626	64157.6425076	41505.4870605	11510.5025145	54.5137976242	1741660.41645	66495907.4224	0
6250000.0	39923.0	88030783.7423	0.258453637431	174299.731445	0.199685207917	1.48416674137	63864.8370422	41280.0018311	11525.7667528	54.514462767	912159.80141	66500726.6478	0
6275000.0	40086.0	89426318.41	0.259320101341	174301.977539	0.201870992896	1.48120737076	63574.1623062	41056.2896729	11538.846587	54.6927741287	436745.562627	66505546.3847	0
6300000.0	40250.0	90837171.9325	0.260195299826	174305.249023	0.204063369893	1.47822630405	63282.2268866	40831.8511963	11549.0370972	54.890984316	110301.908679	66510366.633	0
6325000.0	40414.0	92263443.9615	0.261071778207	174307.885742	0.206269876799	1.47525918484	62991.6513143	40608.5693359	11557.1046221	55.0994047225	36975.2120613	66515187.3927	0
6350000.0	40579.0	93705183.0763	0.26195581749	174311.437988	0.208482844755	1.47227466106	62700.3402675	40384.9517822	11562.3210672	55.3277441534	287489.116128	66520008.664	0
6375000.0	40744.0	95162487.857	0.262839341478	174314.331055	0.210709767998	1.46931016445	62411.1596946	40163.0645752	11565.4952389	55.5661659652	664779.775558	66524830.4468	0
6400000.0	40910.0	96635404.8372	0.263728679704	174318.09082	0.212942904909	1.46633446217	62122.0309997	39941.4245605	11565.8634993	55.8246021981	1118066.57749	66529652.7412	0
6425000.0	41076.0	98124032.1858	0.264615642408	174321.130371	0.215189851588	1.46338498592	61835.7556917	39722.064209	11564.2508598	55.9246893878	1910508.11483	66534475.5471	0
6450000.0	41242.0	99628468.323	0.265499213118	174323.4375	0.217450651689	1.46046602726	61552.7355305	39505.2490234	11560.6708422	56.2030635727	1360865.8262	66539298.8646	0
6475000.0	41409.0	101148759.339	0.266387722918	174326.35498	0.219717621803	1.45753967762	61270.0772748	39288.9129639	11554.4148212	56.5012689323	889516.875511	66544122.6937	0
6500000.0	41576.0	102685006.361	0.267275233455	174328.100586	0.221998925554	1.45463550091	60989.5696858	39074.3041992	11546.2857871	56.8093859187	489938.371847	66548947.0344	0
6525000.0	41744.0	104237256.214	0.268168025972	174330.151367	0.224286457524	1.45172405243	60709.1972085	38859.9853516	11535.5150762	57.3076229735	4456115.13288	66553771.8868	0
6550000.0	41913.0	105805553.669	0.269065145932	174332.385254	0.226580072194	1.44881057739	60429.3044168	38646.1639404	11522.1353947	57.4859627918	9865.43626646	66558597.2508	0
6575000.0	42081.0	107390052.243	0.269950895539	174331.884766	0.228895514738	1.44596290588	60154.9290962	38436.4776611	11507.8235598	57.8341996267	138257.691051	66563423.1266	0
6600000.0	42251.0	108990741.685	0.27084639628	174332.873535	0.231208890909	1.44308876991	59879.4358263	38226.1413574	11490.1227649	58.2132474688	422396.31655	66568249.514	0
6625000.0	42420.0	110607773.756	0.271728316256	174331.030273	0.23354399309	1.44028890133	59610.1111357	38020.3582764	11471.6052777	58.4196762362	3346207.2571	66573076.4131	0
6650000.0	42590.0	112241192.669	0.272611019355	174329.016113	0.235884974245	1.43750143051	59342.4704478	37815.8905029	11450.6154729	58.9913782024	1378633.53038	66577903.824	0
6675000.0	42761.0	113891043.777	0.273497032766	174326.77002	0.238231907133	1.43471848965	59075.481677	37611.9689941	11427.1921302	59.4115057796	1974336.38774	66582731.7467	0
6700000.0	42932.0	115557425.025	0.274381428877	174324.072266	0.240592082264	1.43195736408	58810.5276795	37409.6221924	11402.2016188	59.667765283	1473143.79522	66587560.1812	0
6725000.0	43103.0	117240430.821	0.275264318925	174321.264648	0.242965295911	1.42921507359	58547.584915	37208.8928223	11375.691907	60.1083629573	958435.875554	66592389.1274	0
6750000.0	43275.0	118940097.516	0.27615212733	174319.750977	0.245343282586	1.42646050453	58284.6330786	37008.3740234	11346.8266537	60.5705381074	533266.429898	66597218.5856	0
6775000.0	43447.0	120656516.69	0.277036769507	174318.17627	0.247734133154	1.42372536659	58024.2031996	36809.9273682	11316.5186853	61.0435996189	189462.587589	66602048.5555	0
6800000.0	43620.0	122389723.118	0.277924814131	174317.96875	0.250129378401	1.42097973824	57764.3238735	36612.1673584	11283.925071	61.7165886388	6009200.93647	66606879.0374	0
6825000.0	43794.0	124139749.487	0.278815326818	174319.091797	0.252528960118	1.41822469234	57505.2884248	36415.3625488	11249.1030962	62.0561146827	184418.787418	66611710.0311	0
6850000.0	43967.0	125906745.029	0.279695560712	174318.713379	0.254949613009	1.41551530361	57250.7581823	36222.1038818	11213.8345132	62.3938560676	4378278.66342	66616541.5368	0
6875000.0	44141.0	127690745.791	0.280580150065	174319.372559	0.257375097135	1.41279220581	56996.3039961	36029.1870117	11176.4429118	63.1134838883	1049728.25348	66621373.5545	0
6900000.0	44316.0	129491786.493	0.281468652543	174321.069336	0.259805005044	1.41005825996	56742.1369144	35836.7401123	11136.9258328	63.676211445	1615632.3954	66626206.0841	0
6925000.0	44491.0	131309957.53	0.282353219953	174322.460938	0.262247573119	1.4073472023	56490.6357293	35646.4447021	11096.2326127	64.0675132592	2212051.31944	66631039.1256	0
6950000.0	44666.0	133145349.132	0.28323338049	174323.583984	0.264702743152	1.40466213226	56242.0409719	35458.4442139	11054.4014561	64.652448685	1559034.12996	66635872.6793	0
6975000.0	44842.0	134997992.239	0.284115215611	174325.720215	0.267161871307	1.4019780159	55994.4810137	35271.37146	11010.1890714	65.4486550364	3948663.44675	66640706.7449	0
7000000.0	45019.0	136867916.802	0.284998221099	174328.833008	0.26962487027	1.39929950237	55748.3367012	35085.4919434	10963.3003172	66.0891072142	4906207.14343	66645541.3226	0
7025000.0	45196.0	138755212.025	0.285876112699	174331.494141	0.27210029657	1.39665472507	55505.2689919	34901.9439697	10914.7296097	66.5582074413	116149.965773	66650376.4125	0
7050000.0	45373.0	140659969.852	0.286749117357	174333.618164	0.274588586763	1.39404082298	55264.9866887	34720.5291748	10864.5965377	67.2303086382	67645.6621634	66655212.0144	0
7075000.0	45551.0	142582222.267	0.287623762173	174336.401367	0.277080951491	1.3914295435	55025.6828979	34539.9902344	10812.0936237	67.9309406701	433206.685953	66660048.1286	0
7100000.0	45729.0	144522058.414	0.288492368644	174338.720703	0.27958577266	1.38884806633	54789.3874354	34361.7797852	10758.2378639	68.4556427752	4212306.2852	66664884.7549	0
7125000.0	45907.0	146479567.506	0.289354559132	174340.50293	0.282103079371	1.38629376888	54556.233192	34186.0839844	10703.1343004	69.1873193417	3205087.3056	66669721.8934	0
7150000.0	46086.0	148454778.911	0.290216576933	174342.96875	0.284623994958	1.38374006748	54324.4660962	34011.6516113	10645.974953	70.1430904208	2697253.50454	66674559.5442	0
7175000.0	46266.0	150447718.586	0.291077706146	174346.142578	0.287148286588	1.38118505478	54094.1983589	33838.6169434	10586.8539536	70.9341814692	3778566.01531	66679397.7073	0
7200000.0	46446.0	152458475.801	0.291931768923	174348.608398	0.289684947347	1.37865304947	53867.1718798	33668.2525635	10526.7782628	71.5428771946	677883.902644	66684236.3826	0
7225000.0	46626.0	154487140.651	0.292778922562	174350.317383	0.292234210065	1.37614440918	53643.174727	33500.3631592	10465.8598272	72.3645828493	123853.236314	66689075.5703	0
7250000.0	46807.0	156533742.575	0.293625580453	174352.355957	0.294787285384	1.37363672256	53420.5329363	33333.7371826	10403.283395	73.2153538063	153425.386343	66693915.2704	0
7275000.0	46988.0	158598370.119	0.294464641495	174353.625488	0.297352497	1.37115716934	53201.088905	33169.6502686	10340.0252387	74.0823359861	793638.649564	66698755.4829	0
7300000.0	47170.0	160681048.945	0.295302378209	174355.200195	0.299921113765	1.36868476868	52983.2548604	33006.942749	10275.3013395	74.9786741723	1737100.44236	66703596.2078	0
7325000.0	47352.0	162781864.396	0.296131785332	174355.981445	0.302501517581	1.36624765396	52768.8634474	32846.875	10210.0745134	75.6833325014	2365514.30696	66708437.4452	0
7350000.0	47534.0	164900901.673	0.29695219848	174355.932617	0.305093708448	1.36384987831	52558.0306142	32689.4714355	10144.4263461	76.6100165908	1198493.46235	66713279.195	0
7375000.0	47717.0	167038186.013	0.29777046855	174355.981445	0.307689129841	1.36146497726	52348.895277	32533.4350586	10077.562565	77.5663176933	311004.610203	66718121.4574	0
7400000.0	47900.0	169193805.667	0.298580188241	174354.882812	0.310296803946	1.3591157198	52143.0458626	32379.8950195	10010.4690172	78.5382514134	126106.373473	66722964.2324	0
7425000.0	48084.0	171367786.186	0.29938748504	174353.735352	0.312907592161	1.35677731037	51938.8824031	32227.7435303	9942.32651934	79.5400414793	979144.28301	66727807.5199	0
7450000.0	48268.0	173560213.15	0.30018592429	174351.464844	0.315530458465	1.35447275639	51738.0474216	32078.1585693	9874.09495191	80.5575115446	2344501.09445	66732651.32	0
7475000.0	48453.0	175771111.904	0.300982110802	174349.401855	0.318156089634	1.35217583179	51538.8059526	31929.9255371	9804.98586441	81.6050206574	4116329.2003	66737495.6328	0
7500000.0	48638.0	178000564.513	0.301771198034	174347.338867	0.320792896673	1.34990167618	51342.341126	31783.9172363	9735.90080934	82.4457583501	496851.917024	66742340.4583	0
7525000.0	48823.0	180248652.671	0.302552735325	174345.361328	0.323440879583	1.34765005112	51148.7929548	31640.2893066	9666.93102828	83.5226215212	111960.450207	66747185.7964	0
7550000.0	49009.0	182515398.057	0.303333219791	174344.299316	0.326091540046	1.34539759159	50956.3917395	31497.7874756	9597.30118468	84.6295747611	1171695.39797	66752031.6474	0
7575000.0	49195.0	184800884.43	0.304106054991	174343.09082	0.328753696522	1.34316825867	50766.7158845	31357.5012207	9527.91134242	85.5219971217	3021552.69107	66756878.0111	0
7600000.0	49381.0	187105193.477	0.304871225957	174341.760254	0.331427261699	1.34096229076	50579.8168968	31219.4458008	9458.82587396	86.6569432081	1237027.64721	66761724.8876	0
7625000.0	49568.0	189428341.928	0.305634711524	174341.418457	0.334102660418	1.33875727654	50394.1547818	31082.5134277	9389.25161731	87.8223856805	81420.4439345	66766572.2769	0
7650000.0	49755.0	191770407.804	0.306389988947	174341.015625	0.336788827553	1.33657670021	50211.2763106	30947.7508545	9320.09701494	89.0028066202	751711.919881	66771420.1791	0
7675000.0	49943.0	194131403.319	0.30714291311	174341.625977	0.339476275258	1.33439850807	50029.722536	30814.1204834	9250.5883918	90.213864961	2565456.12362	66776268.5942	0
7700000.0	50131.0	196511403.218	0.307887274152	174342.224121	0.342174025718	1.3322455883	49851.0498489	30682.6965332	9181.57799705	91.1974999477	1462984.20432	66781117.5223	0
7725000.0	50319.0	198910486.257	0.30862273877	174342.626953	0.344882486388	1.33011651039	49675.260089	30553.5369873	9112.52212073	92.4417099764	63974.6839515	66785966.9633	0
7750000.0	50508.0	201328667.318	0.309354925932	174343.823242	0.347592751496	1.32799088955	49500.8591001	30425.592041	9042.25798226	93.7270745422	1006700.06078	66790816.9173	0
7775000.0	50697.0	203766024.05	0.310078445491	174344.873047	0.350313726813	1.32588970661	49329.2662908	30299.8657227	8971.64904279	94.7871579732	3103111.13668	66795667.3844	0
7800000.0	50886.0	206222634.34	0.310793335485	174345.751953	0.353045470547	1.32381272316	49160.3859432	30176.2969971	8900.7607574	96.1206569604	828046.748164	66800518.3645	0
7825000.0	51076.0	208698510.479	0.311505352283	174347.485352	0.355778465746	1.32174098492	48992.8686922	30053.9337158	8828.9105326	97.4962269727	253639.182855	66805369.8577	0
7850000.0	51266.0	211193729.729	0.312209065168	174349.121094	0.358521996532	1.3196952343	48828.0055651	29933.6547852	8756.95763384	98.8973311675	2292494.2204	66810221.8641	0
7875000.0	51457.0	213708305.675	0.312909358206	174351.44043	0.36126706982	1.3176561594	48664.6168364	29814.6789551	8684.21799376	100.34090401	5498135.57885	66815074.3836	0
7900000.0	51648.0	216242317.76	0.313600325391	174353.442383	0.364023086149	1.31564438343	48504.022692	29697.8912354	8611.54360688	101.54400963	12272.8547137	66819927.4163	0
7925000.0	51839.0	218795844.142	0.314282057668	174355.200195	0.366789812688	1.31365966797	48346.2243632	29583.2824707	8538.98986237	102.766081507	5213881.68239	66824780.9623	0
7950000.0	52030.0	221368961.85	0.314954887522	174356.628418	0.369567191228	1.31170320511	48191.1517336	29470.7519531	8466.61976918	104.2790672	1850935.2471	66829635.0215	0
7975000.0	52222.0	223961681.11	0.315623954016	174358.740234	0.372345559299	1.30975544453	48037.5605257	29359.4299316	8393.74782269	105.835162549	6987.79251342	66834489.5941	0
8000000.0	52414.0	226574074.479	0.316284277482	174360.620117	0.375133909984	1.30783641338	47886.640564	29250.1037598	8321.19244218	107.416526476	2109440.42503	66839344.68	0
8025000.0	52607.0	229206149.361	0.316940951092	174363.15918	0.377922697226	1.30592751503	47737.1920181	29141.9525146	8248.27703714	109.041558442	5995183.47874	66844200.2792	0
8050000.0	52800.0	231857980.224	0.31758842917	174365.258789	0.380721816327	1.3040497303	47590.4855394	29035.8642578	8175.79409548	110.405755702	199384.014595	66849056.3919	0
8075000.0	52993.0	234529642.621	0.318226751158	174366.955566	0.383531296393	1.3022018671	47446.4931342	28931.8206787	8103.81464244	111.787403118	4222702.34535	66853913.0181	0
8100000.0	53186.0	237221211.634	0.318855572392	174368.212891	0.386351079214	1.30038142204	47305.16775	28829.8278809	8032.36306333	113.479612506	737040.68951	66858770.1578	0
8125000.0	53380.0	239932694.896	0.319479364073	174369.98291	0.389171531424	1.29856753349	47165.3636301	28729.1412354	7960.78974668	115.215409638	1055361.69715	66863627.811	0
8150000.0	53574.0	242664166.289	0.320093191194	174371.362305	0.392002082663	1.29677665234	47028.2355143	28630.581665	7889.86285522	116.975347583	5103238.15122	66868485.9777	0
8175000.0	53769.0	245415631.67	0.320701240353	174373.291016	0.394832954044	1.29498827457	46892.6711136	28533.4289551	7818.92399865	118.474653316	40279.2912671	66873344.6581	0
8200000.0	53963.0	248187233.087	0.321294202424	174373.864746	0.397683703341	1.29323995113	46760.8556991	28439.1296387	7749.39719929	119.969954477	4429305.10324	66878203.8521	0
8225000.0	54158.0	250978980.283	0.321880913001	174374.755859	0.400535587687	1.29149627686	46630.6282989	28346.2432861	7679.96582126	121.812656873	477644.706103	66883063.5599	0
8250000.0	54353.0	253790947.845	0.322456829166	174375.097656	0.403397600166	1.28977692127	46503.1122421	28255.4992676	7611.34036983	123.678216754	1946122.17808	66887923.7813	0
8275000.0	54549.0	256623143.772	0.323026152132	174375.732422	0.406260078307	1.2880641222	46377.2695934	28166.2139893	7542.88918417	125.587068665	7403511.93558	66892784.5165	0
8300000.0	54745.0	259475639.046	0.32358438236	174375.817871	0.409132568166	1.28637635708	46254.1667304	28079.0924072	7475.31623971	127.193868683	1198055.0553	66897645.7655	0
8325000.0	54941.0	262348505.526	0.324131469447	174375.390625	0.412014720496	1.28471422195	46133.8447476	27994.152832	7408.64961343	128.814368808	1868267.32773	66902507.5283	0
8350000.0	55137.0	265241813.596	0.324666637046	174374.365234	0.41490647709	1.28307974339	46016.4285439	27911.4807129	7342.90807877	130.448025475	8394108.56548	66907369.805	0
8375000.0	55333.0	268155638.846	0.325187337437	174372.631836	0.417808711063	1.28147113323	45902.1467153	27831.338501	7278.12548038	132.430653991	2026947.14902	66912232.5956	0
8400000.0	55530.0	271089987.683	0.325700175503	174370.996094	0.420711294282	1.27987289429	45789.8273522	27752.8625488	7213.70849259	134.454961992	1015879.46036	66917095.9002	0
8425000.0	55727.0	274044932.6	0.326202988546	174368.786621	0.423623656388	1.27829897404	45680.0345241	27676.3458252	7150.29342122	136.499283146	7151342.45088	66921959.7188	0
8450000.0	55925.0	277020474.907	0.32670241958	174367.456055	0.426535611041	1.27672886848	45571.3282647	27600.7751465	7087.31131989	138.235191811	1437836.2119	66926824.0513	0
8475000.0	56122.0	280016748.873	0.327192917107	174365.405273	0.429466192145	1.27519321442	45465.2131136	27527.0507812	7025.97160652	139.959213568	1239812.53075	66931688.898	0
8500000.0	56320.0	283033751.42	0.327684147252	174364.343262	0.432395783719	1.27365994453	45359.6901678	27453.8208008	6965.03277445	142.075391351	2131254.55707	66936554.2587	0
8525000.0	56518.0	286071549.471	0.328171000221	174363.305664	0.435334542999	1.27214670181	45256.2044575	27382.1960449	6904.60732529	143.85792079	686145.299657	66941420.1335	0
8550000.0	56716.0	289130211.965	0.328651910999	174362.255859	0.438282673713	1.27065324783	45154.7659086	27312.1795654	6844.62343308	145.662733899	5758663.28198	66946286.5226	0
8575000.0	56914.0	292209805.389	0.329126201098	174361.26709	0.441239855718	1.26917994022	45055.1346763	27243.5089111	6785.08615412	147.862514197	139413.622181	66951153.4258	0
8600000.0	57113.0	295310328.777	0.329596371151	174361.108398	0.444196339231	1.26771092415	44956.262432	27175.4394531	6725.47598506	150.117160731	4546261.07326	66956020.8433	0
8625000.0	57312.0	298431848.063	0.330057730735	174360.998535	0.447161844932	1.26626193523	44858.7081803	27108.2000732	6666.36756112	152.021887799	257582.808433	66960888.775	0
8650000.0	57511.0	301574429.264	0.3305095751	174360.949707	0.450136314612	1.26483166218	44762.2266194	27041.5740967	6607.80039066	153.948412515	2636296.85212	66965757.2211	0
8675000.0	57710.0	304738140.743	0.330950776179	174360.900879	0.45312003931	1.26342153549	44666.7189259	26975.4241943	6549.76933439	156.288561989	1528309.09808	66970626.1815	0
8700000.0	57910.0	307922982.03	0.331385380454	174361.547852	0.456103298347	1.26201784611	44571.6506748	26909.5062256	6491.77034581	158.287850448	855844.752645	66975495.6564	0
8725000.0	58109.0	311129090.441	0.331807451393	174361.462402	0.459105649497	1.26064741611	44478.73284	26845.0134277	6434.89959261	160.283582443	5435070.17221	66980365.6456	0
8750000.0	58309.0	314356463.342	0.332224572603	174362.109375	0.462107127532	1.25928270817	44386.6540606	26781.1798096	6378.09986174	162.732067082	207209.936005	66985236.1493	0
8775000.0	58509.0	317605165.234	0.332634513112	174362.780762	0.465117482236	1.25793635845	44296.353595	26718.7011719	6321.91949149	165.211824078	7639773.6427	66990107.1675	0
8800000.0	58710.0	320875189.657	0.333041235362	174364.282227	0.468126148917	1.25659501553	44207.366004	26657.3730469	6265.85558413	167.331491971	2385647.07826	66994978.7003	0
8825000.0	58910.0	324166670.571	0.333438959733	174365.014648	0.471153703984	1.25528585911	44121.1020144	26598.0804443	6210.94348515	169.4461108	155993.390657	66999850.7476	0
8850000.0	59111.0	327479604.83	0.33383349013	174366.442871	0.474180269521	1.25398492813	44036.0731958	26539.7857666	6156.20844533	172.034095589	6276432.87802	67004723.3096	0
8875000.0	59312.0	330814057.69	0.334220619184	174367.822266	0.47721574083	1.25270271301	43952.862437	26482.8796387	6102.13666211	174.219763793	1620940.15528	67009596.3862	0
8900000.0	59513.0	334170094.183	0.334599651496	174369.152832	0.48025988508	1.25143921375	43871.5021186	26427.3773193	6048.75232434	176.424875535	486110.815997	67014469.9774	0
8925000.0	59714.0	337547776.868	0.334969646075	174370.458984	0.483312614961	1.25019276142	43791.9513225	26373.2879639	5996.05884981	178.649118857	4153716.50114	67019344.0834	0
8950000.0	59915.0	340947168.223	0.335329869842	174371.777344	0.486373726744	1.24896192551	43714.2105076	26320.6359863	5944.06588198	180.892005771	9578674.43771	67024218.7042	0
8975000.0	60116.0	344368330.001	0.335679316794	174373.095703	0.489443191327	1.24774622917	43638.2969208	26269.4549561	5892.7760805	183.608758884	281724.229429	67029093.8397	0
9000000.0	60318.0	347811256.958	0.336020097577	174375.0	0.492511433549	1.24653613567	43563.8082277	26219.5281982	5841.74283676	186.381912489	7314248.39449	67033969.4901	0
9025000.0	60520.0	351276014.529	0.336349783554	174376.782227	0.495588523336	1.24534451962	43491.3399446	26171.2005615	5791.44405224	188.716715317	2948786.50072	67038845.6554	0
9050000.0	60722.0	354762668.228	0.336668820795	174378.417969	0.498674460687	1.24417054653	43420.8292086	26124.4354248	5741.87464836	191.068496108	245630.998115	67043722.3356	0
9075000.0	60924.0	358271283.349	0.336977796588	174379.907227	0.501769070979	1.24301445484	43352.1961494	26079.1442871	5693.0545417	193.436182427	1358563.82412	67048599.5307	0
9100000.0	61126.0	361801923.264	0.337277331878	174381.298828	0.504872587044	1.24187576771	43285.385906	26035.2813721	5644.97181027	195.81956429	4697527.94332	67053477.2408	0
9125000.0	61328.0	365354652.217	0.337567890977	174382.543945	0.507984659635	1.24075400829	43220.3189476	25992.7764893	5597.63934271	198.708419804	2518468.12617	67058355.466	0
9150000.0	61531.0	368929449.037	0.337852256333	174384.350586	0.511094753165	1.23963832855	43156.4144829	25951.2542725	5550.61843117	201.156698265	237496.113886	67063234.2062	0
9175000.0	61733.0	372526520.272	0.338126061253	174385.229492	0.514229061082	1.23855209351	43094.7214691	25911.3220215	5504.82651986	203.585699655	1100974.80762	67068113.4615	0
9200000.0	61936.0	376145783.322	0.338395122945	174386.791992	0.517356093042	1.23746991158	43034.0091405	25872.2259521	5459.32846787	206.569906901	7544759.92476	67072993.232	0
9225000.0	62139.0	379787310.018	0.338657066104	174388.28125	0.520491099451	1.23640453815	42974.8087192	25834.2498779	5414.58692872	208.549674617	7521853.52811	67077873.5177	0
9250000.0	62341.0	383451233.532	0.338910542182	174388.964844	0.523644615896	1.23536586761	42917.5499921	25797.6379395	5371.00222372	211.020522179	11778253.1478	67082754.3186	0
9275000.0	62544.0	387137540.389	0.339160229302	174390.234375	0.526795745827	1.23433303833	42861.1730643	25761.7248535	5327.76835371	214.060113513	14025.1731537	67087635.6347	0
9300000.0	62747.0	390846295.265	0.339402237352	174391.223145	0.5299555487	1.23331904411	42806.4814077	25727.0690918	5285.31190297	217.121882298	11784392.0162	67092517.4662	0
9325000.0	62951.0	394577491.302	0.339637577745	174392.590332	0.533113954589	1.23231470585	42753.1161655	25693.4906006	5243.22832438	219.696855176	8037242.36291	67097399.813	0
9350000.0	63154.0	398331266.64	0.339862641917	174392.993164	0.536291510798	1.23133969307	42701.94842	25661.4868164	5202.28514491	221.704188619	7032788.08096	67102282.6752	0
9375000.0	63357.0	402107685.155	0.340079594263	174393.09082	0.539477798156	1.23038303852	42652.4292823	25630.7220459	5161.93371844	224.818774178	2448128.18001	67107166.0528	0
9400000.0	63561.0	405906738.712	0.340290611783	174393.54248	0.542662397493	1.22943353653	42604.0717015	25600.9094238	5121.75468831	227.435587948	679842.290507	67112049.9458	0
9425000.0	63764.0	409728563.463	0.340492299619	174392.993164	0.545865856111	1.22851073742	42557.6598194	25572.4777222	5082.46872238	230.038631537	106865.995179	67116934.3543	0
9450000.0	63968.0	413573148.545	0.340688387592	174392.834473	0.549067277461	1.22759354115	42512.2743448	25544.9005127	5043.34565951	232.69056886	1296491.29746	67121819.2784	0
9475000.0	64171.0	417440628.842	0.340875808536	174391.711426	0.552287558094	1.22670042515	42468.6681319	25518.5913086	5005.10073507	235.32772688	3067068.12544	67126704.718	0
9500000.0	64375.0	421330991.084	0.341058055518	174390.930176	0.55550551042	1.2258118391	42425.9688032	25493.0328369	4967.01494374	238.598881148	7480062.14288	67131590.6732	0
9525000.0	64579.0	425244294.809	0.341233945614	174389.868164	0.558731378987	1.2249366045	42384.517852	25468.4112549	4929.44086238	240.717677508	7557086.48778	67136477.144	0
9550000.0	64782.0	429180673.729	0.34140218055	174387.841797	0.561975757591	1.2240819931	42344.5854004	25444.8776245	4892.70430156	243.40599207	10074343.2264	67141364.1306	0
9575000.0	64986.0	433140111.707	0.341566103072	174386.364746	0.565217167605	1.22322952747	42305.3595391	25421.937561	4856.12421776	246.748659279	1856911.18232	67146251.6328	0
9600000.0	65190.0	437122666.221	0.341723027733	174385.070801	0.568466144614	1.22238707542	42267.4143393	25400.0396729	4820.03459847	249.510425614	741915.578186	67151139.6508	0
9625000.0	65394.0	441128399.83	0.341871903997	174383.825684	0.571723387111	1.22155869007	42230.9885952	25379.335022	4784.43381454	252.288650905	76597.4652601	67156028.1846	0
9650000.0	65598.0	445157374.191	0.342012989517	174382.641602	0.574989069719	1.22074341774	42196.0364942	25359.7976685	4749.32019862	255.08285574	261297.059231	67160917.2343	0
9675000.0	65802.0	449209649.832	0.342146739314	174381.591797	0.578262843192	1.21994113922	42162.4494826	25341.3269043	4714.68687183	257.893059739	924078.842405	67165806.7997	0
9700000.0	66006.0	453285286.52	0.342273387415	174380.627441	0.581544532906	1.21915185452	42130.1872828	25323.8769531	4680.52193436	260.719489878	1727547.00405	67170696.8811	0
9725000.0	66210.0	457384343.794	0.342393197433	174379.772949	0.584834313486	1.21837520599	42099.1591349	25307.3669434	4646.82395441	264.207631618	12364252.6258	67175587.4784	0
9750000.0	66415.0	461506805.503	0.34250758133	174379.699707	0.588121125475	1.21760213375	42068.9882471	25291.5863037	4613.28754327	267.106764119	11166023.3788	67180478.5917	0
9775000.0	66619.0	465652803.824	0.342614625039	174379.101562	0.591426389292	1.21684956551	42040.2181135	25276.7730713	4580.51114573	269.32718981	4276224.69456	67185370.221	0
9800000.0	66823.0	469822396.689	0.342715770883	174378.69873	0.594739452936	1.21610867977	42012.4590871	25262.6998901	4548.18733565	272.215799897	5052069.34085	67190262.3664	0
9825000.0	67027.0	474015641.714	0.342811316563	174378.442383	0.598060025368	1.21537899971	41985.6559811	25249.3164062	4516.30484831	275.119792798	5754928.69606	67195155.0278	0
9850000.0	67231.0	478232595.01	0.342901504962	174378.369141	0.601388223004	1.21466064453	41959.7193155	25236.5356445	4484.86251424	278.720119514	8087862.26348	67200048.2053	0
9875000.0	67436.0	482473234.811	0.342987701912	174379.11377	0.604712811764	1.21394503117	41934.3221512	25224.180603	4453.56573241	281.696874853	7675450.88128	67204941.899	0
9900000.0	67640.0	486737694.892	0.343067600358	174379.382324	0.608055794146	1.2132486105	41910.0192649	25212.5183105	4422.99237162	283.956418511	7316505.62716	67209836.1089	0
9925000.0	67844.0	491026035.933	0.343140770375	174379.711914	0.611407042015	1.21256506443	41886.7850797	25201.6326904	4392.84593131	286.91842812	7587845.85257	67214730.8351	0
9950000.0	68048.0	495338320.609	0.343207484163	174380.078125	0.61476661358	1.21189510822	41864.631057	25191.5237427	4363.13011383	290.603818956	7282628.95089	67219626.0775	0
9975000.0	68253.0	499674532.754	0.343268520793	174381.12793	0.61812333297	1.21122968197	41843.2912115	25182.0800781	4333.54869849	293.636525121	7462764.40327	67224521.8362	0
10000000.0	68457.0	504034807.301	0.343322609577	174381.652832	0.621498853434	1.21058428288	41823.2360669	25173.4985352	4304.66407823	295.920127808	7491670.22651	67229418.1112	0
10025000.0	68661.0	508419204.95	0.343370840236	174382.214355	0.624882464763	1.20995175838	41804.2408632	25165.6799316	4276.1879521	298.934310315	7166958.28596	67234314.9026	0
10050000.0	68865.0	512827783.568	0.343413348412	174382.910156	0.628273701295	1.20933043957	41786.2296588	25158.5769653	4248.11008658	302.70156846	8930334.30549	67239212.2104	0
10075000.0	69070.0	517260523.306	0.343450832935	174384.277344	0.631661619991	1.20871424675	41769.0368962	25152.1286011	4220.1702471	305.785977835	9775212.1313	67244110.0347	0
10100000.0	69274.0	521717556.721	0.343482502907	174385.180664	0.635068048723	1.20811641216	41753.0267367	25146.4675903	4192.88831369	308.090106969	5393501.37599	67249008.3754	0
10125000.0	69478.0	526198941.673	0.343509030299	174386.157227	0.638481928036	1.20752942562	41738.0008249	25141.5237427	4165.99315114	311.153921418	4595403.32567	67253907.2326	0
10150000.0	69682.0	530704731.337	0.343530581548	174387.304688	0.641903025098	1.20695304871	41723.9108198	25137.260437	4139.47957043	314.229656263	3724549.97006	67258806.6064	0
10175000.0	69886.0	535234980.631	0.343547605006	174388.525391	0.645331514534	1.206387043	41710.7556386	25133.6730957	4113.35150588	317.316290287	2819994.23085	67263706.4968	0
10200000.0	70090.0	539789742.935	0.343559817915	174389.904785	0.648766756058	1.20583117008	41698.5293145	25130.7693481	4087.58582674	320.415282667	1905462.03596	67268606.9038	0
10225000.0	70294.0	544369076.706	0.343566065407	174391.308594	0.652210088447	1.20528650284	41687.3921983	25128.6865234	4062.20008186	323.523969823	1030751.57497	67273507.8275	0
10250000.0	70498.0	548973041.94	0.343566177976	174392.700195	0.65566127887	1.20475387573	41677.3447299	25127.4078369	4037.18032328	326.642897603	294203.891582	67278409.2678	0
10275000.0	70702.0	553601697.11	0.343560605874	174394.116211	0.659120327327	1.2042324543	41668.3335849	25126.9058228	4012.52612804	329.771434377	85338.7822385	67283311.2249	0
10300000.0	70906.0	558255101.32	0.343549490353	174395.52002	0.662587175611	1.20372211933	41660.3131978	25127.1392822	3988.23267296	332.909325413	836935.927004	67288213.6988	0
10325000.0	71110.0	562933311.951	0.343533254541	174396.923828	0.666061765514	1.20322275162	41653.2417699	25128.0670166	3964.29522101	336.056312341	2095493.70109	67293116.6894	0
10350000.0	71314.0	567636387.224	0.343512265628	174398.339844	0.669543980621	1.20273351669	41647.0687452	25129.6615601	3940.70046642	339.212907558	3811430.4343	67298020.1969	0
10375000.0	71518.0	572364384.368	0.34348672226	174399.780273	0.673033879139	1.20225405693	41641.7420941	25131.8740845	3917.44829436	342.378431576	5978710.16134	67302924.2213	0
10400000.0	71722.0	577117359.762	0.343457020215	174401.220703	0.676531111822	1.20178496838	41637.241043	25134.6786499	3894.52146256	344.706966424	9207032.74537	67307828.7626	0
10425000.0	71925.0	581895449.892	0.343423330362	174402.099609	0.680047494825	1.20133078098	41633.5945516	25138.0371094	3872.14117842	347.843541449	6563526.02349	67312733.8208	0
10450000.0	72129.0	586698630.788	0.343386048632	174403.588867	0.683559686877	1.20088040829	41630.5749838	25141.8930054	3849.84723504	351.8927419	15211099.3474	67317639.3961	0
10475000.0	72333.0	591526959.063	0.34334551464	174405.053711	0.687079445925	1.2004390955	41628.2249339	25146.2158203	3827.85816426	354.226787135	1979065.41302	67322545.4883	0
10500000.0	72536.0	596380568.828	0.343301814989	174406.005859	0.690617773216	1.20001292229	41626.6171774	25150.9750366	3806.38751749	357.391992389	415298.247573	67327452.0976	0
10525000.0	72740.0	601259438.28	0.343253716082	174407.495117	0.694152433425	1.19959199429	41625.7505253	25156.3247681	3784.99574275	360.60720944	382626.007344	67332359.224	0
10550000.0	72943.0	606163709.146	0.343200631889	174408.300781	0.697706709616	1.19918835163	41625.8795324	25162.3306274	3764.10025734	363.790657639	2139594.82905	67337266.8676	0
10575000.0	73147.0	611093360.786	0.343142819697	174409.619141	0.70125766797	1.19879078865	41626.7940295	25168.951416	3743.27080797	367.024830833	4839825.06987	67342175.0283	0
10600000.0	73350.0	616048533.645	0.343080901676	174410.266113	0.704827834852	1.19840824604	41628.5536925	25176.1199951	3722.92448998	369.317141206	10947673.7508	67347083.7062	0
10625000.0	73553.0	621029286.926	0.343015050596	174410.827637	0.708405976184	1.19803619385	41631.0849872	25183.8226318	3702.84325147	372.520359841	7087511.02611	67351992.9013	0
10650000.0	73756.0	626035679.361	0.342945691609	174411.328125	0.711992033757	1.19767296314	41634.3088771	25192.0181274	3683.01994762	375.732919047	3719275.41315	67356902.6137	0
10675000.0	73959.0	631067769.656	0.342873193363	174411.706543	0.715585541911	1.19731843472	41638.1729669	25200.6484985	3663.4475689	378.955259361	1096830.5329	67361812.8435	0
10700000.0	74162.0	636125614.424	0.342797812007	174412.011719	0.719187024515	1.19697225094	41642.6508581	25209.7000122	3644.12323868	382.1868905	177888.055168	67366723.5905	0
10725000.0	74365.0	641209271.136	0.342720027429	174412.219238	0.722795783076	1.19663345814	41647.6718419	25219.1146851	3625.03616459	385.428813609	2291332.20669	67371634.855	0
10750000.0	74568.0	646318796.133	0.342640010868	174412.304688	0.726411992218	1.1963019371	41653.2265357	25228.8833618	3606.18368258	388.680739925	5722689.96877	67376546.6368	0
10775000.0	74771.0	651454245.111	0.342558325026	174412.304688	0.730035651941	1.19597673416	41659.2144056	25238.9297485	3587.55922971	391.94290073	10171696.5487	67381458.9361	0
10800000.0	74974.0	656615673.123	0.342475363811	174412.145996	0.733666471206	1.19565796852	41665.646452	25249.2630005	3569.16028215	394.241825172	5944784.41408	67386371.7529	0
10825000.0	75176.0	661803218.321	0.342390598051	174411.291504	0.737316557206	1.19535136223	41672.6211971	25259.8800659	3551.17150236	397.472771316	2392079.74195	67391285.0872	0
10850000.0	75379.0	667016858.493	0.342302130819	174410.803223	0.740962859709	1.19504928589	41680.2701475	25271.0189819	3533.20355884	400.757252737	110403.797085	67396198.939	0
10875000.0	75581.0	672256736.348	0.342211056793	174409.49707	0.744628952816	1.1947606802	41688.5881602	25282.5592041	3515.63531619	404.007603605	1589376.17617	67401113.3084	0
10900000.0	75784.0	677522829.564	0.342116933683	174408.520508	0.748291204218	1.19447636604	41697.4995271	25294.5495605	3498.08913514	407.311278316	5231542.75525	67406028.1955	0
10925000.0	75986.0	682815279.639	0.342020882148	174406.860352	0.751972955186	1.19420468807	41706.9745552	25306.8527222	3480.92479991	409.567610169	11549188.7324	67410943.6002	0
10950000.0	76188.0	688134145.238	0.341922320129	174405.285645	0.75566227315	1.19394087791	41717.0426956	25319.5617676	3463.9549795	412.839702793	6388431.26224	67415859.5226	0
10975000.0	76390.0	693479482.275	0.34182130773	174403.90625	0.759358867072	1.19368445873	41727.6800538	25332.6599121	3447.17386273	416.122299723	2272165.64717	67420775.9627	0
11000000.0	76592.0	698851346.622	0.341718127745	174402.67334	0.763062911574	1.19343471527	41738.837973	25346.1227417	3430.57573948	419.415609537	5408.17305585	67425692.9206	0
11025000.0	76794.0	704249793.61	0.341613173682	174401.660156	0.766774232034	1.19319236279	41750.4925887	25359.9029541	3414.15874689	422.719580387	2478176.81028	67430610.3963	0
11050000.0	76996.0	709674877.686	0.341506643508	174400.842285	0.770492653828	1.19295573235	41762.5633867	25373.9685059	3397.92104712	426.034159461	7036749.23076	67435528.3898	0
11075000.0	77198.0	715126652.495	0.341398706963	174400.20752	0.774218235165	1.19272577763	41775.0638205	25388.3056641	3381.85340073	429.360106692	13079693.3376	67440446.9011	0
11100000.0	77400.0	720605171.978	0.341289783335	174399.755859	0.777950859629	1.19250106812	41787.9049601	25402.8640747	3365.95781925	431.625848818	4617066.458	67445365.9304	0
11125000.0	77601.0	726110575.629	0.341180318625	174398.986816	0.781702576205	1.19228649139	41801.1059416	25417.5888062	3350.3981213	434.920012035	858348.484842	67450285.4775	0
11150000.0	77803.0	731642835.2	0.341067346323	174398.88916	0.785449752584	1.19207656384	41815.0025028	25432.862854	3334.82979659	438.270608647	1060539.20288	67455205.5427	0
11175000.0	78004.0	737202093.605	0.340952037524	174398.413086	0.789216428529	1.19187891483	41829.495337	25448.4924316	3319.58893742	440.490554123	20151823.3965	67460126.1258	0
11200000.0	78205.0	742788408.159	0.340834064684	174398.071289	0.792991137132	1.19168913364	41844.5888071	25464.5401001	3304.50117975	444.912609064	11376325.2794	67465047.227	0
11225000.0	78407.0	748401750.285	0.340713128966	174398.364258	0.796761014499	1.19150292873	41860.2713951	25481.0546875	3289.40254023	448.295944493	19174499.8166	67469968.8462	0
11250000.0	78608.0	754042262.46	0.340590757894	174398.31543	0.80055044964	1.19132745266	41876.3918886	25497.7920532	3274.61377029	450.523921242	1519867.77819	67474890.9835	0
11275000.0	78809.0	759710000.821	0.340466705922	174398.425293	0.804347218946	1.19115841389	41892.9581792	25514.8223877	3259.97381213	453.874913536	708296.531589	67479813.6389	0
11300000.0	79010.0	765405021.117	0.340341252983	174398.669434	0.808151322417	1.19099497795	41909.8995746	25532.0953369	3245.4741359	456.099996766	21783588.3792	67484736.8125	0
11325000.0	79210.0	771127467.708	0.340215340539	174398.535156	0.811975216493	1.19084000587	41927.113084	25549.4689941	3231.26954986	459.418841485	13565820.6992	67489660.5043	0
11350000.0	79411.0	776877308.272	0.340087811541	174399.060059	0.815794279333	1.19068646431	41944.6852953	25567.1218872	3217.04589235	463.949261503	19983812.6304	67494584.7143	0
11375000.0	79612.0	782654597.903	0.339959771911	174399.755859	0.8196203853	1.19053709507	41962.4918418	25584.8983765	3202.97979616	466.179719766	1517604.49995	67499509.4425	0
11400000.0	79812.0	788459478.906	0.339832241666	174400.097656	0.823466165457	1.19039452076	41980.4174845	25602.6611328	3189.25532328	469.520173638	836125.080243	67504434.6891	0
11425000.0	80013.0	794291918.713	0.339704036694	174401.074219	0.827306648716	1.19025218487	41998.5663904	25620.5871582	3175.57222522	472.909324407	5569220.58141	67509360.454	0
11450000.0	80213.0	800152059.841	0.339575323585	174401.68457	0.831166747957	1.19011735916	42016.9698606	25638.6199951	3162.21516391	475.067197191	13730064.2254	67514286.7372	0
11475000.0	80413.0	806039962.294	0.339444400383	174402.392578	0.83503453061	1.18998885155	42035.8589073	25656.9763184	3149.03529544	478.406612715	6468491.75694	67519213.5388	0
11500000.0	80613.0	811955683.024	0.339311738955	174403.198242	0.838910113089	1.18986570835	42055.1652303	25675.6134033	3136.02398394	481.748963039	1253527.08792	67524140.8588	0
11525000.0	80813.0	817899279.849	0.339177645204	174404.125977	0.842793378979	1.18974804878	42074.8494931	25694.4915771	3123.17959203	485.094060776	1298778.27501	67529068.6973	0
11550000.0	81013.0	823870811.302	0.33904231449	174405.151367	0.846683979034	1.189635396	42094.8800799	25713.5925293	3110.49026158	488.443460421	6793534.51483	67533997.0543	0
11575000.0	81213.0	829870333.131	0.3389062702	174406.274414	0.850582320709	1.1895275116	42115.1965817	25732.8613281	3097.95792975	490.566672738	12810523.3802	67538925.9297	0
11600000.0	81412.0	835897990.26	0.338770581305	174406.958008	0.854500336573	1.18942666054	42135.6647124	25752.154541	3085.71324113	493.867806292	5456819.3168	67543855.3238	0
11625000.0	81612.0	841953752.032	0.338633962089	174408.251953	0.8584135212	1.1893273592	42156.4268702	25771.661377	3073.46633119	498.468129239	36268264.6577	67548785.2363	0
11650000.0	81812.0	848037673.674	0.338497316429	174409.667969	0.862333807163	1.18923199177	42177.3588878	25791.2445068	3061.36550284	500.580213989	2372241.98515	67553715.6675	0
11675000.0	82011.0	854149899.371	0.338362036627	174410.644531	0.866274116561	1.18914294243	42198.2921125	25810.723877	3049.53329493	502.633034676	20710057.2673	67558646.6173	0
11700000.0	82210.0	860290486.613	0.338227519499	174411.706543	0.870221643709	1.18905746937	42219.3187784	25830.2124023	3037.82686732	505.946351892	11660475.6727	67563578.0858	0
11725000.0	82409.0	866459488.875	0.338093926874	174412.854004	0.874176388606	1.18897509575	42240.3727989	25849.6643066	3026.24179871	509.265972042	4504018.86895	67568510.073	0
11750000.0	82608.0	872656962.56	0.337961202223	174414.086914	0.878138467669	1.18889665604	42261.4987398	25869.1009521	3014.78035238	512.59110809	161766.129307	67573442.5789	0
11775000.0	82807.0	878882966.239	0.337827547751	174415.380859	0.882108113728	1.18882465363	42282.9551615	25888.7237549	3003.43486193	515.922587699	3203822.48006	67578375.6036	0
11800000.0	83006.0	885137556.762	0.337692992976	174416.699219	0.886085326783	1.18875825405	42304.736607	25908.5388184	2992.19777328	519.261401765	10134402.2734	67583309.1471	0
11825000.0	83205.0	891420793.995	0.337557839007	174418.066406	0.890070339665	1.18869745731	42326.7813825	25928.4912109	2981.07473443	522.606137302	19429814.2191	67588243.2094	0
11850000.0	83404.0	897732735.392	0.337422331717	174419.470215	0.89406297775	1.18864202499	42349.064698	25948.5687256	2970.05174107	524.637548987	3871342.33364	67593177.7906	0
11875000.0	83602.0	904073529.978	0.337287692626	174420.410156	0.898075930309	1.18859314919	42371.3971741	25968.5821533	2959.2612003	527.939920697	8900.56507503	67598112.8907	0
11900000.0	83801.0	910443143.441	0.337152483401	174421.875	0.902083644178	1.1885458231	42393.9798211	25988.772583	2948.43864219	531.299685203	4188157.34655	67603048.5097	0
11925000.0	83999.0	916841724.72	0.33701868237	174422.888184	0.906111730728	1.18850409985	42416.4991388	26008.8165283	2937.83629338	533.271704351	19875026.734	67607984.6476	0
11950000.0	84197.0	923269330.166	0.336885745135	174423.88916	0.910147209652	1.1884649992	42439.0514947	26028.8360596	2927.32349457	536.590562127	10657742.054	67612921.3046	0
11975000.0	84395.0	929726017.924	0.336753886078	174424.938965	0.914190313779	1.18842804432	42461.5844121	26048.7823486	2916.89315136	539.918929168	3573371.81485	67617858.4806	0
12000000.0	84593.0	936211844.797	0.336623454004	174426.000977	0.918240810279	1.18839251995	42484.0267105	26068.6187744	2906.54784111	543.256275903	73469.5991536	67622796.1756	0
12025000.0	84791.0	942726868.159	0.336494688679	174427.075195	0.922298757359	1.18835818768	42506.3599775	26088.3178711	2896.28056209	546.603686106	4414533.0836	67627734.3898	0
12050000.0	84989.0	949271143.302	0.33636785615	174428.149414	0.926363980398	1.18832421303	42528.5235599	26107.8399658	2886.09074606	549.961202414	11878933.5612	67632673.1231	0
12075000.0	85187.0	955844710.491	0.336242089584	174429.260254	0.930434092879	1.18829154968	42550.6533312	26127.2979736	2875.96835704	551.934702334	11799149.4582	67637612.3755	0
12100000.0	85384.0	962447738.255	0.336117225088	174429.797363	0.934527954087	1.18826520443	42572.8185122	26146.6918945	2866.04509907	555.25390258	4516553.09883	67642552.1472	0
12125000.0	85582.0	969080193.684	0.335991699668	174430.786133	0.938616169151	1.18823969364	42595.2163704	26166.2658691	2856.06513957	558.635591582	112277.487612	67647492.4381	0
12150000.0	85779.0	975742229.283	0.335867585834	174431.25	0.942725222558	1.18821930885	42617.5531605	26185.7025146	2846.27305687	561.977199332	3396708.29205	67652433.2482	0
12175000.0	85977.0	982433810.893	0.335743241156	174432.189941	0.946829037275	1.18819987774	42640.0497584	26205.2429199	2836.42111686	565.382068442	10490736.2767	67657374.5777	0
12200000.0	86174.0	989155091.68	0.335620841552	174432.531738	0.950953690335	1.18818485737	42662.4031855	26224.5849609	2826.74914572	567.307718981	14682073.4874	67662316.4265	0
12225000.0	86371.0	995906128.634	0.335499658285	174432.849121	0.955086085014	1.1881724596	42684.7141536	26243.8262939	2817.1348999	570.676849993	6682965.1261	67667258.7946	0
12250000.0	86568.0	1002686982.94	0.335379930173	174433.056641	0.959226163104	1.18816208839	42706.9338467	26262.9364014	2807.57493185	574.058766767	1148880.71729	67672201.6822	0
12275000.0	86765.0	1009497713.98	0.335261868581	174433.215332	0.963374215644	1.18815374374	42729.0360806	26281.8847656	2798.06583852	577.453926948	1571770.12571	67677145.0892	0
12300000.0	86962.0	1016338380.42	0.335145684317	174433.276367	0.96753006801	1.18814718723	42750.9845362	26300.6408691	2788.60732252	580.862443491	7394703.98141	67682089.0157	0
12325000.0	87159.0	1023209041.88	0.33503161442	174433.251953	0.971693370957	1.18814218044	42772.7383694	26319.1741943	2779.19603702	584.285176263	15557639.8091	67687033.4616	0
12350000.0	87356.0	1030109758.09	0.334919815116	174433.117676	0.975864648353	1.18813848495	42794.2706041	26337.4511719	2769.83171948	586.230150372	11547781.2295	67691978.4272	0
12375000.0	87552.0	1037040680.07	0.334811297538	174432.385254	0.980057055131	1.18813848495	42815.440772	26355.3192139	2760.62322458	589.620560595	4694701.42763	67696923.9123	0
12400000.0	87749.0	1044001776.63	0.334703010513	174432.055664	0.984243815765	1.18814027309	42836.7397873	26373.236084	2751.33961198	593.078982742	318529.987594	67701869.917	0
12425000.0	87945.0	1050993202.11	0.334596261569	174431.054688	0.988452229649	1.18814885616	42857.9892989	26390.9759521	2742.2106603	596.499194353	2526353.73214	67706816.4413	0
12450000.0	88142.0	1058014924.08	0.33448950067	174430.419922	0.992655055597	1.188159585	42879.4022135	26408.7860107	2733.00697103	599.98791907	8643465.69022	67711763.4853	0
12475000.0	88338.0	1065067098.76	0.334384700609	174429.125977	0.996879534796	1.18817555904	42900.6550547	26426.3519287	2723.94781942	601.904571401	20984014.5908	67716711.0491	0
12500000.0	88534.0	1072149788.63	0.334281165076	174427.67334	1.00111204665	1.18819344044	42921.81775	26443.7896729	2714.92167723	605.944833682	0.0	67721659.1325	0
