z	T	P	nabla_ad	S	rho	delta	cp	cv	opac	frad	fconv	ftot	dT
0.0	3900.0	214.636361009	0.375294861151	170687.70752	8.65231886138e-06	1.013931036	17324.9025295	10791.9456482	0.000878143252536	0.0	30179.9323149	65311815.0903	0
25000.0	3900.0	282.873694438	0.368261172896	168904.943848	1.14065894508e-05	1.0183750391	17765.5597443	11179.4197083	0.00104269460033	0.0	39885.4073952	65316507.3538	0
50000.0	3900.0	372.849342293	0.359505752275	167113.122559	1.50409444899e-05	1.02410650253	18342.4817139	11687.3527527	0.00123725461553	0.0	52584.1739052	65321200.1229	0
75000.0	3900.0	491.517917127	0.348755426666	165309.94873	1.98387564154e-05	1.03165495396	19098.0097038	12351.4701843	0.00146842859102	0.0	69237.2498307	65325893.3976	0
100000.0	3900.0	648.079236514	0.335828538409	163491.101074	2.61764050435e-05	1.04164218903	20085.7010539	13217.9153442	0.00174168662006	0.0	91193.8646739	65330587.1781	0
125000.0	3900.0	854.718813569	0.320621419261	161652.416992	3.45548833991e-05	1.05463528633	21372.7220476	14345.3689575	0.00206506013997	0.0	120183.098978	65335281.4644	0
150000.0	3900.0	1127.60168737	0.303206892548	159787.207031	4.56428068674e-05	1.07146537304	23041.5227765	15805.1559448	0.00245060752473	0.0	158544.092223	65339976.2566	0
175000.0	3900.0	1488.21234835	0.283875715035	157888.647461	6.03352177109e-05	1.0935254097	25199.7406017	17685.8703613	0.00291433537483	32647034.8796	201476.24607	65344671.5548	0
200000.0	3916.0	1962.71757287	0.268391791876	156064.172363	7.93736205651e-05	1.11480081081	27216.7889389	19432.1960449	0.00358075517664	39616789.2876	256022.202931	65349367.3591	0
225000.0	3931.0	2587.09159419	0.252098747267	154208.349609	0.000104433468096	1.14127075672	29698.0565153	21571.0342407	0.00438411745844	39320920.9709	320861.246194	65354063.6694	0
250000.0	3965.0	3403.46334449	0.241902896119	152472.167969	0.000136436270282	1.16189432144	31506.0099244	23109.3154907	0.00552344647416	45527240.7854	369662.745062	65358760.4858	0
275000.0	4022.0	4461.07157329	0.239257522603	150928.808594	0.000176445354327	1.17031025887	32027.3457616	23522.1923828	0.0071525449704	48642996.8355	382078.96665	65363457.8085	0
300000.0	4119.0	5808.50639652	0.249037439715	149726.843262	0.000224039595764	1.15616118908	30339.696151	22025.8682251	0.00991786603269	45721073.4958	357140.244683	65368155.6374	-2
325000.0	4260.0	7493.93011178	0.269785505837	148823.754883	0.000278915763374	1.12611269951	27183.0652895	19264.9673462	0.0147214271759	48124935.8818	166561.803451	65372853.9727	-2
350000.0	4534.0	9508.95500158	0.318316351494	148672.20459	0.000330614483346	1.06857287884	21680.3673249	14491.3482666	0.0248728805788	45102264.8242	16839.5507688	65377552.8144	-9
375000.0	4911.0	11843.2935169	0.359477836721	148757.69043	0.000379442326448	1.03170180321	18391.58745	11652.1087646	0.0380757408816	44912743.7742	0.00126270527384	65382252.1626	-5
400000.0	5426.0	14434.7522882	0.38334186818	149253.344727	0.000416753948684	1.01226019859	16839.4435572	10330.3573608	0.0517961741089	43357213.818	0.00355613355047	65386952.0172	-20
425000.0	5874.0	17340.0197353	0.386839875486	149326.342773	0.000463897151803	1.00761258602	16585.337378	10128.9558411	0.0762569255336	37598534.5821	0.125808246969	65391652.3785	0
450000.0	6496.0	20447.3740502	0.377862501892	150043.713379	0.000491673404213	1.00796043873	16950.7872272	10484.5535278	0.1681092228	63234332.5799	1204.47527246	65396353.2465	-35
475000.0	8930.0	23010.7946571	0.207100432776	156460.131836	0.000396589996399	1.1513106823	35178.8590339	26674.7344971	3.10836588657	13596918.4965	9120695.86401	65401054.6211	-46
500000.0	10359.0	25386.5643728	0.134615975903	163079.638672	0.000364279827636	1.46953952312	71661.6095171	57512.6586914	12.070688282	3230071.56207	27321234.3622	65405756.5026	-4
525000.0	11075.0	27735.5789651	0.11695899649	167995.3125	0.000358643546861	1.7203567028	100342.785109	80545.489502	21.6492344194	1108051.40574	16037209.1215	65410458.8909	-11
550000.0	11403.0	30179.3902081	0.112676903887	170055.688477	0.000372423329509	1.83064925671	113006.661793	90347.1130371	27.4517341342	581307.602786	8640448.78255	65415161.7861	-4
575000.0	11745.0	32699.702199	0.109166625023	172582.348633	0.000383341955512	1.95293366909	127383.170349	101247.509766	34.5400281475	375518.280244	6504517.25423	65419865.1883	-3
600000.0	11912.0	35365.9865281	0.108414058128	173319.384766	0.000405194498398	1.99690389633	132442.35999	104961.096191	38.7290651485	202057.175884	1530593.99156	65424569.0975	-2
625000.0	12058.0	38192.6428068	0.108030298628	173803.45459	0.000429292015269	2.02959370613	136116.478177	107597.912598	42.7274315507	141057.576692	425119.343899	65429273.5139	0
650000.0	12158.0	41208.6312894	0.108143050768	173796.679688	0.000457803935205	2.04293680191	137388.583464	108430.053711	45.9376969149	102856.349252	6165.05643297	65433978.4373	0
675000.0	12257.0	44424.2986204	0.108275444331	173804.907227	0.000487841532504	2.05605506897	138654.478749	109256.750488	49.2926496512	91705.8763037	9994.97840757	65438683.868	0
700000.0	12356.0	47849.8278087	0.108422241399	173823.205566	0.000519418620115	2.06878972054	139889.868077	110057.739258	52.8205739367	82341.4689995	7472.19776727	65443389.806	0
725000.0	12455.0	51496.108002	0.10858984379	173825.048828	0.000552668154796	2.08050608635	140992.898854	110753.051758	56.5278662244	74064.4333022	5401.04655731	65448096.2513	0
750000.0	12554.0	55374.98206	0.108777935023	173800.012207	0.000587698366417	2.09117507935	141941.467328	111324.597168	60.4208152227	66728.4213573	3823.21509239	65452803.204	0
775000.0	12653.0	59498.3319608	0.108974130471	173802.172852	0.000624405515737	2.1023004055	142962.640568	111949.79248	64.4986350153	59933.5285515	8785.44471683	65457510.6642	0
800000.0	12751.0	63878.5847306	0.109188155094	173813.40332	0.000662972922783	2.11315608025	143966.151579	112561.499023	68.7340653375	54209.0120339	7120.74520217	65462218.6319	0
825000.0	12850.0	68527.3462981	0.109409871217	173838.964844	0.000703296393567	2.12396907806	144971.900906	113170.874023	73.1876526984	49117.8956109	5426.40173145	65466927.1071	0
850000.0	12948.0	73458.6762322	0.109656967461	173829.089355	0.000745788497625	2.13338494301	145788.708614	113634.716797	77.8050704408	44348.7020556	12891.9184404	65471636.09	0
875000.0	13046.0	78687.044371	0.109917613364	173800.878906	0.000790406488704	2.14193797112	146487.133844	114005.847168	82.6219012164	40512.8708071	3667.86021834	65476345.5805	0
900000.0	13145.0	84225.6261666	0.110182870343	173811.035156	0.000836878143673	2.1511054039	147284.74952	114449.523926	87.6717447803	36886.4171685	2693.16117775	65481055.5789	0
925000.0	13243.0	90089.2143932	0.110465118729	173827.587891	0.000885567374098	2.15992665291	148055.670392	114874.047852	92.8940749263	33469.2467121	10545.5085105	65485766.085	0
950000.0	13341.0	96292.5297985	0.110759146368	173845.703125	0.000936486003411	2.16835045815	148785.644493	115267.102051	98.3295128324	30568.6596866	9955.22967936	65490477.0989	0
975000.0	13439.0	102851.426413	0.111065071259	173841.955566	0.000989842646959	2.1759557724	149404.48726	115575.32959	103.988524595	27954.1123966	9844.41777068	65495188.6208	0
1000000.0	13537.0	109783.120726	0.111377588332	173815.649414	0.00104574439774	2.18275499344	149916.392573	115803.137207	109.878234967	25593.3118483	10164.8915709	65499900.6506	0
1025000.0	13635.0	117104.428728	0.111695509751	173813.085938	0.00110400128506	2.18967056274	150473.668274	116067.480469	115.997045082	23466.3392381	10312.7079333	65504613.1885	0
1050000.0	13733.0	124831.751828	0.112021952788	173828.466797	0.00116470016565	2.19658064842	151052.474218	116349.023438	122.351699536	21546.0934679	10414.5238856	65509326.2344	0
1075000.0	13831.0	132982.291354	0.11235803838	173848.876953	0.00122799110613	2.20317482948	151602.82052	116609.387207	128.950446323	19807.9301483	10694.7854416	65514039.7885	0
1100000.0	13929.0	141574.442866	0.11270412909	173855.895996	0.0012940911347	2.20914697647	152069.782679	116806.506348	135.804395867	18229.6171594	11507.315294	65518753.8507	0
1125000.0	14027.0	150628.132225	0.113058843267	173832.03125	0.00136322967137	2.21431970596	152414.601686	116910.742188	142.924690275	16792.4677906	13208.3123277	65523468.4212	0
1150000.0	14125.0	160163.901528	0.113421428228	173819.921875	0.00143521788232	2.21939396858	152764.956352	117020.507812	150.309261373	15486.6760834	15217.8767264	65528183.5	0
1175000.0	14223.0	170200.999575	0.113792816802	173827.55127	0.00151001245285	2.22445344925	153137.595157	117148.571777	157.951848764	14373.9114619	1917.32429069	65532899.0871	0
1200000.0	14322.0	180757.616031	0.114170486591	173856.225586	0.00158751413437	2.22955083847	153531.140467	117291.101074	165.898672461	13290.9821397	2454.23211726	65537615.1826	0
1225000.0	14420.0	191856.207712	0.114557479652	173871.069336	0.0016684231241	2.23394083977	153837.257966	117370.788574	174.063469533	12239.914037	22504.622049	65542331.7865	0
1250000.0	14518.0	203519.219161	0.11494975136	173865.478516	0.00175276329628	2.2377076149	154052.944632	117383.02002	182.504619195	11340.1726834	26897.2453562	65547048.8989	0
1275000.0	14616.0	215770.805941	0.115350593636	173838.720703	0.00184069790521	2.24111866951	154207.834886	117349.572754	191.229626054	10569.5010659	8515.88953043	65551766.5199	0
1300000.0	14715.0	228632.724078	0.115757793738	173840.637207	0.00193159485207	2.2447283268	154413.2346	117353.833008	200.282449714	9813.60204993	11762.9223124	65556484.6494	0
1325000.0	14813.0	242129.683752	0.116172821164	173846.765137	0.00202614978662	2.2479288578	154586.050652	117337.866211	209.567240483	9120.96319494	16012.9916279	65561203.2876	0
1350000.0	14912.0	256283.240027	0.116593078064	173869.909668	0.00212391728382	2.25100874901	154759.755232	117322.375488	219.197727891	8486.73449302	20694.7327723	65565922.4345	0
1375000.0	15010.0	271120.496247	0.117018214794	173877.661133	0.0022257809178	2.2533853054	154847.380445	117246.533203	229.079541516	7902.78077046	27225.7038566	65570642.0901	0
1400000.0	15109.0	286665.512514	0.117450686048	173879.528809	0.00233131481764	2.25557398796	154906.423756	117148.388672	239.334306425	7402.98426139	5724.93413008	65575362.2545	0
1425000.0	15208.0	302946.362031	0.117891004652	173860.949707	0.0024410333026	2.25755405426	154922.863693	117018.518066	249.920771528	6904.71561567	11349.3033153	65580082.9277	0
1450000.0	15307.0	319991.15952	0.118337254675	173855.541992	0.00255459963228	2.25939869881	154940.897814	116891.894531	260.83227656	6446.01944311	18585.1863845	65584804.1097	0
1475000.0	15406.0	337826.749585	0.118788604915	173862.597656	0.00267210270977	2.26100230217	154946.908439	116758.544922	272.079138525	6023.19371683	27459.1187403	65589525.8007	0
1500000.0	15505.0	356480.847777	0.119243872378	173875.415039	0.00279373284684	2.26224422455	154920.013114	116602.893066	283.674190497	5632.69395858	38310.3051092	65594248.0007	0
1525000.0	15604.0	375982.027444	0.119706359948	173888.513184	0.00291965125143	2.26315307617	154859.702154	116424.42627	295.631406981	5298.09454361	9982.02341682	65598970.7096	0
1550000.0	15704.0	396357.252437	0.120178495396	173902.79541	0.00304964851239	2.26396584511	154788.338966	116237.023926	308.029891647	4962.28424012	18904.8661092	65603693.9276	0
1575000.0	15803.0	417641.751046	0.120653717401	173883.92334	0.00318503225571	2.26442456245	154650.258449	116002.392578	320.770978071	4649.46673638	32732.9100689	65608417.6547	0
1600000.0	15903.0	439866.525119	0.121133048511	173872.583008	0.00332467516273	2.26485919952	154514.304489	115768.969727	333.978199191	4381.67524922	5602.44977357	65613141.891	0
1625000.0	16003.0	463063.607974	0.121615780212	173872.631836	0.00346886645275	2.26503229141	154362.123223	115526.013184	347.576141132	4111.84774723	15664.3171066	65617866.6364	0
1650000.0	16103.0	487264.317298	0.122105517139	173882.397461	0.00361769025403	2.26493406296	154191.532333	115272.009277	361.572467103	3861.57072638	29788.8828904	65622591.891	0
1675000.0	16203.0	512500.726231	0.122604833566	173898.144531	0.0037712889025	2.26459741592	154002.440051	115006.45752	375.978393242	3629.1419249	48515.0519822	65627317.6548	0
1700000.0	16303.0	538806.66917	0.123111068896	173911.621094	0.0039299634409	2.2640247345	153786.035044	114722.253418	390.811294021	3429.91516533	12527.5549525	65632043.928	0
1725000.0	16404.0	566214.376197	0.123622813753	173921.984863	0.00409350832342	2.26335430145	153552.221519	114424.42627	406.160246899	3227.69581123	29255.6468175	65636770.7105	0
1750000.0	16504.0	594766.422951	0.124130454315	173899.291992	0.00426352062277	2.26243066788	153263.714699	114088.769531	421.912550635	3038.17818677	54541.0126695	65641498.0024	0
1775000.0	16605.0	624498.459481	0.124644296192	173887.597656	0.00443834824182	2.26142311096	152976.624076	113754.589844	438.193745006	2876.21145763	15223.8276734	65646225.8037	0
1800000.0	16706.0	655446.712721	0.125167160953	173888.574219	0.00461834360976	2.26018309593	152681.247486	113417.248535	454.933104114	2711.286241	37220.0718871	65650954.1145	0
1825000.0	16807.0	687647.565222	0.125697941628	173898.059082	0.00480370999867	2.25870203972	152370.687182	113071.228027	472.137710106	2557.5071163	67295.5255185	65655682.9347	0
1850000.0	16908.0	721138.946422	0.126234701999	173910.742188	0.00499470661453	2.25697445869	152037.265009	112710.424805	489.804696901	2425.94068685	20937.7010534	65660412.2645	0
1875000.0	17010.0	755955.996071	0.126777936217	173929.077148	0.00519093828188	2.25508880615	151688.7811	112338.659668	508.021476582	2302.79629494	2730.38066861	65665142.1038	0
1900000.0	17112.0	792139.543058	0.127325703776	173938.85498	0.00539331176697	2.25300264359	151311.964503	111947.875977	526.727205864	2176.3641186	7886.78831459	65669872.4527	0
1925000.0	17214.0	829732.70999	0.127876143401	173932.165527	0.00560222633794	2.25084471703	150914.237047	111542.980957	545.942437454	2057.82485996	34831.2995872	65674603.3113	0
1950000.0	17316.0	868781.390924	0.128427965186	173915.332031	0.00581768927077	2.24863672256	150504.794716	111130.944824	565.6670136	1946.71275786	76702.161504	65679334.6795	0
1975000.0	17418.0	909329.713855	0.128985482466	173907.861328	0.00603921307629	2.2462182045	150084.887545	110713.635254	585.886436636	1851.80509384	24691.1232231	65684066.5575	0
2000000.0	17521.0	951414.821665	0.12955148659	173915.649414	0.00626616247246	2.24361395836	149658.397088	110292.199707	606.689022627	1754.29688901	64732.6171195	65688798.9451	0
2025000.0	17623.0	995084.808828	0.130121656482	173920.397949	0.00650023366688	2.24068808556	149200.964023	109852.124023	627.923011254	1662.64055201	121364.45753	65693531.8426	0
2050000.0	17726.0	1040378.09791	0.130704263554	173935.827637	0.00673998511047	2.23758029938	148732.459814	109404.724121	649.760698398	1592.32075467	10361.6361575	65698265.2498	0
2075000.0	17830.0	1087334.59722	0.131296582805	173956.201172	0.00698567055224	2.23435306549	148252.710348	108949.401855	672.215387485	1511.29128075	7021.05052038	65702999.1668	0
2100000.0	17933.0	1136008.56555	0.13188539493	173957.971191	0.00723951507098	2.23104000092	147748.805575	108478.78418	695.11094791	1434.84813396	47275.2641221	65707733.5937	0
2125000.0	18037.0	1186445.6593	0.132474783765	173949.865723	0.00750025265006	2.2278175354	147242.592343	108005.566406	718.63521247	1363.07334849	112214.306002	65712468.5306	0
2150000.0	18140.0	1238705.1446	0.133061823136	173927.661133	0.00776936576585	2.22451210022	146720.520268	107523.64502	742.613474341	1301.56883744	46343.2073469	65717203.9773	0
2175000.0	18245.0	1292823.74738	0.133667624772	173930.834961	0.0080433783296	2.22102618217	146198.53967	107041.320801	767.28312115	1244.010653	2210.11683646	65721939.934	0
2200000.0	18349.0	1348856.02608	0.134275993039	173932.458496	0.00832542446005	2.21731114388	145656.064304	106547.644043	792.409842987	1183.77071944	46241.4567386	65726676.4007	0
2225000.0	18454.0	1406844.81745	0.13489514769	173945.64209	0.00861374428496	2.21341371536	145103.472067	106047.363281	818.180619191	1132.63514258	1432.11570389	65731413.3773	0
2250000.0	18559.0	1466841.14611	0.135518663807	173959.094238	0.00890960563993	2.20933389664	144533.731521	105536.584473	844.532159217	1079.0676882	48555.0812052	65736150.864	0
2275000.0	18664.0	1528896.84953	0.136149049097	173970.76416	0.00921316132008	2.2050588131	143944.786754	105013.94043	871.475944123	1028.5129032	135191.626674	65740888.8608	0
2300000.0	18769.0	1593066.32422	0.136782980082	173975.830078	0.00952483242145	2.20068979263	143343.016149	104483.679199	899.038451877	985.395556089	57851.3552227	65745627.3676	0
2325000.0	18875.0	1659399.40961	0.137421212143	173976.171875	0.00984396410786	2.19635915756	142740.75796	103952.954102	927.335734997	944.56114379	5637.75527252	65750366.3846	0
2350000.0	18981.0	1727956.84707	0.138054121719	173961.535645	0.0101720443126	2.19216346741	142142.131916	103425.732422	956.30578017	901.422628066	75834.2501212	65755105.9117	0
2375000.0	19087.0	1798798.47357	0.138691448113	173950.549316	0.0105081926449	2.18783855438	141534.556696	102893.823242	985.913981495	864.700925814	14537.5844182	65759845.949	0
2400000.0	19194.0	1871970.71811	0.139344444201	173953.808594	0.0108509611891	2.1832587719	140912.665841	102352.850342	1016.24638987	826.131535237	101457.240635	65764586.4964	0
2425000.0	19300.0	1947537.17865	0.139999375155	173954.455566	0.0112030884338	2.17849993706	140274.138075	101802.972412	1047.14344831	789.492371575	240681.730549	65769327.5541	0
2450000.0	19407.0	2025546.56256	0.140666548793	173964.599609	0.0115623333841	2.17357730865	139625.238032	101246.185303	1078.79863365	762.02312991	5285.62024228	65774069.122	0
2475000.0	19515.0	2106048.83246	0.141343779299	173981.054688	0.0119289179565	2.16854667664	138967.94319	100683.435059	1111.23260945	732.476575348	65025.0482409	65778811.2002	0
2500000.0	19623.0	2189103.39075	0.142027023677	173994.873047	0.0123042882478	2.16339468956	138295.38229	100110.681152	1144.36776679	697.835260351	191078.233826	65783553.7886	0
2525000.0	19730.0	2274781.3613	0.142707728128	173995.837402	0.0126902486954	2.15821766853	137612.261437	99532.2509766	1178.13388927	671.136063875	97807.3828736	65788296.8873	0
2550000.0	19839.0	2363129.24669	0.143399695388	174000.341797	0.0130831067509	2.15306615829	136932.020378	98954.7668457	1212.83506989	645.872489243	26330.3500439	65793040.4964	0
2575000.0	19947.0	2454225.64845	0.144076567057	173983.80127	0.0134876372613	2.14816665649	136266.777182	98389.9780273	1248.2225349	618.735382673	163531.048013	65797784.6158	0
2600000.0	20056.0	2548130.30983	0.144759729037	173974.157715	0.0139000885611	2.14321446419	135604.079959	97828.0578613	1284.39288543	595.819001692	72406.0693354	65802529.2456	0
2625000.0	20165.0	2644905.71484	0.145453193614	173969.812012	0.014321440176	2.13798570633	134920.793554	97253.6499023	1321.18046307	574.024341819	9630.41824291	65807274.3857	0
2650000.0	20275.0	2744603.19713	0.146164284554	173976.489258	0.0147502287291	2.13245129585	134216.15223	96665.2404785	1358.68452658	553.386087732	25363.4920101	65812020.0363	0
2675000.0	20385.0	2847285.4102	0.146884358209	173985.900879	0.0151881849888	2.12671542168	133495.400633	96067.1569824	1396.84059099	531.303228388	58433.9457301	65816766.1973	0
2700000.0	20495.0	2953016.90702	0.147611333251	173996.21582	0.0156356090883	2.12084650993	132763.768055	95462.9211426	1435.67406413	512.632025749	3429.72069743	65821512.8687	0
2725000.0	20606.0	3061852.99172	0.148350157394	174011.669922	0.0160911295097	2.11486959457	132024.593517	94853.729248	1475.29878861	492.659878729	148344.772263	65826260.0506	0
2750000.0	20716.0	3173873.61282	0.149082847943	174016.943359	0.0165584860952	2.10896945	131288.58258	94248.7182617	1515.57113218	475.679111721	61561.5036477	65831007.7429	0
2775000.0	20828.0	3289127.39821	0.149828377853	174028.088379	0.017032982214	2.10307073593	130555.167799	93644.8364258	1556.79068594	459.586225844	4681.37441179	65835755.9457	0
2800000.0	20939.0	3407700.35346	0.150559575092	174022.839355	0.0175202749233	2.09743142128	129839.699529	93055.3161621	1598.72752506	442.076731244	173471.412913	65840504.659	0
2825000.0	21051.0	3529658.81813	0.151288535743	174012.29248	0.0180172391993	2.09199500084	129142.149577	92478.5888672	1641.59037551	427.320297499	78349.996157	65845253.8829	0
2850000.0	21163.0	3655080.15171	0.152016357717	174002.441406	0.0185246481124	2.08660244942	128452.242517	91908.7219238	1685.26005627	413.178458577	10949.8759204	65850003.6173	0
2875000.0	21276.0	3784024.43293	0.152752184355	174001.220703	0.0190405698959	2.08114886284	127762.941749	91339.9719238	1729.82931985	399.701279737	27151.9610381	65854753.8622	0
2900000.0	21389.0	3916561.32874	0.153497719403	174002.819824	0.0195666325453	2.07547712326	127055.958455	90760.4309082	1775.21276449	385.08245416	104131.683783	65859504.6177	0
2925000.0	21502.0	4052760.75586	0.154255661883	174006.787109	0.0201028906304	2.06954908371	126326.550067	90166.5649414	1821.41487209	372.765227182	27492.3793168	65864255.8838	0
2950000.0	21616.0	4192680.92111	0.155031555173	174017.724609	0.0206475815503	2.06336474419	125576.901639	89559.197998	1868.54451425	361.017749838	7531.85626345	65869007.6605	0
2975000.0	21730.0	4336394.55696	0.155814459752	174028.149414	0.0212029208342	2.05706214905	124817.350296	88946.295166	1916.53378506	348.210775355	175229.225667	65873759.9478	0
3000000.0	21844.0	4483976.89131	0.156600949813	174036.328125	0.0217692977458	2.05072116852	124054.808456	88332.5805664	1965.40161781	337.424496785	84242.4901606	65878512.7458	0
3025000.0	21959.0	4635491.52879	0.157395762511	174045.800781	0.0223449897021	2.04435396194	123291.919465	87719.1467285	2015.25437257	327.111515197	18428.0060814	65883266.0543	0
3050000.0	22074.0	4791018.57096	0.158186369713	174048.742676	0.0229324941756	2.03811526299	122540.59692	87115.0024414	2066.03136074	315.807980766	306780.258753	65888019.8735	0
3075000.0	22189.0	4950641.83267	0.15896795508	174042.492676	0.023532382329	2.03209853172	121808.758686	86525.5859375	2117.75288616	306.284023736	192979.794488	65892774.2033	0
3100000.0	22305.0	5114433.44094	0.159747956258	174033.752441	0.0241425168497	2.02624249458	121093.919442	85948.5656738	2170.50944412	298.441168875	184583.696659	65897529.0438	0
3125000.0	22422.0	5282461.97824	0.16053435925	174032.189941	0.0247617172136	2.02037620544	120384.692159	85376.2268066	2224.22367514	288.443062912	20425.8846487	65902284.395	0
3150000.0	22538.0	5454822.31506	0.161309768072	174026.989746	0.0253946964222	2.01464343071	119690.353299	84816.2902832	2278.65164624	278.818402268	339909.920646	65907040.2569	0
3175000.0	22655.0	5631577.09505	0.162102138434	174028.833008	0.0260366923612	2.00868296623	118978.741654	84244.8242188	2333.89637613	271.977534169	92241.1654292	65911796.6295	0
3200000.0	22773.0	5812788.18586	0.162913632358	174037.207031	0.0266876031674	2.00246214867	118246.078545	83659.1796875	2389.93986965	263.191831752	113673.688359	65916553.5128	0
3225000.0	22890.0	5998550.54618	0.163724254627	174040.869141	0.0273523983196	1.99619019032	117508.169807	83071.5576172	2446.64670762	255.813263346	36685.2224675	65921310.9068	0
3250000.0	23009.0	6188912.40011	0.16455762552	174054.150391	0.0280240874417	1.9896992445	116754.398964	82472.7111816	2504.22883095	248.814931605	1090.15220228	65926068.8116	0
3275000.0	23127.0	6383972.33315	0.165384249589	174060.60791	0.0287102375296	1.98328197002	116006.803195	81879.8461914	2562.49363915	241.016634143	324553.308273	65930827.2271	0
3300000.0	23246.0	6583798.334	0.166218482599	174068.969727	0.0294062756439	1.97684824467	115260.253559	81288.2080078	2621.5786354	235.548335669	131339.173209	65935586.1533	0
3325000.0	23366.0	6788459.80647	0.167056662995	174077.612305	0.0301124291582	1.97046411037	114520.587178	80701.8859863	2681.51070872	228.384193267	119674.354137	65940345.5903	0
3350000.0	23485.0	6998063.59603	0.167876928634	174075.0	0.0308343333018	1.96435594559	113805.251233	80134.1674805	2742.17754134	222.37868339	40817.862635	65945105.5381	0
3375000.0	23606.0	7212667.31821	0.168701909966	174073.913574	0.0315646138915	1.95835614204	113103.480529	79575.9521484	2803.78897173	216.660029546	1155.49012882	65949865.9966	0
3400000.0	23726.0	7432383.4581	0.16950634552	174063.28125	0.0323108106386	1.95265686512	112430.366371	79039.5568848	2866.14894527	210.225000701	364046.250995	65954626.9659	0
3425000.0	23847.0	7657283.88819	0.170318821521	174059.179688	0.0330666625814	1.94689559937	111757.945772	78504.6081543	2929.34263199	205.772504905	163177.931383	65959388.4459	0
3450000.0	23969.0	7887433.95232	0.171148760747	174061.279297	0.033831820474	1.94090139866	111068.593169	77958.7158203	2993.3379923	199.855104869	122152.013452	65964150.4368	0
3475000.0	24090.0	8122936.84425	0.171976715532	174059.94873	0.034612014133	1.93486762047	110376.755624	77412.8234863	3058.06317537	194.92486962	39457.5686	65968912.9385	0
3500000.0	24213.0	8363840.09811	0.172827602416	174068.457031	0.0353989162249	1.92860233784	109669.000725	76855.9997559	3123.67342441	190.237729265	929.714638514	65973675.951	0
3525000.0	24335.0	8610249.14169	0.173672078378	174072.631836	0.0362011815014	1.92239165306	108966.826048	76304.5715332	3190.05730625	184.918029948	445487.20968	65978439.4743	0
3550000.0	24458.0	8862232.64633	0.174525718916	174080.712891	0.0370133420802	1.91612386703	108262.791551	75752.3681641	3257.31188934	181.293603471	138672.721216	65983203.5085	0
3575000.0	24582.0	9119859.74958	0.175385724453	174091.85791	0.0378354670829	1.9098482132	107561.172786	75202.3376465	3325.47681108	176.374552257	203945.436059	65987968.0534	0
3600000.0	24705.0	9383241.62075	0.176231038364	174096.484375	0.038673846575	1.90377187729	106878.028726	74666.5588379	3394.49046702	172.287846939	101376.733534	65992733.1093	0
3625000.0	24830.0	9652430.82894	0.177085586852	174106.555176	0.0395197348553	1.89770710468	106200.383818	74134.6801758	3464.50269476	168.389470638	24535.4946518	65997498.6759	0
3650000.0	24954.0	9927543.16819	0.177918933724	174108.032227	0.0403826052207	1.89193749428	105549.885147	73623.1018066	3535.43486611	164.57493739	15961.1905389	66002264.7534	0
3675000.0	25080.0	10208634.6025	0.178757189725	174112.353516	0.0412535155192	1.88622736931	104908.891585	73118.371582	3607.4390431	160.92988623	101594.98024	66007031.3418	0
3700000.0	25205.0	10495824.8955	0.179580989223	174105.285645	0.0421420118073	1.88066804409	104280.034025	72623.5778809	3680.39241422	156.734566484	282201.356649	66011798.441	0
3725000.0	25331.0	10789192.5552	0.180411982238	174098.864746	0.0430411746493	1.87504029274	103647.831067	72127.2399902	3754.18629169	153.319700505	149766.588559	66016566.051	0
3750000.0	25457.0	11088831.8385	0.181245516724	174093.811035	0.0439532959717	1.86935150623	103013.81478	71630.9387207	3828.72824853	150.01564387	47503.0175189	66021334.1719	0
3775000.0	25584.0	11394811.0792	0.182089065749	174094.042969	0.0448751379736	1.86355388165	102374.909871	71132.0983887	3904.02152242	146.845758642	2942.73552168	66026102.8037	0
3800000.0	25711.0	11707221.0048	0.182931758751	174095.263672	0.0458100694232	1.85775911808	101739.746282	70636.9995117	3980.06561696	143.775953032	75130.7823359	66030871.9463	0
3825000.0	25839.0	12026130.4814	0.183780725612	174101.123047	0.0467548379675	1.85192584991	101105.695214	70143.3776855	4056.84700119	140.829045983	198009.370679	66035641.5998	0
3850000.0	25967.0	12351631.7108	0.184624865415	174107.263184	0.0477129142382	1.84616649151	100481.509094	69657.611084	4134.3605511	137.436269737	231127.164135	66040411.7643	0
3875000.0	26095.0	12683818.6472	0.185461951175	174113.28125	0.0486845710839	1.84051859379	99870.3502532	69181.817627	4212.61503146	134.679736244	93899.3071861	66045182.4396	0
3900000.0	26224.0	13022762.8883	0.186298337339	174122.509766	0.0496665088576	1.83494496346	99269.9589375	68714.050293	4291.60613826	132.030228414	4070.14072445	66049953.6258	0
3925000.0	26353.0	13368560.9089	0.187125886887	174130.249023	0.0506624055561	1.8294955492	98683.2253797	68256.7077637	4371.33922129	128.958486319	662532.786754	66054725.3229	0
3950000.0	26482.0	13721311.1198	0.187949585483	174135.449219	0.0516725558555	1.82407271862	98100.6324611	67803.3081055	4451.82040564	126.472143763	433671.277492	66059497.5309	0
3975000.0	26612.0	14081088.4495	0.188777016133	174141.235352	0.0526934854861	1.81862604618	97518.4834957	67350.8789062	4533.04169043	124.556605306	435976.826847	66064270.2498	0
4000000.0	26743.0	14447968.2074	0.189606964301	174147.009277	0.0537252490176	1.81318390369	96938.8884206	66900.7629395	4614.98469622	121.776231315	80471.4689359	66069043.4796	0
4025000.0	26873.0	14822077.1237	0.190421070648	174144.775391	0.0547754898435	1.80791831017	96374.3445449	66462.121582	4697.69713083	119.057848919	944939.211252	66073817.2203	0
4050000.0	27004.0	15203493.9367	0.191234926067	174141.064453	0.0558371029911	1.80271542072	95816.6633267	66028.5522461	4781.14649877	117.334430374	116684.302348	66078591.472	0
4075000.0	27136.0	15592297.8082	0.192048416503	174136.560059	0.0569098338019	1.79757869244	95266.5997048	65600.6286621	4865.3196406	115.234646826	315629.916216	66083366.2345	0
4100000.0	27268.0	15988589.8069	0.192856796689	174133.007812	0.0579962215852	1.79251003265	94725.4672241	65179.699707	4950.14847179	112.76808588	187379.760438	66088141.5079	0
4125000.0	27400.0	16392465.6834	0.193659080558	174130.79834	0.059096259065	1.78752326965	94194.7536657	64766.796875	5035.6213949	110.796197052	26317.9813382	66092917.2922	0
4150000.0	27533.0	16803994.6826	0.194462387098	174133.288574	0.0602060972597	1.78257071972	93671.474982	64359.6252441	5121.70970073	108.899818937	66304.286866	66097693.5875	0
4175000.0	27666.0	17223273.7586	0.195259440673	174136.05957	0.061329905293	1.77765500546	93154.7890514	63958.0993652	5208.4462091	106.654854765	516180.965151	66102470.3936	0
4200000.0	27799.0	17650401.0485	0.196051581106	174138.769531	0.0624677923042	1.77275061607	92642.3600993	63560.6933594	5295.82586938	104.869519735	232852.740394	66107247.7107	0
4225000.0	27933.0	18085447.6871	0.196846830569	174144.53125	0.0636158074485	1.76780545712	92130.2361837	63164.2883301	5383.80835344	103.150955162	33752.4682408	66112025.5387	0
4250000.0	28067.0	18528512.5124	0.197636972191	174149.853516	0.064778039814	1.76290071011	91624.0531841	62772.9064941	5472.42330449	101.478287504	78108.4584703	66116803.8777	0
4275000.0	28202.0	18979666.8214	0.198429539769	174157.763672	0.0659504148643	1.75798809528	91120.3050358	62383.8012695	5561.62352791	99.867624796	332293.441598	66121582.7276	0
4300000.0	28337.0	19439010.1494	0.199216150291	174164.72168	0.0671371526551	1.75315070152	90624.7600658	62001.0681152	5651.5144284	97.9350088777	216874.277007	66126362.0884	0
4325000.0	28472.0	19906643.3035	0.199996261667	174170.410156	0.0683383987052	1.74840807915	90138.6866819	61625.4394531	5742.12682742	96.4108670331	11280.6876843	66131141.9601	0
4350000.0	28608.0	20382639.4698	0.200776855333	174177.636719	0.0695500857546	1.74371576309	89659.0990702	61254.6020508	5833.38497959	94.9409204937	142135.936258	66135922.3428	0
4375000.0	28744.0	20867100.9303	0.201549270083	174182.836914	0.0707765429979	1.739158988	89191.9172919	60892.7246094	5925.29321614	93.1647612787	450676.531137	66140703.2365	0
4400000.0	28880.0	21360133.2201	0.202311684819	174185.131836	0.0720182142686	1.73472249508	88736.0673978	60539.251709	6017.8697982	91.7718379362	121023.171132	66145484.6411	0
4425000.0	29017.0	21861814.0779	0.203071020806	174186.560059	0.0732710541342	1.73031508923	88285.221668	60189.9536133	6111.00034872	90.4281602714	38518.3708604	66150266.5566	0
4450000.0	29154.0	22372251.954	0.203820269404	174183.544922	0.0745395664126	1.72600436211	87843.5174702	59847.6745605	6204.74097038	88.7922057656	660774.479718	66155048.983	0
4475000.0	29291.0	22891557.1261	0.204561039145	174176.867676	0.0758236710681	1.72178125381	87410.0844969	59511.71875	6299.04113677	87.5177995949	234693.466178	66159831.9205	0
4500000.0	29429.0	23419804.471	0.205305082582	174173.706055	0.0771175546106	1.71753132343	86977.6832429	59177.0263672	6393.70033233	86.2919774897	1022.37691333	66164615.3688	0
4525000.0	29567.0	23957093.9702	0.206045772055	174171.350098	0.0784256044426	1.713316679	86550.3558719	58846.4538574	6488.7560321	85.0986331088	268891.5471	66169399.328	0
4550000.0	29706.0	24503493.0755	0.20679072422	174172.753906	0.0797431493993	1.7090896368	86124.6021248	58517.2668457	6584.06095762	83.6498995644	336736.333108	66174183.7982	0
4575000.0	29844.0	25059132.5306	0.207525761709	174172.045898	0.081079575466	1.70497524738	85708.8016332	58195.4711914	6679.77551489	82.5245011654	16360.4984574	66178968.7794	0
4600000.0	29984.0	25624047.9921	0.208272517101	174177.783203	0.0824207818368	1.70081520081	85292.1250818	57873.0407715	6775.54230522	81.4577614973	217932.983017	66183754.2715	0
4625000.0	30123.0	26198372.0299	0.20900716732	174180.944824	0.0837811167003	1.69677805901	84886.3459886	57558.7158203	6871.64837461	80.1183777755	419462.350446	66188540.2745	0
4650000.0	30263.0	26782175.0531	0.209740599587	174186.523438	0.0851513905218	1.69273555279	84483.3981682	57246.9970703	6967.82460358	79.1125461655	36237.164556	66193326.7885	0
4675000.0	30403.0	27375559.8796	0.210466734616	174191.601562	0.0865363981575	1.68874251842	84086.5489848	56940.2099609	7064.15237688	78.133470752	219166.987916	66198113.8135	0
4700000.0	30544.0	27978596.6535	0.211193810103	174198.730469	0.0879313156474	1.6847461462	83691.9393868	56635.4614258	7160.44375282	76.9202869663	434168.208715	66202901.3494	0
4725000.0	30684.0	28591422.365	0.211908987796	174202.282715	0.0893460237421	1.6808539629	83306.347684	56337.6037598	7256.92412875	75.9971962295	22826.4400659	66207689.3963	0
4750000.0	30826.0	29214073.9923	0.212633833259	174210.180664	0.0907657376956	1.67691242695	82919.3117368	56038.9465332	7353.12192816	75.1250199162	272807.893411	66212477.9542	0
4775000.0	30967.0	29846689.5847	0.21334887266	174214.099121	0.0922054023249	1.67308390141	82541.1878369	55746.8688965	7449.42521451	74.0022726993	397956.547989	66217267.023	0
4800000.0	31109.0	30489340.2268	0.214068278442	174219.189453	0.0936551368795	1.66927242279	82165.2670716	55456.3598633	7545.45697187	73.1812282964	5543.65159661	66222056.6029	0
4825000.0	31251.0	31142131.7388	0.214786172665	174222.436523	0.0951200490817	1.66553640366	81795.1459041	55169.909668	7641.35901548	72.1286456907	1044827.21527	66226846.6937	0
4850000.0	31393.0	31805172.4653	0.215498534161	174223.242188	0.0966005318332	1.66188538074	81432.0830123	54888.5742188	7737.078165	71.3554533671	364450.383269	66231637.2954	0
4875000.0	31536.0	32478537.7361	0.216208392051	174223.55957	0.0980917102424	1.65827023983	81073.4577408	54610.6567383	7832.38803959	70.6154454991	4989.42129988	66236428.4082	0
4900000.0	31679.0	33162339.0469	0.21690974933	174220.336914	0.0995989103103	1.65474176407	80722.1809679	54338.1896973	7927.49663652	69.8949802723	454853.258771	66241220.032	0
4925000.0	31823.0	33856651.9916	0.217611516781	174217.089844	0.101116485894	1.65123307705	80373.7843649	54067.9504395	8022.6854182	68.9610512609	278944.10599	66246012.1667	0
4950000.0	31966.0	34561620.0195	0.218304545142	174211.755371	0.102653895738	1.64779925346	80031.9732672	53802.7648926	8118.37536438	68.0365949796	1769150.95207	66250804.8124	0
4975000.0	32110.0	35277309.54	0.219003579828	174209.606934	0.104200480564	1.64433717728	79689.8044144	53537.5915527	8214.07020937	67.613120247	641668.194477	66255597.9691	0
5000000.0	32255.0	36003784.2561	0.219709936853	174210.546875	0.105755985714	1.6408457756	79346.9753188	53272.1557617	8309.67038965	66.9793198568	1553864.01733	66260391.6367	0
5025000.0	32400.0	36741144.8671	0.22041829354	174212.036133	0.107325817226	1.63737463951	79006.2994611	53008.3679199	8405.28493984	66.1327732965	141576.280954	66265185.8153	0
5050000.0	32545.0	37489492.2891	0.221129647024	174214.074707	0.108910011477	1.63392364979	78667.5820915	52746.0388184	8500.87023055	65.3070379919	759174.406067	66269980.505	0
5075000.0	32690.0	38248930.0307	0.22183840249	174216.137695	0.110508946818	1.63050162792	78332.7394737	52486.8530273	8596.32488118	64.7243714857	119408.627767	66274775.7056	0
5100000.0	32836.0	39019524.0426	0.222549968238	174220.471191	0.11211715173	1.62706673145	77999.0073178	52228.8208008	8691.35303428	64.1674080345	217388.234129	66279571.4172	0
5125000.0	32982.0	39801378.7344	0.22325888787	174224.536133	0.113740199595	1.62366449833	77668.8560995	51973.651123	8786.07138155	63.4082039209	682799.090876	66284367.6398	0
5150000.0	33128.0	40594598.3061	0.223966406406	174228.24707	0.115378104965	1.6202955246	77341.7833345	51720.8679199	8880.4178111	62.8835170454	64379.2499363	66289164.3734	0
5175000.0	33275.0	41399248.6906	0.224679964071	174233.789062	0.117025250802	1.61691510677	77014.4399757	51467.980957	8974.0233262	62.3842703301	312471.721104	66293961.618	0
5200000.0	33422.0	42215434.364	0.225394473539	174238.745117	0.118687283248	1.61356902122	76689.30263	51216.6442871	9067.05239773	61.6899860643	624365.314042	66298759.3737	0
5225000.0	33569.0	43043260.2811	0.22611095777	174242.919922	0.120364304166	1.61025691032	76365.9485854	50966.4733887	9159.41653051	61.2226411195	39711.6556139	66303557.6404	0
5250000.0	33717.0	43882792.0863	0.226836845066	174248.474121	0.122050492791	1.6069355011	76041.2215765	50715.0939941	9250.72043061	60.7804270223	348115.505479	66308356.4181	0
5275000.0	33865.0	44734135.4184	0.227564642338	174252.856445	0.123751713545	1.60365200043	75718.3627523	50464.8376465	9341.15998469	60.1496730492	679757.81031	66313155.7068	0
5300000.0	34013.0	45597398.9996	0.228289892999	174255.566406	0.125468475744	1.6004140377	75398.8646249	50216.973877	9430.65080248	59.7386400926	66945.4994917	66317955.5066	0
5325000.0	34162.0	46472650.6565	0.229019105929	174258.630371	0.127194769448	1.59717953205	75079.9748504	49969.519043	9518.79349989	59.3519951863	302826.746528	66322755.8174	0
5350000.0	34311.0	47359999.5318	0.229745995156	174259.594727	0.128936633701	1.59399175644	74764.4719228	49724.4628906	9605.77702284	58.7824813168	809789.270664	66327556.6393	0
5375000.0	34460.0	48259555.9428	0.230470699813	174258.251953	0.130694257678	1.59085190296	74452.4108666	49481.8572998	9691.52278602	58.4263601782	124809.78748	66332357.9722	0
5400000.0	34610.0	49171389.0808	0.231199939939	174256.494141	0.132461602334	1.58771944046	74141.0405016	49239.7094727	9775.5757513	58.0943710832	228706.084912	66337159.8162	0
5425000.0	34760.0	50095609.9825	0.231928012639	174252.368164	0.134244633955	1.58463311195	73832.8616435	48999.8321533	9858.16020812	57.5848318236	1009935.20432	66341962.1712	0
5450000.0	34910.0	51032327.1896	0.23265913669	174248.364258	0.136042261147	1.58156073093	73525.7028987	48760.7543945	9939.15039561	57.2839938773	244959.96742	66346765.0373	0
5475000.0	35061.0	51981600.9075	0.233401326808	174246.936035	0.137848095619	1.57845556736	73216.3447956	48520.1843262	10018.0007361	57.0083354943	100784.632195	66351568.4145	0
5500000.0	35212.0	52943534.5009	0.234145313202	174245.776367	0.13966851111	1.57536518574	72908.2574637	48280.6396484	10095.0267778	56.5605202183	1397236.79132	66356372.3027	0
5525000.0	35363.0	53918231.457	0.234890532369	174244.726562	0.141503594932	1.57228922844	72601.5536418	48042.2241211	10170.1099761	56.3166950817	525290.512947	66361176.702	0
5550000.0	35515.0	54905751.7183	0.235643978879	174245.837402	0.143346973346	1.56918740273	72293.4341985	47802.9144287	10242.7709574	56.0974865582	12627.5320953	66365981.6124	0
5575000.0	35667.0	55906198.2118	0.236399343225	174246.960449	0.145204932778	1.56609928608	71986.508421	47564.5782471	10313.9691255	55.889823625	404717.811973	66370787.0339	0
5600000.0	35820.0	56919629.3294	0.237163722936	174250.085449	0.147070953972	1.56298434734	71678.0006989	47325.213623	10383.4730472	55.7017671113	1223030.17689	66375592.9664	0
5625000.0	35973.0	57946147.4431	0.237930956238	174253.076172	0.148951483425	1.55988359451	71370.489993	47086.6424561	10451.7123923	55.3425884647	303064.626043	66380399.4101	0
5650000.0	36126.0	58985855.2156	0.238701403683	174255.908203	0.150846550241	1.55679571629	71063.8527339	46848.7701416	10518.6099546	55.1752901999	43542.2664175	66385206.3649	0
5675000.0	36280.0	60038809.8321	0.239482463035	174260.449219	0.152749489644	1.5536826849	70755.3528387	46609.5855713	10583.6346167	55.0273118117	570405.325143	66390013.8308	0
5700000.0	36434.0	61105114.8972	0.240266420911	174264.477539	0.15466712648	1.55058670044	70447.7816462	46371.0968018	10647.237422	54.7112546947	1014974.5081	66394821.8079	0
5725000.0	36588.0	62184875.1929	0.241052452752	174267.822266	0.156599606271	1.54751050472	70141.452738	46133.5357666	10709.3762158	54.5833266779	321800.813709	66399630.2961	0
5750000.0	36743.0	63278149.8243	0.241847019149	174272.314453	0.158540249686	1.54441595078	69833.8800386	45895.135498	10769.4770327	54.4743091886	15519.5312634	66404439.2955	0
5775000.0	36898.0	64385043.5354	0.242642938671	174275.927734	0.16049577971	1.54134297371	69527.937328	45657.9986572	10828.0246631	54.3746365256	459242.310808	66409248.8061	0
5800000.0	37054.0	65505614.8368	0.243446742426	174280.432129	0.162459327839	1.53825414181	69221.1568704	45420.3399658	10884.4045714	54.2938837841	1186234.05521	66414058.8278	0
5825000.0	37210.0	66639967.8746	0.244251366171	174283.898926	0.164437660715	1.53518819809	68916.3199866	45184.2010498	10939.1081121	54.0493843167	619525.95537	66418869.3608	0
5850000.0	37366.0	67788207.9344	0.245056630037	174286.169434	0.166430923855	1.53214645386	68613.6032584	44949.7009277	10992.1191808	53.9882269689	103097.768347	66423680.405	0
5875000.0	37523.0	68950393.1537	0.245869152458	174288.964844	0.168432219652	1.52909207344	68310.4679182	44715.0054932	11042.792189	53.9459180554	147594.894211	66428491.9604	0
5900000.0	37680.0	70126630.2701	0.246682409126	174290.148926	0.170448620338	1.52606260777	68009.2867752	44481.7932129	11091.6648535	53.7418303052	2149812.0714	66433304.027	0
5925000.0	37837.0	71317027.5265	0.247495864451	174289.465332	0.17248041695	1.52305924892	67710.1189955	44250.112915	11138.7357058	53.7186756864	1296053.59612	66438116.6049	0
5950000.0	37995.0	72521645.3144	0.248315555055	174288.635254	0.174520566361	1.52004957199	67410.7499084	44018.3410645	11183.3292129	53.8841748628	2358313.11065	66442929.6941	0
5975000.0	38154.0	73740542.9356	0.249140663628	174287.438965	0.176568864845	1.5170378685	67111.5572791	43786.7645264	11225.3770942	53.7285073836	129062.457632	66447743.2946	0
6000000.0	38312.0	74973877.1083	0.249956496181	174282.507324	0.178639573278	1.5141004324	66817.962564	43559.3048096	11266.0986078	53.5738509507	3510640.48633	66452557.4063	0
6025000.0	38471.0	76221705.8182	0.250780403261	174279.02832	0.180717484909	1.51114273071	66523.3783175	43331.2530518	11304.150086	53.7766038509	588238.922965	66457372.0294	0
6050000.0	38631.0	77484080.2056	0.251613035202	174277.514648	0.182802119525	1.50816178322	66227.5849925	43102.4627686	11339.4537125	53.830054761	1256946.92577	66462187.1638	0
6075000.0	38791.0	78761098.2637	0.252447172757	174276.208496	0.184900578461	1.50519633293	65933.2995845	42874.8901367	11372.6197736	53.7259949716	970930.670583	66467002.8095	0
6100000.0	38951.0	80052860.6655	0.253284274385	174274.87793	0.18701319641	1.5022405386	65639.7587844	42647.9370117	11403.6288901	53.8004478583	403282.71614	66471818.9666	0
6125000.0	39112.0	81359417.7644	0.254131780863	174275.158691	0.189132668311	1.49925744534	65344.2644927	42419.6502686	11431.7725491	53.8947139645	47451.2764013	66476635.635	0
6150000.0	39273.0	82680869.8131	0.254981676268	174275.317383	0.191266241018	1.49628567696	65049.7491418	42192.1813965	11457.6832838	53.9995288655	147408.79858	66481452.8148	0
6175000.0	39435.0	84017266.0058	0.255840458864	174276.928711	0.193406507606	1.4932911396	64753.9157971	41963.9068604	11480.6270885	54.1245382005	552076.341676	66486270.5059	0
6200000.0	39597.0	85368705.2021	0.256700191134	174278.381348	0.195560671273	1.49031162262	64459.6729021	41736.9567871	11501.2804344	54.2603825094	1101782.16693	66491088.7085	0
6225000.0	39760.0	86735234.991	0.257567413415	174281.225586	0.197721266886	1.48731374741	64164.7142823	41509.6923828	11518.8719448	54.4168933069	1743160.56214	66495907.4224	0
6250000.0	39923.0	88116953.3777	0.258434177384	174283.837891	0.199895672267	1.48433530331	63871.928118	41284.2224121	11534.1599459	54.4174386803	912807.161363	66500726.6478	0
6275000.0	40086.0	89513959.0919	0.259300414418	174286.108398	0.202083931072	1.4813760519	63581.298589	41060.546875	11547.2366266	54.5954466882	435958.410906	66505546.3847	0
6300000.0	40250.0	90926300.9825	0.260175431381	174289.404297	0.204278810997	1.47839486599	63289.3882364	40836.126709	11557.4345465	54.7932530947	109171.154962	66510366.633	0
6325000.0	40414.0	92354079.3753	0.261051661952	174292.06543	0.206487806281	1.47542786598	62998.8489737	40612.8753662	11565.5206358	55.001199717	38409.3241184	66515187.3927	0
6350000.0	40579.0	93797341.9642	0.261935482985	174295.629883	0.208703364478	1.472443223	62707.5820821	40389.2944336	11570.7535838	55.2290047987	291057.699431	66520008.664	0
6375000.0	40744.0	95256188.3404	0.262818787236	174298.535156	0.210932834307	1.4694788456	62418.4560766	40167.4530029	11573.9300705	55.4669508678	670866.626698	66524830.4468	0
6400000.0	40910.0	96730664.5742	0.263707853498	174302.294922	0.213168503251	1.46650326252	62129.368762	39945.8465576	11574.2985994	55.7248817533	1127402.78262	66529652.7412	0
6425000.0	41076.0	98220869.6919	0.264594508971	174305.322266	0.215418054722	1.46355497837	61843.1894161	39726.5441895	11572.6847838	55.824732027	1901020.81056	66534475.5471	0
6450000.0	41242.0	99726901.4203	0.265477837499	174307.592773	0.217681488721	1.46063601971	61560.2061549	39509.7686768	11569.1148577	56.1024861385	1350806.11173	66539298.8646	0
6475000.0	41409.0	101248806.482	0.266366001003	174310.473633	0.219951121835	1.45771074295	61277.6336799	39293.4844971	11562.8542672	56.4000920833	878970.301936	66544122.6937	0
6500000.0	41576.0	102786686.26	0.267253128161	174312.182617	0.222234986722	1.45480728149	60997.2010737	39078.9306641	11554.7192955	56.7076224345	478981.867985	66548947.0344	0
6525000.0	41744.0	104340587.1	0.268145549902	174314.18457	0.224525210797	1.4518969059	60716.9140479	38864.666748	11543.9407176	57.2049008304	4488047.62978	66553771.8868	0
6550000.0	41913.0	105910554.671	0.269042312144	174316.357422	0.226821532124	1.44898402691	60437.1107585	38650.9155273	11530.5512635	57.3828539132	6265.26073759	66558597.2508	0
6575000.0	42081.0	107496742.168	0.269927650603	174315.795898	0.229139666772	1.4461376667	60162.8479082	38441.3116455	11516.2416194	57.7303461651	149082.955126	66563423.1266	0
6600000.0	42251.0	109099139.362	0.270822577192	174316.723633	0.231455778703	1.44326460361	59887.4602616	38231.0424805	11498.5405013	58.1085822149	440525.401415	66568249.514	0
6625000.0	42420.0	110717898.658	0.2717042538	174314.770508	0.2337936603	1.44046604633	59618.2361263	38025.3326416	11480.009448	58.3145685037	3313588.00006	66573076.4131	0
6650000.0	42590.0	112353064.155	0.272586428298	174312.658691	0.23613742087	1.43768000603	59350.7050104	37820.9320068	11459.0042659	58.8851728428	1410479.00943	66577903.824	0
6675000.0	42761.0	114004680.842	0.273472121134	174310.36377	0.238487031311	1.43489718437	59083.7756496	37617.0654297	11435.5637632	59.3045028023	2013614.24794	66582731.7467	0
6700000.0	42932.0	115672846.7	0.274356445611	174307.727051	0.240849942202	1.43213582039	58818.7910066	37414.6911621	11410.5549436	59.5602492758	1440792.4319	66587560.1812	0
6725000.0	43103.0	117357656.123	0.275239156567	174304.992676	0.243225818849	1.42939257622	58555.8113179	37213.9404297	11384.0258105	60.0000235644	928296.125608	66592389.1274	0
6750000.0	43275.0	119059145.389	0.276126875119	174303.527832	0.245606555836	1.42663764954	58292.8622588	37013.4216309	11355.1394104	60.4613163363	507660.333298	66597218.5856	0
6775000.0	43447.0	120777406.64	0.277011556502	174302.026367	0.248000083957	1.42390179634	58032.3961896	36814.9475098	11324.8092382	60.9334973033	170949.522594	66602048.5555	0
6800000.0	43620.0	122512473.825	0.277899476058	174301.879883	0.25039803586	1.42115521431	57772.485688	36617.1813965	11292.204144	61.6051715521	6079028.18865	66606879.0374	0
6825000.0	43794.0	124264380.281	0.27878986318	174303.051758	0.252800411545	1.41839969158	57513.4501634	36420.3796387	11257.3566201	61.9440315654	205188.647487	66611710.0311	0
6850000.0	43967.0	126033274.937	0.279670010639	174302.734375	0.255223858403	1.41568994522	57258.9075187	36227.1057129	11222.0744817	62.2810477182	4324010.22983	66616541.5368	0
6875000.0	44141.0	127819194.87	0.280554494429	174303.430176	0.257652136497	1.41296625137	57004.4085176	36034.1552734	11184.6431246	62.999398406	1089063.28183	66621373.5545	0
6900000.0	44316.0	129622174.159	0.281442890828	174305.163574	0.260084838374	1.41023170948	56750.243574	35841.7175293	11145.1092885	63.5609953751	1662695.38611	66626206.0841	0
6925000.0	44491.0	131442303.495	0.282327372085	174306.591797	0.26253022952	1.40752053261	56498.7296394	35651.4038086	11104.3861669	63.9515423448	2163692.66477	66631039.1256	0
6950000.0	44666.0	133279673.009	0.283207428599	174307.763672	0.264988164417	1.40483498573	56250.09634	35463.3789062	11062.5242725	64.5353900678	1513882.80322	66635872.6793	0
6975000.0	44842.0	135134313.859	0.284089217327	174309.936523	0.267450144747	1.40215051174	56002.5481151	35276.3153076	11018.2914981	65.3300340987	4018545.27312	66640706.7449	0
7000000.0	45019.0	137006255.82	0.284972138417	174313.061523	0.269915937679	1.39947152138	55756.3917778	35090.4327393	10971.3561923	65.969364613	4984199.04579	66645541.3226	0
7025000.0	45196.0	138895588.567	0.285849771684	174315.771484	0.272394245258	1.39682614803	55513.2909384	34906.8634033	10922.7497948	66.4375639346	95314.9577359	66650376.4125	0
7050000.0	45373.0	140802404.022	0.286722654425	174317.895508	0.274885387626	1.39421236515	55273.0206349	34725.4516602	10872.5798848	67.1084068209	87181.8132156	66655212.0144	0
7075000.0	45551.0	142726734.162	0.287597137567	174320.727539	0.277380633634	1.39160096645	55033.6997947	34544.8974609	10820.0502714	67.8076482318	469884.162839	66660048.1286	0
7100000.0	45729.0	144668668.865	0.288465622672	174322.998047	0.279888423393	1.38901889324	54797.4269436	34366.7175293	10766.1666998	68.3312596523	4140079.20706	66664884.7549	0
7125000.0	45907.0	146628296.892	0.289327653063	174324.804688	0.282408611383	1.38646543026	54564.2758316	34191.003418	10711.0225249	69.0615685478	3135978.41499	66669721.8934	0
7150000.0	46086.0	148605647.378	0.290189570551	174327.282715	0.284932466457	1.38391149044	54332.5027164	34016.5649414	10653.821051	70.0155510659	2770999.02547	66674559.5442	0
7175000.0	46266.0	150600747.372	0.291050519072	174330.444336	0.287459668471	1.3813560009	54102.2456335	33843.548584	10594.6564793	70.8051606899	3864640.71234	66679397.7073	0
7200000.0	46446.0	152613685.185	0.291904340819	174332.910156	0.289999326924	1.37882423401	53875.207743	33673.1658936	10534.5480792	71.4126100496	631845.203166	66684236.3826	0
7225000.0	46626.0	154644551.486	0.292751375915	174334.594727	0.292551529128	1.37631559372	53651.2228126	33505.291748	10473.5846796	72.232776829	97477.2591476	66689075.5703	0
7250000.0	46807.0	156693376.396	0.293597894816	174336.59668	0.295107573038	1.37380743027	53428.5708454	33338.659668	10410.9620598	73.0819495494	184924.679461	66693915.2704	0
7275000.0	46988.0	158760247.138	0.294436818081	174337.82959	0.29767586966	1.3713285923	53209.1702017	33174.5941162	10347.6685739	73.9471968258	848246.854268	66698755.4829	0
7300000.0	47170.0	160845190.743	0.295274375477	174339.355469	0.300247455016	1.36885607243	52991.3403302	33011.895752	10282.8968309	74.8418562614	1810752.23797	66703596.2078	0
7325000.0	47352.0	162948292.271	0.296103436951	174340.112305	0.302830943838	1.36641931534	52776.9719581	32851.84021	10217.6217892	75.5451595852	2286808.03568	66708437.4452	0
7350000.0	47534.0	165069636.76	0.296923692815	174340.014648	0.305426161503	1.36402225494	52566.1581292	32694.4335938	10151.9362413	76.4700168458	1133571.52673	66713279.195	0
7375000.0	47717.0	167209250.025	0.297741784441	174339.990234	0.30802458059	1.36163723469	52357.0317657	32538.4124756	10085.022961	77.424527759	268401.280748	66718121.4574	0
7400000.0	47900.0	169367219.951	0.298551347929	174338.818359	0.310635310598	1.35928833485	52151.2265215	32384.8999023	10017.879744	78.3946310591	161020.998862	66722964.2324	0
7425000.0	48084.0	171543572.117	0.299358360372	174337.597656	0.313249242026	1.35695028305	51947.0639902	32232.7423096	9949.69772481	79.3944272246	1048966.71205	66727807.5199	0
7450000.0	48268.0	173738393.149	0.300156515196	174335.217285	0.315875164233	1.35464668274	51746.2649876	32083.1695557	9881.41557074	80.4099856993	2442241.19583	66732651.32	0
7475000.0	48453.0	175951707.173	0.300952847824	174333.190918	0.318503938615	1.35234856606	51546.954727	31934.8907471	9812.26601945	81.4554167826	4233763.04917	66737495.6328	0
7500000.0	48638.0	178183596.5	0.301741955084	174331.213379	0.321143714245	1.35007381439	51350.4988518	31788.9099121	9743.12966907	82.294591218	442224.45927	66742340.4583	0
7525000.0	48823.0	180434143.218	0.30252360256	174329.284668	0.323794782162	1.34782099724	51156.8212486	31645.1690674	9674.10867827	83.3694312129	147915.591277	66747185.7964	0
7550000.0	49009.0	182703368.827	0.303304068131	174328.24707	0.326448469423	1.34556770325	50964.3832418	31502.6519775	9604.43768011	84.4742286874	1249816.9218	66752031.6474	0
7575000.0	49195.0	184991356.361	0.304077019142	174327.099609	0.329113710904	1.34333753586	50774.673105	31362.3443604	9534.98577096	85.3650622662	2921856.19604	66756878.0111	0
7600000.0	49381.0	187298188.519	0.304842243218	174325.830078	0.331790331984	1.34113061428	50587.7155991	31224.2492676	9465.84900687	86.4978923012	1161520.53534	66761724.8876	0
7625000.0	49568.0	189623881.982	0.30560571705	174325.512695	0.334468786605	1.33892500401	50401.995854	31087.2680664	9396.243725	87.6609704344	51795.4716263	66766572.2769	0
7650000.0	49755.0	191968514.448	0.306361097152	174325.146484	0.337158096954	1.33674371243	50219.058019	30952.4627686	9327.02738302	88.8392667451	820268.870135	66771420.1791	0
7675000.0	49943.0	194332098.805	0.307114171486	174325.830078	0.339848629665	1.33456468582	50037.4705527	30818.8140869	9257.46707369	90.0480631394	2669273.72444	66776268.5942	0
7700000.0	50131.0	196714709.28	0.30785861902	174326.464844	0.342549465131	1.33241081238	49858.7451708	30687.3535156	9188.41545171	91.0297569027	1382073.77566	66781117.5223	0
7725000.0	50319.0	199116424.874	0.308594060105	174326.904297	0.34526118543	1.33028137684	49682.8937034	30558.1390381	9119.3181626	92.2715001675	36998.8230608	66785966.9633	0
7750000.0	50508.0	201537260.628	0.309326247911	174328.137207	0.347974535543	1.32815480232	49508.4467831	30430.166626	9049.00162174	93.5544687316	1083751.95226	66790816.9173	0
7775000.0	50697.0	203977294.436	0.310049747772	174329.211426	0.350698654074	1.32605266571	49336.8058638	30304.4128418	8978.33016487	94.612662111	2996921.2489	66795667.3844	0
7800000.0	50886.0	206436603.561	0.310764827646	174330.151367	0.353433482815	1.32397508621	49167.8825129	30180.8105469	8907.39886943	95.9435782618	759039.59196	66800518.3645	0
7825000.0	51076.0	208915201.718	0.311476875595	174331.90918	0.356169766746	1.3219025135	49000.2972234	30058.3953857	8835.50476036	97.3164293895	303084.415428	66805369.8577	0
7850000.0	51266.0	211413164.737	0.312180668798	174333.544922	0.358916440746	1.31985640526	48835.4166916	29938.1103516	8763.49812068	98.7149151517	2395812.34497	66810221.8641	0
7875000.0	51457.0	213930507.635	0.312880951012	174335.900879	0.361664686352	1.31781673431	48671.9695265	29819.0856934	8690.7136941	100.15567321	5640643.77291	66815074.3836	0
7900000.0	51648.0	216467308.839	0.31357198015	174337.927246	0.364423904102	1.31580412388	48511.3467494	29702.2857666	8617.98494757	101.356511125	33808.2608817	66819927.4163	0
7925000.0	51839.0	219023647.213	0.314253800967	174339.672852	0.36719389027	1.31381881237	48353.4931614	29587.6312256	8545.37693365	102.576266905	5087612.63742	66824780.9623	0
7950000.0	52030.0	221599599.413	0.31492674617	174341.137695	0.369974470232	1.3118622303	48198.3871805	29475.0671387	8472.95270842	104.086418167	1759718.76924	66829635.0215	0
7975000.0	52222.0	224195176.015	0.315595787967	174343.249512	0.372756039724	1.30991375446	48044.7643636	29363.7298584	8400.03547739	105.639483193	26337.3452602	66834489.5941	0
8000000.0	52414.0	226810449.756	0.31625618423	174345.129395	0.375547766453	1.30799472332	47893.8005164	29254.3609619	8327.4348897	107.217719352	2211710.39307	66839344.68	0
8025000.0	52607.0	229445427.823	0.31691283685	174347.668457	0.37833978422	1.30608475208	47744.3078504	29146.1883545	8254.46478449	108.839699435	6145058.52205	66844200.2792	0
8050000.0	52800.0	232100184.906	0.317560392293	174349.768066	0.381142192055	1.30420684814	47597.5776476	29040.0726318	8181.93645051	110.201192587	246991.804292	66849056.3919	0
8075000.0	52993.0	234774796.968	0.318198770449	174351.464844	0.383954960853	1.30235862732	47453.5507162	28936.0015869	8109.89401603	111.580348318	4101706.52652	66853913.0181	0
8100000.0	53186.0	237469338.131	0.318827650646	174352.734375	0.386778032407	1.30053770542	47312.1915468	28833.9813232	8038.39766072	113.269248075	668045.753754	66858770.1578	0
8125000.0	53380.0	240183817.755	0.319451624942	174354.467773	0.389601715142	1.29872345924	47172.3662103	28733.2824707	7966.77931926	115.001667629	1137290.90142	66863627.811	0
8150000.0	53574.0	242918308.481	0.320065418644	174355.859375	0.39243552601	1.29693210125	47035.1904562	28634.6832275	7895.79906353	116.758301712	5247065.77497	66868485.9777	0
8175000.0	53769.0	245672816.853	0.320673582846	174357.739258	0.395269715227	1.29514372349	46899.5998695	28537.5061035	7824.80683368	118.254769354	70375.6986656	66873344.6581	0
8200000.0	53963.0	248447484.322	0.321266639414	174358.276367	0.398123986088	1.29339420795	46767.7280786	28443.1762695	7755.23623838	119.747053109	4307308.36333	66878203.8521	0
8225000.0	54158.0	251242321.792	0.32185334803	174359.106445	0.400979159167	1.2916508913	46637.4983853	28350.2807617	7685.76098362	121.586158479	417807.903145	66883063.5599	0
8250000.0	54353.0	254057403.818	0.322429338974	174359.423828	0.403844518587	1.28993082047	46509.918697	28259.487915	7617.07538544	123.448330847	2048069.79975	66887923.7813	0
8275000.0	54549.0	256892737.157	0.322998813524	174360.009766	0.40671043098	1.28821778297	46384.0692457	28170.2026367	7548.580911	125.353416015	7564780.1163	66892784.5165	0
8300000.0	54745.0	259748394.511	0.323557049025	174360.070801	0.409586296882	1.28653001785	46260.9576245	28083.0718994	7480.96519101	126.957027765	1283894.03848	66897645.7655	0
8325000.0	54941.0	262624447.282	0.324104294055	174359.58252	0.412471825257	1.28486740589	46140.5722493	27998.0804443	7414.25632659	128.574313249	1775381.52997	66902507.5283	0
8350000.0	55137.0	265520965.443	0.324639371846	174358.483887	0.415367074311	1.28323245049	46023.1500864	27915.411377	7348.46504009	130.204836371	8244608.17707	66907369.805	0
8375000.0	55333.0	268438024.685	0.325160262001	174356.689453	0.418272626121	1.28162336349	45908.8351677	27835.244751	7283.63341556	132.183738413	1930955.08261	66912232.5956	0
8400000.0	55530.0	271375632.331	0.325673090466	174354.968262	0.421178789111	1.28002548218	45796.4974006	27756.7382812	7219.16767833	134.204158396	1096550.93793	66917095.9002	0
8425000.0	55727.0	274333859.979	0.326176022745	174352.770996	0.42409467278	1.27845036983	45686.6137943	27680.1635742	7155.72032909	136.244275355	7308725.78154	66921959.7188	0
8450000.0	55925.0	277312709.462	0.326675803684	174351.477051	0.427009887062	1.27687966824	45577.8595215	27604.5532227	7092.68263832	137.977085414	1525740.08513	66926824.0513	0
8475000.0	56122.0	280312315.104	0.327166450912	174349.499512	0.429943902418	1.27534329891	45471.6844861	27530.7830811	7031.29643692	139.69783108	1161583.41972	66931688.898	0
8500000.0	56320.0	283332672.911	0.327657908689	174348.461914	0.432876870036	1.27380883694	45366.0889288	27457.5073242	6970.31907376	141.809862623	2229861.54023	66936554.2587	0
8525000.0	56518.0	286373850.904	0.328144940362	174347.460938	0.435818976257	1.27229487896	45262.5567778	27385.8459473	6909.84776308	143.589035188	622828.976078	66941420.1335	0
8550000.0	56716.0	289435916.809	0.328626083686	174346.472168	0.438770570327	1.27080023289	45161.0470557	27315.7836914	6849.82586529	145.390254732	5636264.61676	66946286.5226	0
8575000.0	56914.0	292518938.007	0.329100531591	174345.507812	0.441731128376	1.26932632923	45061.3779574	27247.0855713	6790.24333349	147.585891983	103805.20733	66951153.4258	0
8600000.0	57113.0	295622913.289	0.329570964907	174345.385742	0.444691046141	1.26785671711	44962.4382485	27178.9611816	6730.58785618	149.836272484	4669494.74994	66956020.8433	0
8625000.0	57312.0	298747908.852	0.330032487038	174345.3125	0.447660015197	1.26640689373	44864.8159226	27111.6729736	6671.44915529	151.737047915	303750.862891	66960888.775	0
8650000.0	57511.0	301893990.62	0.330484522642	174345.3125	0.450637948234	1.26497590542	44768.275235	27044.9981689	6612.83008003	153.660080653	2544479.01118	66965757.2211	0
8675000.0	57710.0	305061227.785	0.330926048438	174345.288086	0.453625194496	1.26356506348	44672.7341377	26978.8330078	6554.754852	155.995779663	1607446.93071	66970626.1815	0
8700000.0	57910.0	308249619.518	0.33136071862	174345.996094	0.456611858681	1.26216006279	44577.5987039	26912.8723145	6496.71884918	157.991121859	793705.210513	66975495.6564	0
8725000.0	58109.0	311459302.88	0.331783067887	174345.898438	0.459617789602	1.26078939438	44484.6379804	26848.3398438	6439.80474492	159.983031833	5327819.00304	66980365.6456	0
8750000.0	58309.0	314690275.473	0.332200364554	174346.582031	0.462622760097	1.25942385197	44392.4981048	26784.4665527	6382.96171714	162.426874626	246542.595032	66985236.1493	0
8775000.0	58509.0	317942602.021	0.33261042992	174347.290039	0.465636665467	1.2580769062	44302.1536006	26721.9573975	6326.74546859	164.901732094	7774306.89478	66990107.1675	0
8800000.0	58710.0	321216276.24	0.333017304767	174348.779297	0.468648853712	1.25673472881	44213.0905282	26660.5712891	6270.6387636	167.017363358	2472863.81052	66994978.7003	0
8825000.0	58910.0	324511431.647	0.333415449021	174349.572754	0.471679959446	1.25542509556	44126.7950643	26601.2542725	6215.69157082	169.12776575	125412.69618	66999850.7476	0
8850000.0	59111.0	327828065.898	0.333810162852	174351.025391	0.474710017443	1.25412285328	44041.6863138	26542.9107666	6160.91468766	171.710847902	6392153.17979	67004723.3096	0
8875000.0	59312.0	331166243.938	0.334197450802	174352.416992	0.477748981211	1.25284039974	43958.4397787	26485.9680176	6106.80156813	173.892372429	1691621.45682	67009596.3862	0
8900000.0	59513.0	334526030.357	0.334576670736	174353.759766	0.480796792544	1.25157618523	43877.0336865	26430.4412842	6053.38306595	176.093049751	443173.21583	67014469.9774	0
8925000.0	59714.0	337907488.5	0.334946881946	174355.078125	0.483852985781	1.25032877922	43797.4264233	26376.3092041	6000.65583935	178.312895233	4069703.02652	67019344.0834	0
8950000.0	59915.0	341310680.632	0.335307297977	174356.420898	0.486917648232	1.24909722805	43719.6317158	26323.6175537	5948.61647881	180.551711671	9474455.0806	67024218.7042	0
8975000.0	60116.0	344735668.408	0.335656966478	174357.739258	0.489990809001	1.2478812933	43643.6730716	26272.3968506	5897.29388639	183.263054242	248510.438969	67029093.8397	0
9000000.0	60318.0	348182446.567	0.335997944104	174359.667969	0.49306260189	1.24667060375	43569.138708	26222.4365234	5846.22151707	186.03094204	7422672.32418	67033969.4901	0
9025000.0	60520.0	351651081.45	0.336327775373	174361.450195	0.496143242344	1.24547815323	43496.6164307	26174.0722656	5795.88417006	188.361307606	3025560.61963	67038845.6554	0
9050000.0	60722.0	355141638.297	0.336647149129	174363.110352	0.499232846778	1.2443035841	43426.0509939	26127.2644043	5746.28938124	190.708159191	276348.557716	67043722.3356	0
9075000.0	60924.0	358654182.008	0.336956355826	174364.575195	0.502331240568	1.24314677715	43357.3777005	26081.9488525	5697.43173845	193.071257928	1310947.82784	67048599.5307	0
9100000.0	61126.0	362188777.029	0.337256069928	174365.966797	0.5054383073	1.24200761318	43290.5198478	26038.0493164	5649.31203783	195.450115005	4629317.26718	67053477.2408	0
9125000.0	61328.0	365745487.278	0.337546782533	174367.175293	0.508553988766	1.24088549614	43225.4173133	25995.5169678	5601.94317794	198.333472691	2580956.73933	67058355.466	0
9150000.0	61531.0	369324307.659	0.337831438841	174368.994141	0.511667924002	1.23976910114	43161.4638293	25953.9611816	5554.8983117	200.776550848	262852.436044	67063234.2062	0
9175000.0	61733.0	372925384.989	0.338105755104	174369.995117	0.514800543897	1.23868119717	43099.6722051	25913.9648438	5509.02270228	203.204800491	1026457.11615	67068113.4615	0
9200000.0	61936.0	376548687.039	0.338374866362	174371.582031	0.517931126524	1.23759841919	43038.9147182	25874.8321533	5463.48996834	206.183394381	7701758.89813	67072993.232	0
9225000.0	62139.0	380194295.755	0.338637160918	174373.034668	0.521069800016	1.2365322113	42979.6606949	25836.819458	5418.72027344	208.159156273	7390180.87396	67077873.5177	0
9250000.0	62341.0	383862330.53	0.338890661952	174373.55957	0.524232455064	1.23549449444	42922.3886715	25800.1800537	5375.14360871	210.621495303	11719373.8403	67082754.3186	0
9275000.0	62544.0	387552775.379	0.3391407311	174374.780273	0.527387252077	1.23446083069	42865.9681403	25764.2425537	5331.8822568	213.655051848	7743.99649106	67087635.6347	0
9300000.0	62747.0	391265694.299	0.339382766237	174375.769043	0.530550954863	1.23344683647	42811.2467396	25729.5593262	5289.38721526	216.711121083	11861190.2649	67092517.4662	0
9325000.0	62951.0	395001081.094	0.339618492109	174377.111816	0.53371291142	1.23244178295	42757.8350367	25695.9472656	5247.27118755	219.281221607	8096831.08048	67097399.813	0
9350000.0	63154.0	398759073.563	0.339843778802	174377.453613	0.536894309334	1.23146605492	42706.6178384	25663.9129639	5206.30215457	221.284402531	6998594.18152	67102282.6752	0
9375000.0	63357.0	402539736.302	0.340060982768	174377.502441	0.540084438398	1.23050904274	42657.041856	25633.0963135	5165.92524221	224.39273626	2476930.7412	67107166.0528	0
9400000.0	63561.0	406343061.313	0.340272253239	174377.929688	0.543272763025	1.22955918312	42608.6334115	25603.2409668	5125.71514319	227.004530831	695628.266102	67112049.9458	0
9425000.0	63764.0	410169184.591	0.340474223326	174377.355957	0.546480179764	1.22863590717	42562.1777942	25574.7756958	5086.39879894	229.602491738	100971.021974	67116934.3543	0
9450000.0	63968.0	414018094.676	0.340670677853	174377.13623	0.54968520999	1.22771811485	42516.7451991	25547.164917	5047.24548372	232.249398626	1286927.29227	67121819.2784	0
9475000.0	64171.0	417889927.358	0.340858356312	174375.964355	0.552909390535	1.22682499886	42473.0985801	25520.8114624	5008.9764856	234.881181693	3060758.36239	67126704.718	0
9500000.0	64375.0	421784669.9	0.341040972851	174375.134277	0.556131184567	1.22593569756	42430.3418155	25495.2178955	4970.86120215	238.146035211	7493824.05863	67131590.6732	0
9525000.0	64579.0	425702381.549	0.341217206188	174373.999023	0.559360778425	1.2250597477	42388.8252262	25470.5459595	4933.25260841	240.261034529	7567130.66013	67136477.144	0
9550000.0	64782.0	429643195.731	0.341385758051	174371.911621	0.562609056942	1.22420489788	42348.8419289	25446.9665527	4896.49301677	242.943876724	10096017.8546	67141364.1306	0
9575000.0	64986.0	433607096.632	0.341549915115	174370.43457	0.565854308661	1.22335159779	42309.5742404	25424.0081787	4859.88994277	246.279845129	1850397.28375	67146251.6328	0
9600000.0	65190.0	437594140.219	0.341707186802	174369.165039	0.569107127376	1.22250890732	42271.5809394	25402.0629883	4823.77233746	249.036285742	732836.525347	67151139.6508	0
9625000.0	65394.0	441604390.477	0.341856272164	174367.980957	0.572368211579	1.22167921066	42235.0776639	25381.3064575	4788.14394658	251.809157295	71159.7061251	67156028.1846	0
9650000.0	65598.0	445637908.288	0.341997735183	174366.833496	0.575637619477	1.22086286545	42200.0603666	25361.7279053	4753.0083201	254.597753396	272256.141678	67160917.2343	0
9675000.0	65802.0	449694754.782	0.342131724218	174365.795898	0.578915234655	1.22005999088	42166.4338799	25343.2296753	4718.34291798	257.402829426	943743.358079	67165806.7997	0
9700000.0	66006.0	453774990.234	0.342258668415	174364.868164	0.582200882491	1.21927022934	42134.1193124	25325.7354736	4684.15663001	260.223486765	1757290.65884	67170696.8811	0
9725000.0	66210.0	457878673.616	0.342378803505	174364.050293	0.585494562984	1.21849250793	42103.0323708	25309.1903687	4650.43758762	263.704618782	12316450.9307	67175587.4784	0
9750000.0	66415.0	462005788.428	0.342493429486	174363.989258	0.588785216678	1.21771919727	42072.8199572	25293.3761597	4616.87002753	266.59846513	11113367.479	67180478.5917	0
9775000.0	66619.0	466156467.799	0.342600884114	174363.452148	0.592094263993	1.21696567535	42043.9854878	25278.5186768	4584.06817722	268.814642112	4335824.10045	67185370.221	0
9800000.0	66823.0	470330769.653	0.34270218985	174363.061523	0.59541122755	1.21622419357	42016.1793794	25264.4088745	4551.71926584	271.697682609	5118563.99639	67190262.3664	0
9825000.0	67027.0	474528751.04	0.342798092173	174362.841797	0.598735758103	1.21549379826	41989.3182142	25250.982666	4519.81698247	274.59575161	5833341.64669	67195155.0278	0
9850000.0	67231.0	478750468.235	0.342888497865	174362.780762	0.60206791386	1.21477460861	41963.3269615	25238.1668091	4488.35019706	278.189129178	8011704.31482	67200048.2053	0
9875000.0	67436.0	482995900.122	0.342974912639	174363.562012	0.605396227911	1.21405816078	41937.8749017	25225.7766724	4457.03397072	281.159919733	7598138.78775	67204941.899	0
9900000.0	67640.0	487265180.223	0.343055197948	174363.842773	0.608743284829	1.21336114407	41913.531601	25214.0808105	4426.43194072	283.415329524	7421795.55201	67209836.1089	0
9925000.0	67844.0	491558370.555	0.34312858724	174364.172363	0.612098607235	1.21267700195	41890.2476363	25203.1585693	4396.26688375	286.371246928	7701726.60286	67214730.8351	0
9950000.0	68048.0	495875532.28	0.343195549026	174364.587402	0.615462078713	1.21200585365	41868.0269767	25193.0099487	4366.52313065	290.049880756	7182936.06913	67219626.0775	0
9975000.0	68253.0	500216648.874	0.343256946603	174365.661621	0.618822639808	1.21133995056	41846.6381351	25183.5281372	4336.92823465	293.076141509	7355013.30198	67224521.8362	0
10000000.0	68457.0	504581856.618	0.343311340845	174366.19873	0.622202176601	1.21069443226	41826.5577956	25174.9237061	4308.01635858	295.355616659	7625932.26526	67229418.1112	0
10025000.0	68661.0	508971216.461	0.343359736989	174366.772461	0.625589862466	1.2100610733	41807.4919726	25167.0516968	4279.52275524	298.363604515	7304238.37985	67234314.9026	0
10050000.0	68865.0	513384785.037	0.343402636034	174367.480469	0.628985115327	1.20943939686	41789.4558787	25159.9304199	4251.42299308	302.123585303	8791626.87215	67239212.2104	0
10075000.0	69070.0	517822543.399	0.343440427558	174368.87207	0.632376875728	1.20882213116	41772.1945769	25153.4347534	4223.4613646	305.202102623	9626638.18654	67244110.0347	0
10100000.0	69274.0	522284624.712	0.343472264373	174369.775391	0.635787378997	1.20822381973	41756.1465496	25147.7432251	4196.15815526	307.501727098	5536433.49307	67249008.3754	0
10125000.0	69478.0	526771084.74	0.343499099629	174370.776367	0.639205332845	1.20763635635	41741.0664566	25142.7597046	4169.24201841	310.55958947	4738073.64671	67253907.2326	0
10150000.0	69682.0	531281979.04	0.343521015386	174371.923828	0.642630562652	1.2070595026	41726.9435896	25138.4689331	4142.71230949	313.628979795	3866160.03924	67258806.6064	0
10175000.0	69886.0	535817362.055	0.343538206723	174373.193359	0.646062893793	1.20649290085	41713.7313757	25134.8434448	4116.55932034	316.710082844	2949600.70367	67263706.4968	0
10200000.0	70090.0	540377286.883	0.343550756641	174374.560547	0.649502442684	1.20593595505	41701.446118	25131.9000244	4090.78253073	319.802248705	2027300.60342	67268606.9038	0
10225000.0	70294.0	544961812.912	0.343557228931	174375.964355	0.652949791402	1.20539104939	41690.2735798	25129.7851562	4065.37246927	322.905287483	1132870.19193	67273507.8275	0
10250000.0	70498.0	549570999.578	0.343557679186	174377.368164	0.656405056361	1.20485782623	41680.1787993	25128.4744263	4040.33760755	326.017813258	365824.643082	67278409.2678	0
10275000.0	70702.0	554204905.046	0.343552304341	174378.78418	0.659868121147	1.20433604717	41671.1234211	25127.935791	4015.65972243	329.140678357	43452.6323349	67283311.2249	0
10300000.0	70906.0	558863589.328	0.343541583292	174380.175781	0.663339102175	1.20382499695	41663.0518546	25128.1356812	3991.35167763	332.27210278	734803.041289	67288213.6988	0
10325000.0	71110.0	563547109.21	0.343525713993	174381.591797	0.666817766614	1.20332455635	41655.9236012	25129.0298462	3967.39114933	335.413368201	1949907.73376	67293116.6894	0
10350000.0	71314.0	568255523.113	0.343504894795	174382.995605	0.670304114465	1.20283508301	41649.7009872	25130.5786133	3943.77796834	338.56383313	3630206.65329	67298020.1969	0
10375000.0	71518.0	572988889.1	0.343479746318	174384.423828	0.673798262142	1.2023550272	41644.3381467	25132.7697754	3920.50763743	341.723154414	5756864.21984	67302924.2213	0
10400000.0	71722.0	577747262.568	0.343450326713	174385.864258	0.677299627569	1.20188510418	41639.7704225	25135.5270386	3897.56718021	344.046773234	9494062.10364	67307828.7626	0
10425000.0	71925.0	582530780.352	0.343416863117	174386.71875	0.680820085108	1.20143055916	41636.0869949	25138.8519287	3875.16513876	347.177681362	6823954.08401	67312733.8208	0
10450000.0	72129.0	587339419.383	0.343379920133	174388.208008	0.684336700942	1.200979352	41632.9987779	25142.6605225	3852.85801512	351.218522446	14878798.8436	67317639.3961	0
10475000.0	72333.0	592173234.574	0.343339640535	174389.660645	0.687860534526	1.20053768158	41630.6087739	25146.9543457	3830.85595387	353.547669704	2166353.32054	67322545.4883	0
10500000.0	72536.0	597032362.138	0.343296279557	174390.600586	0.691403169185	1.20011079311	41628.9451768	25151.6723633	3809.36849235	356.706659691	533881.402351	67327452.0976	0
10525000.0	72740.0	601916779.345	0.343248491195	174392.041016	0.694942020345	1.19968926907	41628.0277792	25156.9854736	3787.95580561	359.916017766	275054.730489	67332359.224	0
10550000.0	72943.0	606826629.238	0.343195661352	174392.84668	0.698500662111	1.19928503036	41628.0970776	25162.9455566	3767.04397884	363.093196394	1936269.85353	67337266.8676	0
10575000.0	73147.0	611761890.114	0.343138215775	174394.128418	0.702055695001	1.19888675213	41628.9515525	25169.5236206	3746.20235294	366.320749206	4564816.65924	67342175.0283	0
10600000.0	73350.0	616722702.168	0.343076664225	174394.750977	0.70563016925	1.1985039711	41630.6731353	25176.6586304	3725.84419154	368.608129669	11349537.9267	67347083.7062	0
10625000.0	73553.0	621709125.308	0.343011207492	174395.288086	0.709212617949	1.19813108444	41633.1340181	25184.3139648	3705.74313557	371.805484231	7447299.7868	67351992.9013	0
10650000.0	73756.0	626721218.092	0.342942130461	174395.751953	0.712802866474	1.1977673769	41636.2997596	25192.4575806	3685.90430708	375.011821843	4015639.10284	67356902.6137	0
10675000.0	73959.0	631759039.482	0.34286999809	174396.118164	0.716400914825	1.19741225243	41640.1049054	25201.0482788	3666.31660025	378.227741489	1304981.01511	67361812.8435	0
10700000.0	74162.0	636822647.712	0.342794954332	174396.350098	0.720006530173	1.19706523418	41644.5169357	25210.0524902	3646.9811404	381.452734342	78551.9546072	67366723.5905	0
10725000.0	74365.0	641912097.148	0.342717535097	174396.520996	0.723619654309	1.19672644138	41649.5058262	25219.4366455	3627.87511402	384.68871757	2026506.08441	67371634.855	0
10750000.0	74568.0	647027446.652	0.342638023529	174396.557617	0.727240345441	1.19639384747	41654.9629149	25229.1351318	3609.01183022	387.933781553	5344567.29067	67376546.6368	0
10775000.0	74771.0	652168750.609	0.342556730315	174396.496582	0.73086831253	1.19606864452	41660.911939	25239.1464233	3590.37671321	391.189149935	9700112.9159	67381458.9361	0
10800000.0	74974.0	657336065.395	0.342474021546	174396.313477	0.734503613785	1.19574904442	41667.2793159	25249.4308472	3571.96331607	393.483470729	6374915.34601	67386371.7529	0
10825000.0	75176.0	662529528.921	0.342389731599	174395.410156	0.738158007152	1.19544196129	41674.1889113	25259.9914551	3553.95650673	396.7085609	2722276.06845	67391285.0872	0
10850000.0	75379.0	667749119.969	0.342301627978	174394.848633	0.74180867523	1.19513905048	41681.7696011	25271.0891724	3535.98223656	399.985738842	248067.261369	67396198.939	0
10875000.0	75581.0	672994979.939	0.342211000952	174393.469238	0.745479366742	1.19485032558	41690.026539	25282.5714111	3518.40017743	403.229608652	1300640.57146	67401113.3084	0
10900000.0	75784.0	678267087.145	0.342117240644	174392.456055	0.749145983718	1.19456517696	41698.8636142	25294.5098877	3500.83635345	406.527268514	4785169.30896	67406028.1955	0
10925000.0	75986.0	683565582.668	0.342021607284	174390.771484	0.752832158469	1.19429290295	41708.291304	25306.7779541	3483.66236316	408.778690044	12184592.5931	67410943.6002	0
10950000.0	76188.0	688890524.951	0.341923212091	174389.233398	0.7565257838	1.19402837753	41718.3164477	25319.4564819	3466.67539062	412.044882199	6914823.64927	67415859.5226	0
10975000.0	76390.0	694241970.425	0.341822422023	174387.866211	0.760226743296	1.1937713623	41728.9092425	25332.5271606	3449.88109482	415.321082052	2653669.39428	67420775.9627	0
11000000.0	76592.0	699619975.553	0.341719519773	174386.669922	0.763935502619	1.19352138042	41740.0262107	25345.9518433	3433.27370585	418.607327376	65112.6314622	67425692.9206	0
11025000.0	76794.0	705024594.386	0.341614787444	174385.668945	0.76765101403	1.19327807426	41751.624749	25359.7000122	3416.84380217	421.90496011	2096084.23486	67430610.3963	0
11050000.0	76996.0	710455881.757	0.341508450907	174384.863281	0.771373859607	1.19304120541	41763.6685826	25373.7426758	3400.59333231	425.21305693	6483561.51458	67435528.3898	0
11075000.0	77198.0	715913893.082	0.341400763318	174384.240723	0.775103981141	1.19281041622	41776.1147264	25388.0462646	3384.51676562	428.531969091	12386447.3344	67440446.9011	0
11100000.0	77400.0	721398680.9	0.341292060547	174383.837891	0.778840912972	1.19258546829	41788.9370733	25402.5894165	3368.60496705	430.793793618	5143139.43212	67445365.9304	0
11125000.0	77601.0	726910384.617	0.341182788649	174383.068848	0.782597169746	1.19237041473	41802.0952652	25417.2805786	3353.03303222	434.08146912	1172752.22386	67450285.4775	0
11150000.0	77803.0	732448975.451	0.341070008856	174383.007812	0.786348828115	1.19215989113	41815.9457158	25432.5241089	3337.45246384	437.425497923	755179.522708	67455205.5427	0
11175000.0	78004.0	738014597.988	0.340954919987	174382.531738	0.790120102465	1.19196152687	41830.4064217	25448.135376	3322.19961854	439.641003112	21060859.6812	67460126.1258	0
11200000.0	78205.0	743607308.657	0.340837194426	174382.226562	0.793899176642	1.19177126884	41845.4647621	25464.1571045	3307.09999515	444.054505175	10658883.404	67465047.227	0
11225000.0	78407.0	749227079.422	0.340716394874	174382.568359	0.797673477791	1.19158482552	41861.0978471	25480.6289673	3291.98948135	447.431255159	18315595.344	67469968.8462	0
11250000.0	78608.0	754874052.146	0.340594270376	174382.519531	0.801467569545	1.1914087534	41877.1906153	25497.354126	3277.19267904	449.654263015	1926879.95618	67474890.9835	0
11275000.0	78809.0	760548283.456	0.34047038167	174382.641602	0.805268879049	1.19123876095	41893.7032134	25514.3478394	3262.54119125	452.998679593	426495.423388	67479813.6389	0
11300000.0	79010.0	766249830.081	0.340345036492	174382.897949	0.809077755548	1.19107496738	41910.6176631	25531.6009521	3248.03009586	455.219234171	22787681.3991	67484736.8125	0
11325000.0	79210.0	771978834.298	0.340219342023	174382.763672	0.812906073406	1.19091951847	41927.789616	25548.9440918	3233.81077246	458.53215072	14430751.5687	67489660.5043	0
11350000.0	79411.0	777735265.82	0.340092003058	174383.325195	0.816729734652	1.19076550007	41945.3269032	25566.5710449	3219.57592879	463.053702064	19042107.2189	67494584.7143	0
11375000.0	79612.0	783519180.043	0.339964180715	174384.04541	0.820560264401	1.1906157732	41963.0980517	25584.3215942	3205.49877037	465.279834208	1954484.75792	67499509.4425	0
11400000.0	79812.0	789330717.589	0.33983686744	174384.375	0.824410642963	1.19047272205	41980.9871113	25602.0599365	3191.76700833	468.613218285	515245.072908	67504434.6891	0
11425000.0	80013.0	795169847.526	0.339708714007	174385.388184	0.828255550005	1.19032967091	41999.0978951	25619.9645996	3178.06964482	471.996329799	4933351.50892	67509360.454	0
11450000.0	80213.0	801036711.942	0.339580217299	174386.010742	0.832120364066	1.19019436836	42017.4651163	25637.9699707	3164.7055536	474.149352266	14655799.1957	67514286.7372	0
11475000.0	80413.0	806931370.12	0.3394495101	174386.71875	0.83599309437	1.1900652647	42036.318689	25656.3018799	3151.51530538	477.482024611	7205391.11411	67519213.5388	0
11500000.0	80613.0	812853881.101	0.339316981932	174387.536621	0.839873217046	1.18994164467	42055.5812566	25674.911499	3138.49374687	480.81786311	1695883.10196	67524140.8588	0
11525000.0	80813.0	818804301.606	0.339183021182	174388.476562	0.843761255965	1.18982362747	42075.2400632	25693.7713623	3125.63923941	484.156314934	895487.065015	67529068.6973	0
11550000.0	81013.0	824782689.512	0.339047932843	174389.501953	0.847656396218	1.18971037865	42095.2330707	25712.8448486	3112.93991553	487.499198274	6059350.21083	67533997.0543	0
11575000.0	81213.0	830789101.927	0.33891202097	174390.625	0.851559336297	1.1896020174	42115.5109562	25732.0892334	3100.39430981	489.618773903	13778950.9074	67538925.9297	0
11600000.0	81412.0	836823683.008	0.338776573739	174391.320801	0.855482183397	1.18950092793	42135.9458753	25751.3519287	3088.14338204	492.912797014	6201707.19026	67543855.3238	0
11625000.0	81612.0	842886403.789	0.338640031714	174392.63916	0.859399908222	1.18940079212	42156.6686783	25770.8374023	3075.8902043	497.503652547	34950133.3925	67548785.2363	0
11650000.0	81812.0	848977317.38	0.338503627029	174394.055176	0.863324909005	1.18930494785	42177.5643277	25790.3961182	3063.77310489	499.612626187	1837567.05586	67553715.6675	0
11675000.0	82011.0	855096569.989	0.338368533265	174395.007324	0.867270049639	1.18921542168	42198.4713215	25809.8602295	3051.93159157	501.66130391	21914781.7122	67558646.6173	0
11700000.0	82210.0	861244217.122	0.338234120075	174396.081543	0.8712222334	1.18912935257	42219.4541289	25829.3182373	3040.21595748	504.968147019	12661422.1354	67563578.0858	0
11725000.0	82409.0	867420313.925	0.338100685761	174397.241211	0.875181751326	1.18904674053	42240.4865837	25848.7518311	3028.62510313	508.280659739	5246604.1857	67568510.073	0
11750000.0	82608.0	873624915.566	0.337968173667	174398.461914	0.879148603417	1.18896782398	42261.5652653	25868.1549072	3017.15463039	511.599236507	455009.094081	67573442.5789	0
11775000.0	82807.0	879858081.316	0.337834649738	174399.731445	0.883123138919	1.18889510632	42282.9824216	25887.7532959	3005.80020484	514.92408126	2570599.49087	67578375.6036	0
11800000.0	83006.0	886119869.752	0.337700252444	174401.074219	0.88710518321	1.18882846832	42304.731321	25907.5439453	2994.55426646	518.256284634	9180198.35429	67583309.1471	0
11825000.0	83205.0	892410338.917	0.337565228505	174402.429199	0.891095027328	1.18876731396	42326.7406706	25927.4749756	2983.42246771	521.594402697	18231187.2218	67588243.2094	0
11850000.0	83404.0	898729547.839	0.337429905305	174403.808594	0.895092438441	1.18871128559	42348.9892732	25947.5250244	2972.39079324	523.62177842	4627386.60307	67593177.7906	0
11875000.0	83602.0	905077642.209	0.337295477167	174404.736328	0.899110222235	1.18866205215	42371.279646	25967.5079346	2961.58850272	526.918211421	141155.276445	67598112.8907	0
11900000.0	83801.0	911454591.178	0.337160370113	174406.225586	0.903122709133	1.18861413002	42393.8283484	25987.677002	2950.76067305	530.270799198	3450429.89568	67603048.5097	0
11925000.0	83999.0	917860542.246	0.337026725311	174407.202148	0.907155568711	1.18857181072	42416.3093929	26007.6965332	2940.14674624	532.239505622	21211973.4323	67607984.6476	0
11950000.0	84197.0	924295554.061	0.336893971151	174408.203125	0.911196228117	1.18853247166	42438.8284674	26027.6885986	2929.62889629	535.551038958	11764018.1615	67612921.3046	0
11975000.0	84395.0	930759683.45	0.336762294927	174409.228516	0.915244221687	1.18849503994	42461.3145155	26047.6074219	2919.19033869	538.872822951	4361391.25283	67617858.4806	0
12000000.0	84593.0	937252987.985	0.33663199143	174410.27832	0.919299491215	1.18845903873	42483.7322479	26067.4255371	2908.83368726	542.204237776	62632.3981524	67622796.1756	0
12025000.0	84791.0	943775523.948	0.336503408555	174411.303711	0.923362502363	1.18842434883	42506.0225618	26087.0910645	2898.55833356	545.544937832	3612870.2435	67627734.3898	0
12050000.0	84989.0	950327347.448	0.336376731314	174412.365723	0.92743273126	1.18839013577	42528.1570163	26106.5917969	2888.36050379	548.895763049	10737087.2634	67632673.1231	0
12075000.0	85187.0	956908497.716	0.336251119854	174413.476562	0.931507791393	1.18835711479	42550.2547765	26126.0253906	2878.23015404	550.86529072	13017602.1467	67637612.3755	0
12100000.0	85384.0	963519145.677	0.336126464146	174413.977051	0.935606425628	1.18833005428	42572.3652859	26145.3857422	2868.29909196	554.178030874	5419623.45175	67642552.1472	0
12125000.0	85582.0	970159256.565	0.33600106641	174414.96582	0.939699704759	1.18830406666	42594.7298242	26164.9353027	2858.31128375	557.552962061	451220.383158	67647492.4381	0
12150000.0	85779.0	976828983.462	0.335877133934	174415.380859	0.943813822232	1.18828344345	42617.0281415	26184.3444824	2848.51150009	560.887903294	2620720.60151	67652433.2482	0
12175000.0	85977.0	983528291.996	0.335752916572	174416.271973	0.947922584601	1.1882635355	42639.49091	26203.8604736	2838.65492877	564.285428779	9329263.19778	67657374.5777	0
12200000.0	86174.0	990257335.974	0.335630724774	174416.577148	0.952052301727	1.18824827671	42661.8052437	26223.1719971	2828.97223442	566.207787339	16076241.2625	67662316.4265	0
12225000.0	86371.0	997016172.978	0.335509695399	174416.845703	0.956189760473	1.1882352829	42684.0741541	26242.3858643	2819.3504275	569.570213314	7774696.29365	67667258.7946	0
12250000.0	86568.0	1003804863.94	0.335390147857	174417.053223	0.960335077252	1.18822443485	42706.261469	26261.4746094	2809.78294104	572.945300826	1796209.81782	67672201.6822	0
12275000.0	86765.0	1010623468.05	0.335272239872	174417.138672	0.964488252066	1.18821597099	42728.3235922	26280.3894043	2800.26944389	576.333047488	952518.710541	67677145.0892	0
12300000.0	86962.0	1017472043.94	0.33515620911	174417.175293	0.968648993876	1.18820893764	42750.2335125	26299.118042	2790.80041469	579.735534312	6297283.13109	67682089.0157	0
12325000.0	87159.0	1024350652.08	0.335042239102	174417.102051	0.972817535512	1.18820345402	42771.9500523	26317.6208496	2781.38172771	583.151372649	14126589.8431	67687033.4616	0
12350000.0	87356.0	1031259351.6	0.334930646672	174416.931152	0.976993818767	1.18819928169	42793.4427231	26335.8764648	2772.01004563	585.092464713	12935094.7003	67691978.4272	0
12375000.0	87552.0	1038198293.9	0.334822282444	174416.137695	0.981191289611	1.18819868565	42814.5707031	26353.717041	2762.79127531	588.476813579	5745215.5642	67696923.9123	0
12400000.0	87749.0	1045167447.96	0.334714121869	174415.74707	0.98538340535	1.18820059299	42835.839281	26371.6003418	2753.50339507	591.927570976	817492.658627	67701869.917	0
12425000.0	87945.0	1052166969.91	0.334607552695	174414.685059	0.989596941508	1.18820858002	42857.0467036	26389.3127441	2744.36726395	595.34099236	1734731.65574	67706816.4413	0
12450000.0	88142.0	1059196825.38	0.334500917977	174414.001465	0.993805006146	1.18821895123	42878.4172891	26407.0922852	2735.15333338	598.823376798	7399917.27691	67711763.4853	0
12475000.0	88338.0	1066257171.25	0.334396244063	174412.646484	0.998034607619	1.18823409081	42899.6260507	26424.6368408	2726.08706718	600.736171546	22774622.2855	67716711.0491	0
12500000.0	88534.0	1073348069.39	0.334292807957	174411.14502	1.00227235816	1.1882519722	42920.7687401	26442.0532227	2717.05681954	604.81378691	0.0	67721659.1325	0
