z	T	P	nabla_ad	S	rho	delta	cp	cv	opac	frad	fconv	ftot	dT
0.0	3900.0	153.473104256	0.38190401501	172851.989746	6.18499651495e-06	1.00997471809	16928.1327636	10442.7627563	0.000711090922519	0.0	21787.4529622	65311815.0903	0
25000.0	3900.0	202.247501929	0.376609994293	171077.722168	8.15244938224e-06	1.01312196255	17244.6694522	10721.396637	0.00084609696909	0.0	28627.242746	65316507.3538	0
50000.0	3900.0	266.546705163	0.369911919014	169297.375488	1.07474207311e-05	1.01732492447	17660.4161552	11086.8728638	0.001004925453	0.0	37675.1995241	65321200.1229	0
75000.0	3900.0	351.327751189	0.361551780867	167508.251953	1.41713645263e-05	1.02273571491	18204.7809744	11566.2010193	0.00119253357038	0.0	49567.7286446	65325893.3976	0
100000.0	3900.0	463.141353566	0.351246970359	165708.398438	1.86910167344e-05	1.0298448801	18917.8420309	12193.2121277	0.00141525843666	0.0	65259.8316394	65330587.1781	0
125000.0	3900.0	610.651203157	0.338798493078	163893.54248	2.46604940912e-05	1.03926694393	19850.5314946	13011.7126465	0.00167903960283	0.0	85945.3876956	65335281.4644	0
150000.0	3900.0	805.329582942	0.324083784035	162059.912109	3.2550932616e-05	1.05155384541	21066.9939796	14077.6245117	0.00199075978872	0.0	113253.071238	65339976.2566	0
175000.0	3900.0	1062.39022342	0.307126697495	160201.000977	4.29906812371e-05	1.06744611263	22645.4153605	15459.1751099	0.00236177976837	0.0	149360.522245	65344671.5548	0
200000.0	3900.0	1402.04504421	0.288173149692	158310.522461	5.68202267459e-05	1.08830058575	24689.1614661	17241.3665771	0.00280715187692	17995142.3712	193582.276558	65349367.3591	0
225000.0	3908.0	1850.05277479	0.270302158381	156436.206055	7.49526165578e-05	1.11177039146	26951.697074	19205.7220459	0.00339655865473	39704170.8331	243023.611659	65354063.6694	0
250000.0	3928.0	2438.86915765	0.255671811897	154609.375	9.84788783853e-05	1.13507282734	29118.2745403	21071.9787598	0.0042006917897	18608448.8092	327911.104836	65358760.4858	0
275000.0	3929.0	3217.25136435	0.234678018127	152613.562012	0.000130262449716	1.17441403866	32857.1842583	24292.2805786	0.00501626606648	41544960.7228	366539.823191	65363457.8085	0
300000.0	4002.0	4222.97021344	0.237188212566	151179.699707	0.000167894654624	1.17359697819	32423.786649	23873.9181519	0.00669799074146	33094926.8248	452201.799429	65368155.6374	0
325000.0	4025.0	5538.0267908	0.22384197923	149342.333984	0.000219489351139	1.205706954	35251.3903492	26272.0733643	0.00823026797079	41482428.7828	391721.459673	65372853.9727	0
350000.0	4191.0	7178.56418535	0.253565590802	148675.927734	0.00027214025522	1.15115356445	29621.8251908	21376.9302368	0.0127644530888	32964181.5605	418364.468973	65377552.8144	-1
375000.0	4281.0	9254.09053397	0.259529885231	147437.121582	0.000343349086052	1.1444170475	28716.3275023	20562.9959106	0.017394401626	41425968.8785	30533.1617816	65382252.1626	-1
400000.0	4712.0	11639.5416198	0.335854300085	148074.597168	0.000389632134556	1.05245542526	20169.0619701	13179.1168213	0.0331662159954	32828934.0159	39365.703413	65386952.0172	-1
425000.0	4952.0	14475.2545045	0.35584312036	147568.469238	0.000460557316728	1.03536403179	18651.3762272	11868.7538147	0.0453358267017	40734800.4597	0.24693193118	65391652.3785	0
450000.0	5866.0	17390.5502811	0.386827780965	149299.34082	0.000465489534918	1.0076508522	16586.7000988	10129.8988342	0.0762388635918	32454870.4802	0.010066913485	65396353.2465	-5
475000.0	5893.0	20879.3207579	0.386079252625	148196.496582	0.000556845293431	1.00855612755	16636.0283895	10169.2756653	0.0890743416902	38630778.169	16.5951577364	65401054.6211	0
500000.0	7404.0	24134.6021725	0.337103680722	151262.072754	0.00051004423085	1.0230512619	19208.0406185	12539.5195007	0.549555970454	33678084.126	135821.55986	65405756.5026	-15
525000.0	9700.0	26873.5515	0.16507820259	158617.358398	0.000421641004777	1.27646791935	49544.6260181	39009.7686768	6.85613121443	5647868.95981	25258255.4861	65410458.8909	-15
550000.0	10358.0	29660.1881148	0.139036902771	161566.455078	0.000427283737281	1.43683612347	67596.1565341	54098.6206055	12.5494228382	1867925.97366	16116295.6005	65415161.7861	-5
575000.0	11199.0	32372.2740096	0.117724565366	167233.056641	0.00041381349547	1.72111523151	99892.7465171	80066.3452148	24.3720912552	922493.332573	21865803.1988	65419865.1883	-4
600000.0	11453.0	35224.2801693	0.114700647539	168557.080078	0.000434581579611	1.79901993275	108652.651018	86823.0163574	29.4308906948	454442.802123	9093476.2113	65424569.0975	-4
625000.0	11841.0	38146.9161524	0.110450597349	171412.939453	0.000444403497113	1.9358407259	124604.899881	98950.970459	37.9055816418	345830.173412	10677860.2706	65429273.5139	-1
650000.0	12035.0	41223.5322185	0.109372667785	172426.745605	0.000467307245344	1.99068081379	130933.264818	103615.917969	43.0929601944	195910.580984	3819800.54287	65433978.4373	-2
675000.0	12215.0	44463.6372038	0.108662842343	173324.682617	0.000491657033308	2.03830003738	136445.496876	107619.592285	48.2894959897	148150.519229	2578774.58608	65438683.868	-1
700000.0	12356.0	47892.4166959	0.108434238289	173809.741211	0.000519912305208	2.06844329834	139842.275575	110021.30127	52.8333343291	99273.6145883	544030.899739	65443389.806	0
725000.0	12455.0	51542.1828593	0.108601934041	173810.864258	0.000553198447051	2.08014655113	140943.039909	110714.941406	56.5418326263	73975.1585185	5618.31258235	65448096.2513	0
750000.0	12554.0	55424.7996657	0.108789807596	173785.644531	0.000588265834267	2.09081864357	141891.890559	111286.791992	60.4360752403	66647.2195294	4026.0875868	65452803.204	0
775000.0	12653.0	59552.1474012	0.108985694754	173787.988281	0.000625011125521	2.10194849968	142913.856867	111912.744141	64.5153145282	59859.9755115	9046.62134566	65457510.6642	0
800000.0	12751.0	63936.6676484	0.109199571523	173799.21875	0.000663619402985	2.11280536652	143917.502521	112524.658203	68.7521420908	54141.9639744	7374.89665037	65462218.6319	0
825000.0	12850.0	68589.9846273	0.10942118562	173824.414062	0.00070398743901	2.12361264229	144922.378164	113133.483887	73.2071418601	49056.6173899	5673.03424614	65466927.1071	0
850000.0	12948.0	73526.1878299	0.10966832156	173813.647461	0.000746528939999	2.13301753998	145737.053864	113595.739746	77.8260882498	44292.7499497	13238.8725884	65471636.09	0
875000.0	13046.0	78759.7655535	0.109928767967	173785.595703	0.00079119450902	2.14157557487	146436.125243	113967.443848	82.644447066	40461.4793487	3909.74329896	65476345.5805	0
900000.0	13145.0	84303.8913837	0.110193731445	173795.947266	0.000837716186197	2.1507499218	147234.781777	114412.036133	87.6961019192	36839.2816193	2918.63696684	65481055.5789	0
925000.0	13243.0	90173.3783415	0.110475919154	173812.438965	0.000886459133653	2.15957331657	148005.932434	114836.828613	92.9201379991	33426.1990318	10906.5061801	65485766.085	0
950000.0	13341.0	96382.9693555	0.110769840546	173830.224609	0.000937435970627	2.16799283028	148735.196936	115229.443359	98.3575868783	30528.9660771	10329.5290645	65490477.0989	0
975000.0	13439.0	102948.556954	0.111075730467	173825.610352	0.000990856960925	2.17558979988	149352.321403	115536.437988	104.018785384	27917.3725239	10245.8442691	65495188.6208	0
1000000.0	13537.0	109887.3841	0.111388106461	173799.304199	0.00104682169422	2.18239140511	149864.796996	115764.831543	109.910692378	25559.4233617	10586.8000609	65499900.6506	0
1025000.0	13635.0	117216.262205	0.11170576671	173796.948242	0.0011051436104	2.18931436539	150422.961242	116029.882812	116.031883245	23435.0449886	10748.9367212	65504613.1885	0
1050000.0	13733.0	124951.611323	0.112032138126	173812.37793	0.00116591115784	2.19622659683	151002.134379	116311.816406	122.388849368	21517.1809805	10870.8055272	65509326.2344	0
1075000.0	13831.0	133110.661066	0.112368092261	173832.543945	0.00122927644952	2.2028195858	151552.141856	116571.99707	128.990166244	19781.1257092	11178.5144325	65514039.7885	0
1100000.0	13929.0	141711.849234	0.112714063266	173838.903809	0.00129545765049	2.20878958702	152018.086234	116768.359375	135.847196474	18204.6501718	12034.7842884	65518753.8507	0
1125000.0	14027.0	150775.154119	0.113068608423	173814.538574	0.00136468099754	2.21396064758	152362.255648	116872.180176	142.970362841	16769.2504206	13791.1469037	65523468.4212	0
1150000.0	14125.0	160321.062918	0.113431121145	173802.709961	0.0014367511767	2.2190413475	152713.878647	116983.044434	150.357954075	15465.1388391	15849.1952351	65528183.5	0
1175000.0	14223.0	170368.996191	0.113802313932	173810.424805	0.00151163430928	2.2241063118	153087.147413	117111.621094	158.003711207	14353.7764969	2252.08654763	65532899.0871	0
1200000.0	14322.0	180936.993585	0.114179835506	173839.038086	0.00158922853188	2.22920608521	153480.948669	117254.418945	165.953873031	13272.2281917	2830.60572737	65537615.1826	0
1225000.0	14420.0	192047.62526	0.11456666674	173853.491211	0.00167023790709	2.23359537125	153786.590865	117333.813477	174.122533902	12222.4674525	23319.5123236	65542331.7865	0
1250000.0	14518.0	203723.371647	0.114958925856	173847.119141	0.00175468744601	2.2373611927	154001.317038	117345.336914	182.567650351	11323.8264308	27824.4059856	65547048.8989	0
1275000.0	14616.0	215988.470666	0.115359603786	173820.227051	0.00184273085324	2.24077606201	154156.764641	117312.426758	191.296405667	10554.1548869	9174.8378587	65551766.5199	0
1300000.0	14715.0	228864.643114	0.115766611995	173822.375488	0.00193373693946	2.24439144135	154363.057096	117317.407227	200.353270595	9799.2660118	12515.7060645	65556484.6494	0
1325000.0	14813.0	242376.625023	0.116181509676	173828.588867	0.00202840783459	2.24759507179	154536.444567	117301.965332	209.642495402	9107.53914126	16877.0152438	65561203.2876	0
1350000.0	14912.0	256546.014941	0.116601648028	173851.68457	0.00212629765883	2.25067710876	154710.391362	117286.730957	219.277644872	8474.14407864	21675.1731438	65565922.4345	0
1375000.0	15010.0	271399.966169	0.117026716764	173859.008789	0.00222829248742	2.25305366516	154797.924871	117210.9375	229.164570966	7890.94437874	28356.2958146	65570642.0901	0
1400000.0	15109.0	286962.609728	0.117459040459	173860.131836	0.00233396895055	2.25524806976	154856.345886	117112.194824	239.424719491	7391.77338479	6443.1136095	65575362.2545	0
1425000.0	15208.0	303262.081825	0.117899143441	173841.320801	0.00244383068093	2.2572324276	154873.288571	116982.800293	250.01669362	6894.16594876	12283.1431717	65580082.9277	0
1450000.0	15307.0	320326.475609	0.118345161349	173836.181641	0.00255753820966	2.25908327103	154892.202867	116856.860352	260.933962313	6436.10393026	19707.1039057	65584804.1097	0
1475000.0	15406.0	338182.652409	0.118796423971	173843.347168	0.00267519089903	2.26068973541	154898.825775	116724.060059	272.186852548	6013.85981659	28781.7042241	65589525.8007	0
1500000.0	15505.0	356858.382084	0.119251575178	173856.152344	0.00279697815131	2.261936903	154872.53155	116568.884277	283.788520226	5623.89179534	39843.5908878	65594248.0007	0
1525000.0	15604.0	376382.303043	0.119713903936	173868.945312	0.00292306367555	2.26284790039	154812.055415	116390.29541	295.752504184	5289.74267996	11003.5616504	65598970.7096	0
1550000.0	15704.0	396781.446055	0.120185837278	173882.666016	0.00305324101646	2.26366591454	154740.796733	116202.990723	308.158605125	4954.37528086	20229.7615402	65603693.9276	0
1575000.0	15803.0	418091.143049	0.12066086754	173863.049316	0.00318881802741	2.26412844658	154602.624031	115968.359375	320.907658106	4641.96894331	34416.7178606	65608417.6547	0
1600000.0	15903.0	440342.406479	0.121140059645	173851.965332	0.00332864237862	2.26457118988	154467.601054	115735.571289	334.123074766	4374.55535698	6571.22975252	65613141.891	0
1625000.0	16003.0	463567.250494	0.121622621629	173852.197266	0.00347302238879	2.26474642754	154316.118939	115493.261719	347.72920607	4105.1195662	17047.4720763	65617866.6364	0
1650000.0	16103.0	487797.039838	0.12211221468	173862.072754	0.00362204309567	2.26465153694	154146.044171	115239.672852	361.734873061	3855.19840604	31546.7397477	65622591.891	0
1675000.0	16203.0	513063.920244	0.122611385276	173877.709961	0.00377585092792	2.2643198967	153957.50422	114974.572754	376.149954319	3623.10391204	50658.5582203	65627317.6548	0
1700000.0	16303.0	539401.802912	0.123117472444	173890.856934	0.00393474738303	2.26375246048	153741.288067	114690.490723	390.992628477	3424.15621689	13953.3752987	65632043.928	0
1725000.0	16404.0	566843.007636	0.123629008278	173900.610352	0.00409853055316	2.26308917999	153507.719384	114392.84668	406.352941676	3222.21196372	31235.5198873	65636770.7105	0
1750000.0	16504.0	595430.246058	0.124136214853	173877.307129	0.00426879250881	2.26217246056	153219.368957	114057.287598	422.117121696	3032.95551138	57072.0660093	65641498.0024	0
1775000.0	16605.0	625199.142316	0.124649956343	173865.893555	0.00444385614173	2.26117110252	152933.450959	113724.060059	438.409339062	2871.23389667	16918.5851977	65646225.8037	0
1800000.0	16706.0	656185.916342	0.125172779037	173867.06543	0.0046240966185	2.25993609428	152638.861392	113387.304688	455.160682129	2706.55908736	39556.969641	65650954.1145	0
1825000.0	16807.0	688427.004703	0.125703396491	173876.635742	0.00480971948491	2.25845837593	152328.838725	113041.711426	472.376228556	2553.02189167	70217.7692618	65655682.9347	0
1850000.0	16908.0	721960.413325	0.126240013571	173889.257812	0.00500098622069	2.25673794746	151996.087621	112681.384277	490.054830797	2421.65780293	22979.9803246	65660412.2645	0
1875000.0	17010.0	756821.382518	0.126783071328	173907.348633	0.00519750301464	2.25485730171	151647.974072	112309.912109	508.284261877	2298.6986838	1754.27003359	65665142.1038	0
1900000.0	17112.0	793050.85051	0.127330504538	173916.589355	0.00540017936146	2.25277757645	151271.410848	111919.311523	527.003428176	2172.45709765	9491.98304758	65669872.4527	0
1925000.0	17214.0	830692.085275	0.127880580269	173909.033203	0.00560942226002	2.25063204765	150874.300482	111514.831543	546.232334902	2054.09429364	37558.7809085	65674603.3113	0
1950000.0	17316.0	869791.045066	0.128432204469	173892.382812	0.00582519169257	2.24843096733	150465.855191	111103.540039	565.970802628	1943.16196714	80322.4116957	65679334.6795	0
1975000.0	17418.0	910391.777723	0.128989639629	173885.15625	0.00604702745477	2.24601554871	150046.558206	110686.682129	586.204302548	1848.4092328	27222.708386	65684066.5575	0
2000000.0	17521.0	952531.486576	0.129555552261	173893.103027	0.00627430199529	2.24341464043	149620.614724	110265.661621	607.021840396	1751.06047813	68302.6500996	65688798.9451	0
2025000.0	17623.0	996258.355486	0.130125548092	173897.900391	0.00650871425023	2.24049115181	149163.81064	109826.159668	628.270926641	1659.5546857	125890.294636	65693531.8426	0
2050000.0	17726.0	1041610.90358	0.130707961987	173913.220215	0.00674882176099	2.23738741875	148695.712491	109379.064941	650.124282502	1589.34648592	8441.22143428	65698265.2498	0
2075000.0	17830.0	1088629.15724	0.131300002454	173933.288574	0.00699488191458	2.2341697216	148216.578446	108924.145508	672.59559811	1508.44791325	8907.74894632	65702999.1668	0
2100000.0	17933.0	1137367.52277	0.131888488661	173934.521484	0.007249124792	2.23086738586	147713.459135	108454.101562	695.509835737	1432.1242224	50888.7830392	65707733.5937	0
2125000.0	18037.0	1187871.81612	0.132477319404	173925.57373	0.00751028983359	2.22765946388	147208.204737	107981.555176	719.053126053	1360.46049955	117226.815446	65712468.5306	0
2150000.0	18140.0	1240201.39407	0.133064246211	173903.649902	0.00777979767008	2.22435927391	146686.842145	107500.097656	743.049819283	1299.06026617	50129.0403074	65717203.9773	0
2175000.0	18245.0	1294392.8172	0.133669933641	173907.03125	0.00805421404948	2.22087740898	146165.599068	107018.347168	767.739019143	1241.5993026	3708.11049487	65721939.934	0
2200000.0	18349.0	1350500.75803	0.134278211203	173908.837891	0.00833668036648	2.21716403961	145623.580197	106525.024414	792.885023331	1181.46394947	50167.8884867	65726676.4007	0
2225000.0	18454.0	1408568.1454	0.134897204138	173922.08252	0.00862543674884	2.21327114105	145071.575258	106025.170898	818.677096018	1130.413824	2825.46713886	65731413.3773	0
2250000.0	18559.0	1468646.11467	0.135520529129	173935.48584	0.00892175194167	2.20919585228	144502.398411	105514.819336	845.05065719	1076.93743531	52723.2249424	65736150.864	0
2275000.0	18664.0	1530786.65607	0.1361506578	173946.923828	0.00922578692553	2.20492887497	143914.138368	104992.63916	872.018164917	1026.46671635	141235.418119	65740888.8608	0
2300000.0	18769.0	1595044.33767	0.136784202328	173951.586914	0.00953796188696	2.20057010651	143313.209736	104462.976074	899.606217364	983.418058142	62516.9846245	65745627.3676	0
2325000.0	18875.0	1661469.15971	0.137421833482	173951.220703	0.00985762744676	2.19625425339	142712.073772	103933.044434	927.927993279	942.649879195	7926.0820546	65750366.3846	0
2350000.0	18981.0	1730122.06291	0.138054367096	173936.364746	0.0101862415249	2.19207024574	142114.375249	103406.420898	956.92494592	899.583817266	81202.602945	65755105.9117	0
2375000.0	19087.0	1801062.74284	0.138691631555	173925.585938	0.0105229028122	2.18774700165	141507.40339	102875.0	986.556650031	862.929642704	17723.9004585	65759845.949	0
2400000.0	19194.0	1874337.62132	0.139344499753	173929.077148	0.0108662006824	2.18316984177	140886.116789	102334.490967	1016.91608802	824.429620157	107557.065515	65764586.4964	0
2425000.0	19300.0	1950010.42879	0.13999931908	173929.870605	0.0112188736239	2.17841553688	140248.124463	101784.967041	1047.84041027	787.857154141	249009.097172	65769327.5541	0
2450000.0	19407.0	2028129.97834	0.140666360089	173940.039062	0.0115786897368	2.17349696159	139599.718032	101228.527832	1079.5237764	760.435529929	3159.66432873	65774069.122	0
2475000.0	19515.0	2108746.38416	0.14134329346	173956.45752	0.0119458609333	2.16847133636	138943.066459	100666.253662	1111.98932085	730.93994877	59755.7601014	65778811.2002	0
2500000.0	19623.0	2191919.20467	0.142026254193	173970.007324	0.0123218487715	2.16332769394	138271.185216	100093.95752	1145.15458606	696.361948848	199244.574032	65783553.7886	0
2525000.0	19730.0	2277719.78674	0.142706514261	173970.593262	0.0127084604173	2.15816164017	137588.946906	99516.1376953	1178.95298576	669.708685248	104461.562783	65788296.8873	0
2550000.0	19839.0	2366194.82069	0.143397842186	173974.487305	0.0131020005938	2.15302586555	136910.10861	98939.6606445	1213.68762036	644.488067204	30746.9819835	65793040.4964	0
2575000.0	19947.0	2457423.14878	0.144074191526	173957.580566	0.0135072150442	2.14813780785	136246.058133	98375.7629395	1249.11093236	617.399146607	171728.608131	65797784.6158	0
2600000.0	20056.0	2551464.34987	0.144757280964	173948.217773	0.0139203239087	2.14318847656	135583.729173	97814.0380859	1285.31549372	594.525825187	78722.7878017	65802529.2456	0
2625000.0	20165.0	2648380.90884	0.145450631239	173944.067383	0.0143423503687	2.1379609108	134900.989908	97240.0817871	1322.13675494	572.772870213	12989.8708832	65807274.3857	0
2650000.0	20275.0	2748224.23624	0.146161595197	173950.90332	0.0147718328662	2.13242888451	134196.605067	96651.8005371	1359.67692169	552.173435834	21068.9615683	65812020.0363	0
2675000.0	20385.0	2851057.1438	0.146881498265	173960.424805	0.0152105058078	2.12669610977	133476.423688	96054.1442871	1397.87006441	530.132853166	64562.1135457	65816766.1973	0
2700000.0	20495.0	2956944.33891	0.147608257918	173970.703125	0.015658672055	2.12083292007	132745.22313	95450.1403809	1436.74162273	511.496646844	6041.12828526	65821512.8687	0
2725000.0	20606.0	3065941.2806	0.148346799351	173986.108398	0.0161149600899	2.11486339569	132006.836905	94841.5161133	1476.40715911	491.562036713	156987.631841	65826260.0506	0
2750000.0	20716.0	3178128.15156	0.149079053942	173991.088867	0.0165831206687	2.1089720726	131271.665171	94237.0910645	1516.71975043	474.612781766	68098.8596459	65831007.7429	0
2775000.0	20828.0	3293553.7881	0.149824032033	174001.831055	0.0170584480657	2.10308718681	130539.351947	93633.9477539	1557.98422835	458.548573819	7668.03360544	65835755.9457	0
2800000.0	20939.0	3412304.4844	0.150554516635	173996.020508	0.0175466229848	2.0974650383	129825.248224	93045.3491211	1599.96727263	441.070875143	182989.765819	65840504.659	0
2825000.0	21051.0	3534446.79009	0.151282969831	173985.229492	0.0180444530997	2.09203910828	129128.747712	92469.3725586	1642.87779189	426.341472565	85695.0946647	65845253.8829	0
2850000.0	21163.0	3660057.85118	0.152010716087	173975.646973	0.0185527042049	2.08664727211	128439.043456	91899.6276855	1686.5946832	412.227174975	14920.9728156	65850003.6173	0
2875000.0	21276.0	3789197.70967	0.152746476852	173974.584961	0.0190694881894	2.08119392395	127750.091769	91331.1462402	1731.21064776	398.776708166	22201.3153697	65854753.8622	0
2900000.0	21389.0	3921936.19574	0.153491911116	173976.342773	0.0195964348677	2.07552528381	127043.382678	90751.7456055	1776.64203667	384.187499676	112514.563779	65859504.6177	0
2925000.0	21502.0	4058343.43573	0.154249693987	173980.444336	0.0201336024475	2.06959939003	126314.414772	90158.203125	1822.89535303	371.894327895	32985.673122	65864255.8838	0
2950000.0	21616.0	4198477.67708	0.155025355194	173991.40625	0.020679221052	2.06341958046	125565.22017	89551.1291504	1870.07767588	360.169864164	4355.32441081	65869007.6605	0
2975000.0	21730.0	4342411.94803	0.155807953906	174001.782227	0.0212355316762	2.05712246895	124806.227728	88938.6108398	1918.1231705	347.387947771	185553.324876	65873759.9478	0
3000000.0	21844.0	4490221.64681	0.156594074109	174009.790039	0.021802905394	2.05078864098	124044.411683	88325.402832	1967.04664753	336.622629427	92399.1464966	65878512.7458	0
3025000.0	21959.0	4641970.62494	0.157388356177	174019.030762	0.0223796341743	2.04443192482	123282.45163	87712.6037598	2016.96105951	326.328772244	23476.0151672	65883266.0543	0
3050000.0	22074.0	4797739.26274	0.158178268394	174021.520996	0.0229682154895	2.03820705414	122532.285179	87109.2346191	2067.79694232	315.047588224	319594.279682	65888019.8735	0
3075000.0	22189.0	4957611.68663	0.158958966243	174014.672852	0.0235692314163	2.03220629692	121801.856442	86520.8068848	2119.58593977	305.540701478	203917.606876	65892774.2033	0
3100000.0	22305.0	5121660.1447	0.159738672154	174005.932617	0.0241804336838	2.02635574341	121087.529846	85944.1101074	2172.40247317	297.713535998	174435.586827	65897529.0438	0
3125000.0	22422.0	5289952.91615	0.16052505724	174004.663086	0.0248007127084	2.02048873901	120378.518728	85371.9360352	2226.18310551	287.736047229	25771.5296616	65902284.395	0
3150000.0	22538.0	5462585.00945	0.161300375986	173999.621582	0.0254347869486	2.01475763321	119684.471109	84812.2009277	2280.67154531	278.132377323	353576.820234	65907040.2569	0
3175000.0	22655.0	5639619.17267	0.162092666383	174001.611328	0.0260778961092	2.00879812241	118973.051438	84240.8508301	2335.9806354	271.305516389	83898.5017217	65911796.6295	0
3200000.0	22773.0	5821117.43891	0.162903976658	174010.107422	0.0267299546977	2.00257945061	118240.704114	83655.4077148	2392.09256278	262.538348353	123232.340627	65916553.5128	0
3225000.0	22890.0	6007175.02567	0.163714425919	174013.818359	0.0273959285551	1.99631083012	117503.12396	83067.9870605	2448.86929958	255.174986749	43354.8346805	65921310.9068	0
3250000.0	23009.0	6197840.24766	0.164547541573	174027.099609	0.0280688254861	1.98982357979	116749.816946	82469.4702148	2506.5229962	248.190981235	120.503131506	65926068.8116	0
3275000.0	23127.0	6393211.96732	0.165373790225	174033.447266	0.0287562215817	1.98341202736	116002.790915	81876.9958496	2564.85807834	240.409396408	338586.475084	65930827.2271	0
3300000.0	23246.0	6593358.44719	0.16620754862	174041.625977	0.0294535348075	1.97698736191	115256.954957	81285.8093262	2624.02064134	234.95153279	121628.682628	65935586.1533	0
3325000.0	23366.0	6798349.35747	0.167045152768	174049.975586	0.0301610107272	1.97061359882	114518.163513	80700.0671387	2684.02917009	227.802374696	129691.579801	65940345.5903	0
3350000.0	23485.0	7008291.92347	0.167864727325	174046.960449	0.0308842936647	1.9645178318	113803.854801	80133.0566406	2744.77407615	221.808921549	47872.5089741	65945105.5381	0
3375000.0	23606.0	7223243.92345	0.168688855727	174045.3125	0.0316159857903	1.95853388309	113103.350182	79575.6774902	2806.46849662	216.101461112	95.5772354247	65949865.9966	0
3400000.0	23726.0	7443318.10008	0.169493193891	174034.863281	0.0323635322275	1.95283401012	112430.363815	79039.3737793	2868.91011586	209.680534542	378834.6117	65954626.9659	0
3425000.0	23847.0	7668585.81666	0.170305681821	174030.969238	0.0331207229465	1.94707202911	111758.004347	78504.4677734	2932.17755928	205.238015533	152576.087722	65959388.4459	0
3450000.0	23969.0	7899112.58302	0.171135618371	174033.251953	0.033887266909	1.94107723236	111068.723136	77958.605957	2996.25788059	199.333658958	132562.113148	65964150.4368	0
3475000.0	24090.0	8135001.73944	0.171963473899	174032.080078	0.0346688611899	1.93504428864	110377.031506	77412.7929688	3061.06972703	194.414109056	46674.8566851	65968912.9385	0
3500000.0	24213.0	8376301.09379	0.172814300637	174040.722656	0.0354571893695	1.92878079414	109669.473132	76856.0791016	3126.76164636	189.737493452	275.791711077	65973675.951	0
3525000.0	24335.0	8623116.25934	0.173658631914	174044.958496	0.0362609353033	1.92257189751	108967.523929	76304.7912598	3193.23219483	184.429753763	462189.575335	65978439.4743	0
3550000.0	24458.0	8875516.13193	0.174512067338	174053.063965	0.0370745910914	1.91630733013	108263.780802	75752.7648926	3260.57519248	180.812952176	128114.455295	65983203.5085	0
3575000.0	24582.0	9133570.06723	0.175371820686	174064.18457	0.0378982513212	1.91003620625	107562.571372	75203.0029297	3328.83033395	175.904972388	216851.547435	65987968.0534	0
3600000.0	24705.0	9397389.54254	0.176216748537	174068.676758	0.038738206058	1.90396559238	106879.900304	74667.5170898	3397.93223946	171.8273879	111574.844965	65992733.1093	0
3625000.0	24830.0	9667027.27462	0.177070859094	174078.552246	0.0395857168769	1.89790797234	106202.820393	74136.0046387	3468.04210889	167.937228273	31023.3174865	65997498.6759	0
3650000.0	24954.0	9942599.54839	0.177903584094	174079.736328	0.0404502643505	1.892146945	105552.981507	73624.8657227	3539.08171784	164.130358324	10942.3956089	66002264.7534	0
3675000.0	25080.0	10224162.5689	0.178741283798	174083.679199	0.0413228772231	1.88644719124	104912.774569	73120.6481934	3611.17999274	160.493327377	91966.2828092	66007031.3418	0
3700000.0	25205.0	10511836.4561	0.179564336741	174076.123047	0.0422131488449	1.88090026379	104284.829362	72626.4465332	3684.23328794	156.307316471	296668.943396	66011798.441	0
3725000.0	25331.0	10805699.7049	0.180395345983	174069.885254	0.0431139778811	1.87527024746	103652.602149	72130.090332	3758.12893456	152.900225742	161553.502464	66016566.051	0
3750000.0	25457.0	11105846.1404	0.181228961314	174065.063477	0.0440277799498	1.8695795536	103018.539986	71633.7585449	3832.76600812	149.604083175	55682.2651395	66021334.1719	0
3775000.0	25584.0	11412344.2854	0.182072482342	174065.466309	0.0449513390777	1.86378073692	102379.642279	71134.9182129	3908.16443188	146.44142483	451.827203323	66026102.8037	0
3800000.0	25711.0	11725285.0691	0.182915181043	174066.845703	0.0458880094811	1.85798561573	101744.495245	70639.8071289	3984.30672204	143.378969125	66051.4684554	66030871.9463	0
3825000.0	25839.0	12044737.5302	0.183764138605	174072.827148	0.0468345351692	1.85215187073	101110.494572	70146.2158203	4061.19667754	140.438824672	185368.617046	66035641.5998	0
3850000.0	25967.0	12370794.168	0.184608223194	174079.052734	0.0477944340673	1.84639382362	100486.438348	69660.5102539	4138.82060147	137.054003096	245622.872715	66040411.7643	0
3875000.0	26095.0	12703549.0719	0.185445157708	174085.119629	0.0487679353682	1.840747118	99875.3710405	69184.7595215	4217.17802201	134.304039167	104676.160872	66045182.4396	0
3900000.0	26224.0	13043074.1337	0.186281425162	174094.348145	0.0497517467011	1.83517551422	99275.1808877	68717.1081543	4296.28299258	131.660546436	8301.18289831	66049953.6258	0
3925000.0	26353.0	13389466.1705	0.187108840827	174102.038574	0.0507495715283	1.82972931862	98688.6759278	68259.8999023	4376.12699012	128.596144335	684246.680099	66054725.3229	0
3950000.0	26482.0	13742823.8669	0.187932237461	174107.128906	0.0517616863362	1.82431006432	98106.3555375	67806.6711426	4456.72078897	126.115543537	452417.905692	66059497.5309	0
3975000.0	26612.0	14103222.2895	0.188759328148	174112.744141	0.0527846277691	1.81886875629	97524.5819607	67354.4616699	4538.05639177	124.204134139	418657.313992	66064270.2498	0
4000000.0	26743.0	14470737.2852	0.189589051895	174118.273926	0.0538184394827	1.81343257427	96945.408274	66904.6142578	4620.12555624	121.430100085	91335.3074243	66069043.4796	0
4025000.0	26873.0	14845495.7621	0.19040277937	174115.722656	0.0548707903363	1.80817461014	96381.3360469	66466.2475586	4702.96111015	118.718038424	970699.468057	66073817.2203	0
4050000.0	27004.0	15227576.8974	0.191216077107	174111.560059	0.0559345826332	1.80298006535	95824.2095289	66033.0383301	4786.54077465	116.99794489	104946.27635	66078591.472	0
4075000.0	27136.0	15617060.0747	0.192029336513	174107.055664	0.0570094052819	1.79784536362	95274.2578959	65605.1452637	4870.83027572	114.903236793	299350.592226	66083366.2345	0
4100000.0	27268.0	16014045.7743	0.192837874917	174103.686523	0.0580978521612	1.79277420044	94733.008612	65184.1430664	4955.77151074	112.443092797	202326.638059	66088141.5079	0
4125000.0	27400.0	16418629.8776	0.193640465911	174101.660156	0.0592000033066	1.78778636456	94202.2295833	64771.1791992	5041.3747366	110.475811981	34526.4253523	66092917.2922	0
4150000.0	27533.0	16830881.7965	0.194443707852	174104.296875	0.0603119915468	1.78283214569	93678.8327411	64363.8916016	5127.58392022	108.584077509	56001.5096002	66097693.5875	0
4175000.0	27666.0	17250898.6383	0.195240880645	174107.202148	0.0614379387116	1.77791500092	93162.1126372	63962.3535156	5214.44280982	106.34487399	538649.05969	66102470.3936	0
4200000.0	27799.0	17678778.8433	0.19603312673	174110.009766	0.0625780521659	1.77301037312	92649.6324369	63564.8742676	5301.95217878	104.56378279	250366.962635	66107247.7107	0
4225000.0	27933.0	18114593.8514	0.196828429388	174115.869141	0.0637283010292	1.76806437969	92137.485383	63168.4448242	5390.0601148	102.849442116	43263.0747132	66112025.5387	0
4250000.0	28067.0	18558442.5467	0.197618534728	174121.252441	0.0648928034934	1.76315999031	91631.2956565	62777.0263672	5478.80202883	101.180884279	66415.1707019	66116803.8777	0
4275000.0	28202.0	19010396.6144	0.198411123085	174129.162598	0.0660674850224	1.75824785233	91127.5873508	62387.9394531	5568.13067937	99.5741588239	312966.742014	66121582.7276	0
4300000.0	28337.0	19470555.8273	0.199197719755	174136.108398	0.0672565656714	1.75341212749	90632.1292512	62005.2307129	5658.15160265	97.6464501407	235190.53027	66126362.0884	0
4325000.0	28472.0	19939021.4533	0.199977724649	174141.723633	0.0684602200636	1.74867117405	90146.1868593	61629.6813965	5748.90828969	96.1257842429	18667.5050188	66131141.9601	0
4350000.0	28608.0	20415866.7292	0.200758192557	174148.815918	0.0696743518347	1.74398159981	89666.7442478	61258.9233398	5840.29345506	94.6594856184	126695.792953	66135922.3428	0
4375000.0	28744.0	20901194.5327	0.201530405342	174153.833008	0.0709033120074	1.73942840099	89199.7111478	60897.0947266	5932.3496192	92.887571357	475512.95736	66140703.2365	0
4400000.0	28880.0	21395110.4736	0.202292716119	174155.871582	0.0721475225873	1.73499619961	88744.1533118	60543.8171387	6025.06291128	91.4979905774	137362.721467	66145484.6411	0
4425000.0	29017.0	21897692.8094	0.203051791495	174156.982422	0.0734029454179	1.73059391975	88293.5543264	60194.6411133	6118.33836832	90.1574178792	28161.4375417	66150266.5566	0
4450000.0	29154.0	22409050.382	0.203800719694	174153.57666	0.0746741352486	1.72628879547	87852.1331491	59852.520752	6212.23247715	88.525310954	690978.595561	66155048.983	0
4475000.0	29291.0	22929293.4492	0.204541566525	174146.875	0.0759608155931	1.72206521034	87418.6933365	59516.5527344	6306.67419787	87.2540565044	256335.155244	66159831.9205	0
4500000.0	29429.0	23458496.6122	0.20528576948	174143.908691	0.0772572384449	1.71781277657	86986.1142857	59181.7321777	6401.47621384	86.0313290647	1456.61808796	66164615.3688	0
4525000.0	29567.0	23996759.6764	0.206026663439	174141.699219	0.0785678712418	1.71359670162	86558.6486349	58851.0253906	6496.6689175	84.8410790295	246858.268936	66169399.328	0
4550000.0	29706.0	24544150.3142	0.206771742218	174143.273926	0.0798880209913	1.70936739445	86132.8019655	58521.7834473	6592.11177869	83.3962312816	362618.693044	66174183.7982	0
4575000.0	29844.0	25100799.6631	0.207506911448	174142.700195	0.0812270736787	1.70525157452	85716.8841273	58199.8840332	6687.97274565	82.2736830598	26467.312115	66178968.7794	0
4600000.0	29984.0	25666743.4311	0.208253841146	174148.535156	0.082570957602	1.70109033585	85300.1436022	57877.3925781	6783.8868519	81.2095951497	196209.344337	66183754.2715	0
4625000.0	30123.0	26242114.4834	0.20898850517	174151.782227	0.0839340136736	1.69705200195	84894.2811598	57563.0004883	6880.12639069	79.8738856905	448818.923483	66188540.2745	0
4650000.0	30263.0	26826983.4399	0.20972197402	174157.446289	0.085307045083	1.69300854206	84491.2728844	57251.2390137	6976.45957795	78.8704530133	49754.8067926	66193326.7885	0
4675000.0	30403.0	27421453.626	0.210448275523	174162.536621	0.0866948612384	1.68901538849	84094.4112215	56944.4213867	7072.9300241	77.8938684392	196084.59707	66198113.8135	0
4700000.0	30544.0	28025595.1653	0.211175180729	174169.689941	0.0880926090758	1.68501853943	83699.7946727	56639.6728516	7169.364663	76.6839121189	465391.334148	66202901.3494	0
4725000.0	30684.0	28639545.5315	0.211890446131	174173.217773	0.0895101984497	1.68112707138	83314.2188211	56341.8029785	7266.0051287	75.7629998007	35355.8590251	66207689.3963	0
4750000.0	30826.0	29263341.8427	0.212615186092	174181.054688	0.0909328155103	1.67718613148	82927.2332822	56043.1762695	7362.34755648	74.8930220977	246980.487142	66212477.9542	0
4775000.0	30967.0	29897122.6781	0.213330186678	174184.863281	0.0923754632822	1.67335927486	82549.1342766	55751.0803223	7458.79623848	73.7732331023	430012.514559	66217267.023	0
4800000.0	31109.0	30540959.3152	0.214049466237	174189.794922	0.0938282173593	1.66954886913	82173.2894706	55460.6262207	7554.99027444	72.9540605828	14655.6456987	66222056.6029	0
4825000.0	31251.0	31194957.909	0.214767168095	174192.858887	0.0952962000156	1.66581594944	81803.3395897	55174.2736816	7651.03868694	71.9042344861	1090998.58361	66226846.6937	0
4850000.0	31393.0	31859227.2037	0.215479270485	174193.457031	0.0967797968769	1.66216874123	81440.49986	54893.0603027	7746.91311152	71.1328616234	396853.132219	66231637.2954	0
4875000.0	31536.0	32533842.9701	0.216188689254	174193.469238	0.0982741476037	1.65855801105	81082.120344	54615.2893066	7842.37858109	70.3945628638	0.182923544424	66236428.4082	0
4900000.0	31679.0	33218916.9855	0.216889739056	174189.868164	0.0997846073005	1.65503394604	80731.050934	54342.9321289	7937.64335378	69.6757265049	421705.014309	66241220.032	0
4925000.0	31823.0	33914524.8857	0.217591444555	174186.669922	0.101305253338	1.65152478218	80382.6524587	54072.6867676	8032.98043094	68.7443371533	309186.353605	66246012.1667	0
4950000.0	31966.0	34620809.6744	0.218284594794	174181.494141	0.102845806396	1.64808869362	80040.7218392	53807.4157715	8128.81102024	67.8224569794	1827708.93836	66250804.8124	0
4975000.0	32110.0	35337837.5318	0.21898370731	174179.47998	0.104395541712	1.64462411404	79698.4760443	53542.2058105	8224.64693549	67.399999763	603327.759432	66255597.9691	0
5000000.0	32255.0	36065672.6041	0.219690051014	174180.541992	0.105954204628	1.64113175869	79355.5957978	53276.7211914	8320.38848478	66.76789558	1503082.22174	66260391.6367	0
5025000.0	32400.0	36804415.697	0.220398487737	174182.189941	0.107527230284	1.63765847683	79014.8098559	53012.8601074	8416.16332417	65.9235772908	118025.333121	66265185.8153	0
5050000.0	32545.0	37554167.9933	0.221109853056	174184.301758	0.109114669613	1.63420653343	78676.0647302	52750.5126953	8511.89101575	65.1001487174	804286.454249	66269980.505	0
5075000.0	32690.0	38315033.2802	0.221818575288	174186.474609	0.110716900963	1.63078379631	78341.2003897	52491.3024902	8607.49776864	64.5189457564	144012.948566	66274775.7056	0
5100000.0	32836.0	39087077.9154	0.222530060868	174190.917969	0.112328380055	1.62734794617	78007.4328069	52233.2458496	8702.66854284	63.9634684136	189572.046131	66279571.4172	0
5125000.0	32982.0	39870406.1306	0.223238924767	174195.007324	0.113954753033	1.62394535542	77677.2923719	51978.0883789	8797.53918445	63.2063207815	726865.99157	66284367.6398	0
5150000.0	33128.0	40665122.8662	0.223946364408	174198.754883	0.115596107207	1.62057590485	77350.2220192	51725.3112793	8892.02828347	62.6829720399	85047.8339711	66289164.3734	0
5175000.0	33275.0	41471294.2136	0.224659842302	174204.296875	0.117246687296	1.61719632149	77022.9186849	51472.4365234	8985.78577868	62.1849418659	280153.772989	66293961.618	0
5200000.0	33422.0	42289024.8721	0.225374150932	174209.240723	0.118912190374	1.61385083199	76697.845232	51221.1486816	9078.94675379	61.4926400046	668149.228142	66298759.3737	0
5225000.0	33569.0	43118420.3064	0.226090383888	174213.378906	0.120592732856	1.61053967476	76374.5779218	50971.0266113	9171.46226144	61.0264151577	57741.4638905	66303557.6404	0
5250000.0	33717.0	43959546.3276	0.226816065287	174218.859863	0.122282479424	1.60721945763	76049.9420879	50719.708252	9262.90657766	60.5853080577	314515.856379	66308356.4181	0
5275000.0	33865.0	44812508.8093	0.227543580877	174223.120117	0.123987338156	1.60393762589	75727.223458	50469.5495605	9353.49607864	59.9561859061	725125.930506	66313155.7068	0
5300000.0	34013.0	45677416.5782	0.228268448621	174225.708008	0.125707752886	1.60070252419	75407.9224388	50221.8017578	9443.13618397	59.5460972061	88058.4547196	66317955.5066	0
5325000.0	34162.0	46554338.1517	0.228997174268	174228.601074	0.12743777188	1.59747087955	75089.2378083	49974.4750977	9531.41650501	59.1603675072	271164.293632	66322755.8174	0
5350000.0	34311.0	47443382.9126	0.229723471108	174229.345703	0.129183390527	1.59428596497	74773.9734298	49729.586792	9618.54706025	58.5923059186	856335.36747	66327556.6393	0
5375000.0	34460.0	48344661.5842	0.230447552312	174227.734375	0.130944827106	1.59114980698	74462.2045891	49487.1765137	9704.42812498	58.237009391	149213.146139	66332357.9722	0
5400000.0	34610.0	49258243.8717	0.231176085096	174225.683594	0.132716042572	1.58802163601	74151.1605146	49245.2514648	9788.62525858	57.9056949977	201701.443533	66337159.8162	0
5425000.0	34760.0	50184240.8902	0.231903725241	174221.508789	0.134502886795	1.58493697643	73843.1347398	49005.4718018	9871.34163477	57.3975191301	1057309.37449	66341962.1712	0
5450000.0	34910.0	51122760.4359	0.232634824961	174217.63916	0.136304268381	1.5818631649	73535.9530719	48766.394043	9952.45104228	57.0974729798	274242.179472	66346765.0373	0
5475000.0	35061.0	52073862.7303	0.233376937642	174216.381836	0.138113828143	1.57875692844	73226.5755612	48525.8148193	10031.417915	56.8225479917	80831.505894	66351568.4145	0
5500000.0	35212.0	53037651.095	0.234120742175	174215.307617	0.139938041684	1.57566523552	72918.4866508	48286.2792969	10108.558217	56.3760138792	1449714.60887	66356372.3027	0
5525000.0	35363.0	54014229.363	0.234865830999	174214.39209	0.14177695266	1.57258856297	72611.7964299	48047.8790283	10183.7756013	56.1326860637	562182.498935	66361176.702	0
5550000.0	35515.0	55003657.8842	0.235619065852	174215.600586	0.143624172779	1.56948590279	72303.6813272	47808.5723877	10256.5454787	55.9140231295	23971.7489626	66365981.6124	0
5575000.0	35667.0	56006039.7189	0.23637424359	174216.833496	0.145486046677	1.56639719009	71996.7874432	47570.2697754	10327.8507339	55.7068550371	374142.95318	66370787.0339	0
5600000.0	35820.0	57021433.6435	0.237138433917	174220.031738	0.147356040543	1.56328201294	71688.2997964	47330.9204102	10397.4710332	55.5191565832	1179857.05528	66375592.9664	0
5625000.0	35973.0	58049941.904	0.237905422376	174223.10791	0.149240513565	1.56018054485	71380.8275699	47092.3858643	10465.813863	55.1609846354	332265.736505	66380399.4101	0
5650000.0	36126.0	59091667.6152	0.238675622708	174226.000977	0.151139567606	1.55709290504	71074.257835	46854.5654297	10532.8132481	54.9940621804	29959.678856	66385206.3649	0
5675000.0	36280.0	60146668.2139	0.239456376368	174230.59082	0.153046552441	1.55397963524	70765.8206308	46615.4327393	10597.9489853	54.8463243329	538276.193676	66390013.8308	0
5700000.0	36434.0	61215047.5356	0.24024010814	174234.643555	0.154968263814	1.55088448524	70458.3432379	46377.0019531	10661.6495195	54.5311254087	1057317.8206	66394821.8079	0
5725000.0	36588.0	62296910.8027	0.241025773637	174238.012695	0.156904861797	1.54780852795	70152.1051815	46139.5141602	10723.8841987	54.4034355306	349432.320374	66399630.2961	0
5750000.0	36743.0	63392317.154	0.2418199408	174242.480469	0.158849667059	1.54471492767	69844.6514704	45901.2023926	10784.0901151	54.2945285628	7146.32009076	66404439.2955	0
5775000.0	36898.0	64501371.7462	0.242615373064	174246.069336	0.160809373483	1.54164302349	69538.8577422	45664.1723633	10842.7290935	54.1950040653	432494.953843	66409248.8061	0
5800000.0	37054.0	65624133.2471	0.243418711356	174250.537109	0.162777141668	1.53855550289	69232.22625	45426.6265869	10899.1975324	54.1143312024	1151920.04024	66414058.8278	0
5825000.0	37210.0	66760706.387	0.244222722899	174253.90625	0.164759811014	1.53549170494	68927.6091596	45190.637207	10953.9994745	53.8703695407	649200.887972	66418869.3608	0
5850000.0	37366.0	67911196.5551	0.245027368169	174256.079102	0.166757410625	1.53245222569	68625.0937629	44956.2774658	11007.082707	53.8092755249	118292.258735	66423680.405	0
5875000.0	37523.0	69075662.2998	0.245839263956	174258.752441	0.168763042893	1.52940011024	68322.2014474	44721.7590332	11057.8368372	53.7669170207	132768.834232	66428491.9604	0
5900000.0	37680.0	70254210.4522	0.246651800416	174259.765625	0.170783896465	1.52637314796	68021.2671258	44488.7298584	11106.8004752	53.5632344099	2188968.734	66433304.027	0
5925000.0	37837.0	71446949.6853	0.247464381931	174258.911133	0.172820145963	1.52337312698	67722.3916166	44257.2509766	11153.9478067	53.539956592	1324729.50082	66438116.6049	0
5950000.0	37995.0	72653940.6579	0.248283128804	174257.849121	0.174864777364	1.52036714554	67423.3561389	44025.7171631	11198.6145104	53.7047038219	2335846.64829	66442929.6941	0
5975000.0	38154.0	73875243.2171	0.249107222612	174256.408691	0.176917674253	1.51735961437	67124.5111172	43794.3878174	11240.7445462	53.5492681852	138068.510795	66447743.2946	0
6000000.0	38312.0	75111014.475	0.249922418835	174251.391602	0.178992835572	1.51442432404	66831.145935	43567.0837402	11281.5341938	53.394961007	3539298.77752	66452557.4063	0
6025000.0	38471.0	76361311.4117	0.250746055938	174248.059082	0.181075185537	1.51146578789	66536.5603178	43339.0350342	11319.6502346	53.5968805909	578634.596485	66457372.0294	0
6050000.0	38631.0	77626184.6269	0.251578474529	174246.655273	0.183164258488	1.50848388672	66240.7680988	43110.2539062	11355.0022691	53.6500614377	1246856.68114	66462187.1638	0
6075000.0	38791.0	78905732.9338	0.252412397762	174245.483398	0.185267199413	1.50551760197	65946.4992938	42882.6965332	11388.226311	53.5461969157	983323.5432	66467002.8095	0
6100000.0	38951.0	80200056.7639	0.25324928369	174244.262695	0.187384313904	1.50256145	65652.962105	42655.74646	11419.277981	53.6203126079	410939.248854	66471818.9666	0
6125000.0	39112.0	81509206.7785	0.254096494056	174244.665527	0.189508282347	1.49957764149	65357.4959855	42427.4841309	11447.4602613	53.7141807334	50255.2282549	66476635.635	0
6150000.0	39273.0	82833283.616	0.254946137566	174244.909668	0.191646468011	1.49660527706	65062.9904581	42200.0305176	11473.4191504	53.8184799305	144362.129722	66481452.8148	0
6175000.0	39435.0	84172336.5181	0.255804586779	174246.630859	0.193791289348	1.4936106205	64767.2215169	41971.8048096	11496.4070884	53.9429273976	549629.292862	66486270.5059	0
6200000.0	39597.0	85526464.6639	0.25666399904	174248.193359	0.195950065972	1.49063050747	64472.9821149	41744.8638916	11517.0888221	54.0782255756	1101369.84348	66491088.7085	0
6225000.0	39760.0	86895715.6332	0.257530913136	174251.098633	0.198115274543	1.48763227463	64178.0739281	41517.6391602	11534.7171765	54.2340663124	1745858.46263	66495907.4224	0
6250000.0	39923.0	88280188.2241	0.258397351453	174253.771973	0.200294394745	1.48465359211	63885.3296255	41292.2088623	11550.0262076	54.2345064745	913858.119913	66500726.6478	0
6275000.0	40086.0	89679980.7548	0.259263229038	174256.115723	0.202487353818	1.48169434071	63594.7564428	41068.5760498	11563.1462681	54.4117064568	434677.906172	66505546.3847	0
6300000.0	40250.0	91095142.4818	0.260137881691	174259.448242	0.20468699222	1.47871363163	63302.9321283	40844.2169189	11573.3582385	54.6087466189	107169.684575	66510366.633	0
6325000.0	40414.0	92525773.8288	0.261013712744	174262.158203	0.206900760531	1.47574675083	63012.464178	40621.0174561	11581.4554688	54.8158978767	40811.4370681	66515187.3927	0
6350000.0	40579.0	93971923.3791	0.261897096512	174265.722656	0.209121120861	1.4727628231	62721.2813021	40397.5006104	11586.7083484	55.0427773211	297727.664626	66520008.664	0
6375000.0	40744.0	95433690.4038	0.262779894497	174268.62793	0.211355421925	1.46979856491	62432.2429788	40175.7324219	11589.8892151	55.2798246594	682675.586569	66524830.4468	0
6400000.0	40910.0	96911121.2916	0.263668465148	174272.375488	0.213596009417	1.46682393551	62143.2757326	39954.2114258	11590.2709777	55.5367101098	1144472.91108	66529652.7412	0
6425000.0	41076.0	98404315.006	0.264554554966	174275.378418	0.215850450331	1.46387588978	61857.1947129	39734.9884033	11588.6549351	55.6361257779	1883623.83336	66534475.5471	0
6450000.0	41242.0	99913370.1217	0.26543734753	174277.624512	0.218118831981	1.46095848083	61574.3542294	39518.3074951	11585.0928025	55.9127764315	1331483.94867	66539298.8646	0
6475000.0	41409.0	101438333.277	0.266324901466	174280.419922	0.220393470954	1.45803415775	61291.915883	39302.130127	11578.8235656	56.2092622919	858793.926293	66544122.6937	0
6500000.0	41576.0	102979305.867	0.267211379908	174282.067871	0.222682370804	1.45513212681	61011.6369917	39087.6831055	11570.690063	56.5155779287	459496.709207	66548947.0344	0
6525000.0	41744.0	104536335.153	0.268103025407	174283.972168	0.224977658945	1.45222353935	60731.5259809	38873.5443115	11559.9092793	57.0109947164	4547643.77049	66553771.8868	0
6550000.0	41913.0	106109466.43	0.268999105967	174286.035156	0.227279015235	1.44931232929	60451.8895721	38659.9182129	11546.5013038	57.1882420425	1189.45998611	66558597.2508	0
6575000.0	42081.0	107698853.668	0.269883690748	174285.314941	0.229602344916	1.44646835327	60177.8228242	38450.4455566	11532.1718654	57.5344256041	169892.154638	66563423.1266	0
6600000.0	42251.0	109304486.666	0.270777765992	174286.096191	0.231923622778	1.44359755516	59902.6355959	38240.3167725	11514.4589039	57.9111922788	473984.864556	66568249.514	0
6625000.0	42420.0	110926518.074	0.271658358608	174283.947754	0.234266655752	1.4408018589	59633.6412169	38034.7564697	11495.9148186	58.1163094104	3248479.04987	66573076.4131	0
6650000.0	42590.0	112564992.215	0.272539827308	174281.628418	0.236615655012	1.43801808357	59366.3480816	37830.5450439	11474.8931331	58.6847861102	1472489.02835	66577903.824	0
6675000.0	42761.0	114219954.055	0.273425020774	174279.35791	0.238970416831	1.43523597717	59099.4529851	37626.675415	11451.4201281	59.1025919231	2088382.82805	66582731.7467	0
6700000.0	42932.0	115891501.268	0.274309183688	174276.843262	0.241338391788	1.43247306347	58834.432164	37424.2858887	11426.3766317	59.3574001025	1379371.67555	66587560.1812	0
6725000.0	43103.0	117579727.949	0.275191806728	174274.21875	0.243719463469	1.4297286272	58571.39492	37223.5015869	11399.8107138	59.7955841946	873831.179454	66592389.1274	0
6750000.0	43275.0	119284670.737	0.2760792739	174272.875977	0.246105308179	1.42697238922	58308.3830109	37022.9400635	11370.8842603	60.2552376578	460797.571237	66597218.5856	0
6775000.0	43447.0	121006421.307	0.276963741246	174271.496582	0.248503987677	1.42423522472	58047.8731984	36824.4415283	11340.5120328	60.7257381515	137357.831766	66602048.5555	0
6800000.0	43620.0	122745014.514	0.277851464245	174271.447754	0.250907149166	1.4214874506	57787.9218728	36626.6479492	11307.8617288	61.3950397312	6211692.99204	66606879.0374	0
6825000.0	43794.0	124500483.269	0.278741802584	174272.705078	0.253314734437	1.41873121262	57528.8879137	36429.8522949	11272.9658859	61.7326647005	246020.184944	66611710.0311	0
6850000.0	43967.0	126272976.719	0.2796217207	174272.485352	0.255743390881	1.41602015495	57274.2564186	36236.517334	11237.6348259	62.0684631469	4221452.13357	66616541.5368	0
6875000.0	44141.0	128062532.257	0.280506029908	174273.278809	0.258176936768	1.41329526901	57019.7442195	36043.5668945	11200.1638644	62.7842139597	1165142.48765	66621373.5545	0
6900000.0	44316.0	129869184.193	0.281394269942	174275.097656	0.260614906438	1.41056013107	56765.5346767	35851.0894775	11160.5751679	63.3438166943	1753239.51649	66626206.0841	0
6925000.0	44491.0	131693023.566	0.282278540135	174276.586914	0.263065652689	1.4078476429	56513.9956208	35660.7696533	11119.7955355	63.7329392777	2072552.88265	66631039.1256	0
6950000.0	44666.0	133534140.511	0.283158310884	174277.832031	0.265528971795	1.40516126156	56265.3357591	35472.7233887	11077.8877132	64.3146307035	1429598.96712	66635872.6793	0
6975000.0	44842.0	135392566.408	0.284039966416	174280.078125	0.267996394541	1.40247642994	56017.7681771	35285.647583	11033.593509	65.1064549511	4152052.70205	66640706.7449	0
7000000.0	45019.0	137268331.386	0.284922677699	174283.251953	0.270467513474	1.39979660511	55771.5997127	35099.7619629	10986.6050831	65.743454862	5133287.27453	66645541.3226	0
7025000.0	45196.0	139161525.078	0.285800103246	174286.010742	0.272951234365	1.39715123177	55528.5078049	34916.1865234	10937.9431379	66.2098935309	60371.8844266	66650376.4125	0
7050000.0	45373.0	141072239.37	0.286672760584	174288.15918	0.275447790045	1.39453685284	55288.2243416	34734.7717285	10887.7034424	66.8783599891	127702.72265	66655212.0144	0
7075000.0	45551.0	143000506.812	0.287546899518	174291.015625	0.277948507573	1.39192533493	55048.8840531	34554.1900635	10835.1007613	67.5751153374	540975.565078	66660048.1286	0
7100000.0	45729.0	144946416.962	0.288415179936	174293.322754	0.280461739749	1.38934314251	54812.5975726	34376.0009766	10781.1422387	68.0968562836	4004735.2244	66664884.7549	0
7125000.0	45907.0	146910059.529	0.289276888473	174295.117188	0.282987515675	1.3867893219	54579.4499439	34200.289917	10725.9449125	68.8244052763	3007847.40167	66669721.8934	0
7150000.0	46086.0	148891463.679	0.290138442868	174297.595215	0.285516900476	1.38423514366	54347.6609467	34025.8392334	10668.6637466	69.7750247078	2913200.46702	66674559.5442	0
7175000.0	46266.0	150890655.843	0.2909990674	174300.744629	0.288049748633	1.38168001175	54117.4303642	33852.835083	10609.4400454	70.5616535158	4028581.1978	66679397.7073	0
7200000.0	46446.0	152907725.357	0.291852708703	174303.198242	0.290595024126	1.37914836407	53890.4234107	33682.4737549	10549.2477713	71.1669149007	549285.679386	66684236.3826	0
7225000.0	46626.0	154942763.179	0.292699239484	174304.833984	0.293152785162	1.37663984299	53666.465632	33514.6118164	10488.187789	71.9842612707	53700.9891291	66689075.5703	0
7250000.0	46807.0	156995798.661	0.293545518093	174306.787109	0.295714475214	1.37413167953	53443.8300385	33347.9949951	10425.4893025	72.8303356908	249537.486743	66693915.2704	0
7275000.0	46988.0	159066920.499	0.294383955679	174307.958984	0.298288505292	1.37165296078	53224.4548585	33183.9538574	10362.1188753	73.6924115187	957006.505114	66698755.4829	0
7300000.0	47170.0	161156155.162	0.295221149591	174309.411621	0.300865765894	1.36918079853	53006.6289249	33021.2432861	10297.2566799	74.5838935162	1955437.16324	66703596.2078	0
7325000.0	47352.0	163263588.115	0.296049911781	174310.046387	0.30345498817	1.36674416065	52792.2912204	32861.2121582	10231.9129514	75.2845048894	2139917.16339	66708437.4452	0
7350000.0	47534.0	165389304.474	0.296869681603	174309.863281	0.306056055706	1.36434781551	52581.5313295	32703.8391113	10166.1355306	76.2060461299	1013182.86717	66713279.195	0
7375000.0	47717.0	167533330.389	0.297687454093	174309.70459	0.308660324663	1.36196374893	52372.4461767	32547.8240967	10099.1397486	77.1570546576	193993.544656	66718121.4574	0
7400000.0	47900.0	169695753.663	0.298496551811	174308.410645	0.311276846332	1.35961532593	52166.6717257	32394.3389893	10031.9135607	78.1236196202	234929.197534	66722964.2324	0
7425000.0	48084.0	171876600.366	0.299303139494	174307.03125	0.313896685839	1.35727798939	51962.5701827	32242.2210693	9963.63602682	79.1198310044	1185791.26847	66727807.5199	0
7450000.0	48268.0	174075957.403	0.300100956547	174304.47998	0.316528457915	1.35497510433	51761.8149662	32092.6696777	9895.27994704	80.1315941269	2628724.56534	66732651.32	0
7475000.0	48453.0	176293848.151	0.300897317803	174302.539062	0.319162878441	1.35267567635	51562.4054048	31944.317627	9826.02258512	81.1734416608	4463092.17924	66737495.6328	0
7500000.0	48638.0	178530355.346	0.301686589198	174300.646973	0.321808503941	1.35039865971	51365.803053	31798.2330322	9756.80001975	82.0095220566	344842.305242	66742340.4583	0
7525000.0	48823.0	180785560.202	0.302468385727	174298.815918	0.324465247104	1.34814429283	51172.0555227	31654.4555664	9687.69282394	83.0804996052	225488.878543	66747185.7964	0
7550000.0	49009.0	183059484.325	0.303249026478	174297.912598	0.327124726027	1.34588944912	50979.4992624	31511.8469238	9617.92399548	84.1813918269	1401790.12588	66752031.6474	0
7575000.0	49195.0	185352211.972	0.304022071243	174296.850586	0.329795846483	1.34365749359	50789.6976065	31371.4813232	9548.38504739	85.0689515696	2735741.23855	66756878.0111	0
7600000.0	49381.0	187663824.946	0.304787417102	174295.678711	0.332478259224	1.34144902229	50602.6326161	31233.3099365	9479.15112713	86.1977888382	1022828.82509	66761724.8876	0
7625000.0	49568.0	189994340.366	0.305550972138	174295.446777	0.335162621923	1.33924198151	50416.8072673	31096.2493896	9409.45836189	87.3566433414	10300.0293379	66766572.2769	0
7650000.0	49755.0	192343836.21	0.306306551053	174295.19043	0.337857811246	1.337059021	50233.7857054	30961.3891602	9340.15493091	88.5306731786	954460.694066	66771420.1791	0
7675000.0	49943.0	194712324.666	0.307059739069	174295.935059	0.340554106515	1.33487868309	50052.0930375	30827.6611328	9270.49671726	89.7352235599	2870872.12146	66776268.5942	0
7700000.0	50131.0	197099881.519	0.307804125715	174296.630859	0.343260908267	1.33272349834	49873.2695256	30696.1273193	9201.35800962	90.7133121139	1231175.3307	66781117.5223	0
7725000.0	50319.0	199506584.825	0.308539737391	174297.143555	0.345978594851	1.3305927515	49697.3440403	30566.8670654	9132.17341864	91.9505489294	2278.15510047	66785966.9633	0
7750000.0	50508.0	201932450.68	0.309272054812	174298.486328	0.348697940353	1.32846426964	49522.8099596	30438.8427734	9061.75775445	93.2289593459	1234273.04329	66790816.9173	0
7775000.0	50697.0	204377556.475	0.309995759116	174299.609375	0.351427996065	1.32636106014	49351.0571266	30313.0004883	8990.99654568	94.2832938612	2802413.75319	66795667.3844	0
7800000.0	50886.0	206841980.03	0.310710865899	174300.585938	0.354168820195	1.32428216934	49182.0507487	30189.34021	8919.96518233	95.609493694	634530.689127	66800518.3645	0
7825000.0	51076.0	209325734.931	0.311422990023	174302.404785	0.356911070412	1.32220828533	49014.3803866	30066.8701172	8847.97936173	96.9773836886	405212.405664	66805369.8577	0
7850000.0	51266.0	211828897.394	0.312126864644	174304.101562	0.359663856216	1.32016086578	48849.4036788	29946.5087891	8775.88069344	98.3707811261	2596357.20368	66810221.8641	0
7875000.0	51457.0	214351481.484	0.312827301862	174306.494141	0.362418155419	1.31812012196	48685.9062161	29827.456665	8702.99342454	99.8064254585	5911690.3728	66815074.3836	0
7900000.0	51648.0	216893567.499	0.313518421871	174308.569336	0.36518345587	1.31610643864	48525.1819464	29710.5743408	8630.17138993	101.002872628	90166.2249795	66819927.4163	0
7925000.0	51839.0	219455232.857	0.314200409674	174310.351562	0.367959495634	1.31412041187	48367.2642935	29595.8709717	8557.47009886	102.218182531	4851716.92004	66824780.9623	0
7950000.0	52030.0	222036555.272	0.314873362368	174311.828613	0.370746274712	1.3121625185	48212.0814438	29483.2519531	8484.95269713	103.722835765	1590560.36769	66829635.0215	0
7975000.0	52222.0	224637545.685	0.31554255694	174313.952637	0.373533985112	1.31021368504	48058.3736423	29371.8353271	8411.94143157	105.270264893	80132.9919488	66834489.5941	0
8000000.0	52414.0	227258276.915	0.3162031593	174315.844727	0.376331736334	1.30829334259	47907.345278	29262.4237061	8339.24709815	106.842811432	2410365.55633	66839344.68	0
8025000.0	52607.0	229898755.971	0.316859974511	174318.383789	0.379130011424	1.30638277531	47757.8075182	29154.2205811	8266.16441121	108.459116332	6428109.52122	66844200.2792	0
8050000.0	52800.0	232559057.934	0.317507578108	174320.483398	0.381938618375	1.30450427532	47611.002764	29048.0407715	8193.54227394	109.815628709	345160.446766	66849056.3919	0
8075000.0	52993.0	235239258.485	0.318145960916	174322.143555	0.384757586289	1.30265522003	47466.8900381	28943.9025879	8121.41548342	111.189622045	3875922.36966	66853913.0181	0
8100000.0	53186.0	237939432.939	0.318774922911	174323.388672	0.387586915167	1.30083346367	47325.4795839	28841.8457031	8049.82639389	112.872380117	543734.314395	66858770.1578	0
8125000.0	53380.0	240659589.309	0.319399006828	174325.097656	0.390416971641	1.29901862144	47185.5829079	28741.0858154	7978.10622779	114.598592184	1298218.88891	66863627.811	0
8150000.0	53574.0	243399801.391	0.320013086473	174326.428223	0.393257068936	1.29722619057	47048.3260167	28642.4346924	7907.04241782	116.34870836	5516758.57183	66868485.9777	0
8175000.0	53769.0	246160075.091	0.320621370243	174328.271484	0.396097544581	1.29543733597	46912.7058784	28545.2331543	7835.95770096	117.839691864	139461.093937	66873344.6581	0
8200000.0	53963.0	248940553.462	0.321214405721	174328.759766	0.398958043661	1.29368746281	46780.7852593	28450.8605957	7766.28796295	119.326662767	4075825.461	66878203.8521	0
8225000.0	54158.0	251741246.201	0.321801244361	174329.541016	0.401819648687	1.29194307327	46650.470372	28357.9040527	7696.71370137	121.159175855	312335.340268	66883063.5599	0
8250000.0	54353.0	254562228.785	0.322377246889	174329.760742	0.404691440053	1.2902225256	46522.8615653	28267.0898438	7627.94697198	123.014409114	2246023.41083	66887923.7813	0
8275000.0	54549.0	257403508.358	0.322946761073	174330.285645	0.407563755289	1.28850889206	46396.9368164	28177.7404785	7559.36303762	124.91254042	7879621.80091	66892784.5165	0
8300000.0	54745.0	260265157.019	0.323504991172	174330.236816	0.410446024034	1.28682076931	46273.7723105	28090.5639648	7491.65896324	126.510259546	1455492.68122	66897645.7655	0
8325000.0	54941.0	263147246.278	0.324052510626	174329.638672	0.413338013459	1.28515791893	46153.3642668	28005.557251	7424.84658871	128.121869075	1600295.48114	66902507.5283	0
8350000.0	55137.0	266049847.399	0.324587718735	174328.417969	0.416239839979	1.28352212906	46035.8543078	27922.8149414	7358.97748794	129.746214522	7962738.12643	66907369.805	0
8375000.0	55333.0	268973035.635	0.325108846211	174326.477051	0.419151969254	1.28191292286	45921.4722191	27842.5842285	7294.06112621	131.717853202	1753880.92027	66912232.5956	0
8400000.0	55530.0	271916818.023	0.325621891571	174324.609375	0.422064622398	1.28031396866	45809.0729182	27764.0441895	7229.51103344	133.730884777	1254408.0293	66917095.9002	0
8425000.0	55727.0	274881266.944	0.326125147403	174322.497559	0.424986821599	1.2787374258	45699.0932702	27687.3931885	7165.9727792	135.763748835	7612385.36462	66921959.7188	0
8450000.0	55925.0	277866382.605	0.326625382778	174321.30127	0.427908380516	1.27716529369	45590.2236058	27611.6973877	7102.86036764	137.490077318	1699287.25794	66926824.0513	0
8475000.0	56122.0	280872299.657	0.327116363173	174319.384766	0.430848798715	1.27562665939	45483.9321031	27537.8601074	7041.38607938	139.204675326	1015894.49075	66931688.898	0
8500000.0	56320.0	283899015.139	0.327608233321	174318.432617	0.433788343798	1.27409112453	45378.1913839	27464.4622803	6980.32121602	141.309119292	2422163.52024	66936554.2587	0
8525000.0	56518.0	286946596.096	0.328095681849	174317.504883	0.436736998381	1.27257514	45274.5561031	27392.7368164	6919.77832655	143.081579462	509566.317007	66941420.1335	0
8550000.0	56716.0	290015111.08	0.328577195434	174316.601562	0.439694937086	1.27107918262	45172.9526096	27322.6074219	6859.67016763	144.876391397	5404904.17754	66946286.5226	0
8575000.0	56914.0	293104627.529	0.32905212164	174315.722656	0.442662072601	1.26960349083	45073.1581422	27253.817749	6800.00947227	147.063993888	47560.3615168	66951153.4258	0
8600000.0	57113.0	296215144.503	0.329522804798	174315.649414	0.445628596935	1.2681324482	44974.1161137	27185.6201172	6740.27559538	149.306129099	4905508.7685	66956020.8433	0
8625000.0	57312.0	299346728.149	0.329984815033	174315.661621	0.448604056146	1.2666810751	44876.3876805	27118.258667	6681.0444371	151.200267582	396790.71533	66960888.775	0
8650000.0	57511.0	302499443.73	0.330437136488	174315.722656	0.451588537544	1.26524877548	44779.7381074	27051.4984131	6622.34832339	153.11623834	2374376.36846	66965757.2211	0
8675000.0	57710.0	305673361.272	0.330879031537	174315.74707	0.454582390375	1.26383638382	44684.0815803	26985.2508545	6564.20391862	155.443225017	1763745.22796	66970626.1815	0
8700000.0	57910.0	308868480.315	0.331314153893	174316.503906	0.45757566113	1.26243031025	44588.8497113	26919.2199707	6506.09139689	157.431221903	682204.913463	66975495.6564	0
8725000.0	58109.0	312084937.809	0.331736909146	174316.503906	0.460588198621	1.26105761528	44495.7720834	26854.6112061	6449.09518501	159.415982215	5125904.37231	66980365.6456	0
8750000.0	58309.0	315322731.494	0.332154563108	174317.211914	0.463599746581	1.25969076157	44403.5495918	26790.6799316	6392.17717047	161.850903929	327340.448473	66985236.1493	0
8775000.0	58509.0	318581926.546	0.332565121823	174317.96875	0.466620316729	1.2583425045	44313.1035369	26728.0975342	6335.87975925	164.316879875	8027849.68017	66990107.1675	0
8800000.0	58710.0	321862516.45	0.332972414433	174319.53125	0.469639286166	1.2569988966	44223.9267148	26666.6290283	6279.6989446	166.424676843	2635592.63	66994978.7003	0
8825000.0	58910.0	325164635.294	0.333370742757	174320.361328	0.47267699847	1.25568783283	44137.545619	26607.2570801	6224.67919537	168.527333559	72582.3380756	66999850.7476	0
8850000.0	59111.0	328488280.201	0.333765855315	174321.850586	0.475713808555	1.25438439846	44052.3317244	26548.8311768	6169.82310717	171.101120475	6616736.92651	67004723.3096	0
8875000.0	59312.0	331833516.323	0.33415357283	174323.266602	0.478759524412	1.25310051441	43968.9863808	26491.8212891	6115.6384571	173.274590366	1827634.11976	67009596.3862	0
8900000.0	59513.0	335200408.728	0.334533173411	174324.645996	0.481813971419	1.25183486938	43887.4764479	26436.21521	6062.1426553	175.46738062	364458.036926	67014469.9774	0
8925000.0	59714.0	338589020.557	0.334903716172	174326.000977	0.484876974951	1.2505863905	43807.7879674	26382.0251465	6009.33912942	177.679212589	3911260.38435	67019344.0834	0
8950000.0	59915.0	341999414.494	0.335264628836	174327.355957	0.487948505906	1.24935388565	43729.9133896	26329.2724609	5957.23754654	179.909536626	9282056.88613	67024218.7042	0
8975000.0	60116.0	345431652.478	0.335614664834	174328.710938	0.491028418764	1.24813616276	43653.8414602	26277.9754639	5905.84705892	182.610943726	189240.664328	67029093.8397	0
9000000.0	60318.0	348885729.703	0.335955987028	174330.651855	0.49410702195	1.24692451954	43579.2330308	26227.9632568	5854.70704473	185.368664349	7629960.8421	67033969.4901	0
9025000.0	60520.0	352361711.878	0.336286302097	174332.446289	0.497194589116	1.24573099613	43506.618541	26179.5288086	5804.3030082	187.690376188	3167639.7021	67038845.6554	0
9050000.0	60722.0	355859664.776	0.336605948232	174334.094238	0.500290945638	1.24455523491	43435.9595361	26132.6507568	5754.6298619	190.028999172	339089.566007	67043722.3356	0
9075000.0	60924.0	359379653.06	0.336915728736	174335.571289	0.503396324348	1.24339735508	43367.189985	26087.2619629	5705.70756906	192.383311328	1220395.07944	67048599.5307	0
9100000.0	61126.0	362921741.858	0.33721577721	174336.938477	0.506510317791	1.24225711823	43300.2413499	26043.2952881	5657.52418367	194.753348001	4500403.5551	67053477.2408	0
9125000.0	61328.0	366485994.348	0.337506990652	174338.15918	0.509632925969	1.2411339283	43235.0456075	26000.692749	5610.09262548	197.626086211	2697037.06489	67058355.466	0
9150000.0	61531.0	370072401.706	0.337792096705	174339.953613	0.512753729708	1.24001646042	43171.0026451	25959.0698242	5562.97932055	200.060348516	313949.449015	67063234.2062	0
9175000.0	61733.0	373681115.892	0.338066757784	174340.942383	0.515893450938	1.23892748356	43109.1254703	25919.0124512	5517.0430309	202.479535843	956074.900708	67068113.4615	0
9200000.0	61936.0	377312136.672	0.338336189031	174342.333984	0.519036198966	1.237844944	43048.3247457	25879.8370361	5471.48606006	205.443735092	7782954.17694	67072993.232	0
9225000.0	62139.0	380965489.331	0.338598915626	174343.75	0.522182032	1.23677802086	42988.9880589	25841.7572021	5426.65084246	207.412225347	7353387.14394	67077873.5177	0
9250000.0	62341.0	384641316.544	0.338852989018	174344.384766	0.525346491486	1.23573803902	42931.5935562	25805.0415039	5382.98084957	209.868856927	11607348.8809	67082754.3186	0
9275000.0	62544.0	388339602.681	0.339103496038	174345.581055	0.528508331627	1.23470366001	42875.0915479	25769.0338135	5339.66228308	212.891203039	39.5764723567	67087635.6347	0
9300000.0	62747.0	392060414.059	0.339346246758	174346.508789	0.53167907754	1.23368823528	42820.269447	25734.2803955	5297.11105081	215.93598014	12002139.821	67092517.4662	0
9325000.0	62951.0	395803743.274	0.3395822793	174347.77832	0.534848251846	1.23268222809	42766.7579583	25700.592041	5254.93929281	218.49644595	8208324.70607	67097399.813	0
9350000.0	63154.0	399569729.194	0.339808096066	174348.071289	0.538036751095	1.23170602322	42715.4561547	25668.4814453	5213.90466504	220.492563115	6935521.49535	67102282.6752	0
9375000.0	63357.0	403358436.4	0.340025998673	174348.046875	0.541233981494	1.23074781895	42665.791576	25637.6037598	5173.46879223	223.589644682	2528926.84768	67107166.0528	0
9400000.0	63561.0	407169856.127	0.340237694858	174348.364258	0.54442952387	1.22979712486	42617.2986581	25607.6873779	5133.2056124	226.19166411	723458.532566	67112049.9458	0
9425000.0	63764.0	411004126.255	0.340440121296	174347.705078	0.547643983737	1.22887289524	42570.735845	25579.133606	5093.83740598	228.779981651	89363.7011483	67116934.3543	0
9450000.0	63968.0	414861234.103	0.340637172744	174347.387695	0.550856464542	1.22795438766	42525.2059656	25551.4373779	5054.63238075	231.4168898	1270743.1969	67121819.2784	0
9475000.0	64171.0	418741315.77	0.340825395876	174346.105957	0.55408780463	1.22706031799	42481.4640697	25525.0137329	5016.30737403	234.039116819	3049812.27725	67126704.718	0
9500000.0	64375.0	422644359.134	0.341008587037	174345.166016	0.557316932827	1.22617042065	42438.6055967	25499.3286133	4978.14177274	237.291806002	7520746.14684	67131590.6732	0
9525000.0	64579.0	426570423.426	0.341185536246	174343.908691	0.560553860851	1.22529363632	42397.0008314	25474.5925903	4940.48894447	239.398501696	7591008.82563	67136477.144	0
9550000.0	64782.0	430519642.245	0.341354612438	174341.723633	0.563809357118	1.22443771362	42356.9104927	25450.9292603	4903.67004804	242.071854078	10137634.752	67141364.1306	0
9575000.0	64986.0	434491999.519	0.341519240088	174340.356445	0.567061943002	1.22358238697	42317.536043	25427.9067993	4867.0133231	245.395670685	1836868.47356	67146251.6328	0
9600000.0	65190.0	438487551.182	0.341677095861	174339.135742	0.570321804844	1.22273814678	42279.4245663	25405.8746338	4830.84808251	248.141898936	717275.7825	67151139.6508	0
9625000.0	65394.0	442506360.477	0.341826823555	174337.988281	0.573590281419	1.22190701962	42242.8376455	25385.0662231	4795.17269506	250.904347545	60350.9949892	67156028.1846	0
9650000.0	65598.0	446548489.272	0.341968875587	174336.92627	0.576866907068	1.22108995914	42207.7181325	25365.4022217	4759.98549128	253.68281925	294653.012799	67160917.2343	0
9675000.0	65802.0	450613998.684	0.342103316359	174335.9375	0.580151798204	1.22028517723	42173.980469	25346.8307495	4725.27439029	256.477410978	983159.716722	67165806.7997	0
9700000.0	66006.0	454702948.527	0.342230881724	174335.070801	0.583444605581	1.21949386597	42141.5468269	25329.2541504	4691.03273046	259.288149297	1814114.76779	67170696.8811	0
9725000.0	66210.0	458815398.856	0.342351500291	174334.301758	0.586745678447	1.21871519089	42110.3678377	25312.6342773	4657.26930374	262.756320825	12229920.3716	67175587.4784	0
9750000.0	66415.0	462951333.377	0.342466751126	174334.301758	0.590043666307	1.21793985367	42080.0422923	25296.7483521	4623.65243129	265.639624527	11011848.0973	67180478.5917	0
9775000.0	66619.0	467110883.839	0.342574580734	174333.813477	0.593360164203	1.21718525887	42051.1193649	25281.8252563	4590.807434	267.847366181	4445773.03605	67185370.221	0
9800000.0	66823.0	471294109.985	0.342676542835	174333.47168	0.596684403718	1.21644234657	42023.2025768	25267.640686	4558.41596989	270.719651785	5247965.15045	67190262.3664	0
9825000.0	67027.0	475501068.138	0.342772935029	174333.312988	0.600016443059	1.21571063995	41996.24981	25254.1488647	4526.46178051	273.607406656	5981262.11654	67195155.0278	0
9850000.0	67231.0	479731814.597	0.342864056162	174333.300781	0.603355874773	1.21499025822	41970.1721243	25241.2689209	4494.95860483	277.187173759	7865182.66752	67200048.2053	0
9875000.0	67436.0	483986329.53	0.342950963366	174334.106445	0.60669175582	1.21427261829	41944.6225958	25228.805542	4463.5913693	280.147365596	7439890.26615	67204941.899	0
9900000.0	67640.0	488264745.232	0.343031574119	174334.448242	0.610046205111	1.21357417107	41920.1748825	25217.0394897	4432.95405054	282.393926395	7619491.71669	67209836.1089	0
9925000.0	67844.0	492567123.562	0.343105626909	174334.851074	0.613408861682	1.21288895607	41896.7975487	25206.0424805	4402.74454698	285.339119946	7916713.11342	67214730.8351	0
9950000.0	68048.0	496893527.032	0.343173057058	174335.27832	0.616779900156	1.21221661568	41874.4871565	25195.8282471	4372.95696806	289.004323355	6994971.04848	67219626.0775	0
9975000.0	68253.0	501243938.214	0.343235036438	174336.376953	0.620148086455	1.21154952049	41853.0188856	25186.2915039	4343.31369679	292.019793525	7149548.304	67224521.8362	0
10000000.0	68457.0	505618495.449	0.34328987329	174336.950684	0.623535190243	1.21090269089	41832.8306948	25177.6046753	4314.36398939	294.290574533	7880901.45305	67229418.1112	0
10025000.0	68661.0	510017257.938	0.343338881694	174337.585449	0.626930384897	1.21026790142	41813.6748715	25169.6777344	4285.82840226	297.287596681	7570160.44715	67234314.9026	0
10050000.0	68865.0	514440283.633	0.343382225322	174338.317871	0.630333204754	1.20964515209	41795.5428216	25162.4786377	4257.69191138	301.033547823	8536354.43874	67239212.2104	0
10075000.0	69070.0	518887552.57	0.343420574724	174339.746094	0.633732590359	1.20902705193	41778.2045492	25155.9280396	4229.68905219	304.100787406	9348081.00169	67244110.0347	0
10100000.0	69274.0	523359198.982	0.343452970334	174340.637207	0.637150718831	1.20842766762	41762.075595	25150.1724243	4202.34558302	306.391962917	5814794.30256	67249008.3754	0
10125000.0	69478.0	527855279.425	0.343480308884	174341.687012	0.640576356091	1.20783901215	41746.8980001	25145.1171875	4175.3989259	309.437938967	5013832.99597	67253907.2326	0
10150000.0	69682.0	532375848.962	0.34350275675	174342.84668	0.644009152893	1.20726120472	41732.6781482	25140.7501221	4148.83003937	312.496136671	4133717.59769	67258806.6064	0
10175000.0	69886.0	536920960.95	0.343520537092	174344.116211	0.647449283861	1.20669305325	41719.3770046	25137.0681763	4122.63842892	315.565897785	3207011.78415	67263706.4968	0
10200000.0	70090.0	541490669.854	0.343533535911	174345.495605	0.650896399748	1.20613539219	41707.0082037	25134.0560913	4096.82357356	318.646801434	2261183.63979	67268606.9038	0
10225000.0	70294.0	546085035.196	0.343540570315	174346.911621	0.654351490084	1.20558917522	41695.746226	25131.8832397	4071.37598792	321.738460293	1335121.65877	67273507.8275	0
10250000.0	70498.0	550704116.533	0.343541527016	174348.31543	0.657814613078	1.20505452156	41685.5415387	25130.4977417	4046.30415609	324.839521315	514441.124844	67278409.2678	0
10275000.0	70702.0	555347973.038	0.343536771701	174349.731445	0.66128547769	1.20453178883	41676.4014886	25129.8904419	4021.59865911	327.950199458	1377.88027798	67283311.2249	0
10300000.0	70906.0	560016662.909	0.343526501796	174351.123047	0.664764258545	1.20401954651	41668.2336134	25130.0201416	3997.25027526	331.070489732	554122.243973	67288213.6988	0
10325000.0	71110.0	564710245.059	0.343511196556	174352.514648	0.668250722811	1.20351815224	41661.0152044	25130.8486938	3973.25869949	334.199865224	1685780.53444	67293116.6894	0
10350000.0	71314.0	569428777.09	0.343491026108	174353.955078	0.671744986903	1.20302700996	41654.6954439	25132.3364258	3949.61059592	337.338718926	3289138.77226	67298020.1969	0
10375000.0	71518.0	574172316.565	0.343466301552	174355.34668	0.675246876199	1.20254611969	41649.2271853	25134.4451904	3926.30584949	340.486491698	5350144.7218	67302924.2213	0
10400000.0	71722.0	578940920.766	0.34343755916	174356.762695	0.678756216075	1.20207500458	41644.5726285	25137.1368408	3903.33146461	342.801475922	10045684.4742	67307828.7626	0
10425000.0	71925.0	583734725.787	0.343404716601	174357.60498	0.682284648065	1.20161926746	41640.7787073	25140.385437	3880.90055285	345.920467206	7335922.08368	67312733.8208	0
10450000.0	72129.0	588553708.673	0.343368282209	174359.057617	0.685809063725	1.20116722584	41637.6076427	25144.128418	3858.5604137	349.94655553	14260181.4312	67317639.3961	0
10475000.0	72333.0	593397924.638	0.343328623616	174360.498047	0.689340813551	1.20072424412	41635.1203444	25148.348999	3836.53000078	352.266709802	2538951.05469	67322545.4883	0
10500000.0	72536.0	598267509.371	0.34328582735	174361.376953	0.692891539074	1.20029604435	41633.3549658	25152.9998779	3815.00652453	355.414404896	784320.037775	67327452.0976	0
10525000.0	72740.0	603162441.766	0.343238687938	174362.792969	0.6964384811	1.19987356663	41632.3311091	25158.2290649	3793.56631125	358.611499085	106129.189251	67332359.224	0
10550000.0	72943.0	608082862.871	0.343186506957	174363.549805	0.700005097315	1.19946837425	41632.3068949	25164.1204834	3772.62765326	361.776603843	1567023.15719	67337266.8676	0
10575000.0	73147.0	613028753.113	0.34312962586	174364.807129	0.70356822107	1.1990686655	41633.0511149	25170.6192017	3751.75513499	364.992228247	4053105.47254	67342175.0283	0
10600000.0	73350.0	618000252.949	0.343068694731	174365.368652	0.707150844391	1.19868505001	41634.6636261	25177.6702881	3731.36679785	367.27108041	12129185.3687	67347083.7062	0
10625000.0	73553.0	622997421.677	0.343003830095	174365.844727	0.710741442163	1.19831085205	41637.025726	25185.2508545	3711.24002202	370.456207048	8144334.78936	67351992.9013	0
10650000.0	73756.0	628020318.76	0.342935457013	174366.259766	0.714339781553	1.19794607162	41640.0675815	25193.2998657	3691.37176576	373.650725046	4603437.02009	67356902.6137	0
10675000.0	73959.0	633069003.173	0.342863887997	174366.52832	0.717945978977	1.19758999348	41643.7709669	25201.8096924	3671.75903508	376.854353517	1728463.22143	67361812.8435	0
10700000.0	74162.0	638143532.327	0.342789603325	174366.723633	0.72155991802	1.19724190235	41648.0675186	25210.7254028	3652.39086268	380.067764991	18855.3397244	67366723.5905	0
10725000.0	74365.0	643243963.225	0.342712802566	174366.796875	0.725181424059	1.19690155983	41652.9263048	25220.0164795	3633.26447386	383.290847305	1551621.6839	67371634.855	0
10750000.0	74568.0	648370352.534	0.342634020929	174366.772461	0.728810147848	1.19656825066	41658.2886608	25229.637146	3614.36919943	386.524428131	4658962.96567	67376546.6368	0
10775000.0	74771.0	653522755.802	0.342553401054	174366.601562	0.732446380425	1.19624149799	41664.1033465	25239.5507812	3595.70641968	389.767738759	8836520.56699	67381458.9361	0
10800000.0	74974.0	658701228.512	0.342471560754	174366.308594	0.736089947168	1.19592106342	41670.3407658	25249.7283936	3577.2696166	392.053070825	7217452.45005	67386371.7529	0
10825000.0	75176.0	663905909.022	0.342387998709	174365.307617	0.739752838854	1.19561290741	41677.1392544	25260.2111816	3559.23996529	395.2656794	3385701.70069	67391285.0872	0
10850000.0	75379.0	669136776.766	0.342300734041	174364.611816	0.743412005249	1.19530951977	41684.6159191	25271.2158203	3541.2350857	398.531047919	597900.934266	67396198.939	0
10875000.0	75581.0	674393974.879	0.342210861348	174363.134766	0.747091020457	1.19501960278	41692.7448764	25282.598877	3523.63077647	401.762469422	809898.37081	67401113.3084	0
10900000.0	75784.0	679677479.428	0.342117966188	174361.987305	0.750766019337	1.19473314285	41701.454228	25294.442749	3506.04469089	405.047440622	3970867.39933	67406028.1955	0
10925000.0	75986.0	684987433.112	0.342022722884	174360.339355	0.754460459575	1.19445991516	41710.7894766	25306.6390991	3488.84131954	407.290955019	13409135.235	67410943.6002	0
10950000.0	76188.0	690323893.439	0.341924800909	174358.850098	0.758162466809	1.19419419765	41720.7285921	25319.2626953	3471.83290539	410.544596439	7949965.04327	67415859.5226	0
10975000.0	76390.0	695686916.537	0.341824511344	174357.531738	0.761871866416	1.19393599033	41731.2383678	25332.2723389	3455.01362403	413.808632017	3432988.89207	67420775.9627	0
11000000.0	76592.0	701076558.083	0.341722081134	174356.408691	0.765588600188	1.1936852932	41742.2812034	25345.6390381	3438.38152757	417.082937947	378384.196354	67425692.9206	0
11025000.0	76794.0	706492874.065	0.341617736771	174355.432129	0.769312726334	1.19344079494	41753.7996911	25359.3353271	3421.93093758	420.36778656	1434439.45336	67430610.3963	0
11050000.0	76996.0	711935918.335	0.341511815501	174354.6875	0.773043837398	1.19320309162	41765.7783368	25373.3306885	3405.6525341	423.664182477	5479407.46205	67435528.3898	0
11075000.0	77198.0	717405746.077	0.341404598209	174354.101562	0.776782282628	1.19297099113	41778.1381687	25387.5762939	3389.55204964	426.970868789	11115009.5586	67440446.9011	0
11100000.0	77400.0	722902411.193	0.341296337344	174353.723145	0.780527770985	1.19274497032	41790.8853596	25402.0675659	3373.62028254	429.223726675	6191153.96508	67445365.9304	0
11125000.0	77601.0	728426053.07	0.34118742351	174353.00293	0.78429246787	1.19252884388	41803.9678164	25416.7053223	3358.02147661	432.499726843	1850414.97508	67450285.4775	0
11150000.0	77803.0	733976643.407	0.341075001218	174352.990723	0.788052682765	1.19231724739	41817.7482855	25431.9000244	3342.42139822	435.83085433	282470.245642	67455205.5427	0
11175000.0	78004.0	739554324.907	0.340960324736	174352.539062	0.791832571849	1.19211816788	41832.142151	25447.4594116	3327.14584386	438.038037692	22815265.6479	67460126.1258	0
11200000.0	78205.0	745159156.328	0.340842955517	174352.258301	0.795620086137	1.19192695618	41847.1185462	25463.4231567	3312.02373954	442.435309026	9347692.68132	67465047.227	0
11225000.0	78407.0	750791109.518	0.340722567059	174352.648926	0.799402943812	1.19173932076	41862.6941469	25479.8599243	3296.89072859	445.799536882	16719458.209	67469968.8462	0
11250000.0	78608.0	756450325.717	0.34060077004	174352.648926	0.803205417469	1.19156205654	41878.6933839	25496.5179443	3282.07189621	448.014350848	2775501.10925	67474890.9835	0
11275000.0	78809.0	762136862.583	0.340477235908	174352.79541	0.807015341707	1.19139122963	41895.1450812	25513.4750366	3267.39859469	451.346361986	50574.454226	67479813.6389	0
11300000.0	79010.0	767850774.89	0.34035227234	174353.088379	0.81083283294	1.19122636318	41911.986389	25530.6732178	3252.86589459	453.558619013	24721543.4215	67484736.8125	0
11325000.0	79210.0	773592207.864	0.340226903703	174352.990723	0.814669998363	1.19107031822	41929.0961455	25547.9721069	3238.62895676	456.858644069	16114605.6121	67489660.5043	0
11350000.0	79411.0	779361130.615	0.340099917584	174353.57666	0.818502157927	1.19091498852	41946.5453077	25565.5395508	3224.36936381	461.364086149	17307883.4418	67494584.7143	0
11375000.0	79612.0	785157597.838	0.339972337303	174354.296875	0.822341651656	1.19076442719	41964.25931	25583.2489014	3210.27124674	463.581728373	2874802.96579	67499509.4425	0
11400000.0	79812.0	790981752.495	0.339845403426	174354.663086	0.826200703159	1.19062054157	41982.0812649	25600.9399414	3196.52254995	466.902256697	76750.6682769	67504434.6891	0
11425000.0	80013.0	796833561.511	0.339717601256	174355.688477	0.830054399557	1.19047641754	42000.119163	25618.7957764	3182.8012836	470.273282661	3792769.08732	67509360.454	0
11450000.0	80213.0	802713167.41	0.339589372773	174356.347656	0.833928002976	1.19034028053	42018.4191635	25636.7492676	3169.41729538	472.41822133	16468175.6404	67514286.7372	0
11475000.0	80413.0	808620630.233	0.339459015682	174357.067871	0.83780917339	1.19021034241	42037.2107293	25655.0415039	3156.21087436	475.738188182	8657667.49515	67519213.5388	0
11500000.0	80613.0	814556009.054	0.339326864423	174357.910156	0.841698492877	1.19008588791	42056.4092175	25673.6022949	3143.16991452	479.061406704	2647790.28371	67524140.8588	0
11525000.0	80813.0	820519361.546	0.339193197607	174358.886719	0.845595030114	1.18996679783	42075.9875012	25692.4102783	3130.29281768	482.388164916	288066.046032	67529068.6973	0
11550000.0	81013.0	826510743.946	0.339058430068	174359.912109	0.849499250762	1.18985259533	42095.9149564	25711.4379883	3117.5780095	485.717955056	4751522.08736	67533997.0543	0
11575000.0	81213.0	832530214.244	0.338922865809	174361.035156	0.853411154822	1.18974304199	42116.1263018	25730.6396484	3105.01371158	487.829512427	15681159.3606	67538925.9297	0
11600000.0	81412.0	838577918.733	0.338787738291	174361.767578	0.85734273307	1.18964099884	42136.4951625	25749.8565674	3092.74113495	491.111922269	7688183.2711	67543855.3238	0
11625000.0	81612.0	844653824.238	0.338651515384	174363.07373	0.861269421875	1.18954002857	42157.1405323	25769.2871094	3080.46971419	495.685749699	32491864.4449	67548785.2363	0
11650000.0	81812.0	850757987.689	0.338515429301	174364.477539	0.865203444846	1.18944323063	42177.9679591	25788.8031006	3068.33457436	497.786738664	959520.010284	67553715.6675	0
11675000.0	82011.0	856890555.163	0.33838065371	174365.466309	0.869157374837	1.18935286999	42198.8084955	25808.2183838	3056.47543091	499.827811387	24247215.231	67558646.6173	0
11700000.0	82210.0	863051581.482	0.338246585501	174366.52832	0.873118638992	1.18926584721	42219.7206407	25827.6306152	3044.74569711	503.121739635	14634595.4977	67563578.0858	0
11725000.0	82409.0	869241121.641	0.33811352294	174367.675781	0.877087237313	1.1891824007	42240.6880795	25847.0153809	3033.13424282	506.422429693	6758946.29251	67568510.073	0
11750000.0	82608.0	875459233.537	0.337981245898	174368.908691	0.8810631698	1.18910229206	42261.6933972	25866.3726807	3021.64669237	509.728617402	1232862.10098	67573442.5789	0
11775000.0	82807.0	881705975.303	0.337848038203	174370.166016	0.88504672749	1.18902873993	42283.0445004	25885.925293	3010.2753619	513.041092611	1507698.98413	67578375.6036	0
11800000.0	83006.0	887981404.917	0.33771395656	174371.484375	0.889037968591	1.18896150589	42304.7291501	25905.6640625	2999.0159729	516.360239836	7461084.92376	67583309.1471	0
11825000.0	83205.0	894285581.137	0.337579193365	174372.827148	0.893036834896	1.18889951706	42326.6775419	25925.5554199	2987.86430789	519.686524335	16033347.2401	67588243.2094	0
11850000.0	83404.0	900618560.811	0.3374442119	174374.21875	0.897043501027	1.18884241581	42348.8468407	25945.5535889	2976.81947743	521.705595075	6179049.35961	67593177.7906	0
11875000.0	83602.0	906980493.705	0.337310125012	174375.12207	0.901070598047	1.18879234791	42371.0747889	25965.4937744	2966.00109215	524.989641178	806721.985502	67598112.8907	0
11900000.0	83801.0	913371346.09	0.337175277277	174376.5625	0.905092107132	1.18874359131	42393.5494664	25985.6109619	2955.15388502	528.330378569	2188334.74398	67603048.5097	0
11925000.0	83999.0	919791267.219	0.33704199983	174377.490234	0.909134396352	1.18870067596	42415.9704244	26005.5847168	2944.52738874	530.290928058	23842411.0447	67607984.6476	0
11950000.0	84197.0	926240315.493	0.336909504264	174378.491211	0.91318419436	1.18866014481	42438.4148103	26025.5279541	2933.98742502	533.59131968	13955349.0725	67612921.3046	0
11975000.0	84395.0	932718548.442	0.336778113354	174379.492188	0.917241384741	1.18862187862	42460.8289679	26045.3979492	2923.53654748	536.900145112	5985959.59166	67617858.4806	0
12000000.0	84593.0	939226022.858	0.336648175903	174380.493164	0.921306374948	1.18858540058	42483.178728	26065.1641846	2913.16767518	540.218260233	705586.917577	67622796.1756	0
12025000.0	84791.0	945762795.63	0.336519823665	174381.506348	0.925378408283	1.188549757	42505.4015882	26084.7808838	2902.87701182	543.546634507	2251951.66533	67627734.3898	0
12050000.0	84989.0	952328924.126	0.336393484802	174382.531738	0.929458066821	1.18851470947	42527.4627134	26104.2297363	2892.66398789	546.884866075	8684696.8024	67632673.1231	0
12075000.0	85187.0	958924447.143	0.336268211304	174383.557129	0.933542614803	1.18848097324	42549.4885482	26123.614502	2882.51854452	548.846832212	15434544.1976	67637612.3755	0
12100000.0	85384.0	965549534.631	0.33614383926	174384.020996	0.937650562264	1.18845319748	42571.5323495	26142.9260254	2872.56953179	552.1478282	7275043.58289	67642552.1472	0
12125000.0	85582.0	972204154.233	0.336018751596	174384.936523	0.941753387451	1.1884264946	42593.8208054	26162.4206543	2862.56685333	555.510039836	1419302.47279	67647492.4381	0
12150000.0	85779.0	978888458.589	0.335895128873	174385.314941	0.945877109189	1.18840503693	42616.0473532	26181.7779541	2852.75247936	558.832399392	1348451.14998	67652433.2482	0
12175000.0	85977.0	985602412.094	0.33577127452	174386.14502	0.949995184783	1.18838441372	42638.4336561	26201.2390137	2842.87811181	562.217895263	7251425.46531	67657374.5777	0
12200000.0	86174.0	992346170.056	0.335649364825	174386.401367	0.954134622589	1.18836832047	42660.67984	26220.501709	2833.18412284	564.132182265	18834580.5207	67662316.4265	0
12225000.0	86371.0	999119790.321	0.335528670943	174386.584473	0.958281685598	1.18835437298	42682.8649223	26239.6575928	2823.54799058	567.481953681	9994028.29161	67667258.7946	0
12250000.0	86568.0	1005923333.82	0.335409431743	174386.706543	0.96243666485	1.1883430481	42704.9811317	26258.6883545	2813.96625966	570.844314849	3260192.56235	67672201.6822	0
12275000.0	86765.0	1012756860.74	0.335291831839	174386.71875	0.966599327512	1.18833363056	42726.9740019	26277.557373	2804.43859843	574.21940159	119225.983597	67677145.0892	0
12300000.0	86962.0	1019620428.65	0.335176108934	174386.669922	0.970769848209	1.18832552433	42748.8011473	26296.2310791	2794.95547135	577.609010377	4382125.35234	67682089.0157	0
12325000.0	87159.0	1026514098.16	0.335062473358	174386.499023	0.974948168732	1.18831968307	42770.4498944	26314.6820068	2785.52276146	581.01193062	11533399.6871	67687033.4616	0
12350000.0	87356.0	1033437928.61	0.334951134938	174386.242676	0.979134230874	1.18831479549	42791.8751801	26332.8796387	2776.13407835	582.946164985	15713767.2784	67691978.4272	0
12375000.0	87552.0	1040392073.66	0.334843104963	174385.351562	0.983341247775	1.18831336498	42812.9279779	26350.6713867	2766.90463084	586.31724647	7929550.00175	67696923.9123	0
12400000.0	87749.0	1047376500.7	0.334735171365	174384.851074	0.987543258816	1.18831419945	42834.1116129	26368.4997559	2757.59989469	589.755564147	2116905.67451	67701869.917	0
12425000.0	87945.0	1054391365.79	0.334628855762	174383.71582	0.991766573861	1.18832170963	42855.2581217	26386.1633301	2748.45017137	593.156135472	541171.507105	67706816.4413	0
12450000.0	88142.0	1061436635.75	0.33452255431	174382.885742	0.995984766632	1.18833112717	42876.5492491	26403.8909912	2739.22554042	596.624544304	5219902.5092	67711763.4853	0
12475000.0	88338.0	1068512467.55	0.334418133494	174381.408691	1.00022426341	1.1883456707	42897.6873331	26421.3775635	2730.145776	598.529945423	26318618.7047	67716711.0491	0
12500000.0	88534.0	1075618922.77	0.334314737142	174379.943848	1.00447167642	1.18836295605	42918.7958217	26438.7756348	2721.0990961	602.67986005	8.95917672612e-13	67721659.1325	0
