z	T	P	nabla_ad	S	rho	delta	cp	cv	opac	frad	fconv	ftot	dT
0.0	3900.0	203.993374451	0.376423725828	171021.09375	8.22288903635e-06	1.01323628426	17255.9867488	10731.3453674	0.000850661233275	0.0	28782.8431742	65311815.0903	0
25000.0	3900.0	268.842966516	0.369677990092	169240.539551	1.08401216892e-05	1.01747250557	17675.2297746	11099.9168396	0.00101029188389	0.0	37959.3563062	65316507.3538	0
50000.0	3900.0	354.348551636	0.361262916	167451.184082	1.42934117875e-05	1.02292811871	18224.1324211	11583.2313538	0.0011988725644	0.0	49976.099525	65321200.1229	0
75000.0	3900.0	467.116312362	0.350895521864	165651.000977	1.88517681465e-05	1.03009819984	18943.0986844	12215.4029846	0.00142278680753	0.0	65813.4371116	65325893.3976	0
100000.0	3900.0	615.883476403	0.33837964364	163835.742188	2.48723814877e-05	1.03959965706	19883.460273	13040.5883789	0.00168788727894	0.0	86679.2281315	65330587.1781	0
125000.0	3900.0	812.219881676	0.32359326981	162001.538086	3.28304494701e-05	1.05198478699	21109.6857268	14115.0085449	0.00200122535071	0.0	114218.8542	65335281.4644	0
150000.0	3900.0	1071.46912754	0.306573649675	160141.906738	4.33598223992e-05	1.06800472736	22700.8053418	15507.6065063	0.00237425641619	0.0	150640.151694	65339976.2566	0
175000.0	3900.0	1414.01669665	0.287564721369	158250.463867	5.73084228961e-05	1.08902823925	24760.3066522	17303.3233643	0.00282216566775	35493856.8963	191441.506013	65344671.5548	0
200000.0	3916.0	1864.68245234	0.272252461649	156433.056641	7.53785442953e-05	1.10931360722	26686.5942353	18972.3449707	0.00346684572513	43087156.3555	243293.337874	65349367.3591	0
225000.0	3931.0	2457.57136212	0.256052323192	154578.503418	9.91554856e-05	1.13458561897	29059.877537	21020.0332642	0.00424411121201	42780126.2301	304989.759382	65354063.6694	0
250000.0	3965.0	3232.61987429	0.245865088117	152854.040527	0.000129512528702	1.15429627895	30791.5809432	22495.1156616	0.00534747567893	45728674.3497	360418.656817	65358760.4858	0
275000.0	4015.0	4238.80711632	0.240987302947	151252.807617	0.000167892025615	1.16641378403	31698.5884081	23244.7265625	0.00685147312334	42879875.741	409064.753948	65363457.8085	0
300000.0	4089.0	5530.57000535	0.243801814303	149864.96582	0.000215013074012	1.16492092609	31250.7026735	22820.2255249	0.00914977225018	45678661.717	370976.926284	65368155.6374	-2
325000.0	4230.0	7148.98530201	0.26503532	148966.723633	0.000268087660515	1.13276350498	27860.9077007	19856.1950684	0.0136055501168	42104566.8991	289219.193687	65372853.9727	-2
350000.0	4419.0	9132.12321195	0.29646966552	148370.129395	0.000326501378822	1.0925129652	23882.9842069	16395.2011108	0.021264900846	45243169.4281	24864.0494477	65377552.8144	-7
375000.0	4824.0	11419.099247	0.352058866288	148673.486328	0.000372474147525	1.03788387775	18919.831362	12106.1042786	0.0353485313528	39415642.597	6.27729692269e-11	65382252.1626	-7
400000.0	5172.0	14057.8481318	0.374053885718	148590.844727	0.000426448423241	1.01996076107	17422.3778682	10822.7912903	0.0482964553457	42745621.2666	0.0258384792654	65386952.0172	-15
425000.0	5874.0	16887.2047281	0.386934659923	149495.837402	0.000451774781141	1.00747108459	16578.4655509	10123.6419678	0.0747498794355	33577737.5408	0.00470866968242	65391652.3785	0
450000.0	6091.0	20141.3390121	0.385667309644	149033.374023	0.000517758962815	1.00710964203	16619.308638	10167.6734924	0.105268089186	62583950.8481	176.299397241	65396353.2465	-21
475000.0	8304.0	22894.0924521	0.259552819317	154239.025879	0.000427885368026	1.07671368122	26166.7362682	18759.425354	1.56356734775	21979341.2612	2244136.77889	65401054.6211	-40
500000.0	10290.0	25280.9145025	0.136858711356	162660.949707	0.000366118626971	1.44864034653	69285.2994903	55556.9946289	11.400699421	4040546.06179	36133320.4635	65405756.5026	-7
525000.0	10883.0	27691.8235406	0.121122540328	166343.359375	0.000368491555491	1.64412844181	91485.8581507	73524.0539551	18.8737174259	1192042.48442	13588819.4028	65410458.8909	-15
550000.0	11353.0	30152.599402	0.113507606028	169558.227539	0.000375117366502	1.80873215199	110416.63491	88344.2932129	26.5483015076	715992.497218	12787074.0131	65415161.7861	-3
575000.0	11699.0	32690.3138365	0.109730788196	172094.946289	0.000386088032656	1.93303883076	124961.51556	99412.8295898	33.6331090527	395689.458564	6991250.10944	65419865.1883	-4
600000.0	11884.0	35368.9073833	0.108730346613	173002.453613	0.000407132233704	1.98447537422	130908.298586	103808.38623	38.1277040501	232273.540807	2583469.10129	65424569.0975	-2
625000.0	12058.0	38195.8143896	0.108031534061	173802.185059	0.000429330242468	2.02956056595	136111.858334	107594.32373	42.7283698196	157227.058192	946119.277984	65429273.5139	0
650000.0	12158.0	41212.0717968	0.108144154941	173795.43457	0.000457844834045	2.04290318489	137384.085237	108426.611328	45.9387308987	102844.84632	6183.96572107	65433978.4373	0
675000.0	12257.0	44428.0264024	0.108276562389	173803.649902	0.000487885188249	2.05602192879	138650.084184	109253.405762	49.2937862109	91695.5562436	10016.6999522	65438683.868	0
700000.0	12356.0	47853.8639344	0.108423418547	173821.923828	0.000519465345405	2.06875753403	139885.453098	110054.35791	52.8217918411	82332.1641177	7493.63318374	65443389.806	0
725000.0	12455.0	51500.4739704	0.108590968351	173823.706055	0.000552718404379	2.08047175407	140988.069672	110749.353027	56.5291696093	74055.9923053	5421.2971491	65448096.2513	0
750000.0	12554.0	55379.7030879	0.108779040913	173798.64502	0.000587752140291	2.09114336967	141936.834058	111321.008301	60.4222747099	66720.7046617	3842.11392115	65452803.204	0
775000.0	12653.0	59503.4324648	0.108975229029	173800.830078	0.000624463041277	2.10226678848	142958.015566	111946.289062	64.500228413	59926.5270277	8810.4473178	65457510.6642	0
800000.0	12751.0	63884.09045	0.109189292082	173812.04834	0.000663034143145	2.11312317848	143961.570274	112558.032227	68.7358011033	54202.6379195	7145.33890208	65462218.6319	0
825000.0	12850.0	68533.2836919	0.109410967161	173837.573242	0.000703361877186	2.12393522263	144967.229505	113167.358398	73.1895411117	49112.0554846	5449.90834274	65466927.1071	0
850000.0	12948.0	73465.0765492	0.109658045426	173827.575684	0.000745858642404	2.13335180283	145783.808872	113630.957031	77.8070779944	44343.3870885	12924.5912519	65471636.09	0
875000.0	13046.0	78693.9377213	0.109918707982	173799.389648	0.000790481180957	2.14190340042	146482.262835	114002.185059	82.6239423379	40508.0420367	3691.04609594	65476345.5805	0
900000.0	13145.0	84233.0449671	0.11018385447	173809.594727	0.000836957383399	2.1510720253	147280.018847	114445.959473	87.6741031797	36881.9327759	2713.45040107	65481055.5789	0
925000.0	13243.0	90097.1921416	0.110466189367	173826.147461	0.000885651729732	2.15989398956	148050.994682	114870.532227	92.8965228099	33465.1770158	10580.051589	65485766.085	0
950000.0	13341.0	96301.1025858	0.110760175915	173844.238281	0.000936576157073	2.16831684113	148780.854989	115263.525391	98.3321579293	30564.8949793	9991.07496048	65490477.0989	0
975000.0	13439.0	102860.633389	0.111066059444	173840.380859	0.000989939053397	2.17591953278	149399.550331	115571.679688	103.99137901	27950.6228249	9882.38753136	65495188.6208	0
1000000.0	13537.0	109793.004803	0.111378605747	173814.086914	0.00104584694327	2.18271923065	149911.416106	115799.462891	109.881251051	25590.0999872	10206.0309837	65499900.6506	0
1025000.0	13635.0	117115.030976	0.11169648539	173811.547852	0.00110410996967	2.1896378994	150468.886194	116063.903809	116.000356487	23463.35948	10354.7713769	65504613.1885	0
1050000.0	13733.0	124843.113605	0.11202298201	173826.953125	0.00116481464829	2.19654655457	151047.711734	116345.52002	122.355125179	21543.3726532	10458.3079962	65509326.2344	0
1075000.0	13831.0	132994.458102	0.112359001549	173847.338867	0.00122811286474	2.20314145088	151598.067328	116605.883789	128.954198305	19805.3900699	10740.4500098	65514039.7885	0
1100000.0	13929.0	141587.465265	0.112705086087	173854.272461	0.00129422051032	2.20911312103	152064.788562	116802.79541	135.808496386	18227.2444927	11557.0771891	65518753.8507	0
1125000.0	14027.0	150642.097403	0.113059794107	173830.371094	0.00136336780088	2.21428585052	152409.315879	116906.750488	142.929005787	16790.2594928	13264.6298563	65523468.4212	0
1150000.0	14125.0	160178.832917	0.113422471057	173818.29834	0.0014353631741	2.21935915947	152760.122607	117017.004395	150.313882376	15484.6324268	15280.4176621	65528183.5	0
1175000.0	14223.0	170216.916595	0.11379375533	173825.927734	0.00151016615746	2.22442150116	153132.802326	117145.031738	157.95679144	14371.9987534	1948.98941734	65532899.0871	0
1200000.0	14322.0	180774.610753	0.114171369203	173854.602051	0.00158767670655	2.2295191288	153526.598562	117287.805176	165.903772733	13289.2126384	2489.27903184	65537615.1826	0
1225000.0	14420.0	191874.342139	0.114558355741	173869.384766	0.00166859513229	2.23390865326	153832.387651	117367.199707	174.06929862	12238.24244	22581.8744396	65542331.7865	0
1250000.0	14518.0	203538.543267	0.114950595655	173863.73291	0.00175294496785	2.23767447472	154047.907304	117379.309082	182.510630767	11338.6239253	26982.0900984	65547048.8989	0
1275000.0	14616.0	215791.413249	0.115351469208	173836.962891	0.00184089049071	2.24108529091	154202.986471	117346.081543	191.235925022	10568.0472293	8578.55071381	65551766.5199	0
1300000.0	14715.0	228654.68002	0.115758611607	173838.903809	0.00193179789676	2.24469614029	154408.541543	117350.45166	200.288936921	9812.25275396	11833.4677603	65556484.6494	0
1325000.0	14813.0	242153.062433	0.116173619166	173845.043945	0.00202636374524	2.2478966713	154581.27877	117334.423828	209.574143479	9119.69973908	16093.5373639	65561203.2876	0
1350000.0	14912.0	256308.115358	0.116593946672	173868.188477	0.00212414306588	2.25097608566	154755.082859	117319.042969	219.205188786	8485.54358564	20790.9092039	65565922.4345	0
1375000.0	15010.0	271146.951538	0.117019115866	173875.891113	0.00222601920541	2.25335264206	154842.741676	117243.249512	229.087590289	7901.65717835	27339.0217773	65570642.0901	0
1400000.0	15109.0	286693.634359	0.117451501702	173877.709961	0.0023315656108	2.25554275513	154901.838265	117145.129395	239.342846896	7401.92383246	5791.82310719	65575362.2545	0
1425000.0	15208.0	302976.248392	0.117891773415	173859.106445	0.00244129842031	2.25752329826	154918.046291	117015.026855	249.92968977	6903.71942998	11437.2639522	65580082.9277	0
1450000.0	15307.0	320022.898988	0.118337975848	173853.723145	0.00255487748291	2.25936865807	154936.255055	116888.549805	260.841727368	6445.08489252	18688.1923326	65584804.1097	0
1475000.0	15406.0	337860.439559	0.118789331599	173860.778809	0.00267239511231	2.26097130775	154942.294854	116755.273438	272.089146215	6022.31316923	27582.7657612	65589525.8007	0
1500000.0	15505.0	356516.586851	0.119244631765	173873.583984	0.00279404048342	2.26221561432	154915.677691	116599.816895	283.68509189	5631.85734513	38458.2968607	65594248.0007	0
1525000.0	15604.0	376019.921631	0.119707111571	173886.633301	0.00291997412205	2.26312398911	154855.251384	116421.264648	295.642767881	5297.30514524	10078.8296606	65598970.7096	0
1550000.0	15704.0	396397.409389	0.120179197864	173900.891113	0.00304998775391	2.26393723488	154783.990777	116233.972168	308.042236337	4961.53345948	19027.389733	65603693.9276	0
1575000.0	15803.0	417684.291148	0.120654439319	173881.958008	0.00318539105137	2.26439571381	154645.703681	115999.157715	320.783833377	4648.7567255	32896.0057356	65608417.6547	0
1600000.0	15903.0	439911.575351	0.121133776176	173870.629883	0.00332505123879	2.26483154297	154510.029485	115765.966797	333.991767147	4381.00168553	5695.77634026	65613141.891	0
1625000.0	16003.0	463111.284202	0.121616429055	173870.690918	0.00346926026396	2.26500535011	154357.87556	115523.022461	347.590833969	4111.20720294	15794.6342541	65617866.6364	0
1650000.0	16103.0	487314.74518	0.122106157	173880.480957	0.00361810248251	2.26490736008	154187.284425	115269.006348	361.5879501	3860.96542685	29954.9334801	65622591.891	0
1675000.0	16203.0	512554.037109	0.122605449999	173896.191406	0.00377172136723	2.26457118988	153998.191613	115003.45459	375.99449312	3628.57042825	48718.4276151	65627317.6548	0
1700000.0	16303.0	538863.002397	0.123111690431	173909.643555	0.00393041591451	2.26399850845	153781.748968	114719.213867	390.828243618	3429.37157706	12660.6364469	65632043.928	0
1725000.0	16404.0	566273.878848	0.123623411316	173919.970703	0.0040939835344	2.26332998276	153548.013948	114421.411133	406.178531135	3227.17587625	29441.8448489	65636770.7105	0
1750000.0	16504.0	594829.259798	0.124130939238	173897.216797	0.00426401993536	2.26240563393	153259.394001	114085.693359	421.932238893	3037.68066779	54772.7235973	65641498.0024	0
1775000.0	16605.0	624564.783468	0.124644814771	173885.559082	0.00443886892754	2.26139879227	152972.417193	113751.599121	438.214433585	2875.73830075	15378.7981111	65646225.8037	0
1800000.0	16706.0	655516.684322	0.125167728715	173886.535645	0.00461888794234	2.26016044617	152677.420221	113414.575195	454.954832774	2710.83724202	37442.6888596	65650954.1145	0
1825000.0	16807.0	687721.347906	0.125698438875	173896.020508	0.00480427843286	2.25867986679	152366.734747	113068.408203	472.160001292	2557.08378793	67566.1820271	65655682.9347	0
1850000.0	16908.0	721216.704387	0.126235188304	173908.691406	0.00499530051457	2.25695300102	152033.615488	112707.885742	489.82809111	2425.53641326	21125.4828775	65660412.2645	0
1875000.0	17010.0	756037.91026	0.126778419053	173927.050781	0.00519155946677	2.25506782532	151684.846569	112335.852051	508.046019772	2302.40952635	2632.35073252	65665142.1038	0
1900000.0	17112.0	792225.803162	0.127326152141	173936.730957	0.00539396205568	2.25298261642	151308.188686	111945.178223	526.753231106	2175.99422468	8034.46769422	65669872.4527	0
1925000.0	17214.0	829823.516014	0.127876564461	173929.980469	0.00560290754947	2.25082468987	150910.407964	111540.258789	545.969112382	2057.47413706	35087.0574937	65674603.3113	0
1950000.0	17316.0	868876.957682	0.128428358429	173913.15918	0.00581839958613	2.24861860275	150501.208485	111128.405762	565.695583941	1946.37679511	77041.9768525	65679334.6795	0
1975000.0	17418.0	909430.235837	0.128985847397	173905.700684	0.00603995385973	2.24619984627	150081.289201	110711.083984	585.916671518	1851.4824287	24926.8502108	65684066.5575	0
2000000.0	17521.0	951520.513687	0.129551926758	173913.513184	0.00626693281447	2.24359583855	149654.640296	110289.489746	606.720997188	1753.98880673	65077.1544785	65688798.9451	0
2025000.0	17623.0	995195.882163	0.130122011723	173918.261719	0.00650103720545	2.24066996574	149197.471877	109849.67041	627.955760183	1662.34834825	121791.580979	65693531.8426	0
2050000.0	17726.0	1040494.78334	0.130704613838	173933.691406	0.0067408218456	2.23756098747	148728.921754	109402.270508	649.795299707	1592.03832078	10173.5450526	65698265.2498	0
2075000.0	17830.0	1087457.12688	0.131296878729	173954.040527	0.00698654275766	2.2343351841	148249.287845	108947.033691	672.251553611	1511.02131492	7191.322511	65702999.1668	0
2100000.0	17933.0	1136137.1877	0.131885718397	173955.761719	0.00724042456568	2.23102283478	147745.381029	108476.416016	695.148727471	1434.58992719	47618.7612677	65707733.5937	0
2125000.0	18037.0	1186580.64662	0.132475018077	173947.570801	0.00750120216253	2.22779965401	147239.333595	108003.393555	718.674270584	1362.82673861	112682.22806	65712468.5306	0
2150000.0	18140.0	1238846.77508	0.13306205953	173925.390625	0.00777035165811	2.22449731827	146717.40031	107521.496582	742.655058788	1301.33082487	46693.9054107	65717203.9773	0
2175000.0	18245.0	1292972.26529	0.133667863323	173928.564453	0.00804440333013	2.22101283073	146195.60749	107039.306641	767.326508281	1243.78181241	2341.35930809	65721939.934	0
2200000.0	18349.0	1349011.7036	0.134276199377	173930.224609	0.00832648947835	2.2172973156	145652.93009	106545.446777	792.454215904	1183.55303066	46606.8059796	65726676.4007	0
2225000.0	18454.0	1407007.9357	0.134895338581	173943.408203	0.0086148520495	2.21340060234	145100.358713	106045.153809	818.227782773	1132.42422158	1551.05132658	65731413.3773	0
2250000.0	18559.0	1467011.98445	0.135518865224	173956.860352	0.00891075433174	2.20932102203	144530.785876	105534.545898	844.581305478	1078.86580185	48947.0400579	65736150.864	0
2275000.0	18664.0	1529075.7143	0.136149208197	173968.518066	0.00921435639611	2.20504593849	143941.801727	105011.865234	871.527136786	1028.31910196	135762.515855	65740888.8608	0
2300000.0	18769.0	1593253.54036	0.136783087139	173973.522949	0.00952607570071	2.20067858696	143340.169631	104481.689453	899.092744378	985.20745269	58287.9585241	65745627.3676	0
2325000.0	18875.0	1659595.31064	0.137421284182	173973.815918	0.00984525740932	2.19634819031	142738.007438	103951.074219	927.392754596	944.378995962	5844.73523237	65750366.3846	0
2350000.0	18981.0	1728161.77912	0.138054130808	173959.16748	0.0101733894553	2.19215416908	142139.278012	103423.693848	956.365106089	901.247530155	76338.5703588	65755105.9117	0
2375000.0	19087.0	1799012.78331	0.138691448113	173948.156738	0.0105095859908	2.18783020973	141531.935956	102891.97998	985.974061647	864.533601592	14829.6910916	65759845.949	0
2400000.0	19194.0	1872194.74456	0.139344462718	173951.464844	0.0108524036477	2.18325018883	140910.155135	102351.12915	1016.30887636	825.970942172	102034.042408	65764586.4964	0
2425000.0	19300.0	1947771.2819	0.139999356464	173952.124023	0.0112045836431	2.17849254608	140271.756979	101801.33667	1047.21013418	789.336749	241466.53645	65769327.5541	0
2450000.0	19407.0	2025791.09598	0.140666548793	173962.280273	0.0115638804346	2.17356967926	139622.836272	101244.537354	1078.86615088	761.873501889	5068.64029597	65774069.122	0
2475000.0	19515.0	2106304.17016	0.141343712615	173978.747559	0.0119305204862	2.16853928566	138965.54429	100681.774902	1111.30459691	732.330746156	64529.4554959	65778811.2002	0
2500000.0	19623.0	2189369.91747	0.142026946729	173992.529297	0.0123059489852	2.1633887291	138293.082789	100109.082031	1144.4419008	697.6958868	191838.326314	65783553.7886	0
2525000.0	19730.0	2275059.49589	0.142707611596	173993.457031	0.0126919721879	2.15821170807	137609.986343	99530.682373	1178.21150433	671.000722391	98429.5204844	65788296.8873	0
2550000.0	19839.0	2363419.41043	0.14339949928	173997.875977	0.0130848948174	2.15306210518	136929.994178	98953.4057617	1212.91497105	645.741688751	26733.5265713	65793040.4964	0
2575000.0	19947.0	2454528.29489	0.144076329501	173981.286621	0.0134894889925	2.1481628418	136264.863838	98388.7268066	1248.30613796	618.609014532	164290.550346	65797784.6158	0
2600000.0	20056.0	2548445.85512	0.144759499214	173971.716309	0.0139020012284	2.14321136475	135602.194052	97826.7883301	1284.4817317	595.69582111	72988.9695263	65802529.2456	0
2625000.0	20165.0	2645234.62849	0.145452941408	173967.382812	0.0143234174175	2.13798284531	134918.928832	97252.3925781	1321.27040338	573.906032952	9929.22894164	65807274.3857	0
2650000.0	20275.0	2744945.90884	0.146164009502	173974.060059	0.0147522732732	2.13244986534	134214.33216	96663.9770508	1358.77851189	553.271121118	24950.7557263	65812020.0363	0
2675000.0	20385.0	2847642.40165	0.146884090727	173983.483887	0.0151902986545	2.12671327591	133493.611365	96065.9484863	1396.9372157	531.192555212	59009.8907772	65816766.1973	0
2700000.0	20495.0	2953388.64004	0.147611021556	173993.798828	0.0156377918756	2.1208460331	132762.012086	95461.6882324	1435.77495152	512.524454452	3652.69959551	65821512.8687	0
2725000.0	20606.0	3062239.92698	0.148349842571	174009.265137	0.0160933850566	2.11486935616	132022.881434	94852.532959	1475.40408043	492.55567703	149158.236958	65826260.0506	0
2750000.0	20716.0	3174276.30062	0.14908248761	174014.477539	0.0165608198586	2.10896945	131286.983564	94247.6135254	1515.67929822	475.578136729	62177.599963	65831007.7429	0
2775000.0	20828.0	3289546.35158	0.149827949682	174025.585938	0.017035392375	2.10307216644	130553.671661	93643.8110352	1556.90521265	459.487401152	4940.07618091	65835755.9457	0
2800000.0	20939.0	3408136.14033	0.150559099496	174020.300293	0.0175227687578	2.09743523598	129838.416692	93054.4433594	1598.84513689	441.981300282	174367.491488	65840504.659	0
2825000.0	21051.0	3530112.00864	0.151288011875	174009.741211	0.0180198148882	2.09199953079	129140.89918	92477.7282715	1641.71114058	427.227788441	79037.1390541	65845253.8829	0
2850000.0	21163.0	3655551.29944	0.152015806758	173999.926758	0.0185273020179	2.08660626411	128450.874364	91907.7636719	1685.38588443	413.088430863	11301.7429645	65850003.6173	0
2875000.0	21276.0	3784514.08313	0.152751639175	173998.681641	0.0190433056559	2.08115267754	127761.746156	91339.1662598	1729.96037515	399.61358316	26673.4494534	65854753.8622	0
2900000.0	21389.0	3917070.059	0.153497180124	174000.292969	0.0195694537979	2.07548332214	127054.738193	90759.5275879	1775.34725813	384.997770117	104923.306608	65859504.6177	0
2925000.0	21502.0	4053289.20745	0.154255117265	174004.296875	0.0201057973754	2.0695540905	126325.426431	90165.7897949	1821.55486608	372.682691187	28003.8201998	65864255.8838	0
2950000.0	21616.0	4193229.59243	0.155030970681	174015.234375	0.0206505719689	2.0633699894	125575.826068	89558.4655762	1868.68813062	360.937729014	7212.78760394	65869007.6605	0
2975000.0	21730.0	4336964.10939	0.155813799882	174025.634766	0.0212060076592	2.05706810951	124816.261357	88945.526123	1916.68319433	348.132948733	176173.527343	65873759.9478	0
3000000.0	21844.0	4484567.92492	0.156600318345	174033.813477	0.0217724737013	2.05072760582	124053.799444	88331.8786621	1965.55699482	337.348607132	84997.1733739	65878512.7458	0
3025000.0	21959.0	4636104.73042	0.15739505374	174043.286133	0.022348267521	2.0443611145	123290.989138	87718.4997559	2015.41811643	327.0369653	18884.2480617	65883266.0543	0
3050000.0	22074.0	4791654.63675	0.158185582214	174046.166992	0.0229358756769	2.03812408447	122539.823588	87114.4592285	2066.19923034	315.735766072	307975.135054	65888019.8735	0
3075000.0	22189.0	4951301.48231	0.158967099531	174039.84375	0.0235358711507	2.03210830688	121808.130801	86525.1708984	2117.92728364	306.21340521	194010.334809	65892774.2033	0
3100000.0	22305.0	5115117.39858	0.159747043618	174031.091309	0.0241461038968	2.02625370026	121093.293826	85948.1079102	2170.68818611	298.372262637	183642.741161	65897529.0438	0
3125000.0	22422.0	5283170.94813	0.160533486757	174029.577637	0.024765409762	2.02038621902	120384.029325	85375.7568359	2224.40928283	288.375991264	20921.066279	65902284.395	0
3150000.0	22538.0	5455557.00603	0.161308862314	174024.377441	0.025398494472	2.0146548748	119689.801825	84815.8874512	2278.84179584	278.753446713	341203.199462	65907040.2569	0
3175000.0	22655.0	5632338.243	0.162101273875	174026.257324	0.0260405886365	2.00869321823	118978.199827	84244.4702148	2334.09113581	271.914149256	91433.5287396	65911796.6295	0
3200000.0	22773.0	5813576.55023	0.1629127085	174034.643555	0.0266916067631	2.00247383118	118245.578368	83658.807373	2390.14193035	263.13010772	114544.297581	65916553.5128	0
3225000.0	22890.0	5999366.88935	0.163723334333	174038.293457	0.0273565219686	1.99620175362	117507.658745	83071.1914062	2446.85893576	255.752518137	37314.0534297	65921310.9068	0
3250000.0	23009.0	6189757.43597	0.16455667001	174051.586914	0.0280283238681	1.9897108078	116753.967348	82472.4060059	2504.4460539	248.755746031	903.862850555	65926068.8116	0
3275000.0	23127.0	6384846.83913	0.165383258371	174058.056641	0.0287145849143	1.98329365253	116006.414771	81879.5837402	2562.71591614	240.959242857	325848.537467	65930827.2271	0
3300000.0	23246.0	6584703.1824	0.166217415485	174066.381836	0.0294107449008	1.97686183453	115259.945414	81287.9821777	2621.81467348	235.491338899	130443.98327	65935586.1533	0
3325000.0	23366.0	6789395.83335	0.167055571784	174074.975586	0.0301170293824	1.97047889233	114520.359622	80701.6967773	2681.74919843	228.329001481	120618.963798	65940345.5903	0
3350000.0	23485.0	6999031.72453	0.167875786365	174072.363281	0.0308390626742	1.96437120438	113805.153315	80134.0942383	2742.42443774	222.324562809	41477.9672817	65945105.5381	0
3375000.0	23606.0	7213668.39596	0.168700729302	174071.203613	0.0315694742312	1.95837295055	113103.483892	79575.9399414	2804.04449413	216.606932827	959.475551963	65949865.9966	0
3400000.0	23726.0	7433418.44701	0.169505098767	174060.571289	0.0323158019455	1.95267415047	112430.388143	79039.5568848	2866.41329803	210.173145751	365444.084734	65954626.9659	0
3425000.0	23847.0	7658353.65853	0.170317590453	174056.506348	0.0330717739416	1.94691264629	111757.963731	78504.6081543	2929.60959669	205.721953629	162175.326659	65959388.4459	0
3450000.0	23969.0	7888539.43939	0.171147517651	174058.59375	0.0338370773534	1.94091796875	111068.615648	77958.7097168	2993.61407606	199.805627049	123158.586499	65964150.4368	0
3475000.0	24090.0	8124078.94285	0.17197546038	174057.312012	0.0346173910657	1.93488419056	110376.767386	77412.8051758	3058.34858684	194.876405021	40112.7150184	65968912.9385	0
3500000.0	24213.0	8365019.67242	0.172826363299	174065.820312	0.0354044314008	1.92861938477	109669.040331	76855.9997559	3123.96838932	190.190135274	743.267159042	65973675.951	0
3525000.0	24335.0	8611467.16882	0.17367081274	174069.995117	0.0362068385584	1.92240858078	108966.908937	76304.6081543	3190.35853972	184.87168062	447074.639511	65978439.4743	0
3550000.0	24458.0	8863490.08158	0.174524411757	174078.100586	0.0370191264665	1.91614115238	108262.887332	75752.4108887	3257.62662705	181.24776256	137722.567333	65983203.5085	0
3575000.0	24582.0	9121157.65677	0.17538446305	174089.233398	0.0378414115403	1.90986597538	107561.300939	75202.4047852	3325.79083206	176.330195152	205213.22501	65987968.0534	0
3600000.0	24705.0	9384580.92519	0.176229690727	174093.87207	0.0386799292755	1.90379023552	106878.225068	74666.6625977	3394.81100488	172.244488571	102300.344527	65992733.1093	0
3625000.0	24830.0	9653812.55634	0.177084181255	174103.881836	0.0395259849029	1.89772617817	106200.609195	74134.8022461	3464.83745228	168.346577563	25132.220666	65997498.6759	0
3650000.0	24954.0	9928968.43067	0.177917439396	174105.371094	0.0403890080634	1.89195716381	105550.172558	73623.2666016	3535.78424172	164.532588141	15478.8229669	66002264.7534	0
3675000.0	25080.0	10210104.4562	0.178755681283	174109.631348	0.0412600857089	1.88624823093	104909.247585	73118.5791016	3607.79553424	160.888360847	100654.586668	66007031.3418	0
3700000.0	25205.0	10497340.5423	0.179579389959	174102.55127	0.0421487493441	1.88069009781	104280.491998	72623.8525391	3680.7561147	156.694027565	283555.993573	66011798.441	0
3725000.0	25331.0	10790755.0992	0.180410430219	174096.105957	0.0430480613431	1.87506198883	103648.294062	72127.5146484	3754.55728456	153.280025597	150874.877161	66016566.051	0
3750000.0	25457.0	11090442.3644	0.181243965994	174091.088867	0.0439603463747	1.8693728447	103014.257593	71631.2011719	3829.10660772	149.976763345	48270.7717233	66021334.1719	0
3775000.0	25584.0	11396470.7708	0.182087468931	174091.369629	0.0448823520856	1.86357522011	102375.354289	71132.3669434	3904.41589594	146.80732549	2654.77875472	66026102.8037	0
3800000.0	25711.0	11708930.9425	0.182930210946	174092.578125	0.0458174545201	1.85778033733	101740.185343	70637.2619629	3980.46767225	143.738258428	74214.1397712	66030871.9463	0
3825000.0	25839.0	12027891.7751	0.183779115092	174098.4375	0.0467623794975	1.85194718838	101106.160092	70143.6523438	4057.26126742	140.791956982	196850.710408	66035641.5998	0
3850000.0	25967.0	12353445.6055	0.184623272573	174104.589844	0.0477206303913	1.84618806839	100481.988469	69657.8979492	4134.78273265	137.400016432	232468.413353	66040411.7643	0
3875000.0	26095.0	12685686.2345	0.185460311054	174110.60791	0.0486924618599	1.84054040909	99870.8221095	69182.0861816	4213.04520399	134.644161712	94861.6861141	66045182.4396	0
3900000.0	26224.0	13024685.4182	0.186296665842	174119.824219	0.0496745742566	1.83496701717	99270.4482269	68714.3249512	4292.04908948	131.995167692	4402.44060924	66049953.6258	0
3925000.0	26353.0	13370539.6994	0.187124283991	174127.563477	0.050670663768	1.82951796055	98683.7615558	68257.019043	4371.79520208	128.924020648	664647.844139	66054725.3229	0
3950000.0	26482.0	13723347.3492	0.187947884225	174132.751465	0.0516809959663	1.82409524918	98101.1732668	67803.6254883	4452.28478153	126.43830042	435371.231277	66059497.5309	0
3975000.0	26612.0	14083183.4524	0.188775350841	174138.549805	0.0527021074959	1.81864929199	97519.0795054	67351.2207031	4533.51453863	124.523238775	434335.058744	66064270.2498	0
4000000.0	26743.0	14450123.3007	0.189605284333	174144.274902	0.0537340602023	1.81320726871	96939.507443	66901.1291504	4615.47115962	121.743429817	81467.6991638	66069043.4796	0
4025000.0	26873.0	14824293.6603	0.190419324354	174142.028809	0.0547845120309	1.80794262886	96375.0080683	66462.512207	4698.19747132	119.025564749	947358.888665	66073817.2203	0
4050000.0	27004.0	15205773.2618	0.191233147376	174138.28125	0.0558463325433	1.80274045467	95817.3720569	66028.9794922	4781.66097732	117.302416465	115534.558293	66078591.472	0
4075000.0	27136.0	15594641.4567	0.192046534713	174133.764648	0.056919263443	1.79760420322	95267.3318268	65601.0620117	4865.84317666	115.203159738	314153.034919	66083366.2345	0
4100000.0	27268.0	15990999.1126	0.192854969964	174130.236816	0.0580058367632	1.7925350666	94726.2004419	65180.1391602	4950.68113591	112.737262018	188723.492643	66088141.5079	0
4125000.0	27400.0	16394942.0334	0.193657381667	174128.051758	0.0591060743318	1.7875483036	94195.4518964	64767.2058105	5036.16878589	110.76575737	27097.4534621	66092917.2922	0
4150000.0	27533.0	16806539.4718	0.194460583925	174130.541992	0.0602161380812	1.78259551525	93672.1729771	64360.0341797	5122.26644985	108.86982573	65280.8758082	66097693.5875	0
4175000.0	27666.0	17225888.3585	0.195257677228	174133.325195	0.0613401207374	1.77767980099	93155.5251894	63958.5388184	5209.0123868	106.625502115	518234.345629	66102470.3936	0
4200000.0	27799.0	17653086.9787	0.196049894962	174136.035156	0.0624782260275	1.77277541161	92643.0744215	63561.1083984	5296.41317605	104.840379971	234570.428419	66107247.7107	0
4225000.0	27933.0	18088206.3614	0.196845093764	174141.833496	0.0636264667264	1.76783001423	92130.9224127	63164.6789551	5384.39950551	103.122351363	34651.5069434	66112025.5387	0
4250000.0	28067.0	18531345.3677	0.197635258666	174147.167969	0.0647889028187	1.76292526722	91624.7245699	62773.2849121	5473.0301958	101.450022076	76938.7280069	66116803.8777	0
4275000.0	28202.0	18982575.3178	0.198427793698	174155.053711	0.0659615034238	1.75801253319	91120.9819446	62384.1918945	5562.24641862	99.8396545545	330407.650413	66121582.7276	0
4300000.0	28337.0	19441995.8745	0.199214409273	174162.011719	0.0671484449413	1.75317585468	90625.4581387	62001.4526367	5652.1411809	97.907681292	218554.82729	66126362.0884	0
4325000.0	28472.0	19909707.7832	0.199994526059	174167.700195	0.0683499238221	1.74843275547	90139.3859212	61625.8361816	5742.76993414	96.3838155048	11930.1528795	66131141.9601	0
4350000.0	28608.0	20385784.2388	0.200775106151	174174.938965	0.0695618291502	1.74374103546	89659.8564835	61255.0354004	5834.03830704	94.9142624041	140687.53644	66135922.3428	0
4375000.0	28744.0	20870327.7126	0.201547429938	174180.114746	0.0707885337761	1.73918473721	89192.6313664	60893.1030273	5925.96334359	93.1384466269	452873.730333	66140703.2365	0
4400000.0	28880.0	21363443.5596	0.202309947825	174182.336426	0.0720304669812	1.7347484827	88736.8422502	60539.6911621	6018.5503957	91.7458510295	122665.837079	66145484.6411	0
4425000.0	29017.0	21865209.6649	0.203069152768	174183.752441	0.0732835469535	1.7303416729	88286.04527	60190.423584	6111.69147891	90.4025205986	37505.4804786	66150266.5566	0
4450000.0	29154.0	22375734.7171	0.203818367748	174180.737305	0.0745523138903	1.72603094578	87844.3192083	59848.1262207	6205.45632893	88.7667893284	663576.362572	66155048.983	0
4475000.0	29291.0	22895128.5486	0.204559163547	174174.01123	0.0758366659284	1.72180771828	87410.8881075	59512.1704102	6299.76736739	87.4927159022	236733.513763	66159831.9205	0
4500000.0	29429.0	23423466.3989	0.205303273709	174170.861816	0.0771307895775	1.71755754948	86978.4612847	59177.4658203	6394.43747642	86.2672246009	697.436310473	66164615.3688	0
4525000.0	29567.0	23960848.0987	0.206043929862	174168.54248	0.0784390576882	1.71334338188	86551.1223681	58846.862793	6489.50413538	85.0742292663	266881.094809	66169399.328	0
4550000.0	29706.0	24507341.0015	0.206788889073	174169.970703	0.0797568645794	1.70911574364	86125.3763991	58517.7001953	6584.82004882	83.6258735136	339113.174937	66174183.7982	0
4575000.0	29844.0	25063076.0016	0.207523975099	174169.274902	0.0810935307527	1.70500159264	85709.5607386	58195.880127	6680.5529762	82.5006973409	17239.5370752	66178968.7794	0
4600000.0	29984.0	25628088.8431	0.208270800345	174175.024414	0.0824349845061	1.70084142685	85292.9141709	57873.4741211	6776.33835299	81.4341596223	215799.350732	66183754.2715	0
4625000.0	30123.0	26202511.9737	0.209005375942	174178.198242	0.08379558858	1.69680380821	84887.0938908	57559.1186523	6872.44062241	80.0953065987	422173.739753	66188540.2745	0
4650000.0	30263.0	26786415.8941	0.209738816591	174183.776855	0.08516611706	1.6927614212	84484.1521787	57247.4060059	6968.64324229	79.089574274	37427.13267	66193326.7885	0
4675000.0	30403.0	27379903.4741	0.210465002618	174188.842773	0.0865514011821	1.68876850605	84087.299642	56940.6066895	7064.99009005	78.1106640404	216892.372095	66198113.8135	0
4700000.0	30544.0	27983044.741	0.211192023583	174195.97168	0.0879465878825	1.68477201462	83692.6961243	56635.8703613	7161.29288485	76.8978104444	437085.35756	66202901.3494	0
4725000.0	30684.0	28595976.8014	0.211907210568	174199.536133	0.0893615651876	1.68087995052	83307.1078684	56338.0126953	7257.7926708	75.9748860439	23924.4605489	66207689.3963	0
4750000.0	30826.0	29218736.7226	0.212632086969	174207.421875	0.0907815337996	1.67693841457	82920.0634486	56039.3493652	7353.99390922	75.1030418583	270357.092812	66212477.9542	0
4775000.0	30967.0	29851462.5908	0.213347049493	174211.352539	0.0922214894672	1.67311012745	82541.9234565	55747.2473145	7450.30861584	73.9805906222	400805.834617	66217267.023	0
4800000.0	31109.0	30494225.506	0.214066530363	174216.40625	0.0936715077842	1.66929852962	82166.0130093	55456.7504883	7546.36833244	73.1596020503	6284.33585279	66222056.6029	0
4825000.0	31251.0	31147131.1432	0.214784456836	174219.641113	0.0951367110247	1.66556346416	81795.9325723	55170.3186035	7642.27356846	72.1073831645	1049373.20557	66226846.6937	0
4850000.0	31393.0	31810288.1146	0.215496784789	174220.43457	0.0966174848145	1.66191232204	81432.9141494	54889.0319824	7738.0126701	71.3343170361	367586.731615	66231637.2954	0
4875000.0	31536.0	32483771.6458	0.216206430526	174220.703125	0.0981089833658	1.65829753876	81074.282461	54611.1022949	7833.34265715	70.5944088021	4335.59721815	66236428.4082	0
4900000.0	31679.0	33167693.3574	0.216907887231	174217.468262	0.0996164890239	1.65476942062	80723.001181	54338.6169434	7928.45414088	69.8742067374	451568.812154	66241220.032	0
4925000.0	31823.0	33862128.8078	0.217609574874	174214.196777	0.101134355646	1.6512607336	80374.6235149	54068.4020996	8023.66322935	68.9404637953	281707.039422	66246012.1667	0
4950000.0	31966.0	34567221.5039	0.218302681743	174208.898926	0.102672041976	1.64782679081	80032.789827	53803.1860352	8119.35592358	68.0163550058	1774648.54241	66250804.8124	0
4975000.0	32110.0	35283037.6113	0.219001727346	174206.762695	0.104218932393	1.64436423779	79690.6408275	53538.0432129	8215.06232685	67.5929853682	637962.88359	66255597.9691	0
5000000.0	32255.0	36009641.1018	0.219708049385	174207.714844	0.105774728581	1.64087307453	79347.7921989	53272.5830078	8310.67405398	66.9593638522	1549164.52144	66260391.6367	0
5025000.0	32400.0	36747132.5599	0.220416440214	174209.204102	0.107344880234	1.63740158081	79007.0863496	53008.770752	8406.3186123	66.1128985145	139236.831648	66265185.8153	0
5050000.0	32545.0	37495612.8661	0.2211277584	174211.242676	0.108929380076	1.63395035267	78668.3788476	52746.4599609	8501.90632324	65.2874685402	763375.854627	66269980.505	0
5075000.0	32690.0	38255185.6442	0.221836548672	174213.354492	0.110528642836	1.63052892685	78333.5330692	52487.2558594	8597.38204751	64.7048803789	121770.313696	66274775.7056	0
5100000.0	32836.0	39025917.0544	0.222548078892	174217.687988	0.112137146061	1.62709319592	77999.7917113	52229.2297363	8692.42188707	64.1480779681	214686.271677	66279571.4172	0
5125000.0	32982.0	39807910.9802	0.223256986468	174221.728516	0.113760484965	1.62369132042	77669.6620686	51974.0722656	8787.1518827	63.3891016726	686794.548264	66284367.6398	0
5150000.0	33128.0	40601272.1347	0.22396454077	174225.463867	0.115398725029	1.62032186985	77342.5849791	51721.295166	8881.5196664	62.8644806468	66274.5709442	66289164.3734	0
5175000.0	33275.0	41406066.3652	0.22467813467	174230.993652	0.117046191008	1.61694157124	77015.2345541	51468.4020996	8975.13679579	62.3653713357	309241.384372	66293961.618	0
5200000.0	33422.0	42222398.1791	0.225392535588	174235.9375	0.118708558148	1.61359548569	76690.1062426	51217.0715332	9068.18736656	61.6712103123	628386.961199	66298759.3737	0
5225000.0	33569.0	43050372.6523	0.226108934343	174240.136719	0.120385899208	1.6102836132	76366.7598497	50966.9036865	9160.55300313	61.2040648758	41180.3902548	66303557.6404	0
5250000.0	33717.0	43890055.2861	0.226834882232	174245.678711	0.122072422528	1.60696232319	76042.0484879	50715.5334473	9251.8783901	60.7619022298	344977.452863	66308356.4181	0
5275000.0	33865.0	44741551.8503	0.227562691582	174250.036621	0.123774021631	1.60367870331	75719.1880442	50465.2801514	9342.32926496	60.1313051909	684225.019907	66313155.7068	0
5300000.0	34013.0	45604970.908	0.228287880088	174252.734375	0.125491103972	1.60044145584	75399.7231378	50217.4316406	9431.84164053	59.7203271028	68851.9243866	66317955.5066	0
5325000.0	34162.0	46480380.5084	0.229017030119	174255.786133	0.127217761474	1.59720718861	75080.8384487	49969.9737549	9519.995468	59.3337762556	299783.31743	66322755.8174	0
5350000.0	34311.0	47367889.9543	0.229743855811	174256.726074	0.128959989524	1.59401965141	74765.3719458	49724.9511719	9606.98997463	58.764414908	814179.397499	66327556.6393	0
5375000.0	34460.0	48267609.303	0.230468470967	174255.358887	0.130717962747	1.59088051319	74453.3504962	49482.3608398	9692.74656519	58.4083894288	126971.063881	66332357.9722	0
5400000.0	34610.0	49179607.8687	0.23119764599	174253.588867	0.132485671202	1.5877481699	74141.9975936	49240.2282715	9776.81014411	58.076483492	226211.467442	66337159.8162	0
5425000.0	34760.0	50103996.9407	0.23192570422	174249.438477	0.134269095724	1.58466184139	73833.8273233	49000.3631592	9859.41585435	57.5670083685	1014526.65011	66341962.1712	0
5450000.0	34910.0	51040884.6821	0.232656865315	174245.446777	0.136067072162	1.58158934116	73526.6724207	48761.2915039	9940.40544351	57.2663172856	247843.031532	66346765.0373	0
5475000.0	35061.0	51990331.5136	0.233398988967	174244.055176	0.137873226777	1.57848405838	73217.3106112	48520.7183838	10019.2657407	56.990747768	98927.2849015	66351568.4145	0
5500000.0	35212.0	52952440.5506	0.234143012716	174242.883301	0.139693991514	1.57539379597	72909.2391658	48281.1798096	10096.3015087	56.5430636194	1402120.52671	66356372.3027	0
5525000.0	35363.0	53927315.5698	0.234888269833	174241.870117	0.141529453686	1.57231760025	72602.5316033	48042.767334	10171.4053558	56.2992345913	528960.584875	66361176.702	0
5550000.0	35515.0	54915016.403	0.235641675328	174242.96875	0.143373181345	1.56921565533	72294.4177755	47803.4606934	10244.0755919	56.0800891883	13615.6588058	66365981.6124	0
5575000.0	35667.0	55915646.0003	0.236396971588	174244.116211	0.145231548231	1.56612741947	71987.495869	47565.133667	10315.2828287	55.8724645871	401694.500204	66370787.0339	0
5600000.0	35820.0	56929262.985	0.237161309117	174247.241211	0.147097947774	1.56301271915	71678.9793648	47325.7568359	10384.7956032	55.6844527351	1218876.91521	66375592.9664	0
5625000.0	35973.0	57955969.4215	0.237928526777	174250.244141	0.148978855577	1.5599116087	71371.4622251	47087.1826172	10453.04364	55.3253734094	305862.890932	66380399.4101	0
5650000.0	36126.0	58995868.0703	0.238698985631	174253.076172	0.150874257088	1.5568240881	71064.8396598	46849.3164062	10519.9497231	55.1581321402	42195.9919121	66385206.3649	0
5675000.0	36280.0	60049016.2623	0.239479974439	174257.641602	0.15277757484	1.55371081829	70756.3465122	46610.1409912	10584.9826675	55.01018939	567534.726367	66390013.8308	0
5700000.0	36434.0	61115517.6075	0.240263915995	174261.645508	0.154695619131	1.55061519146	70448.7967846	46371.661377	10648.6052657	54.6941511668	1018889.33851	66394821.8079	0
5725000.0	36588.0	62195476.7586	0.241049959127	174264.990234	0.156628506375	1.54753875732	70142.4571156	46134.1003418	10710.7520425	54.5662452166	324559.508349	66399630.2961	0
5750000.0	36743.0	63288953.0233	0.241844481168	174269.494629	0.158569528139	1.54444432259	69834.9018076	45895.7122803	10770.8605805	54.4572549035	14607.8867417	66404439.2955	0
5775000.0	36898.0	64396051.076	0.24264032781	174273.095703	0.160525436513	1.54137122631	69528.9655441	45658.581543	10829.4157325	54.3576076167	456768.194357	66409248.8061	0
5800000.0	37054.0	65516829.4513	0.24344408598	174277.612305	0.162489392096	1.5382822752	69222.1950351	45420.9381104	10885.8028838	54.276865259	1183027.67091	66414058.8278	0
5825000.0	37210.0	66651392.677	0.244248635242	174281.054688	0.164468161529	1.53521680832	68917.3984201	45184.8205566	10940.5254644	54.0323599594	622355.397898	66418869.3608	0
5850000.0	37366.0	67799845.8825	0.245053823801	174283.300781	0.166461832123	1.53217589855	68614.6990105	44950.3204346	10993.5313312	53.9712688993	104480.959482	66423680.405	0
5875000.0	37523.0	68962246.851	0.245866327583	174286.120605	0.16846350627	1.52912127972	68311.5828935	44715.6463623	11044.2108493	53.9289711355	146212.033591	66428491.9604	0
5900000.0	37680.0	70138702.6467	0.2466795075	174287.255859	0.170480343513	1.52609205246	68010.4201936	44482.4523926	11093.1019723	53.7248689702	2153485.58062	66433304.027	0
5925000.0	37837.0	71329321.3823	0.247492856035	174286.584473	0.172512576682	1.52308893204	67711.2730573	44250.78125	11140.1789234	53.7017034773	1298730.67815	66438116.6049	0
5950000.0	37995.0	72534163.7607	0.248312497277	174285.717773	0.174553104443	1.52007949352	67411.932641	44019.0338135	11184.765928	53.8672101398	2356377.71121	66442929.6941	0
5975000.0	38154.0	73753289.1325	0.249137496705	174284.521484	0.176601897692	1.51706802845	67112.7656231	43787.4847412	11226.8315377	53.7114983678	130004.086304	66447743.2946	0
6000000.0	38312.0	74986854.0389	0.249953308483	174279.553223	0.178672984475	1.5141313076	66819.222804	43560.0494385	11267.5583275	53.5568936054	3513490.27059	66452557.4063	0
6025000.0	38471.0	76234916.3181	0.250777134538	174276.098633	0.180751347216	1.5111733675	66524.6292664	43331.9915771	11305.614736	53.7595637482	587299.533028	66457372.0294	0
6050000.0	38631.0	77497527.0655	0.251609759831	174274.584961	0.182836389286	1.50819253922	66228.8374972	43103.2012939	11340.9353885	53.8129336804	1255973.09099	66462187.1638	0
6075000.0	38791.0	78774784.5343	0.25244386044	174273.303223	0.184935284778	1.50522649288	65934.5379959	42875.6256104	11374.093295	53.7089534234	972119.46173	66467002.8095	0
6100000.0	38951.0	80066789.3088	0.253280970654	174271.972656	0.187048310181	1.50227105618	65641.00709	42648.6724854	11405.1064293	53.7833795571	404035.756018	66471818.9666	0
6125000.0	39112.0	81373591.6654	0.254128424191	174272.265625	0.189168233192	1.49928772449	65345.5118997	42420.3857422	11433.2537348	53.8776006179	47747.5236411	66476635.635	0
6150000.0	39273.0	82695292.0451	0.254978312608	174272.412109	0.191302242456	1.49631607533	65051.0005681	42192.9199219	11459.1678267	53.9823722597	147025.53552	66481452.8148	0
6175000.0	39435.0	84031939.5524	0.255837041299	174274.072266	0.193442887394	1.49332118034	64755.1810063	41964.6636963	11482.1146041	54.1073487314	552084.479818	66486270.5059	0
6200000.0	39597.0	85383633.204	0.256696766271	174275.524902	0.195597516722	1.49034190178	64460.936439	41737.7075195	11502.770626	54.2431331299	1101718.55618	66491088.7085	0
6225000.0	39760.0	86750420.2861	0.257563965372	174278.393555	0.197758548893	1.48734390736	64165.9970217	41510.4614258	11520.3770646	54.3995263345	1743345.24644	66495907.4224	0
6250000.0	39923.0	88132399.204	0.25843062648	174280.993652	0.199933390832	1.48436522484	63873.1864539	41284.9700928	11535.6543977	54.4001240374	912535.159776	66500726.6478	0
6275000.0	40086.0	89529668.5124	0.25929687173	174283.276367	0.202122086193	1.48140621185	63582.5682309	41061.3006592	11548.7454526	54.5780090952	435673.919287	66505546.3847	0
6300000.0	40250.0	90942277.2264	0.260171897021	174286.572266	0.204317460884	1.47842490673	63290.6662563	40836.8927002	11558.9447051	54.775730781	109131.845464	66510366.633	0
6325000.0	40414.0	92370325.3318	0.261048087498	174289.245605	0.206526863622	1.47545790672	63000.1447439	40613.6535645	11567.031851	54.9836136974	38632.0106374	66515187.3927	0
6350000.0	40579.0	93813861.1847	0.261931851571	174292.810059	0.208742858376	1.47247350216	62708.8835036	40390.0756836	11572.2654827	55.2113413169	291818.442291	66520008.664	0
6375000.0	40744.0	95272983.8236	0.262815081886	174295.715332	0.210972779314	1.46950912476	62419.7576962	40168.2342529	11575.4423845	55.4492036065	672313.926746	66524830.4468	0
6400000.0	40910.0	96747739.6943	0.263704073298	174299.450684	0.213208943023	1.46653389931	62130.6877214	39946.6400146	11575.8109615	55.7070333116	1129363.64392	66529652.7412	0
6425000.0	41076.0	98238227.3106	0.264590703307	174302.46582	0.215458974708	1.46358549595	61844.5173313	39727.34375	11574.1969351	55.8068377581	1899301.8276	66534475.5471	0
6450000.0	41242.0	99744545.1115	0.26547398958	174304.760742	0.217722830712	1.46066665649	61561.5503484	39510.5773926	11570.6265425	56.0845048846	1348615.61214	66539298.8646	0
6475000.0	41409.0	101266739.592	0.266362093464	174307.617188	0.219993031351	1.45774114132	61278.9740839	39294.2962646	11564.3651339	56.3819804668	877344.702375	66544122.6937	0
6500000.0	41576.0	102804911.872	0.26724921158	174309.350586	0.222277332796	1.45483791828	60998.5856539	39079.7790527	11556.2290993	56.6894117073	477385.405693	66548947.0344	0
6525000.0	41744.0	104359108.562	0.268141504267	174311.315918	0.22456800798	1.45192778111	60718.2893931	38865.4968262	11545.4617895	57.1864638746	4493961.44186	66553771.8868	0
6550000.0	41913.0	105929375.399	0.269038153118	174313.48877	0.22686480952	1.44901525974	60438.5219851	38651.7791748	11532.0579094	57.3644118392	5603.12546847	66558597.2508	0
6575000.0	42081.0	107515865.733	0.269923464161	174312.927246	0.229183468036	1.44616889954	60164.2576072	38442.1691895	11517.7463955	57.7117718711	150989.29547	66563423.1266	0
6600000.0	42251.0	109118568.969	0.27081838043	174313.818359	0.231500074733	1.44329619408	59888.8904613	38231.9122314	11500.055591	58.0898093909	443277.001489	66568249.514	0
6625000.0	42420.0	110737637.915	0.271699853666	174311.865234	0.233838392887	1.44049823284	59619.7130844	38026.2268066	11481.5094898	58.2957958481	3306753.32224	66573076.4131	0
6650000.0	42590.0	112373116.297	0.272582070404	174309.729004	0.236182633671	1.43771231174	59352.1985031	37821.8505859	11460.5141462	58.8661439463	1416196.49841	66577903.824	0
6675000.0	42761.0	114025049.405	0.273467610064	174307.421875	0.238532782532	1.43492972851	59085.2941065	37617.9931641	11437.0579974	59.2853814839	2020877.64561	66582731.7467	0
6700000.0	42932.0	115693535.273	0.274351977101	174304.80957	0.240896129981	1.43216776848	58820.2900392	37415.6188965	11412.05844	59.5409842626	1434801.48409	66587560.1812	0
6725000.0	43103.0	117378668.09	0.275234749563	174302.087402	0.243272545049	1.4294244051	58557.2958481	37214.8529053	11385.5133106	59.9806617458	923697.626438	66592389.1274	0
6750000.0	43275.0	119080484.041	0.276122403286	174300.622559	0.245653704042	1.42666935921	58294.3161405	37014.3127441	11356.6356051	60.4417479972	503123.789043	66597218.5856	0
6775000.0	43447.0	120799075.295	0.277006946202	174299.121094	0.248047785135	1.42393326759	58033.8614576	36815.8508301	11326.3014365	60.9137531826	167490.760007	66602048.5555	0
6800000.0	43620.0	122534476.046	0.277894891391	174298.999023	0.250446260907	1.42118680477	57773.9620147	36618.0847168	11293.6796461	61.5852620056	6091241.92783	66606879.0374	0
6825000.0	43794.0	124286719.616	0.278785323209	174300.158691	0.252849073149	1.41843116283	57514.913569	36421.2738037	11258.8275688	61.9240189043	208897.10112	66611710.0311	0
6850000.0	43967.0	126055954.862	0.27966542331	174299.865723	0.255273014773	1.41572117805	57260.3419439	36227.9785156	11223.5408203	62.2609192787	4314160.88105	66616541.5368	0
6875000.0	44141.0	127842218.629	0.280549934336	174300.57373	0.257701787632	1.41299712658	57005.860858	36035.0524902	11186.1045722	62.9790311877	1095996.2914	66621373.5545	0
6900000.0	44316.0	129645545.057	0.281438320693	174302.307129	0.26013495517	1.41026329994	56751.6921552	35842.5964355	11146.5778089	63.5403775978	1671197.45374	66626206.0841	0
6925000.0	44491.0	131466025.1	0.282322754177	174303.747559	0.262580870185	1.40755140781	56500.1806846	35652.3010254	11105.8493214	63.9307850624	2154941.18698	66631039.1256	0
6950000.0	44666.0	133303748.794	0.283202781857	174304.919434	0.265039328951	1.40486562252	56251.5345381	35464.2608643	11063.9697634	64.5145020062	1505882.25994	66635872.6793	0
6975000.0	44842.0	135158748.173	0.284084503121	174307.104492	0.267501862254	1.40218126774	56003.9973838	35277.2125244	11019.7312093	65.3088698886	4031212.5141	66640706.7449	0
7000000.0	45019.0	137031051.591	0.284967472308	174310.229492	0.269968149951	1.39950215816	55757.8259327	35091.317749	10972.8018183	65.9479164938	4997692.16087	66645541.3226	0
7025000.0	45196.0	138920749.884	0.28584501835	174312.939453	0.272446952295	1.39685726166	55514.746064	34907.7514648	10924.177022	66.41603277	91675.9688936	66650376.4125	0
7050000.0	45373.0	140827934.392	0.286717930815	174315.087891	0.274938560324	1.39424300194	55274.470163	34726.3458252	10874.0124957	67.0865885832	90896.3686635	66655212.0144	0
7075000.0	45551.0	142752637.341	0.287592444258	174317.895508	0.277434359305	1.39163172245	55035.1372308	34545.7763672	10821.4759608	67.7855854802	476133.441871	66660048.1286	0
7100000.0	45729.0	144694947.893	0.28846082162	174320.214844	0.279942643829	1.38904953003	54798.8598967	34367.5964355	10767.5852893	68.3090243277	4126730.83051	66664884.7549	0
7125000.0	45907.0	146654955.882	0.289322863189	174321.99707	0.282463384792	1.38649630547	54565.7142975	34191.8762207	10712.4338484	69.0390797491	3123996.11695	66669721.8934	0
7150000.0	46086.0	148632690.026	0.290184732021	174324.462891	0.284987792838	1.38394188881	54333.9228204	34017.4346924	10655.2248374	69.9927360302	2783989.167	66674559.5442	0
7175000.0	46266.0	150628176.853	0.291045671984	174327.612305	0.287515518721	1.38138687611	54103.6797057	33844.4213867	10596.05247	70.7820801929	3879517.35259	66679397.7073	0
7200000.0	46446.0	152641505.661	0.291899404308	174330.102539	0.290055613732	1.37885475159	53876.6571592	33674.0600586	10535.9361498	71.3893455382	623175.155931	66684236.3826	0
7225000.0	46626.0	154672766.421	0.292746492444	174331.787109	0.292608398013	1.37634670734	53652.6772908	33506.1706543	10474.9532164	72.209303011	93100.1976959	66689075.5703	0
7250000.0	46807.0	156721989.316	0.293592900859	174333.776855	0.295165023999	1.37383818626	53430.005826	33339.5324707	10412.3452785	73.0580182517	190756.424932	66693915.2704	0
7275000.0	46988.0	158789262.221	0.294431878217	174334.997559	0.297733815387	1.37135922909	53210.6175285	33175.4852295	10349.0320205	73.9230646575	857992.950386	66698755.4829	0
7300000.0	47170.0	160874611.934	0.295269261966	174336.523438	0.300305953715	1.36888659	52992.7733758	33012.7716064	10284.251743	74.8174190756	1824888.15992	66703596.2078	0
7325000.0	47352.0	162978123.296	0.296098315588	174337.255859	0.302889908198	1.36645042896	52778.4291178	32852.722168	10218.9681004	75.5205021564	2271605.08965	66708437.4452	0
7350000.0	47534.0	165099881.141	0.296918501	174337.158203	0.305485737044	1.36405289173	52567.6103225	32695.3277588	10153.2738975	76.4450310584	1121303.25726	66713279.195	0
7375000.0	47717.0	167239911.669	0.297736669654	174337.133789	0.308084738208	1.36166846752	52358.5035833	32539.3005371	10086.3628749	77.3991262124	261221.419199	66718121.4574	0
7400000.0	47900.0	169398302.924	0.298546077788	174335.949707	0.310696021188	1.35931897163	52152.6760354	32385.7910156	10019.2107372	78.3689003699	167862.233107	66722964.2324	0
7425000.0	48084.0	171575080.248	0.299353211258	174334.70459	0.313310476486	1.35698127747	51948.5235506	32233.6303711	9951.01965915	79.3683650885	1061190.25188	66727807.5199	0
7450000.0	48268.0	173770330.342	0.300151338589	174332.312012	0.315936980769	1.35467743874	51747.7395518	32084.0789795	9882.72843299	80.3835727006	2458730.56011	66732651.32	0
7475000.0	48453.0	175984077.823	0.300947643713	174330.285645	0.31856627902	1.35237944126	51548.4258413	31935.7940674	9813.56969438	81.428657974	4254619.60951	66737495.6328	0
7500000.0	48638.0	178216404.582	0.301736615113	174328.295898	0.321206636727	1.35010457039	51351.9320065	31789.7735596	9744.43485739	82.2674496576	432277.557788	66742340.4583	0
7525000.0	48823.0	180467392.06	0.302518409443	174326.403809	0.323858228512	1.34785211086	51158.285654	31646.0632324	9675.39399737	83.3420255236	154577.271143	66747185.7964	0
7550000.0	49009.0	182737061.952	0.30329880432	174325.378418	0.326512439642	1.34559798241	50965.8196689	31503.5308838	9605.70319593	84.4465515355	1264422.97431	66752031.6474	0
7575000.0	49195.0	185025498.074	0.304071816644	174324.230957	0.329178204993	1.34336781502	50776.097695	31363.2110596	9536.26307636	85.3369054354	2903682.11523	66756878.0111	0
7600000.0	49381.0	187332782.223	0.304837036658	174322.973633	0.331855379045	1.34116077423	50589.1312419	31225.1098633	9467.11705072	86.4693544034	1147777.67013	66761724.8876	0
7625000.0	49568.0	189658931.746	0.305600617977	174322.668457	0.334534444846	1.33895480633	50403.3829607	31088.1103516	9397.49212648	87.6321224763	47307.152122	66766572.2769	0
7650000.0	49755.0	192004024.489	0.30635597284	174322.314453	0.337224279065	1.33677339554	50220.4529647	30953.3111572	9328.27683034	88.809934586	832471.187305	66771420.1791	0
7675000.0	49943.0	194368072.77	0.307108887031	174322.973633	0.339915393852	1.33459448814	50038.864855	30819.6624756	9258.69703705	90.018416422	2689323.69294	66776268.5942	0
7700000.0	50131.0	196751151.302	0.307853421894	174323.632812	0.342616811395	1.33244037628	49860.1200682	30688.1835938	9189.63624075	90.9997733043	1367540.85701	66781117.5223	0
7725000.0	50319.0	199153338.861	0.308588928935	174324.072266	0.34532911377	1.33031094074	49684.2641664	30558.9660645	9120.53978522	92.2409932104	32818.4487026	66785966.9633	0
7750000.0	50508.0	201574650.268	0.309321160798	174325.317383	0.348042958649	1.3281840086	49509.8397083	30431.0211182	9050.21382476	93.5235480965	1097452.90098	66790816.9173	0
7775000.0	50697.0	204015163.761	0.310044613916	174326.391602	0.35076768836	1.32608187199	49338.1793163	30305.2490234	8979.53290076	94.581371367	2978446.08752	66795667.3844	0
7800000.0	50886.0	206474956.465	0.310759624033	174327.34375	0.353503070073	1.32400429249	49169.2320595	30181.6253662	8908.59210338	95.9118433822	746399.676502	66800518.3645	0
7825000.0	51076.0	208954042.671	0.31147174063	174329.101562	0.35623984877	1.32193136215	49001.6471619	30059.2193604	8836.67866106	97.2843592418	312727.779673	66805369.8577	0
7850000.0	51266.0	211452497.517	0.312175673245	174330.761719	0.358987163054	1.31988489628	48836.7228521	29938.8946533	8764.67207769	98.6822483477	2413339.45438	66810221.8641	0
7875000.0	51457.0	213970335.791	0.312875886343	174333.117676	0.361735961633	1.31784498692	48673.280823	29819.8791504	8691.86835761	100.122636391	5665940.71069	66815074.3836	0
7900000.0	51648.0	216507637.043	0.31356693997	174335.144043	0.364495790564	1.31583237648	48512.662691	29703.0822754	8619.12994821	101.323059466	38172.7121936	66819927.4163	0
7925000.0	51839.0	219064479.075	0.314248809477	174336.889648	0.367266329704	1.3138474226	48354.8035891	29588.4155273	8546.52167118	102.54229826	5066188.9515	66824780.9623	0
7950000.0	52030.0	221640939.459	0.31492168599	174338.366699	0.370047579054	1.31189024448	48199.6833096	29475.8514404	8474.08774401	104.051915449	1744223.39296	66829635.0215	0
7975000.0	52222.0	224237028.043	0.315590753756	174340.478516	0.372829672415	1.30994212627	48046.0525486	29364.4958496	8401.16996913	105.604357017	30453.1224125	66834489.5941	0
8000000.0	52414.0	226852818.039	0.316251176619	174342.358398	0.375621893909	1.30802285671	47895.0989523	29255.1422119	8328.55043174	107.182202257	2230462.16729	66839344.68	0
8025000.0	52607.0	229488316.327	0.316907856312	174344.897461	0.378414522856	1.30611300468	47745.595426	29146.9573975	8255.57055147	108.803627766	6171501.77454	66844200.2792	0
8050000.0	52800.0	232143598.077	0.317555439465	174347.009277	0.381217512768	1.30423498154	47598.8330355	29040.8111572	8183.03250161	110.164661462	255644.721074	66849056.3919	0
8075000.0	52993.0	234818738.806	0.31819374941	174348.681641	0.384030805435	1.30238687992	47454.8142377	28936.7462158	8110.98041633	111.543369301	4078916.81968	66853913.0181	0
8100000.0	53186.0	237513813.305	0.318822658211	174349.951172	0.386854575481	1.3005656004	47313.4628198	28834.7412109	8039.47448337	113.231668114	656055.673597	66858770.1578	0
8125000.0	53380.0	240228829.845	0.319446612946	174351.68457	0.389678869396	1.29875159264	47173.6193637	28734.0179443	7967.84654793	114.963497442	1152260.42582	66863627.811	0
8150000.0	53574.0	242963861.854	0.320060631603	174353.027344	0.392513320548	1.29695999622	47036.4493437	28635.43396	7896.86545412	116.719396808	5268893.46291	66868485.9777	0
8175000.0	53769.0	245718915.879	0.320668679531	174354.931641	0.395348062739	1.29517126083	46900.8451495	28538.2476807	7825.87222868	118.215238669	75971.8328579	66873344.6581	0
8200000.0	53963.0	248494133.451	0.321261742552	174355.46875	0.398202857468	1.29342186451	46768.951718	28443.8934326	7756.28364484	119.707167601	4285549.32924	66878203.8521	0
8225000.0	54158.0	251289524.755	0.321848433267	174356.323242	0.401058641728	1.29167854786	46638.713991	28350.9857178	7686.79056712	121.545780048	407362.970174	66883063.5599	0
8250000.0	54353.0	254105164.992	0.322424406604	174356.604004	0.403924670536	1.28995859623	46511.1513788	28260.2111816	7618.11249654	123.407032017	2066252.55786	66887923.7813	0
8275000.0	54549.0	256941060.866	0.322993789096	174357.214355	0.406791194109	1.28824543953	46385.2873661	28170.9136963	7549.60869616	125.311466799	7595567.82189	66892784.5165	0
8300000.0	54745.0	259797284.923	0.323552057134	174357.23877	0.409667583881	1.28655767441	46262.1830778	28083.7890625	7481.97555498	126.914695876	1300795.72708	66897645.7655	0
8325000.0	54941.0	262673908.166	0.324099335351	174356.726074	0.412553723436	1.28489518166	46141.7883932	27998.7884521	7415.24953935	128.531571224	1757563.6033	66902507.5283	0
8350000.0	55137.0	265571001.701	0.324634346502	174355.639648	0.415449612774	1.28326010704	46024.3359477	27916.0888672	7349.44943947	130.161531814	8214926.09922	66907369.805	0
8375000.0	55333.0	268488641.018	0.325155523003	174353.820801	0.418355921283	1.28165102005	45910.0460133	27835.949707	7284.61712831	132.13957397	1916414.57619	66912232.5956	0
8400000.0	55530.0	271426832.373	0.325668210075	174352.087402	0.421262637246	1.28005278111	45797.6812074	27757.4249268	7220.14268446	134.159327108	1111137.77287	66917095.9002	0
8425000.0	55727.0	274385649.004	0.326171279458	174349.902344	0.424179015681	1.27847790718	45687.8069749	27680.847168	7156.68676615	136.198790086	7336713.26821	66921959.7188	0
8450000.0	55925.0	277365091.687	0.326670944079	174348.620605	0.427094870247	1.27690672874	45579.0317358	27605.2276611	7093.64835016	137.930850659	1542956.42123	66926824.0513	0
8475000.0	56122.0	280365293.977	0.327161653256	174346.655273	0.43002946768	1.27537024021	45472.8585407	27531.463623	7032.25379066	139.651020321	1146681.5225	66931688.898	0
8500000.0	56320.0	283386253.624	0.327653198992	174345.605469	0.432963104686	1.27383601665	45367.2252811	27458.1451416	6971.26812505	141.762316098	2247832.42008	66936554.2587	0
8525000.0	56518.0	286428037.086	0.328140242326	174344.616699	0.435905880295	1.27232134342	45263.6967834	27386.505127	6910.78858084	143.540864711	611870.412451	66941420.1335	0
8550000.0	56716.0	289490713.107	0.328621423357	174343.62793	0.438857998233	1.27082717419	45162.18853	27316.4306641	6850.7585107	145.341501415	5613464.93926	66946286.5226	0
8575000.0	56914.0	292574348.681	0.329095961083	174342.675781	0.441819254775	1.26935243607	45062.4852255	27247.7172852	6791.1753228	147.536204162	98139.5124033	66951153.4258	0
8600000.0	57113.0	295678943.203	0.329566303636	174342.553711	0.44477978372	1.26788306236	44963.5391268	27179.5806885	6731.51165753	149.785820066	4692787.22328	66956020.8433	0
8625000.0	57312.0	298804561.796	0.330028020448	174342.504883	0.447749276645	1.26643311977	44865.9219212	27112.2955322	6672.35018767	151.686311798	312106.630047	66960888.775	0
8650000.0	57511.0	301951271.242	0.330479965691	174342.504883	0.45072787907	1.26500189304	44769.3623655	27045.6115723	6613.72319544	153.608675769	2527305.83534	66965757.2211	0
8675000.0	57710.0	305119140.2	0.330921400976	174342.492676	0.453715823824	1.26359081268	44673.7994685	26979.4281006	6555.65451953	155.943215787	1623658.47939	66970626.1815	0
8700000.0	57910.0	308308168.167	0.33135639925	174343.17627	0.456703070085	1.26218569279	44578.6627252	26913.470459	6497.61055103	157.937890697	783979.49185	66975495.6564	0
8725000.0	58109.0	311518492.547	0.33177868501	174343.115234	0.459709612187	1.26081466675	44485.6874916	26848.9349365	6440.68156347	159.929301411	5308649.40337	66980365.6456	0
8750000.0	58309.0	314750110.318	0.332196075888	174343.798828	0.462715164758	1.25944888592	44393.5307565	26785.043335	6383.83079616	162.372329844	253636.298553	66985236.1493	0
8775000.0	58509.0	318003086.975	0.332606157034	174344.506836	0.465729739517	1.25810182095	44303.1837584	26722.5372314	6327.60689343	164.846332375	7797553.04319	66990107.1675	0
8800000.0	58710.0	321277415.53	0.333013206502	174346.044922	0.468742509838	1.25675952435	44214.1068981	26661.138916	6271.49943502	166.961076693	2486390.11059	66994978.7003	0
8825000.0	58910.0	324573229.98	0.333411234938	174346.826172	0.471774314065	1.25544965267	44127.8033568	26601.8218994	6216.5447005	169.070734619	120228.964165	66999850.7476	0
8850000.0	59111.0	327890527.321	0.333805885652	174348.266602	0.47480489593	1.25414764881	44042.6970344	26543.47229	6161.75353363	171.653163944	6415994.90986	67004723.3096	0
8875000.0	59312.0	331229373.298	0.334193323438	174349.658203	0.477844558191	1.25286495686	43959.4323593	26486.517334	6107.63975221	173.833731612	1704196.38563	67009596.3862	0
8900000.0	59513.0	334589831.788	0.334572560689	174351.000977	0.480893009808	1.25160050392	43878.0158469	26430.9844971	6054.2139181	176.033655628	435521.302419	67014469.9774	0
8925000.0	59714.0	337971966.647	0.334942816293	174352.331543	0.483949785121	1.25035309792	43798.4093498	26376.8554688	6001.47286511	178.252958973	4054144.67584	67019344.0834	0
8950000.0	59915.0	341375840.398	0.335303250375	174353.662109	0.487015233375	1.24912166595	43720.6085585	26324.1546631	5949.43295132	180.490760707	9457016.39877	67024218.7042	0
8975000.0	60116.0	344801513.839	0.335652937291	174354.980469	0.49008888891	1.24790537357	43644.6343193	26272.9248047	5898.10331466	183.201233262	242148.402227	67029093.8397	0
9000000.0	60318.0	348248982.962	0.335993906727	174356.921387	0.493161380291	1.24669480324	43570.0851497	26222.946167	5847.03035523	185.967951637	7443947.7168	67033969.4901	0
9025000.0	60520.0	351718313.144	0.336323837939	174358.703613	0.496242777444	1.24550199509	43497.5630238	26174.5910645	5796.67967942	188.297681934	3038278.21511	67038845.6554	0
9050000.0	60722.0	355209569.5	0.336643204213	174360.339355	0.499332905747	1.24432754517	43426.9975533	26127.7832031	5747.0780835	190.643777425	282608.026134	67043722.3356	0
9075000.0	60924.0	358722817.83	0.336952511938	174361.84082	0.502432056237	1.24317061901	43358.3104878	26082.4554443	5698.2074784	193.006238179	1302770.2402	67048599.5307	0
9100000.0	61126.0	362258121.374	0.337252273433	174363.195801	0.505539705046	1.24203121662	43291.4426214	26038.5467529	5650.08742955	195.384095654	4617201.29123	67053477.2408	0
9125000.0	61328.0	365815544.85	0.337543060983	174364.440918	0.508656143211	1.24090874195	43226.324136	25996.0083008	5602.71206809	198.266428081	2590298.52625	67058355.466	0
9150000.0	61531.0	369395066.155	0.337827602171	174366.259766	0.511770660523	1.23979282379	43162.3602486	25954.4342041	5555.66074474	200.708697411	268170.958809	67063234.2062	0
9175000.0	61733.0	372996876.543	0.338101884947	174367.114258	0.514909159392	1.23870551586	43100.6117862	25914.4683838	5509.82723496	203.132270997	1056965.09312	67068113.4615	0
9200000.0	61936.0	376620906.517	0.338371235721	174368.823242	0.518035201821	1.23762154579	43039.8031881	25875.3082275	5464.24585472	206.113455062	7715397.10421	67072993.232	0
9225000.0	62139.0	380267250.688	0.338633415286	174370.141602	0.521179870702	1.23655688763	42980.5880882	25837.3077393	5419.50566804	208.085034011	7454255.92546	67077873.5177	0
9250000.0	62341.0	383936022.469	0.33888715714	174370.776367	0.52433781093	1.23551750183	42923.2668267	25800.6469727	5375.88136966	210.55027595	11709941.9935	67082754.3186	0
9275000.0	62544.0	387627208.708	0.33913716627	174372.021484	0.527493306436	1.23448383808	42866.837534	25764.7003174	5332.61993495	213.582546123	6625.8744555	67087635.6347	0
9300000.0	62747.0	391340874.247	0.339379470924	174372.998047	0.530657533091	1.23346948624	42812.0892487	25729.9987793	5290.11901411	216.637624113	11872496.0038	67092517.4662	0
9325000.0	62951.0	395077012.536	0.339615082222	174374.34082	0.533820304554	1.23246455193	42758.6769899	25696.3867188	5247.99715956	219.206779192	8106975.28526	67097399.813	0
9350000.0	63154.0	398835761.23	0.339840502065	174374.682617	0.537002400961	1.2314889431	42707.4563806	25664.34021	5207.02245842	221.20925604	6995236.299	67102282.6752	0
9375000.0	63357.0	402617185.682	0.340057812124	174374.719238	0.540193170309	1.2305316925	42657.874561	25633.5235596	5166.63428707	224.316781313	2479659.3139	67107166.0528	0
9400000.0	63561.0	406421276.596	0.340269106259	174375.12207	0.54338213522	1.2295819521	42609.4574209	25603.6590576	5126.42429764	226.927443327	697270.56744	67112049.9458	0
9425000.0	63764.0	410248169.95	0.340471072609	174374.560547	0.546590134036	1.22865819931	42562.9878153	25575.1922607	5087.10251388	229.524548729	99815.8872521	67116934.3543	0
9450000.0	63968.0	414097855.979	0.340667495829	174374.328613	0.549796095584	1.22774064541	42517.5491394	25547.567749	5047.94378171	232.170436107	1285997.53622	67121819.2784	0
9475000.0	64171.0	417970469.623	0.340855226182	174373.144531	0.553020916414	1.22684705257	42473.8801822	25521.2051392	5009.66948899	234.801328689	3060121.49206	67126704.718	0
9500000.0	64375.0	421865997.717	0.341037978014	174372.290039	0.556243408937	1.22595834732	42431.1427244	25495.6130981	4971.54893221	238.065051434	7493834.39405	67131590.6732	0
9525000.0	64579.0	425784499.051	0.341214236014	174371.142578	0.559473701287	1.22508203983	42389.6031377	25470.930481	4933.94055248	240.179047739	7570983.65431	67136477.144	0
9550000.0	64782.0	429726108.198	0.341382784941	174369.018555	0.562722620089	1.22422707081	42349.6138592	25447.3480225	4897.17583471	242.860981117	10099618.5402	67141364.1306	0
9575000.0	64986.0	433690807.681	0.341547050396	174367.578125	0.565968570299	1.22337317467	42310.3257275	25424.382019	4860.56231969	246.196062665	1848272.01001	67146251.6328	0
9600000.0	65190.0	437678655.958	0.341704291606	174366.333008	0.569222029299	1.22253012657	42272.2997718	25402.4108887	4824.43971743	248.951572797	731881.923681	67151139.6508	0
9625000.0	65394.0	441689716.019	0.341853541616	174365.136719	0.572483695578	1.22170042992	42235.8195331	25381.678772	4788.8116552	251.723258303	70177.1971027	67156028.1846	0
9650000.0	65598.0	445724048.421	0.341995058146	174363.989258	0.575753918383	1.22088432312	42200.7929661	25362.0864868	4753.6659097	254.51111395	274878.537921	67160917.2343	0
9675000.0	65802.0	449781714.962	0.342129128805	174362.963867	0.579032232054	1.22008144855	42167.1538322	25343.572998	4719.00089281	257.314936763	948811.489659	67165806.7997	0
9700000.0	66006.0	453862775.106	0.342256043148	174362.036133	0.582318636589	1.21929144859	42134.8268498	25326.0742188	4684.80469383	260.134875176	1763668.0838	67170696.8811	0
9725000.0	66210.0	457967287.538	0.342376176394	174361.230469	0.58561284095	1.21851348877	42103.717587	25309.5108032	4651.08098633	263.614885851	12310771.4302	67175587.4784	0
9750000.0	66415.0	462095237.035	0.342490912482	174361.193848	0.588904309552	1.21773982048	42073.4942018	25293.6920166	4617.51385193	266.507386922	11102666.9608	67180478.5917	0
9775000.0	66619.0	466246755.869	0.342598281578	174360.644531	0.592214113567	1.21698641777	42044.6656663	25278.8360596	4584.70742739	268.72276714	4345025.93047	67185370.221	0
9800000.0	66823.0	470421902.176	0.34269978178	174360.253906	0.595531659201	1.21624457836	42016.842439	25264.7216797	4552.35400493	271.604863018	5131133.58347	67190262.3664	0
9825000.0	67027.0	474620732.544	0.342795682755	174360.046387	0.598856888246	1.21551430225	41989.9783556	25251.2893677	4520.44230952	274.502231408	5846377.76362	67195155.0278	0
9850000.0	67231.0	478843303.665	0.342886255362	174359.985352	0.602189684287	1.21479511261	41963.9831204	25238.4658813	4488.98102803	278.093790122	7996895.24252	67200048.2053	0
9875000.0	67436.0	483089595.568	0.34297258487	174360.754395	0.60551892966	1.21407866478	41938.5177564	25226.0604858	4457.65550591	281.063751314	7582487.66342	67204941.899	0
9900000.0	67640.0	487359740.407	0.343052869089	174361.047363	0.608866568655	1.21338140965	41914.1639987	25214.3661499	4427.05406917	283.318123403	7438450.25805	67209836.1089	0
9925000.0	67844.0	491653799.402	0.343126481947	174361.401367	0.612222473137	1.21269714832	41890.8657603	25203.427124	4396.87994495	286.273386866	7722615.38543	67214730.8351	0
9950000.0	68048.0	495971835.078	0.343193470992	174361.804199	0.615586701315	1.2120257616	41868.6385903	25193.2754517	4367.136839	289.950409436	7164299.51106	67219626.0775	0
9975000.0	68253.0	500313831.053	0.343254895918	174362.890625	0.61894801911	1.2113597393	41847.2433569	25183.7905884	4337.53302105	292.975917938	7334915.00917	67224521.8362	0
10000000.0	68457.0	504679923.578	0.34330931761	174363.427734	0.62232837081	1.21071434021	41827.1490317	25175.1693726	4308.6171132	295.25455181	7651614.49629	67229418.1112	0
10025000.0	68661.0	509070172.398	0.343357881834	174364.013672	0.625716638751	1.21008062363	41808.0846355	25167.3080444	4280.11483703	298.261887926	7332007.65318	67234314.9026	0
10050000.0	68865.0	513484635.841	0.343400639838	174364.733887	0.629112590104	1.20945882797	41790.0274939	25160.168457	4252.01585574	302.020250262	8770012.6528	67239212.2104	0
10075000.0	69070.0	517923293.883	0.34343857153	174366.113281	0.632505223621	1.20884168148	41772.7722485	25153.6743164	4224.050328	305.097625057	9597812.13244	67244110.0347	0
10100000.0	69274.0	522386279.908	0.343470464254	174367.016602	0.635916367173	1.20824313164	41756.7120897	25147.9782104	4196.74331122	307.396487414	5563519.20181	67249008.3754	0
10125000.0	69478.0	526873650.434	0.343497355491	174368.041992	0.639335019514	1.20765566826	41741.6179312	25142.9794312	4169.82799919	310.45295994	4764668.79272	67253907.2326	0
10150000.0	69682.0	531385460.313	0.34351929916	174369.165039	0.64276100602	1.2070786953	41727.4784116	25138.6764526	4143.2900124	313.521610507	3891883.17989	67258806.6064	0
10175000.0	69886.0	535921763.619	0.343536602876	174370.410156	0.646194093861	1.20651161671	41714.2597489	25135.0524902	4117.1333762	316.601629363	2975643.8824	67263706.4968	0
10200000.0	70090.0	540482614.24	0.343549124537	174371.801758	0.649634224828	1.20595490932	41701.9772477	25132.1060181	4091.35299201	319.692793638	2048215.72688	67268606.9038	0
10225000.0	70294.0	545068070.419	0.343555653047	174373.205566	0.653082388453	1.20540988445	41690.7932637	25129.9835205	4065.93938711	322.794713312	1151547.21648	67273507.8275	0
10250000.0	70498.0	549678192.952	0.343556131439	174374.609375	0.656538410112	1.20487642288	41680.6793752	25128.6605835	4040.90103427	325.906145933	379029.971961	67278409.2678	0
10275000.0	70702.0	554313039.957	0.343550869201	174376.013184	0.660002231598	1.20435464382	41671.6269775	25128.1234741	4016.2197078	329.027914894	36591.0025216	67283311.2249	0
10300000.0	70906.0	558972670.625	0.34354017638	174377.416992	0.663473969325	1.20384347439	41663.5374445	25128.3081055	3991.90827324	332.158240828	716358.406154	67288213.6988	0
10325000.0	71110.0	563657142.487	0.343524335346	174378.833008	0.666953390464	1.203343153	41656.4086432	25129.1976929	3967.94440363	335.298404958	1923781.4304	67293116.6894	0
10350000.0	71314.0	568366513.912	0.343503656976	174380.236816	0.670440495014	1.20285320282	41650.1789763	25130.7525635	3944.33226048	338.447394426	3594803.79291	67298020.1969	0
10375000.0	71518.0	573100841.771	0.343478452425	174381.665039	0.67393516656	1.2023730278	41644.7932435	25132.9208374	3921.05865896	341.605723972	5720345.45944	67302924.2213	0
10400000.0	71722.0	577860182.992	0.343449061164	174383.105469	0.677437521517	1.20190286636	41640.2250652	25135.6811523	3898.1149775	343.928403104	9545677.65191	67307828.7626	0
10425000.0	71925.0	582644673.79	0.343415738403	174383.959961	0.680958677549	1.20144855976	41636.5308512	25138.9968872	3875.70978747	347.058243337	6873318.28722	67312733.8208	0
10450000.0	72129.0	587454291.175	0.343378851885	174385.424805	0.684475933667	1.2009973526	41633.435755	25142.7993774	3853.39529774	351.098118528	14819554.5193	67317639.3961	0
10475000.0	72333.0	592289090.139	0.343338713063	174386.914062	0.688000582159	1.20055532455	41631.0264033	25147.0779419	3831.39016829	353.426416991	2203273.64034	67322545.4883	0
10500000.0	72536.0	597149205.934	0.343295296123	174387.817383	0.691543973517	1.20012819767	41629.3641143	25151.8005371	3809.90389344	356.583913791	556322.211301	67327452.0976	0
10525000.0	72740.0	602034618.186	0.343247564216	174389.27002	0.695083523169	1.19970655441	41628.426339	25157.0983887	3788.49235679	359.79178395	257187.905941	67332359.224	0
10550000.0	72943.0	606945467.233	0.343194818903	174390.05127	0.698642979842	1.19930243492	41628.4992757	25163.0599976	3767.57343129	362.968217505	1899717.4019	67337266.8676	0
10575000.0	73147.0	611881732.64	0.343137429752	174391.345215	0.702198653016	1.19890367985	41629.3375599	25169.6334839	3746.72887612	366.194703203	4516371.23464	67342175.0283	0
10600000.0	73350.0	616843555.545	0.343075934608	174391.97998	0.70577400038	1.19852113724	41631.0485514	25176.751709	3726.36376202	368.481625351	11423148.3367	67347083.7062	0
10625000.0	73553.0	621830994.77	0.343010506205	174392.504883	0.709357089363	1.19814813137	41633.5053677	25184.4055176	3706.26397227	371.677521636	7509999.42621	67351992.9013	0
10650000.0	73756.0	626844109.448	0.342941541617	174392.944336	0.712948385626	1.19778418541	41636.6519563	25192.5369263	3686.42235547	374.882589379	4072895.7828	67356902.6137	0
10675000.0	73959.0	631882958.109	0.342869409494	174393.310547	0.716546957847	1.19742918015	41640.4590437	25201.1276245	3666.83189561	378.097511956	1342177.35507	67361812.8435	0
10700000.0	74162.0	636947599.172	0.342794478058	174393.54248	0.720153504517	1.19708204269	41644.8598803	25210.118103	3647.48971339	381.321709132	63317.338441	67366723.5905	0
10725000.0	74365.0	642038088.684	0.342717087041	174393.701172	0.723767501768	1.19674253464	41649.8106594	25219.4824219	3628.3889903	384.555664347	1978697.95569	67371634.855	0
10750000.0	74568.0	647154482.771	0.342637603671	174393.75	0.727388891391	1.19641029835	41655.2763128	25229.1824341	3609.51907148	387.800053745	5278884.07188	67376546.6368	0
10775000.0	74771.0	652296837.28	0.342556338634	174393.664551	0.731017673388	1.19608509541	41661.2245397	25239.1906738	3590.88133534	391.054260431	9618635.33993	67381458.9361	0
10800000.0	74974.0	657465207.816	0.342473797836	174393.469238	0.734653673135	1.1957654953	41667.5697383	25249.4552612	3572.46927264	393.347382005	6453383.33426	67386371.7529	0
10825000.0	75176.0	662659731.788	0.34238953595	174392.553711	0.738308823202	1.19545793533	41674.4658275	25260.017395	3554.45601005	396.571786749	2781661.14797	67391285.0872	0
10850000.0	75379.0	667880389.36	0.342301516235	174391.967773	0.741960422602	1.19515514374	41682.0302911	25271.09375	3536.47921362	399.847734876	276773.424539	67396198.939	0
10875000.0	75581.0	673127322.528	0.342210917189	174390.600586	0.745631870814	1.19486629963	41690.286164	25282.5775146	3518.89468335	403.090482339	1251885.20219	67401113.3084	0
10900000.0	75784.0	678400508.161	0.342117435982	174389.575195	0.749299186282	1.19458115101	41699.101985	25294.4961548	3501.33223513	406.386586196	4702938.79159	67406028.1955	0
10925000.0	75986.0	683700087.682	0.342021718844	174387.890625	0.752986175939	1.19430887699	41708.5219925	25306.7550659	3484.15198674	408.637644125	12298733.4924	67410943.6002	0
10950000.0	76188.0	689026120.331	0.341923379334	174386.340332	0.756680732593	1.19404423237	41718.5461648	25319.4381714	3467.1664335	411.90216143	7013106.95451	67415859.5226	0
10975000.0	76390.0	694378661.57	0.341822589168	174384.997559	0.760382448789	1.19378697872	41729.1273548	25332.5012207	3450.3659705	415.177683066	2724640.64322	67420775.9627	0
11000000.0	76592.0	699757767.008	0.341719770339	174383.825684	0.764091790188	1.19353687763	41740.2346224	25345.9197998	3433.75624738	418.462890965	86535.8867952	67425692.9206	0
11025000.0	76794.0	705163492.363	0.341615121327	174382.824707	0.767808116507	1.19329333305	41751.8312289	25359.6694946	3417.32778658	421.758892719	2029660.6878	67430610.3963	0
11050000.0	76996.0	710595892.296	0.34150872897	174381.994629	0.771531835198	1.1930564642	41763.872065	25373.7091064	3401.07128066	425.066249673	6387526.04571	67435528.3898	0
11075000.0	77198.0	716055021.303	0.341401096783	174381.396484	0.775262655225	1.19282543659	41776.2992199	25387.9989624	3384.99245443	428.384052115	12267075.3314	67440446.9011	0
11100000.0	77400.0	721540932.365	0.341292504884	174380.993652	0.779000576586	1.19260072708	41789.1252263	25402.5375366	3369.0821186	430.64449897	5241995.23714	67445365.9304	0
11125000.0	77601.0	727053764.724	0.341183260456	174380.236816	0.782757531852	1.19238555431	41802.282907	25417.2317505	3353.50429604	433.931551206	1232957.70322	67450285.4775	0
11150000.0	77803.0	732593491.696	0.341070480351	174380.163574	0.786509888712	1.19217455387	41816.1066102	25432.4584961	3337.92520274	437.273984042	705108.986207	67455205.5427	0
11175000.0	78004.0	738160254.227	0.340955391163	174379.711914	0.790282152593	1.19197630882	41830.5710078	25448.0712891	3322.66654877	439.489083643	21223969.5295	67460126.1258	0
11200000.0	78205.0	743754112.176	0.340837720671	174379.382324	0.794061925262	1.1917860508	41845.6235562	25464.0884399	3307.56480315	443.901103415	10533976.0333	67465047.227	0
11225000.0	78407.0	749375035.477	0.340717031457	174379.724121	0.797837274149	1.19159913063	41861.246615	25480.5587769	3292.45578056	447.276042173	18155898.2388	67469968.8462	0
11250000.0	78608.0	755023166.873	0.340594906502	174379.699707	0.801631889772	1.19142329693	41877.3322982	25497.2732544	3277.65328361	449.498915512	2002401.14645	67474890.9835	0
11275000.0	78809.0	760698561.974	0.340471072609	174379.80957	0.80543407239	1.19125330448	41893.8449505	25514.2669678	3262.99973657	452.842123943	380944.434361	67479813.6389	0
11300000.0	79010.0	766401277.95	0.340345726922	174380.078125	0.809243530966	1.1910892725	41910.7518937	25531.5155029	3248.48660167	455.062023161	22962965.389	67484736.8125	0
11325000.0	79210.0	772131458.036	0.34022005954	174379.956055	0.813072896563	1.19093382359	41927.920778	25548.8601685	3234.26883086	458.373143854	14586678.8811	67489660.5043	0
11350000.0	79411.0	777889072.285	0.340092802766	174380.505371	0.816897372715	1.19077956676	41945.4414647	25566.4779663	3220.03197087	462.893110118	18873749.7808	67494584.7143	0
11375000.0	79612.0	783674174.207	0.339964979823	174381.225586	0.820728717372	1.1906298399	41963.2113849	25584.223938	3205.94929847	465.118964648	2036422.8981	67499509.4425	0
11400000.0	79812.0	789486906.077	0.33983766595	174381.542969	0.824580027256	1.19048678875	41981.0911442	25601.953125	3192.21560645	468.45111618	463435.425157	67504434.6891	0
11425000.0	80013.0	795327235.039	0.339709594456	174382.580566	0.828425749205	1.19034361839	41999.1952193	25619.8547363	3178.51980767	471.832525161	4819516.82223	67509360.454	0
11450000.0	80213.0	801195305.677	0.339581042097	174383.190918	0.832291552797	1.19020819664	42017.5617991	25637.8570557	3165.15034828	473.985209597	14825897.7096	67514286.7372	0
11475000.0	80413.0	807091175.635	0.339450361734	174383.911133	0.836164923385	1.19007897377	42036.396477	25656.1767578	3151.95824618	477.316817526	7337531.18229	67519213.5388	0
11500000.0	80613.0	813014902.874	0.339317915254	174384.741211	0.840045744553	1.18995559216	42055.6682037	25674.786377	3138.93485751	480.651558496	1778346.4831	67524140.8588	0
11525000.0	80813.0	818966546.494	0.339183953767	174385.668945	0.843934540171	1.18983709812	42075.3135263	25693.6462402	3126.07854337	483.988879699	830941.357042	67529068.6973	0
11550000.0	81013.0	824946162.684	0.339048946907	174386.706543	0.84783078637	1.18972396851	42095.2938727	25712.7044678	3113.38085298	487.32989602	5929532.65088	67533997.0543	0
11575000.0	81213.0	830953809.932	0.338913061606	174387.82959	0.851734541357	1.18961524963	42115.5720518	25731.9549561	3100.83006564	489.449266076	13956574.9102	67538925.9297	0
11600000.0	81412.0	836989632.085	0.338777613544	174388.525391	0.855658203363	1.18951392174	42135.991134	25751.2084961	3088.57741601	492.742144294	6337319.50792	67543855.3237	0
11625000.0	81612.0	843053599.426	0.338641125363	174389.84375	0.859576626681	1.18941402435	42156.7169596	25770.6939697	3076.31913843	497.332018719	34718115.8617	67548785.2363	0
11650000.0	81812.0	849145765.902	0.338504719797	174391.235352	0.863502500579	1.18931818008	42177.6010334	25790.2404785	3064.20707803	499.439129873	1748378.36827	67553715.6675	0
11675000.0	82011.0	855266277.489	0.338369652459	174392.224121	0.867448514327	1.1892285347	42198.5021538	25809.7015381	3052.36053603	501.487611184	22128795.3406	67558646.6173	0
11700000.0	82210.0	861415190.444	0.338235320208	174393.286133	0.871401629411	1.18914234638	42219.4761271	25829.1564941	3040.64659382	504.792686721	12844996.3155	67563578.0858	0
11725000.0	82409.0	867592558.265	0.338101884947	174394.433594	0.875361962244	1.18905973434	42240.5009364	25848.5809326	3029.0507719	508.104606563	5382960.33733	67568510.073	0
11750000.0	82608.0	873798438.519	0.337969371912	174395.654297	0.879329629242	1.18898046017	42261.5738454	25867.9840088	3017.578687	511.42203499	516037.990975	67573442.5789	0
11775000.0	82807.0	880032889.183	0.337835928671	174396.936035	0.883305096067	1.1889077425	42282.9857345	25887.5793457	3006.2226656	514.745662318	2461965.26418	67578375.6036	0
11800000.0	83006.0	886295967.35	0.33770155755	174398.266602	0.887287897058	1.1888409853	42304.7264256	25907.3638916	2994.97514662	518.076748323	9014256.66379	67583309.1471	0
11825000.0	83205.0	892587733.608	0.337566586903	174399.621582	0.891278730705	1.18877983093	42326.732042	25927.2918701	2983.84178331	521.413611842	18016915.5267	67588243.2094	0
11850000.0	83404.0	898908244.872	0.337431262615	174401.025391	0.895277131349	1.18872380257	42348.9774801	25947.3388672	2972.80855835	523.440188122	4769565.54949	67593177.7906	0
11875000.0	83602.0	905257648.876	0.33729686052	174401.928711	0.899295671843	1.18867456913	42371.2662113	25967.3187256	2962.01125392	526.734363628	187338.015158	67598112.8907	0
11900000.0	83801.0	911635913.829	0.337161806564	174403.393555	0.903308973648	1.18862628937	42393.7961218	25987.4786377	2951.17539808	530.08695313	3322649.94853	67603048.5097	0
11925000.0	83999.0	918043186.295	0.337028187705	174404.394531	0.907342880964	1.18858420849	42416.2886945	26007.5012207	2940.56320812	532.054266177	21460137.1845	67607984.6476	0
11950000.0	84197.0	924479525.791	0.336895459454	174405.395508	0.911384180654	1.1885445118	42438.7889775	26027.4841309	2930.03743422	535.365936576	11964883.8176	67612921.3046	0
11975000.0	84395.0	930944988.797	0.336763782067	174406.408691	0.915433163755	1.18850696087	42461.2663534	26047.3968506	2919.60062657	538.685890062	4507473.41163	67617858.4806	0
12000000.0	84593.0	937439632.992	0.336633558472	174407.446289	0.919489422813	1.18847119808	42483.6822956	26067.2088623	2909.24571375	542.015464307	102321.036253	67622796.1756	0
12025000.0	84791.0	943963515.413	0.336504947403	174408.496094	0.923553248867	1.18843638897	42505.9727364	26086.8743896	2898.96890458	545.355015751	3475100.51724	67627734.3898	0
12050000.0	84989.0	950516691.96	0.336378322959	174409.570312	0.927624176256	1.18840181828	42528.0911433	26106.3690186	2888.76963032	548.704758626	10539125.3145	67632673.1231	0
12075000.0	85187.0	957099201.171	0.33625271031	174410.644531	0.931700284127	1.1883687973	42550.1782726	26125.7965088	2878.63468502	550.674083481	13238945.9487	67637612.3755	0
12100000.0	85384.0	963711214.292	0.33612808036	174411.157227	0.935799791478	1.188341856	42572.3017549	26145.1599121	2868.70222714	553.985658294	5586070.28892	67642552.1472	0
12125000.0	85582.0	970352697.423	0.336002735252	174412.109375	0.939894001931	1.18831586838	42594.6442189	26164.6942139	2858.71615391	557.358755369	526683.229768	67647492.4381	0
12150000.0	85779.0	977023802.688	0.335878801546	174412.548828	0.944008992519	1.18829476833	42616.9308285	26184.1003418	2848.91185416	560.693137254	2489981.28394	67652433.2482	0
12175000.0	85977.0	983724496.547	0.335754636704	174413.427734	0.948118511587	1.18827497959	42639.3981191	26203.616333	2839.05389751	564.089538261	9128477.51304	67657374.5777	0
12200000.0	86174.0	990454931.667	0.33563249737	174413.745117	0.952249218244	1.18825948238	42661.6947325	26222.9187012	2829.3729488	566.010527211	16330084.8039	67662316.4265	0
12225000.0	86371.0	997215167.743	0.335511493555	174413.989258	0.956387724727	1.18824660778	42683.9615263	26242.1295166	2819.74977899	569.371667468	7977968.00063	67667258.7946	0
12250000.0	86568.0	1004005263.43	0.335391971551	174414.172363	0.960533856414	1.18823575974	42706.1406258	26261.2091064	2810.18093733	572.745604291	1921725.1408	67672201.6822	0
12275000.0	86765.0	1010825278.56	0.335274115885	174414.27002	0.964687962551	1.18822705746	42728.1936331	26280.1208496	2800.66301761	576.132759948	852416.637368	67677145.0892	0
12300000.0	86962.0	1017675272.46	0.335158110606	174414.282227	0.968849519268	1.18821978569	42750.0934105	26298.8433838	2791.19265755	579.534092232	6107092.23298	67682089.0157	0
12325000.0	87159.0	1024555305.41	0.335044192832	174414.208984	0.973019283265	1.18821454048	42771.8079979	26317.3400879	2781.77264679	582.948528333	13867636.9705	67687033.4616	0
12350000.0	87356.0	1031465436.12	0.334932599101	174414.013672	0.977196381427	1.18821001053	42793.2914556	26335.5926514	2772.39964753	584.888975844	13192673.2419	67691978.4272	0
12375000.0	87552.0	1038405816.71	0.33482423361	174413.220215	0.981394550763	1.18820953369	42814.4179525	26353.4301758	2763.17958153	588.272250639	5939061.6795	67696923.9123	0
12400000.0	87749.0	1045376416.16	0.334716151908	174412.805176	0.985587597825	1.18821108341	42835.6677323	26371.307373	2753.89039589	591.721770744	922276.564472	67701869.917	0
12425000.0	87945.0	1052377389.24	0.334609554748	174411.767578	0.989802065305	1.18821930885	42856.8758878	26389.0136719	2744.7529807	595.13397037	1605048.6933	67706816.4413	0
12450000.0	88142.0	1059408702.0	0.334502972107	174411.071777	0.994011177681	1.18822956085	42878.2377782	26406.7871094	2735.53775512	598.615038171	7183121.97444	67711763.4853	0
12475000.0	88338.0	1066470512.37	0.334398296909	174409.667969	0.998241826892	1.18824458122	42899.4388477	26424.3255615	2726.47320823	600.526405642	23103250.7172	67716711.0491	0
12500000.0	88534.0	1073562881.93	0.334294886177	174408.190918	1.00248050876	1.18826246262	42920.5812362	26441.7419434	2717.44168148	604.610885973	8.94172797744e-13	67721659.1325	0
