z	T	P	nabla_ad	S	rho	delta	cp	cv	opac	frad	fconv	ftot	dT
0.0	3900.0	132.332176446	0.384261905072	173803.24707	5.33249711054e-06	1.0086183548	16791.1835084	10321.9009399	0.000647094107887	0.0	19193.7554222	65311815.0903	0
25000.0	3900.0	174.382482418	0.379610785052	172028.125	7.0283281417e-06	1.0113196373	17063.8842945	10562.3268127	0.00077088922903	0.0	24590.8949625	65316507.3538	0
50000.0	3900.0	229.813536687	0.373699352774	170247.937012	9.26476939611e-06	1.01492631435	17423.1622529	10878.3058167	0.00091638576204	0.0	32514.3213986	65321200.1229	0
75000.0	3900.0	302.894651087	0.366264954189	168460.876465	1.2215032541e-05	1.01965546608	17894.2828462	11292.7696228	0.00108785264539	0.0	42747.2545377	65325893.3976	0
100000.0	3900.0	399.265964128	0.357036822776	166664.550781	1.61085349504e-05	1.02578651905	18511.1719141	11835.723877	0.0012908385031	0.0	56292.0292131	65330587.1781	0
125000.0	3900.0	526.383212769	0.345759835841	164856.079102	2.12493418417e-05	1.03388226032	19318.7898468	12545.2835083	0.0015320403027	0.0	74126.2321694	65335281.4644	0
150000.0	3900.0	694.112447752	0.332267629544	163031.201172	2.80415441978e-05	1.04455471039	20374.0898037	13470.6939697	0.00181680957919	0.0	97649.2967641	65339976.2566	0
175000.0	3900.0	915.526643897	0.316497213834	161185.15625	3.7023347943e-05	1.05840885639	21747.5096441	14673.5168457	0.00215439290031	0.0	128718.743336	65344671.5548	0
200000.0	3900.0	1207.97646376	0.298569114773	159311.181641	4.89137192972e-05	1.07640862465	23527.4084911	16229.2068481	0.00255772566292	22942435.0928	166737.856886	65349367.3591	0
225000.0	3908.0	1593.54949475	0.281380998888	157457.080078	6.44903082048e-05	1.09689700603	25505.2894647	17948.9105225	0.00309148073812	16296169.3322	219819.36639	65354063.6694	0
250000.0	3909.0	2103.17439365	0.2608684511	155517.932129	8.52742729762e-05	1.12582969666	28306.8145651	20379.7973633	0.00369088240187	24105071.5064	281695.707128	65358760.4858	0
275000.0	3929.0	2773.26387989	0.246100666771	153691.662598	0.000112094454607	1.15188193321	30717.9998311	22451.7242432	0.00456483808653	20790978.5217	364994.147931	65363457.8085	0
300000.0	3938.0	3657.23364511	0.227778440318	151725.549316	0.000147921426219	1.19020593166	34297.893776	25521.9696045	0.00552763105631	36139932.7619	407525.878319	65368155.6374	0
325000.0	4009.0	4799.8629441	0.229646494865	150275.634766	0.000190754818163	1.19062542915	33958.8922842	25181.8527222	0.00733738150206	33691261.5936	465215.859044	65372853.9727	0
350000.0	4058.0	6280.67245962	0.224651419186	148665.869141	0.000246876965093	1.20603144169	35107.1679841	26125.5889893	0.00940277387377	36068766.4009	411026.29925	65377552.8144	-1
375000.0	4215.0	8130.43236278	0.250965179579	147942.004395	0.000306648445303	1.15739989281	30086.9272641	21761.4486694	0.0143748007408	33109713.9987	321666.708629	65382252.1626	-1
400000.0	4375.0	10417.3195804	0.276523790135	147205.908203	0.000377096341708	1.11973083019	26303.0132282	18470.5108643	0.0218222123712	35783892.2625	11221.384624	65386952.0172	-6
425000.0	4791.0	13050.5615841	0.341995253346	147647.106934	0.000429231477028	1.04727900028	19683.4435022	12756.9442749	0.0381981977672	30258311.2514	1.94171460554e-07	65391652.3785	-4
450000.0	5118.0	16108.98071	0.366961381033	147494.482422	0.000494861069456	1.02618956566	17889.8633537	11216.8373108	0.0530979419898	34022272.8184	0.243112672007	65396353.2465	-7
475000.0	5893.0	19340.4597342	0.386425845796	148687.841797	0.000515773820098	1.00808393955	16611.9151092	10150.3730774	0.0840779767138	26830945.8075	0.027346984975	65401054.6211	0
500000.0	6056.0	23100.0077182	0.385808287967	148018.127441	0.000598504811933	1.00784778595	16631.6406685	10172.052002	0.110843563563	45785729.2755	376.700968615	65405756.5026	-9
525000.0	8128.0	26347.6501307	0.282633992933	152670.532227	0.000505554226038	1.05657708645	23590.3011347	16465.0482178	1.32399254003	19762784.7325	2405847.61541	65410458.8909	-16
550000.0	10109.0	29178.7987546	0.148510596954	160135.03418	0.000434756231016	1.36595380306	59590.5999206	47453.7994385	10.090184268	3550497.2735	32622602.0647	65415161.7861	-5
575000.0	10624.0	32092.8826216	0.132070818583	162657.019043	0.000446117837782	1.50787556171	75453.1773318	60506.5551758	15.9543440058	1177900.37439	13749070.3818	65419865.1883	-9
600000.0	11266.0	35008.1652021	0.118073748123	166851.049805	0.000444694791213	1.72213041782	99716.7070176	79859.8815918	25.9431628923	742361.540073	19833257.5943	65424569.0975	-1
625000.0	11619.0	38021.6229668	0.113433538498	169191.52832	0.000458755096133	1.84285593033	113500.397876	90485.0341797	33.2704721252	387653.086466	10386590.4508	65429273.5139	-4
650000.0	11889.0	41165.9609073	0.111069141753	170860.522461	0.000477968967516	1.92828607559	123358.11722	97914.4104004	39.7149011095	274222.250209	8409217.31011	65433978.4373	-1
675000.0	12134.0	44447.1277037	0.109451429738	172424.230957	0.000498104213875	2.00399875641	132221.490153	104477.856445	46.3007367909	186992.622023	5315198.28876	65438683.868	-1
700000.0	12288.0	47914.8061671	0.10903249796	173041.760254	0.000526004555468	2.04029870033	136343.300534	107436.572266	51.1158911694	133596.327681	2854451.24065	65443389.806	-1
725000.0	12455.0	51566.4061871	0.108608289532	173803.369141	0.000553477491394	2.07995796204	140916.900865	110694.958496	56.5492206962	98944.3119816	1345719.87357	65448096.2513	0
750000.0	12554.0	55450.9906534	0.108796004483	173778.125	0.000588564375903	2.09063053131	141865.744462	111266.85791	60.4441048835	66604.5643932	4133.76735881	65452803.204	0
775000.0	12653.0	59580.4402651	0.108991812018	173780.566406	0.000625329562354	2.10176301003	142888.153689	111893.225098	64.524063258	59821.380792	9185.42511527	65457510.6642	0
800000.0	12751.0	63967.2029068	0.109205599087	173791.748047	0.00066395932663	2.11262106895	143891.946135	112505.310059	68.7616163587	54106.7891168	7510.01719846	65462218.6319	0
825000.0	12850.0	68622.9146934	0.109427214835	173816.784668	0.000704350497926	2.12342572212	144896.315761	113113.781738	73.2173506256	49024.4945697	5804.56079185	65466927.1071	0
850000.0	12948.0	73561.6794081	0.109674366571	173805.566406	0.000746917976358	2.1328253746	145709.918508	113575.244141	77.8372402458	44263.3371641	13423.1557934	65471636.09	0
875000.0	13046.0	78797.997332	0.109934657311	173777.575684	0.000791608897543	2.14138650894	146409.443685	113947.351074	82.6563802562	40434.4603125	4039.25781353	65476345.5805	0
900000.0	13145.0	84345.0381301	0.110199440751	173787.988281	0.000838156893224	2.1505625248	147208.397614	114392.224121	87.7088126778	36814.5754029	3039.53511574	65481055.5789	0
925000.0	13243.0	90217.6249817	0.110481599535	173804.467773	0.000886928091859	2.15938544273	147979.768006	114817.297363	92.933861028	33403.5918664	11098.178232	65485766.085	0
950000.0	13341.0	96430.5165071	0.110775469275	173822.08252	0.000937935396905	2.16780495644	148708.674532	115209.655762	98.3723829652	30508.1208095	10528.1562998	65490477.0989	0
975000.0	13439.0	102999.621998	0.111081319722	173817.028809	0.000991390152194	2.17539525032	149324.804076	115515.95459	104.034718658	27898.0846096	10458.4258512	65495188.6208	0
1000000.0	13537.0	109942.198268	0.111393573359	173790.74707	0.00104738796836	2.18220162392	149837.617706	115744.592285	109.927769548	25541.6360815	10809.1975128	65499900.6506	0
1025000.0	13635.0	117275.056308	0.111711169625	173788.48877	0.00110574387691	2.18912649155	150396.365947	116010.205078	116.050038902	23418.6586423	10980.1535544	65504613.1885	0
1050000.0	13733.0	125014.625359	0.11203745295	173803.90625	0.00116654791782	2.1960401535	150975.721559	116292.30957	122.408335704	21502.0123537	11112.4619251	65509326.2344	0
1075000.0	13831.0	133178.151075	0.112373342667	173823.950195	0.00122995220408	2.20263457298	151525.683142	116552.478027	129.011057741	19767.0561453	11434.6662474	65514039.7885	0
1100000.0	13929.0	141784.092867	0.112719309703	173829.968262	0.0012961761513	2.2086019516	151990.969605	116748.376465	135.869496907	18191.5726116	12315.8562931	65518753.8507	0
1125000.0	14027.0	150852.454015	0.113073814757	173805.371094	0.00136544394991	2.21377444267	152334.769899	116851.867676	142.994225104	16757.0836553	14102.6806781	65523468.4212	0
1150000.0	14125.0	160403.717851	0.113436164571	173793.652344	0.00143755744375	2.2188565731	152687.07344	116963.378906	150.383462139	15453.8433487	16182.4394821	65528183.5	0
1175000.0	14223.0	170457.31191	0.113807328661	173801.452637	0.00151248673319	2.22392344475	153060.641083	117092.224121	158.030950144	14343.2141495	2435.10433856	65532899.0871	0
1200000.0	14322.0	181031.293775	0.114184709483	173829.980469	0.00159013029588	2.2290251255	153454.6146	117235.180664	165.982938135	13262.3787334	3035.25474227	65537615.1826	0
1225000.0	14420.0	192148.253397	0.114571611354	173844.262695	0.00167119219441	2.23341464996	153760.186711	117314.575195	174.153412089	12213.3222948	23757.1960602	65542331.7865	0
1250000.0	14518.0	203830.704094	0.114963740532	173837.475586	0.00175569903149	2.23717951775	153974.22914	117325.561523	182.600527379	11315.2642855	28315.39681	65547048.8989	0
1275000.0	14616.0	216102.906206	0.115364274389	173810.534668	0.00184380019164	2.24059772491	154129.821068	117292.736816	191.331694876	10546.0883743	9526.51828026	65551766.5199	0
1300000.0	14715.0	228986.574889	0.115771264486	173812.792969	0.00193486357603	2.24421596527	154336.714852	117298.242188	200.3906706	9791.73224829	12919.1596943	65556484.6494	0
1325000.0	14813.0	242506.455408	0.116186066838	173819.067383	0.0020295944978	2.24742126465	154510.340618	117283.007812	209.682089874	9100.49536581	17335.3745327	65561203.2876	0
1350000.0	14912.0	256684.168383	0.116606160407	173842.06543	0.00212754844142	2.25050449371	154684.528806	117268.017578	219.319661111	8467.53965921	22194.9554596	65565922.4345	0
1375000.0	15010.0	271546.89643	0.117031157608	173849.255371	0.00222961307372	2.2528822422	154771.944307	117192.138672	229.209236645	7884.73383387	28955.4000582	65570642.0901	0
1400000.0	15109.0	287118.808096	0.117463329957	173849.902344	0.00233536547967	2.25507450104	154830.031626	117093.261719	239.472568125	7385.87711051	6830.00570579	65575362.2545	0
1425000.0	15208.0	303428.0737	0.117903372343	173831.030273	0.00244530201599	2.25706505775	154847.10043	116963.842773	250.067345451	6888.62214595	12782.6774563	65580082.9277	0
1450000.0	15307.0	320502.772325	0.118349368877	173825.98877	0.00255908435065	2.25891709328	154866.593231	116838.439941	260.987542297	6430.89486643	20311.3224207	65584804.1097	0
1475000.0	15406.0	338369.777661	0.118800502132	173833.227539	0.00267681457444	2.26052618027	154873.624517	116705.969238	272.243341015	6008.96491538	29482.8659211	65589525.8007	0
1500000.0	15505.0	357056.883504	0.11925564396	173846.008301	0.00279868436337	2.26177477837	154847.439702	116550.891113	283.848351411	5619.27848797	40658.5019568	65594248.0007	0
1525000.0	15604.0	376592.757146	0.119717894981	173858.71582	0.0029248581086	2.26268649101	154787.225542	116372.583008	295.815994514	5285.36273469	11555.4762793	65598970.7096	0
1550000.0	15704.0	397004.483137	0.120189749641	173872.070312	0.00305513094645	2.26350712776	154715.775962	116185.119629	308.226281604	4950.22331522	20944.09516	65603693.9276	0
1575000.0	15803.0	418327.437704	0.12066460261	173852.075195	0.00319080845657	2.2639746666	154577.468835	115950.280762	320.979367953	4638.03686582	35310.3850272	65608417.6547	0
1600000.0	15903.0	440592.636065	0.121143740465	173841.125488	0.00333072830472	2.26441788673	154443.113751	115718.151855	334.199021998	4370.82221445	7100.1386939	65613141.891	0
1625000.0	16003.0	463832.075452	0.121626218972	173841.503906	0.00347520699506	2.26459813118	154292.12595	115476.159668	347.809582597	4101.59091035	17788.3345161	65617866.6364	0
1650000.0	16103.0	488077.155862	0.122115727273	173851.391602	0.00362433183909	2.26450538635	154122.245273	115222.717285	361.819678741	3851.86083561	32483.070515	65622591.891	0
1675000.0	16203.0	513360.056934	0.122614840618	173866.992188	0.00377824926545	2.26417446136	153933.939221	114957.849121	376.239791871	3619.93949077	51797.0462705	65627317.6548	0
1700000.0	16303.0	539714.73239	0.123120869629	173879.980469	0.00393726304537	2.26360988617	153717.853508	114673.864746	391.088372656	3421.13064926	14725.664796	65632043.928	0
1725000.0	16404.0	567173.553361	0.123632185946	173889.39209	0.00410117127103	2.26295113564	153484.440707	114376.318359	406.454232281	3219.33472641	32285.3720445	65636770.7105	0
1750000.0	16504.0	595779.301787	0.124139315771	173865.722656	0.00427156464866	2.2620408535	153196.316506	114040.869141	422.22373255	3030.22187855	58426.6324649	65641498.0024	0
1775000.0	16605.0	625567.584165	0.124653008889	173854.47998	0.00444675288236	2.26103901863	152910.638469	113707.873535	438.522231366	2868.62481037	17840.5829841	65646225.8037	0
1800000.0	16706.0	656574.606153	0.125175692869	173855.761719	0.00462712250737	2.25980639458	152616.651114	113371.630859	455.279387607	2704.08392096	40801.9504638	65650954.1145	0
1825000.0	16807.0	688836.850751	0.12570625973	173865.380859	0.00481288043375	2.25833201408	152306.859053	113026.159668	472.502277155	2550.66452917	71773.2462511	65655682.9347	0
1850000.0	16908.0	722392.36192	0.126242779716	173877.978516	0.00500428723171	2.25661110878	151974.213792	112665.966797	490.18640405	2419.41080894	24073.0660812	65660412.2645	0
1875000.0	17010.0	757276.431778	0.126785754014	173895.922852	0.00520095454704	2.25473284721	151626.284227	112294.665527	508.422683281	2296.54776782	1303.13236834	65665142.1038	0
1900000.0	17112.0	793530.050745	0.127333048084	173904.882812	0.00540379187441	2.25266051292	151250.30583	111904.455566	527.148683743	2170.40655936	10378.5377515	65669872.4527	0
1925000.0	17214.0	831196.56561	0.127882904094	173896.899414	0.00561320575798	2.25051951408	150853.453565	111500.219727	546.384690165	2052.13737921	39016.8634055	65674603.3113	0
1950000.0	17316.0	870321.969586	0.128434446133	173880.34668	0.00582913571634	2.24832034111	150445.298307	111089.135742	566.130838903	1941.29828394	82244.922049	65679334.6795	0
1975000.0	17418.0	910950.266236	0.128991789717	173873.242188	0.00605113746133	2.24590849876	150026.469549	110672.595215	586.371347753	1846.62755432	28583.3496219	65684066.5575	0
2000000.0	17521.0	953118.681837	0.12955766523	173881.262207	0.00627858298685	2.243309021	149600.894007	110251.89209	607.19648447	1749.36323133	70202.9220666	65688798.9451	0
2025000.0	17623.0	996875.456804	0.130127566653	173886.05957	0.00651317441225	2.24038863182	149144.304489	109812.487793	628.452719235	1657.93850705	128287.680735	65693531.8426	0
2050000.0	17726.0	1042259.15834	0.130709933484	173901.342773	0.00675346836942	2.23728728294	148676.49162	109365.625	650.315254517	1587.78655581	7483.59511268	65698265.2498	0
2075000.0	17830.0	1089309.87455	0.131301819215	173921.252441	0.00699972497387	2.23407387733	148197.671508	108910.913086	672.795756457	1506.95577265	9958.36034197	65702999.1668	0
2100000.0	17933.0	1138082.10127	0.13189009779	173922.167969	0.0072541802183	2.23077702522	147694.809162	108441.027832	695.71910476	1430.69570138	52827.2809074	65707733.5937	0
2125000.0	18037.0	1188621.75539	0.13247862492	173912.792969	0.0075155662671	2.22757554054	147189.962633	107968.786621	719.272637835	1359.09046297	119876.034438	65712468.5306	0
2150000.0	18140.0	1240988.1873	0.133065537991	173891.052246	0.00778528010414	2.22427845001	146669.221282	107487.817383	743.279105015	1297.74501114	52150.9098661	65717203.9773	0
2175000.0	18245.0	1295217.91385	0.133671152006	173894.555664	0.00805991203379	2.22079849243	146148.352844	107006.335449	767.978031332	1240.33540873	4593.07559519	65721939.934	0
2200000.0	18349.0	1351365.64185	0.134279346106	173896.447754	0.008342599358	2.21708774567	145606.624342	106513.208008	793.134911859	1180.25373945	52267.2945526	65726676.4007	0
2225000.0	18454.0	1409474.34991	0.134898306142	173909.716797	0.00863158493303	2.21319699287	145054.896423	106013.549805	818.938260323	1129.24840357	3675.73637484	65731413.3773	0
2250000.0	18559.0	1469595.2573	0.135521553764	173923.071289	0.00892814205145	2.20912432671	144485.966116	105503.381348	845.323483312	1075.81931222	54977.7189265	65736150.864	0
2275000.0	18664.0	1531780.40926	0.136151488683	173934.423828	0.00923242623685	2.20485973358	143898.121278	104981.555176	872.302570799	1025.39412477	144442.178799	65740888.8608	0
2300000.0	18769.0	1596084.46977	0.13678481792	173938.830566	0.00954486768023	2.20050740242	143297.569967	104452.111816	899.903079188	982.382369582	65015.5135839	65745627.3676	0
2325000.0	18875.0	1662557.55317	0.137422202686	173938.110352	0.00986481609289	2.19619965553	142697.022282	103922.583008	928.239296855	941.647049372	9240.30734393	65750366.3846	0
2350000.0	18981.0	1731260.64941	0.138054530681	173923.120117	0.010193705748	2.19201898575	142099.720833	103396.276855	957.249656029	898.620181681	84075.5501145	65755105.9117	0
2375000.0	19087.0	1802253.42895	0.138691732449	173912.512207	0.0105306380647	2.18769788742	141493.073618	102865.075684	986.895749237	861.999493583	19480.4990708	65759845.949	0
2400000.0	19194.0	1875582.28329	0.139344536788	173916.07666	0.0108742142402	2.18312287331	140872.055025	102324.743652	1017.26897313	823.536292066	110809.993163	65764586.4964	0
2425000.0	19300.0	1951311.01527	0.139999309734	173916.967773	0.01122717822	2.17836999893	140234.358219	101775.445557	1048.20632834	786.999557151	253449.615699	65769327.5541	0
2450000.0	19407.0	2029488.50991	0.140666237432	173927.148438	0.0115872917377	2.17345380783	139586.259383	101219.226074	1079.90668712	759.601575899	2199.040929	65774069.122	0
2475000.0	19515.0	2110164.93111	0.141343064832	173943.505859	0.0119547748909	2.16843223572	138929.96661	100657.183838	1112.38618991	730.134345758	57026.9915751	65778811.2002	0
2500000.0	19623.0	2193399.95148	0.142025802125	173956.970215	0.0123310855997	2.16329216957	138258.46184	100085.168457	1145.56832294	695.589014252	203571.006911	65783553.7886	0
2525000.0	19730.0	2279264.99731	0.142705863636	173957.348633	0.0127180373966	2.15813231468	137576.827835	99507.7819824	1179.38411343	668.959749145	108011.102826	65788296.8873	0
2550000.0	19839.0	2367806.89176	0.143396832261	173960.913086	0.0131119350044	2.15300559998	136898.606955	98931.7077637	1214.1367823	643.761519805	33145.0399738	65793040.4964	0
2575000.0	19947.0	2459104.602	0.144072944403	173943.823242	0.0135175141622	2.14812421799	136234.954007	98368.0297852	1249.5786917	616.697807351	176105.596089	65797784.6158	0
2600000.0	20056.0	2553217.64577	0.144755972028	173934.570312	0.0139309686347	2.14317369461	135572.963389	97806.628418	1285.80104598	593.847207868	82114.9894363	65802529.2456	0
2625000.0	20165.0	2650208.42902	0.145449289559	173930.541992	0.0143533525261	2.13794779778	134890.366122	97232.7331543	1322.64057374	572.115814556	14897.0271182	65807274.3857	0
2650000.0	20275.0	2750128.44123	0.146160179249	173937.463379	0.014783197912	2.13241744041	134186.288151	96644.6777344	1360.19952601	551.536946937	18913.8311675	65812020.0363	0
2675000.0	20385.0	2853040.60648	0.146880027186	173947.009277	0.0152222492034	2.12668681145	133466.362574	96047.1923828	1398.41041941	529.519186714	67890.2191115	65816766.1973	0
2700000.0	20495.0	2959009.68985	0.147606657964	173957.324219	0.0156708028953	2.1208255291	132735.560748	95443.5119629	1437.30173804	510.901519422	7604.20339634	65821512.8687	0
2725000.0	20606.0	3068091.23044	0.148345036439	173972.631836	0.0161274965649	2.11486005783	131997.474947	94835.0646973	1476.98922475	490.986359359	161612.224146	65826260.0506	0
2750000.0	20716.0	3180365.57869	0.149077082833	173977.514648	0.0165960791492	2.10897469521	131262.766326	94230.9387207	1517.32603888	474.052700386	71639.0239975	65831007.7429	0
2775000.0	20828.0	3295881.61986	0.149821752184	173988.037109	0.0170718449226	2.10309529305	130531.025438	93628.2165527	1558.61385687	458.00364205	9430.5851658	65835755.9457	0
2800000.0	20939.0	3414725.8082	0.150551836222	173981.921387	0.0175604800461	2.0974817276	129817.551535	93040.032959	1600.62089742	440.542851683	188046.703054	65840504.659	0
2825000.0	21051.0	3536964.77459	0.151280045163	173970.983887	0.0180587685463	2.0920624733	129121.623194	92464.4287109	1643.55616485	425.827673831	89652.5520729	65845253.8829	0
2850000.0	21163.0	3662675.66227	0.152007774232	173961.547852	0.018567461666	2.08667063713	128432.106966	91894.8547363	1687.29666537	411.72816937	17175.5573641	65850003.6173	0
2875000.0	21276.0	3791918.3956	0.152743473075	173960.620117	0.0190846949408	2.08121776581	127743.292826	91326.4648438	1731.93880603	398.29143757	19742.4178005	65854753.8622	0
2900000.0	21389.0	3924762.91449	0.153488844248	173962.426758	0.0196121145564	2.07555007935	127036.741931	90747.1557617	1777.39515818	383.717687063	117019.426946	65859504.6177	0
2925000.0	21502.0	4061279.40344	0.154246562728	173966.601562	0.0201497532544	2.06962561607	126307.958309	90153.7536621	1823.67408834	371.437563212	36000.9129334	65864255.8838	0
2950000.0	21616.0	4201526.2397	0.15502211215	173977.587891	0.020695864805	2.06344747543	125559.061171	89546.8933105	1870.88478392	359.724959218	2927.4942735	65869007.6605	0
2975000.0	21730.0	4345576.54031	0.155804550708	173987.939453	0.0212526829273	2.05715370178	124800.323425	88934.5275879	1918.95944226	346.956332659	191066.727921	65873759.9478	0
3000000.0	21844.0	4493505.81749	0.156590449407	173995.861816	0.02182058779	2.05082464218	124038.982761	88321.6552734	1967.91289189	336.201790082	96803.8829875	65878512.7458	0
3025000.0	21959.0	4645378.05851	0.157384458387	174004.931641	0.0223978568101	2.04447293282	123277.446398	87709.1369629	2017.85814716	325.918315633	26289.4562806	65883266.0543	0
3050000.0	22074.0	4801273.79691	0.1581740212	174007.202148	0.022987009288	2.03825449944	122527.888646	87106.2011719	2068.72572583	314.648681126	326438.199541	65888019.8735	0
3075000.0	22189.0	4961277.28381	0.158954279437	174000.061035	0.0235886109294	2.03226327896	121798.211364	86518.2678223	2120.54962646	305.150941447	209763.83133	65892774.2033	0
3100000.0	22305.0	5125460.86687	0.159733817593	173991.381836	0.0242003879976	2.02641487122	121084.157953	85941.7724609	2173.39971851	297.331567131	169115.418439	65897529.0438	0
3125000.0	22422.0	5293892.66637	0.160520154765	173990.148926	0.0248212236329	2.02054905891	120375.341196	85369.708252	2227.2099297	287.365730546	28738.4202219	65902284.395	0
3150000.0	22538.0	5466667.6873	0.161295438446	173985.229492	0.0254558690358	2.01481723785	119681.358401	84810.0341797	2281.7335232	277.772690347	360805.583686	65907040.2569	0
3175000.0	22655.0	5643848.7693	0.16208768022	173987.353516	0.0260995693679	2.00885748863	118970.047876	84238.7695312	2337.0786316	270.952864715	79620.9836644	65911796.6295	0
3200000.0	22773.0	5825498.06515	0.162898940457	173995.861816	0.0267522300419	2.00264048576	118237.844669	83653.4057617	2393.22744426	262.195351366	128380.816102	65916553.5128	0
3225000.0	22890.0	6011710.87403	0.163709275585	173999.609375	0.0274188241747	1.99637317657	117500.444069	83066.1132812	2450.03918777	254.840163509	47013.4581073	65921310.9068	0
3250000.0	23009.0	6202535.67593	0.164542261229	174012.866211	0.028092355933	1.98988878727	116747.402453	82467.7612305	2507.72868719	247.863866108	897.351275819	65926068.8116	0
3275000.0	23127.0	6398071.42095	0.16536833936	174019.189453	0.0287804068648	1.9834805727	116000.676093	81875.4821777	2566.10028214	240.091090999	346076.564363	65930827.2271	0
3300000.0	23246.0	6598386.47068	0.166201792392	174027.246094	0.0294784003927	1.97705996037	115255.205175	81284.5458984	2625.30591091	234.638418687	116601.97698	65935586.1533	0
3325000.0	23366.0	6803550.65566	0.167039165416	174035.449219	0.0301865729853	1.97069203854	114516.862817	80699.0966797	2685.35267759	227.497289631	135141.174151	65940345.5903	0
3350000.0	23485.0	7013671.38021	0.167858331753	174032.226562	0.0309105744236	1.96460270882	113803.139574	80132.4829102	2746.14261295	221.509891158	51743.2716557	65945105.5381	0
3375000.0	23606.0	7228806.64707	0.168681963036	174030.249023	0.0316430123348	1.95862698555	113103.24039	79575.5004883	2807.88012581	215.80833745	849.984595587	65949865.9966	0
3400000.0	23726.0	7449069.08495	0.169486331195	174019.946289	0.032391249988	1.95292747021	112430.317699	79039.2333984	2870.36260724	209.395093257	386664.534863	65954626.9659	0
3425000.0	23847.0	7674529.9922	0.170298794661	174016.174316	0.0331491646648	1.94716453552	111758.009599	78504.3640137	2933.67174526	204.957480238	147060.631502	65959388.4459	0
3450000.0	23969.0	7905254.93352	0.171128691852	174018.554688	0.0339164289471	1.94116997719	111068.808175	77958.5510254	2997.79459512	199.060174239	138121.814888	65964150.4368	0
3475000.0	24090.0	8141347.31787	0.171956550705	174017.468262	0.0346987726516	1.93513691425	110377.149846	77412.7502441	3062.64640743	194.146517809	50673.7897807	65968912.9385	0
3500000.0	24213.0	8382854.99924	0.172807323006	174026.159668	0.0354878502549	1.9288738966	109669.688373	76856.1035156	3128.38933718	189.474929049	1237.89047696	65973675.951	0
3525000.0	24335.0	8629883.75174	0.173651571557	174030.419922	0.0362923638022	1.92266643047	108967.876294	76304.8950195	3194.90150378	184.173761559	471046.253528	65978439.4743	0
3550000.0	24458.0	8882502.56483	0.174504864813	174038.549805	0.0371068017557	1.91640341282	108264.295835	75752.9724121	3262.29045153	180.561011007	122721.89698	65983203.5085	0
3575000.0	24582.0	9140780.96377	0.175364488363	174049.633789	0.0379312768928	1.91013467312	107563.276897	75203.326416	3330.59246985	175.658831417	223721.637635	65987968.0534	0
3600000.0	24705.0	9404830.60667	0.17620928617	174054.077148	0.0387720756407	1.90406703949	106880.863437	74668.0053711	3399.74215318	171.585891556	117160.928518	65992733.1093	0
3625000.0	24830.0	9674704.32105	0.177063070073	174063.830566	0.0396204341087	1.89801347256	106204.099839	74136.706543	3469.90460594	167.700011445	34630.1403395	65997498.6759	0
3650000.0	24954.0	9950518.5524	0.177895600919	174064.855957	0.0404858437832	1.89225637913	105554.609142	73625.793457	3540.99402998	163.897558021	8555.14023608	66002264.7534	0
3675000.0	25080.0	10232329.6084	0.178732951075	174068.591309	0.0413593807025	1.88656246662	104914.833808	73121.8566895	3613.14713085	160.264375467	86955.7359899	66007031.3418	0
3700000.0	25205.0	10520257.8805	0.17955558889	174060.791016	0.0422505690949	1.88102161884	104287.328355	72627.947998	3686.25641017	156.083169156	304379.261638	66011798.441	0
3725000.0	25331.0	10814381.8277	0.180386641105	174054.6875	0.0431522639701	1.87539100647	103655.078792	72131.5673828	3760.20089216	152.680390892	167865.396408	66016566.051	0
3750000.0	25457.0	11114795.0869	0.181220269759	174049.951172	0.0440669573436	1.86969900131	103020.995295	71635.2172852	3834.89174678	149.388224715	60150.5663051	66021334.1719	0
3775000.0	25584.0	11421566.1915	0.182063820334	174050.476074	0.0449914150522	1.863899827	102382.096121	71136.3647461	3910.34486837	146.22939849	78.7927355983	66026102.8037	0
3800000.0	25711.0	11734786.1931	0.182906486526	174051.916504	0.0459290095023	1.85810434818	101746.973024	70641.2780762	3986.53839381	143.170785065	61419.9156955	66030871.9463	0
3825000.0	25839.0	12054524.2853	0.183755379296	174057.958984	0.0468764701509	1.85227060318	101112.997129	70147.6867676	4063.48480115	140.234180717	178830.048192	66035641.5998	0
3850000.0	25967.0	12380873.0728	0.184599448231	174064.233398	0.0478373112855	1.84651255608	100488.985726	69662.0117188	4141.16609972	136.853603887	253306.280586	66040411.7643	0
3875000.0	26095.0	12713926.7976	0.18543636859	174070.336914	0.0488117912028	1.84086692333	99878.0258533	69186.315918	4219.5818247	134.106929972	110541.344018	66045182.4396	0
3900000.0	26224.0	13053757.4799	0.186272506963	174079.553223	0.0497965957038	1.83529639244	99277.9159507	68718.7194824	4298.74132498	131.466741914	10900.3266097	66049953.6258	0
3925000.0	26353.0	13400462.1151	0.18709977646	174087.231445	0.0507954282511	1.82985198498	98691.544079	68261.5844727	4378.64543193	128.406154078	695596.120148	66054725.3229	0
3950000.0	26482.0	13754139.3195	0.187923143661	174092.248535	0.051808587159	1.82443547249	98109.4137917	67808.4655762	4459.29540439	125.928626707	462492.436171	66059497.5309	0
3975000.0	26612.0	14114864.6391	0.18875015413	174097.77832	0.0528325763298	1.81899619102	97527.7768083	67356.3415527	4540.69793611	124.019221844	409452.264464	66064270.2498	0
4000000.0	26743.0	14482713.7478	0.189579539983	174103.149414	0.0538674648851	1.81356334686	96948.8175397	66906.6223145	4622.82502332	121.248741405	97144.3861027	66069043.4796	0
4025000.0	26873.0	14857813.9925	0.190393030068	174100.427246	0.0549209362362	1.80830919743	96385.0116113	66468.4204102	4705.72447679	118.53999044	984144.12335	66073817.2203	0
4050000.0	27004.0	15240244.7117	0.19120612231	174096.069336	0.0559858599445	1.8031193018	95828.1548315	66035.369873	4789.36376806	116.821887855	99001.3165843	66078591.472	0
4075000.0	27136.0	15630085.2469	0.192019472678	174091.552734	0.0570617849007	1.79798519611	95278.2515686	65607.5073242	4873.72438571	114.729592775	290689.164579	66083366.2345	0
4100000.0	27268.0	16027435.8918	0.192828016496	174088.28125	0.0581513304496	1.7929135561	94736.9608353	65186.4501953	4958.73242383	112.272606385	210501.799071	66088141.5079	0
4125000.0	27400.0	16432392.5223	0.193630686162	174086.352539	0.0592545766267	1.7879242897	94206.1099019	64773.4313965	5044.39233338	110.30803736	39125.2902443	66092917.2922	0
4150000.0	27533.0	16845024.6739	0.194434009041	174089.0625	0.0603676853643	1.78296947479	93682.7111996	64366.1437988	5130.67001866	108.418647299	50762.4573959	66097693.5875	0
4175000.0	27666.0	17265429.6084	0.195231193021	174092.06543	0.0614947639406	1.77805137634	93165.9319323	63964.5507812	5217.59264272	106.182463784	550665.3026	66102470.3936	0
4200000.0	27799.0	17693705.9232	0.196023433618	174094.921875	0.0626360415481	1.7731461525	92653.417414	63567.0471191	5305.16652222	104.40368066	259684.595664	66107247.7107	0
4225000.0	27933.0	18129925.061	0.196818731355	174100.817871	0.0637874691165	1.76819992065	92141.2544585	63170.5993652	5393.33971756	102.691557786	48519.0485114	66112025.5387	0
4250000.0	28067.0	18574186.1797	0.197608907643	174106.225586	0.0649531721137	1.76329576969	91635.0838998	62779.1931152	5482.15368444	101.025042944	60483.5063685	66116803.8777	0
4275000.0	28202.0	19026560.9421	0.198401437393	174114.147949	0.0661290687276	1.75838410854	91131.3835884	62390.0939941	5571.55533374	99.4202808597	302988.540514	66121582.7276	0
4300000.0	28337.0	19487149.478	0.199188032792	174121.044922	0.0673193935654	1.75354909897	90635.9464869	62007.3791504	5661.64405648	97.4951404068	245048.932653	66126362.0884	0
4325000.0	28472.0	19956053.059	0.199967961676	174126.635742	0.0685243066982	1.74880933762	90150.0835796	61631.8725586	5752.46939436	95.9764319612	23004.574842	66131141.9601	0
4350000.0	28608.0	20433345.0774	0.200748372448	174133.691406	0.0697397190379	1.74412119389	89670.7189068	61261.151123	5843.93041652	94.5119050858	118855.450163	66135922.3428	0
4375000.0	28744.0	20919128.6486	0.201520587002	174138.598633	0.070969996159	1.73957002163	89203.7898637	60899.3774414	5936.06345997	92.7422336152	488895.744632	66140703.2365	0
4400000.0	28880.0	21413509.4346	0.202282764828	174140.50293	0.072215552791	1.73514008522	88748.3838464	60546.1975098	6028.84803236	91.3544039618	146261.280272	66145484.6411	0
4425000.0	29017.0	21916565.9722	0.203041647436	174141.430664	0.0734723580536	1.73073971272	88297.9285251	60197.1191406	6122.20225351	90.0153951231	23139.804004	66150266.5566	0
4450000.0	29154.0	22428407.4281	0.203790401653	174137.82959	0.0747449375922	1.72643852234	87856.668157	59855.0598145	6216.17613411	88.3853462218	706986.119775	66155048.983	0
4475000.0	29291.0	22949144.0331	0.204531392757	174131.164551	0.0760329567129	1.72221422195	87423.1782932	59519.0612793	6310.68473731	87.1158699375	268024.051102	66159831.9205	0
4500000.0	29429.0	23478850.1019	0.205275702385	174128.24707	0.0773307183408	1.71796059608	86990.5360445	59184.1918945	6405.56110582	85.8947708912	3965.67700536	66164615.3688	0
4525000.0	29567.0	24017625.3524	0.206016624739	174126.147461	0.0786426971899	1.71374261379	86562.9644541	58853.4240723	6500.8216912	84.7062099728	235605.487552	66169399.328	0
4550000.0	29706.0	24565537.735	0.206761814245	174127.783203	0.0799642148195	1.70951282978	86137.0714937	58524.1271973	6596.34728849	83.2632696241	376460.696095	66174183.7982	0
4575000.0	29844.0	25122718.3506	0.207497015406	174127.270508	0.0813046790427	1.70539629459	85721.099651	58202.1850586	6692.28454294	82.1421949555	32420.470561	66178968.7794	0
4600000.0	29984.0	25689203.1465	0.208244018483	174133.178711	0.0826499890536	1.70123422146	85304.3476607	57879.699707	6788.27539236	81.0794901807	185013.11492	66183754.2715	0
4625000.0	30123.0	26265125.1289	0.208978779678	174136.474609	0.0840144639369	1.69719552994	84898.4325827	57565.246582	6884.5923071	79.7456371482	464751.158154	66188540.2745	0
4650000.0	30263.0	26850555.001	0.209712201116	174142.163086	0.085388935986	1.69315218925	84495.4153489	57253.4667969	6980.99568944	78.7436142627	57432.1159568	66193326.7885	0
4675000.0	30403.0	27445596.2046	0.210438477046	174147.290039	0.0867782364367	1.68915843964	84098.5306806	56946.6369629	7077.55217345	77.7682077962	184425.810172	66198113.8135	0
4700000.0	30544.0	28050319.0783	0.211165527073	174154.418945	0.0881774758454	1.68516170979	83703.9041646	56641.8701172	7174.06558587	76.5599073606	482449.138644	66202901.3494	0
4725000.0	30684.0	28664861.2032	0.211880662749	174157.958984	0.0895965640666	1.68127024174	83318.355334	56344.0185547	7270.77740133	75.6402887651	42580.644522	66207689.3963	0
4750000.0	30826.0	29289259.8688	0.21260544344	174165.74707	0.0910207309062	1.67732989788	82931.3673819	56045.3735352	7367.19928402	74.7714104298	233589.31738	66212477.9542	0
4775000.0	30967.0	29923653.6871	0.213320269897	174169.506836	0.092464935733	1.67350399494	82553.3445959	55753.326416	7463.72791463	73.6531487533	446982.74357	66217267.023	0
4800000.0	31109.0	30568114.2945	0.214039569853	174174.353027	0.0939192832448	1.66969490051	82177.539412	55462.878418	7559.99385361	72.8350851668	20503.3411999	66222056.6029	0
4825000.0	31251.0	31222748.0367	0.214757161253	174177.319336	0.0953888811637	1.66596388817	81807.7173464	55176.5991211	7656.12269001	71.7866701534	1115515.77927	66226846.6937	0
4850000.0	31393.0	31887663.7882	0.215469086486	174177.758789	0.0968741369434	1.66231715679	81444.9036232	54895.4162598	7752.08635609	71.0161662065	414243.971546	66231637.2954	0
4875000.0	31536.0	32562937.3977	0.21617839352	174177.612305	0.0983701611403	1.65870893002	81086.6246942	54617.6879883	7847.64142483	70.2786922739	1958.81045118	66236428.4082	0
4900000.0	31679.0	33248680.9584	0.216879241869	174173.852539	0.0998823088594	1.65518760681	80735.7288131	54345.4345703	7942.97884862	69.5608148989	404560.279514	66241220.032	0
4925000.0	31823.0	33944970.1159	0.217580924485	174170.666504	0.101404599263	1.6516777277	80387.2889118	54075.1586914	8038.3888349	68.630781054	325705.539495	66246012.1667	0
4950000.0	31966.0	34651947.6043	0.218274143903	174165.588379	0.102946767583	1.64824020863	80045.3027701	53809.8571777	8134.30180675	67.7102062767	1858822.60798	66250804.8124	0
4975000.0	32110.0	35369679.7193	0.218973235099	174163.659668	0.104498147266	1.644775033	79703.0104049	53544.6044922	8230.21149293	67.2882951542	583683.998264	66255597.9691	0
5000000.0	32255.0	36098230.6136	0.21967967222	174164.794922	0.106058476376	1.64128160477	79360.069583	53279.083252	8326.03610144	66.6570078289	1476468.98101	66260391.6367	0
5025000.0	32400.0	36837701.1513	0.22038808822	174166.491699	0.107633204607	1.63780772686	79019.2942433	53015.234375	8421.87594976	65.8139972909	106197.5363	66265185.8153	0
5050000.0	32545.0	37588192.7735	0.221099432922	174168.688965	0.109222353785	1.63435482979	78680.5041885	52752.8564453	8517.68732238	64.9917082454	828338.282176	66269980.505	0
5075000.0	32690.0	38349809.272	0.221808182087	174170.898438	0.110826309538	1.63093149662	78345.6004618	52493.6157227	8613.35918019	64.4113902096	157588.220377	66274775.7056	0
5100000.0	32836.0	39122617.0318	0.222519648111	174175.366211	0.112439549412	1.62749576569	78011.8816242	52235.5957031	8708.6138858	63.8566030379	175238.448161	66279571.4172	0
5125000.0	32982.0	39906720.7276	0.223228469328	174179.47998	0.114067704999	1.6240926981	77681.7192104	51980.4199219	8803.55900547	63.1005553985	750925.914059	66284367.6398	0
5150000.0	33128.0	40702225.2626	0.223935794776	174183.251953	0.115710805403	1.62072360516	77354.6671978	51727.6428223	8898.13229932	62.5778804493	96595.2868446	66289164.3734	0
5175000.0	33275.0	41509196.8703	0.224649253344	174188.818359	0.117363189929	1.61734414101	77027.3694564	51474.7741699	8991.95415524	62.0805970848	263691.539908	66293961.618	0
5200000.0	33422.0	42327740.5361	0.225363470316	174193.737793	0.119030533824	1.61399877071	76702.3289925	51223.5046387	9085.20900705	61.3891588116	691619.699399	66298759.3737	0
5225000.0	33569.0	43157961.7086	0.226079610908	174197.86377	0.120712938951	1.61068856716	76379.0989138	50973.4069824	9177.78832778	60.9236225746	68196.4388704	66303557.6404	0
5250000.0	33717.0	43999926.4323	0.226805173984	174203.320312	0.122404555441	1.60736894608	76054.5281882	50722.1343994	9269.32625017	60.4829675437	297162.918524	66308356.4181	0
5275000.0	33865.0	44853740.7851	0.227532496164	174207.507324	0.124111305922	1.60408830643	75731.8935865	50472.0214844	9359.97853435	59.8548165838	749281.079921	66313155.7068	0
5300000.0	34013.0	45719513.799	0.228257119267	174210.03418	0.125833656057	1.60085403919	75412.6679482	50224.3255615	9449.70151563	59.4451890013	99828.9341488	66317955.5066	0
5325000.0	34162.0	46597314.1957	0.228985622449	174212.792969	0.127565610455	1.59762358665	75094.0890018	49977.0782471	9538.05368586	59.0599542796	255130.776604	66322755.8174	0
5350000.0	34311.0	47487251.4822	0.229711694928	174213.427734	0.129313237267	1.59444081783	74778.9752764	49732.2814941	9625.24491427	58.49274059	881463.159154	66327556.6393	0
5375000.0	34460.0	48389436.3919	0.230435448578	174211.682129	0.13107668201	1.59130644798	74467.3455939	49489.9658203	9711.20710707	58.137814726	162797.616796	66332357.9722	0
5400000.0	34610.0	49303938.9152	0.231163598946	174209.484863	0.13284990564	1.58818042278	74156.4881116	49248.1719971	9795.47381119	57.8069034412	187905.352871	66337159.8162	0
5425000.0	34760.0	50230870.3032	0.231891006521	174205.285645	0.134638772579	1.58509624004	73848.5154874	49008.4350586	9878.26975122	57.2993749257	1082706.56874	66341962.1712	0
5450000.0	34910.0	51170338.2266	0.232622103333	174201.501465	0.13644208957	1.58202135563	73541.3039867	48769.3481445	9959.44701972	56.9997309899	290049.980557	66346765.0373	0
5475000.0	35061.0	52122402.6633	0.233364082785	174200.317383	0.138253642945	1.57891499996	73231.9476189	48528.7689209	10038.4804232	56.725147095	71018.9595622	66351568.4145	0
5500000.0	35212.0	53087167.0574	0.234107831383	174199.291992	0.14007986465	1.5758228302	72923.8521624	48289.2333984	10115.675035	56.2793135185	1477609.15211	66356372.3027	0
5525000.0	35363.0	54064735.2791	0.234852837902	174198.461914	0.141920798342	1.57274544239	72617.1516029	48050.8300781	10190.9565645	56.0362787575	581945.65883	66361176.702	0
5550000.0	35515.0	55055167.6746	0.235605989284	174199.731445	0.143770041177	1.56964242458	72309.0539177	47811.541748	10263.7890239	55.817872418	30889.9335215	66365981.6124	0
5575000.0	35667.0	56058567.8406	0.236361109705	174201.000977	0.145633995999	1.56655371189	72002.1774491	47573.2513428	10335.1559851	55.6109269808	358053.127644	66370787.0339	0
5600000.0	35820.0	57074994.2868	0.237125161351	174204.248047	0.147505998029	1.56343793869	71693.6977709	47333.9141846	10404.8255292	55.4235117271	1157616.83699	66375592.9664	0
5625000.0	35973.0	58104549.7273	0.237892036832	174207.373047	0.149392581079	1.5603364706	71386.2443688	47095.3918457	10473.2167002	55.0658859387	348018.198616	66380399.4101	0
5650000.0	36126.0	59147337.3504	0.238662123197	174210.302734	0.151293745148	1.55724918842	71079.7067091	46857.5897217	10540.2750492	54.8991274828	23467.0677822	66385206.3649	0
5675000.0	36280.0	60203414.5328	0.239442761058	174214.904785	0.153202854563	1.55413591862	70771.3037653	46618.4875488	10605.4685751	54.7515204909	521333.620623	66390013.8308	0
5700000.0	36434.0	61272885.3853	0.240226293491	174218.969727	0.155126705067	1.55104064941	70463.874771	46380.0964355	10669.2260212	54.4367446782	1079800.19546	66394821.8079	0
5725000.0	36588.0	62355855.1909	0.241011729996	174222.351074	0.157065514941	1.54796540737	70157.6971064	46142.6452637	10731.5167091	54.3091359901	364354.688646	66399630.2961	0
5750000.0	36743.0	63452383.2492	0.241805720822	174226.818848	0.159012473887	1.5448718071	69850.3026323	45904.385376	10791.7654759	54.2003624333	3689.208276	66404439.2955	0
5775000.0	36898.0	64562575.0332	0.242600919063	174230.371094	0.160974421306	1.54180061817	69544.5872736	45667.4102783	10850.4581027	54.1008730169	418337.023583	66409248.8061	0
5800000.0	37054.0	65686488.9461	0.243403963727	174234.814453	0.162944445037	1.53871393204	69238.0521038	45429.9346924	10906.9667939	54.0202620626	1133566.52931	66414058.8278	0
5825000.0	37210.0	66824230.1695	0.244207707065	174238.15918	0.164929311723	1.53565108776	68933.530575	45194.0124512	10961.8198361	53.7766134256	665074.447135	66418869.3608	0
5850000.0	37366.0	67975904.3372	0.24501196698	174240.270996	0.166929181432	1.5326128006	68631.1244685	44959.7290039	11014.9530601	53.7154975703	126425.157986	66423680.405	0
5875000.0	37523.0	69141569.8991	0.245823530019	174242.84668	0.168937098351	1.52956199646	68328.3597503	44725.302124	11065.7434808	53.6731433978	125316.320309	66428491.9604	0
5900000.0	37680.0	70321334.0264	0.246635643241	174243.798828	0.170960294781	1.52653670311	68027.570665	44492.3706055	11114.7665362	53.4696177203	2209031.43365	66433304.027	0
5925000.0	37837.0	71515305.7773	0.247447826157	174242.834473	0.172998916241	1.52353847027	67728.8623822	44261.0137939	11161.9476829	53.4462975522	1339884.24011	66438116.6049	0
5950000.0	37995.0	72723545.8706	0.248266140007	174241.650391	0.175045919605	1.52053415775	67429.9765523	44029.586792	11206.6587271	53.610619032	2323569.37534	66442929.6941	0
5975000.0	38154.0	73946114.0442	0.249089736239	174240.087891	0.177101232111	1.51752901077	67131.3347005	43798.3978271	11248.8313765	53.4553097721	143151.411438	66447743.2946	0
6000000.0	38312.0	75183167.6751	0.249904549816	174235.046387	0.179178794497	1.51459419727	66838.033986	43571.1456299	11289.6503691	53.3011995644	3555414.21209	66452557.4063	0
6025000.0	38471.0	76434763.452	0.250728098928	174231.787109	0.181263400009	1.5116353035	66543.472428	43343.1121826	11327.7813939	53.5027961206	573283.67695	66457372.0294	0
6050000.0	38631.0	77700951.7104	0.251560398099	174230.493164	0.183354801266	1.50865292549	66247.6827537	43114.3371582	11363.1837752	53.55572019	1241238.15399	66462187.1638	0
6075000.0	38791.0	78981831.4824	0.25239412536	174229.345703	0.185460070497	1.50568628311	65953.4091623	42886.7767334	11396.4317557	53.4519977716	989544.216361	66467002.8095	0
6100000.0	38951.0	80277503.2134	0.253230889925	174228.198242	0.187579600606	1.50272989273	65659.8901238	42659.8449707	11427.505799	53.5259226951	414964.511622	66471818.9666	0
6125000.0	39112.0	81588017.7102	0.254078007804	174228.637695	0.189705984667	1.499745965	65364.4343222	42431.5887451	11455.7209631	53.6195095926	51983.4810899	66476635.635	0
6150000.0	39273.0	82913475.7453	0.254927450013	174228.942871	0.191846513189	1.49677300453	65069.9408393	42204.1473389	11481.6859781	53.7236525231	142926.751213	66481452.8148	0
6175000.0	39435.0	84253926.8403	0.255785804368	174230.737305	0.193993750145	1.49377787113	64774.1795363	41975.9368896	11504.7031111	53.847772517	548154.500589	66486270.5059	0
6200000.0	39597.0	85609470.0686	0.256645090216	174232.299805	0.196154971491	1.49079811573	64479.9742821	41749.0142822	11525.4124236	53.982720644	1100572.45353	66491088.7085	0
6225000.0	39760.0	86980153.115	0.257511813128	174235.27832	0.198322668439	1.4878000021	64185.092476	41521.8139648	11543.0535183	54.1382249521	1746287.60885	66495907.4224	0
6250000.0	39923.0	88366074.7918	0.25837804313	174237.976074	0.20050421881	1.48482108116	63892.3766302	41296.4019775	11558.3736135	54.1386241068	914686.975924	66500726.6478	0
6275000.0	40086.0	89767333.7695	0.259243710983	174240.356445	0.202699666261	1.48186159134	63601.821232	41072.7874756	11571.5031561	54.3154596112	434212.2622	66505546.3847	0
6300000.0	40250.0	91183979.4517	0.260118199463	174243.701172	0.204901822144	1.47888076305	63310.0255288	40848.4558105	11581.7225069	54.5120950719	106362.055457	66510366.633	0
6325000.0	40414.0	92616112.3093	0.260993800322	174246.435547	0.207118078833	1.47591412067	63019.592277	40625.2838135	11589.8383143	54.7187760478	42012.692102	66515187.3927	0
6350000.0	40579.0	94063780.9556	0.261876852875	174250.024414	0.2093410003	1.47293043137	62728.4665693	40401.8066406	11595.094996	54.9451934112	301313.6982	66520008.664	0
6375000.0	40744.0	95527085.0272	0.262759431857	174252.929688	0.211577862501	1.46996688843	62439.4968703	40180.0811768	11598.2908995	55.1817046436	688658.077682	66524830.4468	0
6400000.0	40910.0	97006070.4949	0.263647781031	174256.665039	0.213820982026	1.46699225903	62150.5565387	39958.5876465	11598.6729389	55.4380890343	1153358.56858	66529652.7412	0
6425000.0	41076.0	98500836.9264	0.264533598125	174259.643555	0.216078042286	1.46404492855	61864.5539772	39739.4195557	11597.0557248	55.5372652353	1875194.76954	66534475.5471	0
6450000.0	41242.0	100011483.01	0.265416082644	174261.865234	0.218348999624	1.46112763882	61581.7758262	39522.7935791	11593.5037391	55.8133160124	1321606.97369	66539298.8646	0
6475000.0	41409.0	101538055.641	0.266303240518	174264.63623	0.220626272494	1.45820462704	61299.417417	39306.6589355	11587.2172284	56.109276664	848045.268536	66544122.6937	0
6500000.0	41576.0	103080656.383	0.267189404319	174266.235352	0.222917820793	1.45530319214	61019.2382741	39092.2912598	11579.0778296	56.4149890427	449291.076256	66548947.0344	0
6525000.0	41744.0	104639332.327	0.268080731576	174268.09082	0.22521574283	1.45239520073	60739.1913255	38878.2012939	11568.3019324	56.9094092736	4578756.1378	66553771.8868	0
6550000.0	41913.0	106214128.774	0.268976335133	174270.080566	0.227519776672	1.44948506355	60459.6652973	38664.6514893	11554.8842225	57.0862800183	29.007635905	66558597.2508	0
6575000.0	42081.0	107805200.045	0.269860544197	174269.299316	0.229845754802	1.44664204121	60185.7040955	38455.255127	11540.5570517	57.4317365048	181634.867627	66563423.1266	0
6600000.0	42251.0	109412535.625	0.270754116275	174269.98291	0.232169782976	1.44377267361	59910.6113027	38245.1873779	11522.8312109	57.807758648	492612.322079	66568249.514	0
6625000.0	42420.0	111036289.022	0.271634396499	174267.736816	0.234515580814	1.44097793102	59641.7338511	38039.7155762	11504.2736419	58.0124406549	3215854.81936	66573076.4131	0
6650000.0	42590.0	112676504.544	0.272515142856	174265.319824	0.236867344938	1.43819570541	59374.5533928	37835.5773926	11483.2366713	58.579834843	1506667.8066	66577903.824	0
6675000.0	42761.0	114333227.328	0.27340028265	174263.085938	0.239224842517	1.43541324139	59107.6757149	37631.7321777	11459.7465989	58.9968364924	2127629.48969	66582731.7467	0
6700000.0	42932.0	116006554.082	0.274284446753	174260.644531	0.241595436819	1.43264997005	58842.6155196	37429.3060303	11434.6974478	59.2510995855	1348027.3457	66587560.1812	0
6725000.0	43103.0	117696578.914	0.275166964513	174258.056641	0.243979215156	1.42990481853	58579.5538621	37228.503418	11408.1121843	59.6884572116	845630.966253	66592389.1274	0
6750000.0	43275.0	119403338.619	0.276054307544	174256.762695	0.246367766522	1.42714810371	58316.5239669	37027.9327393	11379.1646662	60.1472471752	436903.582229	66597218.5856	0
6775000.0	43447.0	121126925.249	0.27693866953	174255.444336	0.248769239988	1.42441034317	58056.0007545	36829.4250488	11348.7827818	60.6167803934	121092.600284	66602048.5555	0
6800000.0	43620.0	122867373.379	0.277826360379	174255.46875	0.251175137237	1.42166221142	57796.0476385	36631.6345215	11316.0962411	61.2849067269	6279623.61406	66606879.0374	0
6825000.0	43794.0	124624716.676	0.278716556105	174256.762695	0.253585458267	1.41890501976	57536.9503328	36434.7900391	11281.1749866	61.6218861312	268181.327656	66611710.0311	0
6850000.0	43967.0	126399104.188	0.279596407773	174256.616211	0.256016792264	1.41619336605	57282.3342509	36241.4764404	11245.8181981	61.9570621501	4168383.11276	66616541.5368	0
6875000.0	44141.0	128190573.318	0.280480631655	174257.434082	0.258453132119	1.41346800327	57027.788186	36048.4985352	11208.3322561	62.6714128632	1205284.36433	66621373.5545	0
6900000.0	44316.0	129999157.846	0.281368729467	174259.277344	0.26089392486	1.41073250771	56773.5599923	35856.0058594	11168.7146872	63.2299580931	1800904.46053	66626206.0841	0
6925000.0	44491.0	131824949.337	0.282252933865	174260.839844	0.263347406872	1.4080196619	56522.0046069	35665.6768799	11127.9175317	63.6182843451	2025413.35129	66631039.1256	0
6950000.0	44666.0	133668038.47	0.283132659436	174262.109375	0.265813549049	1.40533280373	56273.3410263	35477.633667	11085.9669276	64.1989551797	1386829.24902	66635872.6793	0
6975000.0	44842.0	135528456.205	0.284014154987	174264.367676	0.268283765763	1.40264773369	56025.7516991	35290.5334473	11041.6404193	64.9893190371	4223255.40293	66640706.7449	0
7000000.0	45019.0	137406232.327	0.284896705599	174267.602539	0.270757736871	1.39996790886	55779.5973565	35104.6600342	10994.6297959	65.6250517811	5212688.36317	66645541.3226	0
7025000.0	45196.0	139301457.431	0.285774068299	174270.361328	0.273244309938	1.39732182026	55536.4737278	34921.0693359	10945.9202894	66.0906777261	44277.483392	66650376.4125	0
7050000.0	45373.0	141214223.629	0.286646468463	174272.546387	0.275743746897	1.39470732212	55296.1787441	34739.6392822	10895.6559166	66.7578186847	151313.504927	66655212.0144	0
7075000.0	45551.0	143144563.078	0.287520525654	174275.390625	0.278247374808	1.3920955658	55056.8405581	34559.0637207	10843.0267192	67.4531899691	579460.34103	66660048.1286	0
7100000.0	45729.0	145092565.446	0.288388626733	174277.722168	0.280763517367	1.38951325417	54820.5504663	34380.8654785	10789.0405714	67.9738645507	3934311.83438	66664884.7549	0
7125000.0	45907.0	147058320.82	0.289250216267	174279.541016	0.283292174572	1.38695943356	54587.4121644	34205.1605225	10733.791022	68.7001352668	2941204.79381	66669721.8934	0
7150000.0	46086.0	149041857.94	0.29011165169	174281.982422	0.285824527964	1.38440525532	54355.6406175	34030.7250977	10676.4679545	69.6489784269	2987621.73107	66674559.5442	0
7175000.0	46266.0	151043203.804	0.290972177611	174285.119629	0.2883602574	1.38184988499	54125.4035749	33857.7178955	10617.2009308	70.4341490188	4114464.71413	66679397.7073	0
7200000.0	46446.0	153062447.721	0.29182537667	174287.573242	0.290908385068	1.37931871414	53898.4375244	33687.3779297	10556.9646255	71.0382902178	505572.06651	66684236.3826	0
7225000.0	46626.0	155099680.421	0.29267191205	174289.196777	0.293469260214	1.37681031227	53674.4673959	33519.5068359	10495.8715015	71.8539932943	34685.9649683	66689075.5703	0
7250000.0	46807.0	157154932.423	0.293517888633	174291.125488	0.296033947961	1.37430226803	53451.8565575	33352.9083252	10433.1385367	72.6983997528	286169.70869	66693915.2704	0
7275000.0	46988.0	159228291.424	0.294356230141	174292.236328	0.298610946629	1.37182331085	53232.4745622	33188.861084	10369.7102289	73.5589483984	1015387.99796	66698755.4829	0
7300000.0	47170.0	161319784.515	0.295193203813	174293.676758	0.301191263134	1.36935174465	53014.6916129	33026.1779785	10304.8231435	74.4485856361	2031975.60394	66703596.2078	0
7325000.0	47352.0	163429497.29	0.296021871565	174294.250488	0.303783512209	1.3669154644	52800.377029	32866.1590576	10239.4201577	75.1479526828	2065659.04634	66708437.4452	0
7350000.0	47534.0	165557514.765	0.296841422867	174293.994141	0.306387548335	1.36451888084	52589.619699	32708.7921143	10173.6056459	76.067701001	952498.212976	66713279.195	0
7375000.0	47717.0	167703862.976	0.297658870471	174293.798828	0.30899484409	1.36213517189	52380.5692518	32552.8015137	10106.5606351	77.0169316923	157843.573915	66718121.4574	0
7400000.0	47900.0	169868630.096	0.298467812608	174292.39502	0.31161447987	1.35978746414	52174.8054697	32399.3103027	10039.2850492	77.9816716361	277104.341885	66722964.2324	0
7425000.0	48084.0	172051842.327	0.299274223419	174290.942383	0.31423731707	1.35745048523	51970.7161998	32247.1923828	9970.97924011	78.9758602998	1259996.95147	66727807.5199	0
7450000.0	48268.0	174253586.326	0.300071886118	174288.317871	0.316872232361	1.35514736176	51769.9682634	32097.65625	9902.5619092	79.9857976651	2727794.26084	66732651.32	0
7475000.0	48453.0	176473886.172	0.300868243966	174286.450195	0.319509708788	1.35284745693	51570.5223355	31949.2706299	9833.25358061	81.025700217	4583582.09759	66737495.6328	0
7500000.0	48638.0	178712823.374	0.301657406034	174284.606934	0.322158331983	1.35056948662	51373.8545096	31803.1402588	9764.00151508	81.8600479443	296307.575583	66742340.4583	0
7525000.0	48823.0	180970479.753	0.302439465475	174282.824707	0.324818189256	1.34831428528	51180.055158	31659.3292236	9694.84331124	82.9290157709	269618.713852	66747185.7964	0
7550000.0	49009.0	183246876.543	0.303220088285	174281.970215	0.327480665874	1.34605836868	50987.4299283	31516.6687012	9625.01241853	84.0279660614	1483891.78585	66752031.6474	0
7575000.0	49195.0	185542098.52	0.303993139559	174280.969238	0.330154813128	1.34382593632	50797.5787411	31376.2664795	9555.4327116	84.9137839765	2638564.45431	66756878.0111	0
7600000.0	49381.0	187856227.596	0.304758693876	174279.833984	0.332840310875	1.34161627293	50610.4440098	31238.0493164	9486.14768978	86.040519483	952943.091173	66761724.8876	0
7625000.0	49568.0	190189280.403	0.305522327372	174279.638672	0.33552775858	1.33940827847	50424.5901416	31100.9765625	9416.39314549	87.1973133073	5.67712079682	66766572.2769	0
7650000.0	49755.0	192541335.438	0.306277786816	174279.418945	0.338226032909	1.3372246027	50241.4926817	30966.0522461	9347.04890045	88.3690659296	1028723.57546	66771420.1791	0
7675000.0	49943.0	194912405.655	0.307031035484	174280.224609	0.340925471392	1.33504390717	50059.7765756	30832.3059082	9277.34945819	89.5712653795	2979192.36884	66776268.5942	0
7700000.0	50131.0	197302565.384	0.30777559898	174280.981445	0.343635387253	1.33288788795	49880.9136057	30700.7476807	9208.1596433	90.547524039	1155448.86901	66781117.5223	0
7725000.0	50319.0	199711894.177	0.308511323766	174281.518555	0.346356187947	1.33075606823	49704.9029243	30571.4233398	9138.92391115	91.7824601211	5502.90543973	66785966.9633	0
7750000.0	50508.0	202140406.969	0.309243620156	174282.873535	0.349078618456	1.32862710953	49530.3357442	30443.3776855	9068.46615257	93.0584001477	1315997.83932	66790816.9173	0
7775000.0	50697.0	204588182.049	0.309967305771	174284.033203	0.351811846485	1.32652294636	49358.5436231	30317.5170898	8997.65255944	94.1107544655	2700962.62752	66795667.3844	0
7800000.0	50886.0	207055297.077	0.310682511265	174285.058594	0.354555784725	1.3244433403	49189.488116	30193.8232422	8926.57841274	95.4343901429	571867.97149	66800518.3645	0
7825000.0	51076.0	209541765.596	0.311394736459	174286.914062	0.357301207259	1.32236886024	49021.7771993	30071.3195801	8854.5295002	96.7998334851	462411.785632	66805369.8577	0
7850000.0	51266.0	212047664.303	0.312098622565	174288.647461	0.360057165381	1.32032072544	48856.7467284	29950.9185791	8782.39674282	98.1904196902	2704125.1351	66810221.8641	0
7875000.0	51457.0	214573007.213	0.312799282806	174291.040039	0.362814636901	1.31827926636	48693.1841611	29831.817627	8709.45535547	99.6233877558	6054210.30275	66815074.3836	0
7900000.0	51648.0	217117874.031	0.313490302312	174293.127441	0.365583167877	1.31626546383	48532.4602587	29714.9353027	8636.57925085	100.817584108	126413.193725	66819927.4163	0
7925000.0	51839.0	219682343.489	0.314172355915	174294.921875	0.36836246727	1.3142786026	48374.4919535	29600.1953125	8563.82397943	102.030603295	4729612.06174	66824780.9623	0
7950000.0	52030.0	222266493.172	0.314845353752	174296.411133	0.371152418666	1.31232047081	48219.2836543	29487.5549316	8491.26205691	103.532348108	1503864.23882	66829635.0215	0
7975000.0	52222.0	224870333.267	0.315514619026	174298.55957	0.373943359591	1.31037116051	48065.5364099	29376.1077881	8418.19650061	105.076885734	115492.943101	66834489.5941	0
8000000.0	52414.0	227493936.742	0.316175128123	174300.439453	0.376744399546	1.30845057964	47914.480807	29266.6717529	8345.44811213	106.646480545	2518471.80858	66839344.68	0
8025000.0	52607.0	230137310.706	0.316832066097	174303.00293	0.379545905162	1.3065392971	47764.8841161	29158.4228516	8272.32924666	108.25953141	6580801.5888	66844200.2792	0
8050000.0	52800.0	232800530.766	0.317479675658	174305.078125	0.382357800845	1.30466043949	47618.0414408	29052.2155762	8199.65294842	109.613487986	401848.690034	66849056.3919	0
8075000.0	52993.0	235483672.198	0.318118283945	174306.750488	0.385180057492	1.30281114578	47473.9010546	28948.0529785	8127.47236635	110.984896021	3760410.35719	66853913.0181	0
8100000.0	53186.0	238186810.79	0.318747209074	174307.946777	0.388012704207	1.300989151	47332.4652664	28845.9777832	8055.82988628	112.664494425	482224.425121	66858770.1578	0
8125000.0	53380.0	240909955.1	0.319371427558	174309.667969	0.390846020309	1.29917371273	47192.5353409	28745.1965332	7984.06499806	114.387357518	1385156.07819	66863627.811	0
8150000.0	53574.0	243653177.967	0.31998544988	174310.986328	0.393689406337	1.29738092422	47055.2594237	28646.5301514	7912.93942313	116.134325847	5663079.75219	66868485.9777	0
8175000.0	53769.0	246416486.392	0.320593800025	174312.805176	0.39653328713	1.29559147358	46919.5704685	28549.2736816	7841.81891185	117.622220031	182079.150763	66873344.6581	0
8200000.0	53963.0	249200023.034	0.321186954782	174313.256836	0.399397074943	1.29384160042	46787.6356061	28454.8858643	7772.10559508	119.106273646	3956477.34518	66878203.8521	0
8225000.0	54158.0	252003797.751	0.321773841146	174313.989258	0.402261997806	1.29209637642	46657.2683817	28361.895752	7702.47921626	120.935351446	260949.914285	66883063.5599	0
8250000.0	54353.0	254827885.496	0.322349844585	174314.172363	0.405137194321	1.29037594795	46529.6404912	28271.0632324	7633.66097455	122.787083567	2352749.54583	66887923.7813	0
8275000.0	54549.0	257672294.28	0.3229194359	174314.648438	0.4080128856	1.288662076	46403.684565	28181.6864014	7565.03397088	124.681505439	8046108.89889	66892784.5165	0
8300000.0	54745.0	260537096.612	0.323477870828	174314.538574	0.410898559494	1.28697347641	46280.5072968	28094.5037842	7497.27910581	126.276199113	1545642.5417	66897645.7655	0
8325000.0	54941.0	263422363.227	0.324025348472	174313.85498	0.413793954067	1.28531038761	46160.0566994	28009.4604492	7430.42476781	127.884619603	1511677.67127	66902507.5283	0
8350000.0	55137.0	266328165.536	0.324560717938	174312.597656	0.416699156631	1.28367400169	46042.5159259	27926.7028809	7364.50618055	129.505902742	7818034.14425	66907369.805	0
8375000.0	55333.0	269254579.998	0.32508168306	174310.583496	0.419614720158	1.28206539154	45928.1414568	27846.4630127	7299.5490627	131.4736761	1660995.52067	66912232.5956	0
8400000.0	55530.0	272201612.455	0.325594971203	174308.642578	0.422530778451	1.28046607971	45815.707973	27767.8924561	7234.95040346	133.482916065	1340920.61632	66917095.9002	0
8425000.0	55727.0	275169335.334	0.326098498711	174306.604004	0.4254563828	1.27888858318	45705.6552364	27691.192627	7171.36434403	135.511954119	7771928.74623	66921959.7188	0
8450000.0	55925.0	278157748.914	0.326598830294	174305.444336	0.428381317761	1.27731513977	45596.7100664	27615.447998	7108.20444769	137.235033429	1793230.41313	66926824.0513	0
8475000.0	56122.0	281166987.728	0.327090164439	174303.564453	0.431325170211	1.27577590942	45490.3562964	27541.5588379	7046.69164412	138.946238896	943880.939614	66931688.898	0
8500000.0	56320.0	284197049.041	0.327582160422	174302.648926	0.434268033132	1.27423918247	45384.5748947	27468.1427002	6985.58076942	141.046753927	2525278.45097	66936554.2587	0
8525000.0	56518.0	287248000.012	0.328069710934	174301.782227	0.437220121967	1.27272248268	45280.8580117	27396.3531494	6924.99226192	142.81586651	452249.859542	66941420.1335	0
8550000.0	56716.0	290319908.901	0.32855161149	174300.927734	0.440181407612	1.27122581005	45179.2102606	27326.1901855	6864.84634983	144.607161991	5285922.06663	66946286.5226	0
8575000.0	56914.0	293412844.082	0.329026515309	174300.061035	0.443152122898	1.26974904537	45079.3515546	27257.3608398	6805.14810736	146.790439632	24114.6977377	66951153.4258	0
8600000.0	57113.0	296526803.352	0.329497487548	174300.048828	0.446121965069	1.26827764511	44980.243488	27189.1021729	6745.36909074	149.028392969	5032251.39664	66956020.8433	0
8625000.0	57312.0	299661853.983	0.329959712275	174300.085449	0.449100858532	1.26682543755	44882.4632196	27121.7041016	6686.09317262	150.918960956	449637.30614	66960888.775	0
8650000.0	57511.0	302818061.827	0.330412225154	174300.183105	0.452088803286	1.26539218426	44785.7598105	27054.9133301	6627.35997996	152.83114578	2285998.73059	66965757.2211	0
8675000.0	57710.0	305995495.845	0.330854288417	174300.268555	0.455086090369	1.26397871971	44690.0312455	26988.6169434	6569.16436003	155.153929987	1849043.21756	66970626.1815	0
8700000.0	57910.0	309194155.531	0.331289790498	174301.025391	0.458082911791	1.26257169247	44594.7543891	26922.5585938	6511.0079238	157.138146755	626719.30089	66975495.6564	0
8725000.0	58109.0	312414178.398	0.331712536006	174301.049805	0.461098970845	1.26119863987	44501.6251483	26857.9101562	6453.98281337	159.118800011	5019175.99971	66980365.6456	0
8750000.0	58309.0	315655562.328	0.332130523061	174301.794434	0.464114069473	1.25983095169	44409.3397572	26793.9331055	6397.01463826	161.549286492	371941.164988	66985236.1493	0
8775000.0	58509.0	318918372.371	0.332541101408	174302.587891	0.467138044769	1.25848186016	44318.8406138	26731.3140869	6340.68158412	164.010467897	8166322.47662	66990107.1675	0
8800000.0	58710.0	322202601.837	0.332948705166	174304.162598	0.47016039025	1.257137537	44229.6193977	26669.8181152	6284.46509133	166.114142605	2726024.53341	66994978.7003	0
8825000.0	58910.0	325508385.076	0.333347268157	174305.004883	0.473201798741	1.25582587719	44143.1779509	26610.3942871	6229.40358338	168.212760203	49109.9300943	66999850.7476	0
8850000.0	59111.0	328835719.149	0.333742670268	174306.530762	0.476242101286	1.25452172756	44057.9307368	26551.953125	6174.50586068	170.781699575	6734114.28468	67004723.3096	0
8875000.0	59312.0	332184669.86	0.33413054683	174307.958984	0.479291309603	1.25323712826	43974.5174758	26494.8883057	6120.28680552	172.950882287	1900812.31713	67009596.3862	0
8900000.0	59513.0	335555302.475	0.334510335174	174309.350586	0.482349365484	1.25197088718	43892.9777677	26439.2608643	6066.75034286	175.139497539	325522.689355	67014469.9774	0
8925000.0	59714.0	338947679.332	0.334881174902	174310.72998	0.485415977892	1.25072205067	43813.2515015	26385.0402832	6013.91328532	177.346926711	3831919.16273	67019344.0834	0
8950000.0	59915.0	342361863.76	0.335242119344	174312.109375	0.48849103041	1.24948835373	43735.2994468	26332.2418213	5961.77858983	179.572843162	9179045.89352	67024218.7042	0
8975000.0	60116.0	345797917.773	0.33559240368	174313.452148	0.491574464832	1.24827039242	43659.1778951	26280.8990479	5910.34243929	182.269358782	159877.887983	67029093.8397	0
9000000.0	60318.0	349255837.06	0.335934003444	174315.405273	0.4946567351	1.24705791473	43584.5062109	26230.8380127	5859.16993175	185.021626682	7738006.83965	67033969.4901	0
9025000.0	60520.0	352735686.198	0.336264463976	174317.199707	0.49774791114	1.24586391449	43511.8578148	26182.3822021	5808.72109583	187.339132194	3244083.77424	67038845.6554	0
9050000.0	60722.0	356237531.765	0.33658433868	174318.847656	0.500847934745	1.24468779564	43441.1665196	26135.4766846	5759.02278591	189.672878407	372905.785847	67043722.3356	0
9075000.0	60924.0	359761438.583	0.336894322931	174320.336914	0.503956805915	1.24352931976	43372.344454	26090.0512695	5710.06314716	192.02276511	1172335.34109	67048599.5307	0
9100000.0	61126.0	363307471.42	0.337194631453	174321.704102	0.507074466441	1.24238836765	43305.3572324	26046.0571289	5661.84297991	194.388283434	4432846.2843	67053477.2408	0
9125000.0	61328.0	366875693.598	0.337486025599	174322.900391	0.510200799908	1.24126446247	43240.1032325	26003.4118652	5614.3752138	197.255541074	2759444.3977	67058355.466	0
9150000.0	61531.0	370466096.888	0.337771232223	174324.707031	0.513325212523	1.24014675617	43176.0188346	25961.7553711	5567.23205646	199.684968814	343472.834412	67063234.2062	0
9175000.0	61733.0	374078820.884	0.338046295284	174325.671387	0.516468542628	1.23905730247	43114.1027963	25921.6644287	5521.26064985	202.099574077	919289.376179	67068113.4615	0
9200000.0	61936.0	377713841.724	0.338315939503	174327.050781	0.519615132362	1.23797392845	43053.2462085	25882.4554443	5475.67486409	205.057852214	7862164.6758	67072993.232	0
9225000.0	62139.0	381371248.693	0.338579071938	174328.601074	0.522759160958	1.23690509796	42993.8190428	25844.317627	5430.76358259	207.026340381	7222923.12318	67077873.5177	0
9250000.0	62341.0	385051174.973	0.338833279773	174329.077148	0.525932584424	1.23586583138	42936.4213702	25807.5897217	5387.1018967	209.47461418	11549015.0699	67082754.3186	0
9275000.0	62544.0	388753587.563	0.339084004358	174330.224609	0.529098208062	1.23483097553	42879.8612773	25771.5332031	5343.75016682	212.491179923	2495.03709718	67087635.6347	0
9300000.0	62747.0	392478551.758	0.339326974232	174331.115723	0.532272679266	1.23381531239	42824.9911108	25736.7401123	5301.17217908	215.529923771	12078898.4735	67092517.4662	0
9325000.0	62951.0	396226060.396	0.339563392311	174332.385254	0.535445578862	1.23280870914	42771.4464215	25703.0303955	5258.9623152	218.085738036	8265075.58965	67097399.813	0
9350000.0	63154.0	399996251.888	0.339789294059	174332.60498	0.538637861609	1.23183202744	42720.0993555	25670.8862305	5217.90200159	220.07777054	6900737.54925	67102282.6752	0
9375000.0	63357.0	403789191.924	0.340007448169	174332.543945	0.541838817298	1.23087370396	42670.3945605	25639.9688721	5177.44081249	223.1687177	2559627.10968	67107166.0528	0
9400000.0	63561.0	407604871.188	0.340219562797	174332.836914	0.545038084965	1.22992229462	42621.8486671	25610.0097656	5137.1467199	225.765774714	738758.298768	67112049.9458	0
9425000.0	63764.0	411443426.999	0.34042232684	174332.128906	0.54825656116	1.22899770737	42575.2396138	25581.4224243	5097.75388498	228.348791802	84738.7012938	67116934.3543	0
9450000.0	63968.0	415304848.423	0.340619523653	174331.762695	0.551472709049	1.22807848454	42529.6494686	25553.6834717	5058.51871633	230.980699206	1261196.09872	67121819.2784	0
9475000.0	64171.0	419189271.165	0.340808031891	174330.419922	0.554708007257	1.22718393803	42485.8678935	25527.230835	5020.16424281	233.597839136	3044676.97645	67126704.718	0
9500000.0	64375.0	423096682.572	0.340991703381	174329.406738	0.557940802537	1.22629344463	42442.9579247	25501.512146	4981.96929728	236.844373067	7532624.46474	67131590.6732	0
9525000.0	64579.0	427027141.933	0.341168746067	174328.088379	0.561181630474	1.22541606426	42401.281813	25476.7150879	4944.28751903	238.946978708	7599641.88764	67136477.144	0
9550000.0	64782.0	430980783.727	0.341338222292	174325.90332	0.564441026654	1.22455966473	42361.1570458	25453.0288696	4907.45109013	241.614649638	10160190.3928	67141364.1306	0
9575000.0	64986.0	434957590.38	0.341503306822	174324.536133	0.567697163206	1.22370362282	42321.716696	25429.9560547	4870.76075263	244.932497729	1829031.40611	67146251.6328	0
9600000.0	65190.0	438957618.363	0.341661287018	174323.376465	0.570960983168	1.22285854816	42283.5525796	25407.8887939	4834.56766607	247.673409674	708936.244714	67151139.6508	0
9625000.0	65394.0	442980932.292	0.341811251555	174322.253418	0.574233243242	1.22202694416	42246.9022856	25387.0269775	4798.86480983	250.430590297	55615.9499389	67156028.1846	0
9650000.0	65598.0	447027592.319	0.341953764582	174321.21582	0.577513710596	1.22120881081	42211.7278834	25367.3294067	4763.65051314	253.203741689	306933.857897	67160917.2343	0
9675000.0	65802.0	451097660.105	0.342088500379	174320.275879	0.580802268814	1.22040390968	42177.942947	25348.7136841	4728.91787797	255.992781863	1004026.47937	67165806.7997	0
9700000.0	66006.0	455191195.583	0.342216222223	174319.40918	0.584099150728	1.21961128712	42145.4571163	25331.1096191	4694.65497017	258.797755452	1844315.59836	67170696.8811	0
9725000.0	66210.0	459308259.334	0.342337165752	174318.688965	0.587403948884	1.21883189678	42114.2293026	25314.4577026	4660.86035516	262.259645754	12185112.8238	67175587.4784	0
9750000.0	66415.0	463448833.779	0.342452630616	174318.725586	0.590705836657	1.21805620193	42083.8539396	25298.5290527	4627.22264246	265.137118458	10961785.1971	67180478.5917	0
9775000.0	66619.0	467613052.094	0.342560787065	174318.261719	0.594026176259	1.21730077267	42054.8735239	25283.5662842	4594.34723909	267.340923377	4503408.65022	67185370.221	0
9800000.0	66823.0	471800974.106	0.34266307689	174317.956543	0.597354432102	1.21655702591	42026.9206343	25269.3603516	4561.93580791	270.207352472	5317963.66438	67190262.3664	0
9825000.0	67027.0	476012655.994	0.3427597136	174317.785645	0.600690254942	1.21582472324	41999.9089281	25255.8227539	4529.9569447	273.089623626	6058502.44114	67195155.0278	0
9850000.0	67231.0	480248154.348	0.34285096783	174317.822266	0.604033586569	1.21510362625	41973.7622963	25242.8924561	4498.42944344	276.66254767	7795004.57668	67200048.2053	0
9875000.0	67436.0	484507448.453	0.342938120754	174318.652344	0.607373425737	1.21438515186	41948.1610966	25230.3924561	4467.04289193	279.616732609	7364227.18813	67204941.899	0
9900000.0	67640.0	488790670.817	0.34301923042	174319.018555	0.610731833149	1.21368598938	41923.658951	25218.5882568	4436.38188252	281.858950873	7726700.37243	67209836.1089	0
9925000.0	67844.0	493097884.114	0.343093586595	174319.421387	0.614098389633	1.21300029755	41900.2405082	25207.56073	4406.14418135	284.79882171	8032546.61497	67214730.8351	0
9950000.0	68048.0	497429150.825	0.343161264696	174319.873047	0.617473386228	1.21232736111	41877.8853285	25197.3114014	4376.33840661	288.456689393	6895194.41245	67219626.0775	0
9975000.0	68253.0	501784453.754	0.34322335216	174321.020508	0.620845356025	1.21165943146	41856.3614456	25187.7334595	4346.67698582	291.466127212	7049254.9978	67224521.8362	0
10000000.0	68457.0	506163930.369	0.343278606707	174321.606445	0.62423653435	1.21101200581	41836.1380386	25179.0298462	4317.70486092	293.732477578	8015367.53057	67229418.1112	0
10025000.0	68661.0	510567640.649	0.343327864824	174322.265625	0.627635687124	1.21037685871	41816.9322445	25171.0586548	4289.14246766	296.724076087	7708670.15915	67234314.9026	0
10050000.0	68865.0	514995642.317	0.343371486776	174322.98584	0.631042465102	1.20975351334	41798.7503657	25163.8244629	4260.98889831	300.462534874	8404895.06039	67239212.2104	0
10075000.0	69070.0	519447916.456	0.343410058713	174324.438477	0.634445983451	1.20913469791	41781.3656857	25157.2387695	4232.96900244	303.523475925	9204688.67527	67244110.0347	0
10100000.0	69274.0	523924596.28	0.343442789805	174325.366211	0.637868070044	1.20853459835	41765.1786929	25151.4450073	4205.60432953	305.810248923	5961581.2969	67249008.3754	0
10125000.0	69478.0	528425739.076	0.343470464254	174326.416016	0.641297665425	1.20794558525	41749.9707347	25146.3653564	4178.63218842	308.850732226	5160219.03553	67253907.2326	0
10150000.0	69682.0	532951398.78	0.343493107746	174327.587891	0.644734478556	1.20736682415	41735.6938985	25141.9616699	4152.042728	311.903053526	4274623.28618	67258806.6064	0
10175000.0	69886.0	537501630.865	0.343511196556	174328.833008	0.648178742267	1.20679879189	41722.3498637	25138.2324219	4125.8353658	314.966517267	3343523.54581	67263706.4968	0
10200000.0	70090.0	542076488.227	0.343524476024	174330.236816	0.65162993269	1.20624005795	41709.9363329	25135.2035522	4099.99599046	318.041825176	2387845.78284	67268606.9038	0
10225000.0	70294.0	546676031.491	0.343531791424	174331.665039	0.655089039356	1.20569312572	41698.6154786	25132.9833984	4074.53317289	321.127201598	1445351.95087	67273507.8275	0
10250000.0	70498.0	551300320.175	0.343533001308	174333.056641	0.658556295093	1.20515835285	41688.3753899	25131.5612793	4049.446345	324.22190216	598564.933171	67278409.2678	0
10275000.0	70702.0	555949411.793	0.343528471319	174334.472656	0.662031234242	1.20463466644	41679.1841493	25130.9295654	4024.7172438	327.326945664	23619.3236935	67283311.2249	0
10300000.0	70906.0	560623366.855	0.343518567659	174335.864258	0.66551414784	1.20412194729	41670.9629678	25131.0165405	4000.34997878	330.441201908	466314.951836	67288213.6988	0
10325000.0	71110.0	565322243.565	0.343503544447	174337.280273	0.669004803058	1.20361983776	41663.7008675	25131.8130493	3976.33979852	333.564500531	1551827.36562	67293116.6894	0
10350000.0	71314.0	570046098.995	0.343483656186	174338.671875	0.672503141686	1.20312821865	41657.3225363	25133.2550049	3952.68203657	336.696581613	3116287.3645	67298020.1969	0
10375000.0	71518.0	574794992.774	0.34345927019	174340.087891	0.676009105518	1.20264673233	41651.8133816	25135.333252	3929.35916705	339.838301056	5139560.0104	67302924.2213	0
10400000.0	71722.0	579568979.731	0.343430753936	174341.491699	0.679522636347	1.20217466354	41647.0947899	25137.9852295	3906.36262697	342.149138282	10336431.6926	67307828.7626	0
10425000.0	71925.0	584368197.961	0.343398306286	174342.333984	0.68305520108	1.20171844959	41643.259303	25141.2002563	3883.91856069	345.261740053	7608035.01307	67312733.8208	0
10450000.0	72129.0	589192623.113	0.343362210562	174343.75	0.6865838659	1.2012655735	41640.0255213	25144.9050903	3861.56104858	349.280024868	13935490.3297	67317639.3961	0
10475000.0	72333.0	594042311.918	0.343322806294	174345.178223	0.690119923092	1.20082223415	41637.4880052	25149.0829468	3839.50928794	351.595984395	2744327.87142	67322545.4883	0
10500000.0	72536.0	598917400.05	0.343280348624	174346.032715	0.693674664944	1.20039379597	41635.6655571	25153.6819458	3817.97748142	354.736905576	928314.979885	67327452.0976	0
10525000.0	72740.0	603817865.049	0.343233491596	174347.424316	0.697225856129	1.19997036457	41634.5960576	25158.8912964	3796.52057146	357.927782026	41723.8065378	67332359.224	0
10550000.0	72943.0	608743849.598	0.343181649147	174348.168945	0.700796896126	1.19956469536	41634.5250716	25164.7399902	3775.56560737	361.086650597	1382745.44129	67337266.8676	0
10575000.0	73147.0	613695333.662	0.343125078433	174349.389648	0.704364094418	1.19916462898	41635.2105383	25171.1929321	3754.67271205	364.296519541	3793022.75757	67342175.0283	0
10600000.0	73350.0	618672457.925	0.343064457581	174349.926758	0.707951025106	1.19878041744	41636.7752139	25178.2058716	3734.26851978	366.570896111	12544680.5725	67347083.7062	0
10625000.0	73553.0	623675281.645	0.342999987243	174350.366211	0.711545872036	1.19840538502	41639.0558054	25185.7330322	3714.13017019	369.749447735	8520048.07458	67351992.9013	0
10650000.0	73756.0	628703864.484	0.342931952155	174350.732422	0.715148635209	1.19804012775	41642.0658562	25193.7576294	3694.24644141	372.937688105	4925211.53889	67356902.6137	0
10675000.0	73959.0	633758265.146	0.342860720925	174350.98877	0.71875914	1.19768333435	41645.6958956	25202.2125244	3674.61843721	376.135085857	1969168.01618	67361812.8435	0
10700000.0	74162.0	638838541.21	0.342786773803	174351.135254	0.722377328202	1.1973348856	41649.9424736	25211.0855103	3655.23919504	379.341865798	92532.1459241	67366723.5905	0
10725000.0	74365.0	643944751.037	0.342710422348	174351.159668	0.726003199816	1.19699382782	41654.7343467	25220.324707	3636.09389814	382.559073732	1317446.71816	67371634.855	0
10750000.0	74568.0	649076949.122	0.342631921701	174351.086426	0.729636172764	1.19665968418	41660.0230172	25229.8950195	3617.18788044	385.785984989	4310815.93256	67376546.6368	0
10775000.0	74771.0	654235192.807	0.342551722459	174350.878906	0.733276945539	1.19633293152	41665.8023887	25239.7750854	3598.51449745	389.022449984	8387435.16731	67381458.9361	0
10800000.0	74974.0	659419537.262	0.342470330371	174350.537109	0.736924819648	1.1960119009	41671.9847644	25249.9130249	3580.05936534	391.303748521	7679086.80583	67386371.7529	0
10825000.0	75176.0	664630121.252	0.342387132271	174349.450684	0.740592135116	1.19570314884	41678.7103306	25260.3378296	3562.01565353	394.510073436	3756141.41306	67391285.0872	0
10850000.0	75379.0	669866923.898	0.342300203268	174348.730469	0.744255608879	1.19539904594	41686.097469	25271.2692261	3544.00062392	397.768679736	817667.674164	67396198.939	0
10875000.0	75581.0	675130087.955	0.342210777585	174347.167969	0.747938989662	1.19510817528	41694.1526684	25282.6034546	3526.37869474	400.994257724	585146.128038	67401113.3084	0
10900000.0	75784.0	680419590.354	0.342118328962	174345.983887	0.751618412323	1.19482159615	41702.7971595	25294.3878174	3508.78274707	404.272368001	3564364.04666	67406028.1955	0
10925000.0	75986.0	685735573.24	0.342023336467	174344.384766	0.755317276344	1.19454789162	41712.117897	25306.5795898	3491.56594069	406.511465973	14070437.0312	67410943.6002	0
10950000.0	76188.0	691078093.704	0.341925581386	174342.907715	0.759023590945	1.19428145885	41722.0199382	25319.178772	3474.54424377	409.758824783	8510308.37917	67415859.5226	0
10975000.0	76390.0	696447208.785	0.341825597801	174341.61377	0.762737414334	1.19402301311	41732.4837439	25332.1502686	3457.71182735	413.016499027	3867520.76783	67420775.9627	0
11000000.0	76592.0	701842974.474	0.341723306146	174340.50293	0.766458571889	1.1937713623	41743.4863242	25345.4940796	3441.066742	416.284427802	601381.09252	67425692.9206	0
11025000.0	76794.0	707265445.166	0.341619239279	174339.562988	0.770187180024	1.19352626801	41754.9545704	25359.1537476	3424.5995448	419.563311952	1121645.55931	67430610.3963	0
11050000.0	76996.0	712714676.558	0.341513539534	174338.830566	0.773922889493	1.19328784943	41766.8792702	25373.1109619	3408.31593091	422.852275617	4971086.86772	67435528.3898	0
11075000.0	77198.0	718190723.464	0.341406571266	174338.256836	0.777665758505	1.19305562973	41779.2264324	25387.3458862	3392.20285503	426.152530394	10460004.4414	67440446.9011	0
11100000.0	77400.0	723693639.309	0.34129844801	174337.915039	0.781415670644	1.19282925129	41791.9280192	25401.7990112	3376.25862846	428.400980597	6767633.99076	67445365.9304	0
11125000.0	77601.0	729223561.987	0.341189893637	174337.207031	0.785184558481	1.19261229038	41804.9642055	25416.4108276	3360.64762346	431.670751626	2247419.3625	67450285.4775	0
11150000.0	77803.0	734780466.58	0.341077580662	174337.219238	0.788949255366	1.19240045547	41818.707834	25431.5750122	3345.035345	434.995381319	103994.850089	67455205.5427	0
11175000.0	78004.0	740364494.005	0.340963096468	174336.804199	0.792733510025	1.1922005415	41833.055282	25447.1084595	3329.74418845	437.198777669	23749866.9272	67460126.1258	0
11200000.0	78205.0	745975703.787	0.340845946929	174336.547852	0.796525622718	1.19200873375	41848.005987	25463.0599976	3314.61391378	441.586978968	8682459.43701	67465047.227	0
11225000.0	78407.0	751614068.077	0.340725694753	174336.938477	0.800313078798	1.19182062149	41863.5347634	25479.460144	3299.46906803	444.944593357	15902730.5071	67469968.8462	0
11250000.0	78608.0	757279728.801	0.340604089113	174336.950684	0.80412015086	1.19164299965	41879.504367	25496.0952759	3284.63864655	447.155010098	3262453.51266	67474890.9835	0
11275000.0	78809.0	762972740.787	0.340480746049	174337.109375	0.807934673503	1.19147181511	41895.9221987	25513.0233765	3269.95027948	450.480980015	27057.8461181	67479813.6389	0
11300000.0	79010.0	768693162.132	0.340356000855	174337.426758	0.811756530311	1.19130647182	41912.7179744	25530.1895142	3255.40623002	452.688986046	25760115.626	67484736.8125	0
11325000.0	79210.0	774441135.881	0.340230795064	174337.341309	0.815598235931	1.1911495924	41929.7870465	25547.4639893	3241.16173248	455.982088696	17022455.8861	67489660.5043	0
11350000.0	79411.0	780216632.253	0.340104026665	174337.939453	0.819435052108	1.1909942627	41947.2185187	25565.0115967	3226.89098778	460.478723276	16415139.4401	67494584.7143	0
11375000.0	79612.0	786019705.541	0.339976636203	174338.696289	0.823278969619	1.19084298611	41964.8853524	25582.6904297	3212.78184525	462.692083018	3404350.26753	67499509.4425	0
11400000.0	79812.0	791850499.246	0.339849809264	174339.0625	0.82714256132	1.19069826603	41982.6611235	25600.3540039	3199.02239627	466.006159248	15120.2476739	67504434.6891	0
11425000.0	80013.0	797708979.216	0.339722251426	174340.112305	0.831000856124	1.19055366516	42000.6667481	25618.1884766	3185.29039917	469.370599479	3235656.58897	67509360.454	0
11450000.0	80213.0	803595290.348	0.339594184406	174340.771484	0.834879116155	1.19041705132	42018.9335702	25636.1206055	3171.89594399	471.511285538	17448455.709	67514286.7372	0
11475000.0	80413.0	809509491.71	0.339463960993	174341.516113	0.838765234221	1.19028651714	42037.6778705	25654.3792725	3158.67572677	474.825105155	9462238.85511	67519213.5388	0
11500000.0	80613.0	815451640.245	0.339331998055	174342.358398	0.842658861075	1.19016158581	42056.8450764	25672.9217529	3145.62458255	478.142019712	3199785.58841	67524140.8588	0
11525000.0	80813.0	821421797.106	0.339198491784	174343.322754	0.846560054924	1.19004178047	42076.3933396	25691.708374	3132.74086892	481.46174494	74477.2144743	67529068.6973	0
11550000.0	81013.0	827420017.027	0.339063911906	174344.372559	0.850468990393	1.18992722034	42096.284871	25710.7116699	3120.0161171	484.784992526	4107764.01677	67533997.0543	0
11575000.0	81213.0	833446359.787	0.338928562367	174345.507812	0.85438543465	1.18981742859	42116.4502463	25729.876709	3107.44199325	486.89245153	16711451.7919	67538925.9297	0
11600000.0	81412.0	839500969.121	0.338793539771	174346.228027	0.858321785927	1.1897149086	42136.7854149	25749.0692139	3095.15981883	490.168393722	8509931.07123	67543855.3238	0
11625000.0	81612.0	845583814.336	0.338657503607	174347.558594	0.862253189553	1.18961346149	42157.4063732	25768.4844971	3082.87880117	494.733301512	31224703.4065	67548785.2363	0
11650000.0	81812.0	851694951.977	0.338521576644	174348.950195	0.866192043759	1.18951582909	42178.1860203	25787.9699707	3070.73417103	496.830059793	579948.926637	67553715.6675	0
11675000.0	82011.0	857834526.16	0.338386987261	174349.938965	0.87015068857	1.18942511082	42198.9938336	25807.3577881	3058.86575312	498.867096918	25508416.1622	67558646.6173	0
11700000.0	82210.0	864002594.078	0.338253104985	174351.000977	0.874116667546	1.18933749199	42219.8687877	25826.751709	3047.12684606	502.154586108	15711692.044	67563578.0858	0
11725000.0	82409.0	870199209.902	0.338120200839	174352.148438	0.878089980688	1.18925356865	42240.7950059	25846.1090088	3035.50964388	505.448273541	7602902.28396	67568510.073	0
11750000.0	82608.0	876424429.86	0.337988109225	174353.369141	0.882070627995	1.18917298317	42261.7665008	25865.4418945	3024.00977671	508.748562407	1734239.15927	67573442.5789	0
11775000.0	82807.0	882678315.422	0.337855032193	174354.638672	0.886059016921	1.18909919262	42283.0891342	25884.9700928	3012.62955326	512.0545091	1029185.67618	67578375.6036	0
11800000.0	83006.0	888960921.681	0.337721108157	174355.957031	0.890054972842	1.18903112411	42304.7281599	25904.6844482	3001.35806348	515.367752705	6607754.23054	67583309.1471	0
11825000.0	83205.0	895272309.758	0.337586529455	174357.299805	0.894058728591	1.18896877766	42326.6430023	25924.5483398	2990.20097265	518.686891573	14912977.7787	67588243.2094	0
11850000.0	83404.0	901612536.428	0.337451732171	174358.642578	0.898070225958	1.18891131878	42348.7803139	25944.5281982	2979.14750456	520.70193568	7054910.9221	67593177.7906	0
11875000.0	83602.0	907981751.373	0.33731774782	174359.545898	0.902102154214	1.18886101246	42370.9731306	25964.4378662	2968.32065875	523.979534998	1280006.81768	67598112.8907	0
11900000.0	83801.0	914379920.902	0.337183083736	174360.974121	0.906128552742	1.18881177902	42393.4070969	25984.5245361	2957.46496854	527.313678457	1604522.14027	67603048.5097	0
11925000.0	83999.0	920807194.791	0.337049989714	174361.938477	0.910175556783	1.18876814842	42415.7916986	26004.4769287	2946.83016178	529.270405192	25262338.2557	67607984.6476	0
11950000.0	84197.0	927263630.884	0.336917650249	174362.890625	0.914230244234	1.18872737885	42438.193077	26024.3896484	2936.28195526	532.564298826	15156197.5374	67612921.3046	0
11975000.0	84395.0	933749285.677	0.336786442285	174363.867188	0.918292498682	1.18868875504	42460.580809	26044.2382812	2925.8229046	535.866512567	6911050.93461	67617858.4806	0
12000000.0	84593.0	940264216.966	0.336656579474	174364.855957	0.922362145502	1.18865168095	42482.8908611	26063.9770508	2915.4459233	539.178240674	1191173.99858	67622796.1756	0
12025000.0	84791.0	946808482.776	0.33652846384	174365.844727	0.926439301111	1.18861567974	42505.0802883	26083.5723877	2905.14721211	542.499940233	1625202.69015	67627734.3898	0
12050000.0	84989.0	953382139.861	0.336402307357	174366.833496	0.930523849092	1.18858027458	42527.1003036	26102.9907227	2894.92302256	545.832218191	7662880.4234	67632673.1231	0
12075000.0	85187.0	959985226.34	0.336277189055	174367.858887	0.934613286518	1.18854594231	42549.0816293	26122.3480225	2884.77282344	547.789685842	16758878.4715	67637612.3755	0
12100000.0	85384.0	966617914.746	0.336152945076	174368.273926	0.938726356253	1.18851792812	42571.1025854	26141.6381836	2874.81603006	551.084082481	8323547.49175	67642552.1472	0
12125000.0	85582.0	973280169.811	0.336028039083	174369.189453	0.942834070884	1.18849086761	42593.3486798	26161.1022949	2864.80552898	554.4397095	2058078.6598	67647492.4381	0
12150000.0	85779.0	979972144.663	0.335904570934	174369.519043	0.94696279848	1.18846893311	42615.5328281	26180.4290771	2854.98347967	557.755506429	801609.174268	67652433.2482	0
12175000.0	85977.0	986693805.818	0.335780870908	174370.3125	0.951085938141	1.18844759464	42637.8820256	26199.8687744	2845.10138985	561.134279312	6230231.61198	67657374.5777	0
12200000.0	86174.0	993445307.285	0.335659169141	174370.532227	0.955230323598	1.18843114376	42660.0793458	26219.0948486	2835.39981967	563.044761856	20343343.2265	67662316.4265	0
12225000.0	86371.0	1000226708.16	0.335538629265	174370.678711	0.959382567089	1.18841719627	42682.2418207	26238.2293701	2825.75615147	566.387829417	11235394.0268	67667258.7946	0
12250000.0	86568.0	1007038067.82	0.33541954393	174370.751953	0.963542552199	1.18840527534	42704.3147774	26257.232666	2816.16692714	569.743570311	4138896.68403	67672201.6822	0
12275000.0	86765.0	1013879446.58	0.335302151374	174370.76416	0.967710278928	1.18839526176	42726.2606811	26276.0681152	2806.62873321	573.112611817	52708.8465147	67677145.0892	0
12300000.0	86962.0	1020750903.23	0.335186528492	174370.629883	0.971885921899	1.18838715553	42748.0550704	26294.7143555	2797.13820026	576.495492129	3471766.40476	67682089.0157	0
12325000.0	87159.0	1027652498.6	0.335073099998	174370.43457	0.976069422904	1.18838071823	42769.6630308	26313.1347656	2787.70118464	579.890991672	10239409.6531	67687033.4616	0
12350000.0	87356.0	1034584291.56	0.334961888269	174370.10498	0.980260549113	1.18837571144	42791.043883	26331.3018799	2778.30210864	581.821984881	17246242.6384	67691978.4272	0
12375000.0	87552.0	1041546436.81	0.334854011758	174369.177246	0.984472921118	1.18837380409	42812.0607345	26349.0631104	2769.06849368	585.185616375	9174004.6582	67696923.9123	0
12400000.0	87749.0	1048538901.27	0.334746231425	174368.603516	0.988680054434	1.18837416172	42833.2141651	26366.8731689	2759.75648074	588.61712736	2951490.78244	67701869.917	0
12425000.0	87945.0	1055561840.84	0.334640122389	174367.382812	0.992908608168	1.18838119507	42854.3151763	26384.5062256	2750.59658183	592.011559552	125494.977178	67706816.4413	0
12450000.0	88142.0	1062615222.9	0.334533893827	174366.52832	0.997131806798	1.18839049339	42875.5759718	26402.2064209	2741.36474687	595.473186905	4179504.06266	67711763.4853	0
12475000.0	88338.0	1069699204.18	0.334429625925	174364.990234	1.00137642585	1.18840432167	42896.6679203	26419.6655273	2732.27489165	597.37542385	28248810.6045	67716711.0491	0
12500000.0	88534.0	1076813846.38	0.334326249117	174363.549805	1.0056294268	1.1884213686	42917.769851	26437.0605469	2723.22414665	601.562013871	0.0	67721659.1325	0
